<?xml version="1.0" encoding="UTF-8" standalone="no"?>
<!-- Created with Inkscape (http://www.inkscape.org/) -->

<svg
   xmlns:dc="http://purl.org/dc/elements/1.1/"
   xmlns:cc="http://creativecommons.org/ns#"
   xmlns:rdf="http://www.w3.org/1999/02/22-rdf-syntax-ns#"
   xmlns:svg="http://www.w3.org/2000/svg"
   xmlns="http://www.w3.org/2000/svg"
   xmlns:xlink="http://www.w3.org/1999/xlink"
   xmlns:sodipodi="http://sodipodi.sourceforge.net/DTD/sodipodi-0.dtd"
   xmlns:inkscape="http://www.inkscape.org/namespaces/inkscape"
   width="33.599998cm"
   height="54.400002cm"
   id="svg2"
   version="1.1"
   inkscape:version="0.91 r13725"
   sodipodi:docname="lf_020.svg"
   inkscape:export-filename="/home/gee/Projets/GriseBouille/PNG/lf_020_orange_bloque_google.png"
   inkscape:export-xdpi="48.380951"
   inkscape:export-ydpi="48.380951">
  <defs
     id="defs4">
    <linearGradient
       id="linearGradient7437">
      <stop
         id="stop7439"
         offset="0"
         style="stop-color:#ff0000;stop-opacity:0;" />
      <stop
         style="stop-color:#ff006c;stop-opacity:0;"
         offset="0.87982661"
         id="stop7441" />
      <stop
         style="stop-color:#ff00da;stop-opacity:1;"
         offset="0.90142465"
         id="stop7443" />
      <stop
         id="stop7445"
         offset="0.92167777"
         style="stop-color:#000dff;stop-opacity:1;" />
      <stop
         style="stop-color:#00ff20;stop-opacity:1;"
         offset="0.94746888"
         id="stop7447" />
      <stop
         style="stop-color:#fff600;stop-opacity:1;"
         offset="0.96267748"
         id="stop7449" />
      <stop
         id="stop7451"
         offset="1"
         style="stop-color:#ff2200;stop-opacity:1;" />
    </linearGradient>
    <linearGradient
       id="linearGradient13842">
      <stop
         style="stop-color:#ff0000;stop-opacity:0;"
         offset="0"
         id="stop13844" />
      <stop
         id="stop13858"
         offset="0.87982661"
         style="stop-color:#ff006c;stop-opacity:0;" />
      <stop
         id="stop13854"
         offset="0.90142465"
         style="stop-color:#ff1000;stop-opacity:1;" />
      <stop
         style="stop-color:#ffed00;stop-opacity:1;"
         offset="0.92167777"
         id="stop13856" />
      <stop
         id="stop13852"
         offset="0.94746888"
         style="stop-color:#00ff20;stop-opacity:1;" />
      <stop
         id="stop13850"
         offset="0.97215229"
         style="stop-color:#001dff;stop-opacity:1;" />
      <stop
         style="stop-color:#ff00d4;stop-opacity:1;"
         offset="1"
         id="stop13846" />
    </linearGradient>
    <linearGradient
       inkscape:collect="always"
       id="linearGradient4003">
      <stop
         style="stop-color:#1f4673;stop-opacity:1;"
         offset="0"
         id="stop4005" />
      <stop
         style="stop-color:#1f4673;stop-opacity:0;"
         offset="1"
         id="stop4007" />
    </linearGradient>
    <linearGradient
       inkscape:collect="always"
       xlink:href="#linearGradient4003"
       id="linearGradient4009"
       x1="28.0625"
       y1="304.21246"
       x2="1334.0938"
       y2="304.21246"
       gradientUnits="userSpaceOnUse" />
    <radialGradient
       inkscape:collect="always"
       xlink:href="#linearGradient7437"
       id="radialGradient14145"
       gradientUnits="userSpaceOnUse"
       gradientTransform="matrix(0.96409119,0,0,1.070162,2356.3061,-13414.58)"
       cx="-1185.7579"
       cy="9975.0508"
       fx="-1185.7579"
       fy="9975.0508"
       r="299.58325" />
    <radialGradient
       inkscape:collect="always"
       xlink:href="#linearGradient13842"
       id="radialGradient14147"
       gradientUnits="userSpaceOnUse"
       gradientTransform="matrix(1.2768052,0,0,1.4172813,2727.1092,-16877.112)"
       cx="-1185.7579"
       cy="9975.0508"
       fx="-1185.7579"
       fy="9975.0508"
       r="299.58325" />
  </defs>
  <sodipodi:namedview
     id="base"
     pagecolor="#ffffff"
     bordercolor="#666666"
     borderopacity="1.0"
     inkscape:pageopacity="0.0"
     inkscape:pageshadow="2"
     inkscape:zoom="0.4300776"
     inkscape:cx="595.27556"
     inkscape:cy="963.77955"
     inkscape:document-units="px"
     inkscape:current-layer="layer1"
     showgrid="false"
     units="cm"
     inkscape:window-width="1920"
     inkscape:window-height="1029"
     inkscape:window-x="0"
     inkscape:window-y="25"
     inkscape:window-maximized="1"
     showguides="true"
     inkscape:guide-bbox="true"
     inkscape:snap-global="false"
     fit-margin-top="0"
     fit-margin-left="0"
     fit-margin-right="0"
     fit-margin-bottom="0">
    <sodipodi:guide
       orientation="1,0"
       position="0,-7.5683602e-06"
       id="guide5127" />
    <sodipodi:guide
       orientation="1,0"
       position="1488.189,-7.5683602e-06"
       id="guide5129" />
  </sodipodi:namedview>
  <metadata
     id="metadata7">
    <rdf:RDF>
      <cc:Work
         rdf:about="">
        <dc:format>image/svg+xml</dc:format>
        <dc:type
           rdf:resource="http://purl.org/dc/dcmitype/StillImage" />
        <dc:title />
      </cc:Work>
    </rdf:RDF>
  </metadata>
  <g
     inkscape:label="Calque 1"
     inkscape:groupmode="layer"
     id="layer1"
     transform="translate(0,875.19809)">
    <rect
       style="color:#000000;clip-rule:nonzero;display:inline;overflow:visible;visibility:visible;opacity:1;isolation:auto;mix-blend-mode:normal;color-interpolation:sRGB;color-interpolation-filters:linearRGB;solid-color:#000000;solid-opacity:1;fill:#ffffff;fill-opacity:1;fill-rule:nonzero;stroke:none;stroke-width:5;stroke-linecap:butt;stroke-linejoin:miter;stroke-miterlimit:4;stroke-dasharray:none;stroke-dashoffset:0;stroke-opacity:1;marker:none;color-rendering:auto;image-rendering:auto;shape-rendering:auto;text-rendering:auto;enable-background:accumulate"
       id="rect5376"
       width="1190.5511"
       height="1927.5591"
       x="0"
       y="-875.19806" />
    <flowRoot
       xml:space="preserve"
       id="flowRoot5055"
       style="font-style:normal;font-variant:normal;font-weight:normal;font-stretch:normal;font-size:36px;line-height:100%;font-family:Lavi;-inkscape-font-specification:Lavi;letter-spacing:0px;word-spacing:0px;fill:#000000;fill-opacity:1;stroke:none"
       transform="translate(0,-12643.406)"><flowRegion
         id="flowRegion5057"><rect
           id="rect5059"
           width="181.99875"
           height="96.317299"
           x="311.69901"
           y="2270.3835" /></flowRegion><flowPara
         id="flowPara5061" /></flowRoot>    <text
       xml:space="preserve"
       style="font-style:normal;font-variant:normal;font-weight:normal;font-stretch:normal;font-size:36px;line-height:100%;font-family:Lavi;-inkscape-font-specification:Lavi;letter-spacing:0px;word-spacing:0px;fill:#000000;fill-opacity:1;stroke:none"
       x="0"
       y="-9770.667"
       id="text5123"
       sodipodi:linespacing="100%"><tspan
         sodipodi:role="line"
         id="tspan5125"
         x="0"
         y="-9770.667" /></text>
    <flowRoot
       xml:space="preserve"
       id="flowRoot5261"
       style="font-style:normal;font-variant:normal;font-weight:normal;font-stretch:normal;font-size:36px;line-height:100%;font-family:Lavi;-inkscape-font-specification:Lavi;letter-spacing:0px;word-spacing:0px;fill:#000000;fill-opacity:1;stroke:none"
       transform="translate(0,-10506.791)"><flowRegion
         id="flowRegion5263"><rect
           id="rect5265"
           width="2079.2454"
           height="1074.2245"
           x="-295.56876"
           y="3758.8203" /></flowRegion><flowPara
         id="flowPara5267" /></flowRoot>    <flowRoot
       xml:space="preserve"
       id="flowRoot5313"
       style="font-style:normal;font-variant:normal;font-weight:normal;font-stretch:normal;font-size:36px;line-height:100%;font-family:Lavi;-inkscape-font-specification:Lavi;letter-spacing:0px;word-spacing:0px;fill:#000000;fill-opacity:1;stroke:none"
       transform="translate(0,-12643.406)"><flowRegion
         id="flowRegion5315"><rect
           id="rect5317"
           width="806.36041"
           height="306.79706"
           x="594.58899"
           y="2822.449" /></flowRegion><flowPara
         id="flowPara5319" /></flowRoot>    <flowRoot
       xml:space="preserve"
       id="flowRoot4041"
       style="font-style:normal;font-variant:normal;font-weight:normal;font-stretch:normal;font-size:36px;line-height:100%;font-family:Lavi;-inkscape-font-specification:Lavi;letter-spacing:0px;word-spacing:0px;fill:#000000;fill-opacity:1;stroke:none"
       transform="translate(0,-12643.406)"><flowRegion
         id="flowRegion4043"><rect
           id="rect4045"
           width="432.6763"
           height="80.596565"
           x="116.65292"
           y="6419.2017" /></flowRegion><flowPara
         id="flowPara4047" /></flowRoot>    <flowRoot
       transform="translate(31.774093,-2367.2102)"
       style="font-style:normal;font-variant:normal;font-weight:normal;font-stretch:normal;font-size:48px;line-height:100%;font-family:Lavi;-inkscape-font-specification:Lavi;text-align:justify;letter-spacing:0px;word-spacing:0px;text-anchor:start;fill:#36731f;fill-opacity:1;stroke:none"
       id="flowRoot4545-1"
       xml:space="preserve"><flowRegion
         id="flowRegion4547-5"><rect
           style="font-size:48px;text-align:justify;text-anchor:start;fill:#36731f;fill-opacity:1"
           y="216.75438"
           x="28.048466"
           height="222.58159"
           width="1363.8392"
           id="rect4549-4" /></flowRegion><flowPara
         id="flowPara4551-9" /></flowRoot>    <g
       id="g5351"
       transform="translate(-8.272862,-320.68558)">
      <text
         sodipodi:linespacing="100%"
         id="text2997"
         y="-439.89853"
         x="17.643682"
         style="font-style:normal;font-variant:normal;font-weight:normal;font-stretch:normal;font-size:108.03882599px;line-height:100%;font-family:Lavi;-inkscape-font-specification:Lavi;letter-spacing:0px;word-spacing:0px;fill:#000000;fill-opacity:1;stroke:none"
         xml:space="preserve"><tspan
           style="font-size:118.00093842px"
           y="-439.89853"
           x="17.643682"
           id="tspan2999"
           sodipodi:role="line">Orange bloque Google</tspan></text>
      <rect
         ry="23.126085"
         style="color:#000000;display:inline;overflow:visible;visibility:visible;fill:#eaf2fb;fill-opacity:1;fill-rule:nonzero;stroke:#1f4673;stroke-width:5.01299953;stroke-linecap:round;stroke-linejoin:round;stroke-miterlimit:4;stroke-dasharray:none;stroke-opacity:1;marker:none;enable-background:accumulate"
         id="rect4987"
         width="1112.7506"
         height="273.61148"
         x="44.499268"
         y="-373.25266"
         rx="23.126087" />
      <flowRoot
         xml:space="preserve"
         id="flowRoot4989"
         style="font-style:normal;font-variant:normal;font-weight:normal;font-stretch:normal;font-size:48px;line-height:100%;font-family:Lavi;-inkscape-font-specification:Lavi;text-align:justify;letter-spacing:0px;word-spacing:0px;text-anchor:start;fill:#1f4673;fill-opacity:1;stroke:none"
         transform="translate(35.573776,-570.56991)"><flowRegion
           id="flowRegion4991"><rect
             id="rect4993"
             width="1074.7124"
             height="299.2652"
             x="28.048466"
             y="216.75438"
             style="font-size:48px;text-align:justify;text-anchor:start;fill:#1f4673;fill-opacity:1" /></flowRegion><flowPara
           id="flowPara4995">   Le célèbre fournisseur d'accès à Internet a placé par erreur le non moins célèbre moteur de recherche sur sa liste noire des sites faisant l'apologie du terrorisme, le rendant indisponible pour ses abonnés.</flowPara></flowRoot>      <g
         id="g4997"
         transform="translate(167.13878,1538.3358)">
        <rect
           ry="23.126087"
           rx="23.126087"
           transform="translate(0,-2136.6154)"
           y="211.49538"
           x="-134.76451"
           height="68.000603"
           width="76.08149"
           id="rect4999"
           style="color:#000000;display:inline;overflow:visible;visibility:visible;fill:#eaf2fb;fill-opacity:1;fill-rule:nonzero;stroke:none;stroke-width:5.01300001;marker:none;enable-background:accumulate" />
        <g
           style="fill:#1f4673;fill-opacity:1"
           id="g5001"
           transform="matrix(3.0269484,0,0,3.0269484,-153.41007,-3220.0167)">
          <path
             style="color:#000000;display:inline;overflow:visible;visibility:visible;fill:#1f4673;fill-opacity:1;fill-rule:nonzero;stroke:none;stroke-width:3.27900004;marker:none;enable-background:accumulate"
             id="path5003"
             d="m 7.2408576,426.79541 c 0.2460433,3.06031 0.1976063,6.13983 0.1518976,9.20519 -0.1049836,4.02207 -0.1305305,8.04839 -0.2505047,12.06955 -0.019095,0.35096 -0.027567,0.70321 -0.057293,1.05288 -0.023724,0.27902 -0.045203,0.84312 -0.272057,1.07065 -0.2385307,0.23921 -0.6357266,-0.002 -0.7679965,-0.27738 -0.083356,-0.1737 0.013416,-0.40051 0.020125,-0.60077 0,0 0.046535,-0.002 0.046535,-0.002 l 0,0 c 0.021329,0.19897 0.1457363,0.42513 0.063986,0.59691 -0.008,0.0168 -0.6095032,0.37235 -0.7379405,0.27879 -0.2277819,-0.16592 -0.274292,-0.93395 -0.2890368,-1.09971 -0.031538,-0.35455 -0.038232,-0.71135 -0.05735,-1.06703 -0.087792,-4.04069 0.05617,-8.07515 0.1337228,-12.11171 0.051132,-3.02584 0.058439,-6.05365 0.1126514,-9.07863 0,0 1.9032588,-0.037 1.9032588,-0.037 z"
             inkscape:connector-curvature="0" />
          <path
             style="color:#000000;display:inline;overflow:visible;visibility:visible;fill:#1f4673;fill-opacity:1;fill-rule:nonzero;stroke:none;stroke-width:3.27900004;marker:none;enable-background:accumulate"
             id="path5005"
             d="m 6.2081344,426.40758 c 2.4194473,0.53358 4.9198776,0.60439 7.4091716,0.64424 4.187568,-0.0379 8.36764,-0.28019 12.547691,-0.47272 1.581233,0.0618 3.391234,-0.3406 4.956752,-0.0572 0.122608,0.0434 0.270003,0.0557 0.367823,0.13024 0.25505,0.19428 0.571493,0.3842 0.667562,0.65844 0.113187,0.32313 -0.353496,0.91778 -0.758859,0.73183 -0.198152,-0.0909 -0.338372,-0.24822 -0.507558,-0.37234 0.111527,-0.24951 0.106022,-0.12477 0.02527,-0.37391 0,0 0.05494,-0.0119 0.05494,-0.0119 l 0,0 c 0.0772,0.23821 -0.0056,0.15019 0.231212,0.27438 -0.361684,-0.17789 -0.705422,-0.33093 -0.744561,-0.26543 -0.348014,0.58235 0.02128,0.82554 0.625386,1.16855 -0.394528,0.11325 -0.823563,0.11871 -1.237025,0.14101 -1.177781,0.0635 -2.357571,0.0995 -3.535724,0.15762 -4.251048,0.18409 -8.501209,0.43822 -12.759714,0.45692 -2.747831,-0.069 -5.5913466,-0.14009 -8.1549237,-1.04857 0,0 0.8125588,-1.76111 0.8125588,-1.76111 z"
             inkscape:connector-curvature="0" />
          <path
             style="color:#000000;display:inline;overflow:visible;visibility:visible;fill:#1f4673;fill-opacity:1;fill-rule:nonzero;stroke:none;stroke-width:3.27900004;marker:none;enable-background:accumulate"
             id="path5007"
             d="m 32.20766,427.26044 c -0.02846,2.39741 -0.115701,4.79235 -0.155803,7.18976 -0.0659,3.34199 0.01858,6.68538 0.182922,10.02441 0.05267,1.17781 0.12445,2.35494 0.173904,3.53293 0.0057,0.13492 0.115151,0.40809 0.0085,0.40509 -0.13993,-0.004 -0.179422,-0.27494 -0.269133,-0.41242 -0.354295,0.0724 -0.708589,0.1448 -1.062884,0.21717 0.446053,-0.47488 0.239222,-0.16689 0.550971,-0.99255 0,0 0.04644,-0.004 0.04644,-0.004 l 0,0 c 0.442825,0.97325 0.247144,0.47063 0.58692,1.50791 -0.401744,0.25459 -0.755214,0.72305 -1.205232,0.76376 -0.216759,0.0197 -0.326715,-0.37962 -0.442528,-0.61471 -0.44427,-0.90187 -0.313515,-3.25841 -0.461594,-4.27806 -0.161011,-3.41755 -0.250787,-6.83919 -0.142284,-10.25804 0.07002,-2.44979 0.118693,-4.91031 0.34963,-7.34288 0,0 1.840127,0.26086 1.840127,0.26086 z"
             inkscape:connector-curvature="0" />
          <path
             style="color:#000000;display:inline;overflow:visible;visibility:visible;fill:#1f4673;fill-opacity:1;fill-rule:nonzero;stroke:none;stroke-width:3.27900004;marker:none;enable-background:accumulate"
             id="path5009"
             d="m 19.248638,439.51361 c -0.887194,0.78657 -2.019583,1.33698 -3.19766,1.51437 -0.291391,0.0439 -0.587872,0.0418 -0.881807,0.0626 -0.299964,-0.0454 -0.611564,-0.0418 -0.899892,-0.13608 -1.458731,-0.47737 -2.072509,-1.88298 -2.104667,-3.32166 -0.0087,-0.38865 0.05789,-0.77535 0.08684,-1.16303 0.337066,-1.92913 1.208935,-3.74612 2.713941,-5.03807 0.288885,-0.248 0.614059,-0.45028 0.92109,-0.67542 1.67998,-0.93849 3.625489,-1.62866 5.583626,-1.48299 0.388052,0.0289 0.767446,0.12921 1.151168,0.19382 0.361354,0.14746 0.744126,0.25063 1.084062,0.44238 1.387552,0.78262 2.208572,2.22031 2.442697,3.76575 0.05396,0.35623 0.04027,0.71945 0.06042,1.07918 -0.172569,2.51796 -1.2985,3.70392 -3.265881,5.09408 -1.726013,1.09092 -3.486919,1.65639 -5.512315,1.80313 -1.127908,-0.0493 -2.535235,-0.10978 -3.407033,-0.95796 -0.138249,-0.1345 -0.231747,-0.3084 -0.347621,-0.46259 -0.22617,-0.80051 0.03642,-1.01986 0.645912,-1.44922 0,0 0.04495,0.0207 0.04495,0.0207 l 0,0 c 0.139786,0.3294 0.260203,0.54249 0.544299,0.13568 0.244628,-0.0347 0.533531,0.1098 0.763622,0.17212 0.36553,0.099 0.617564,0.16643 1.00113,0.20864 0.20174,0.0222 0.405216,0.0238 0.607823,0.0358 1.558041,-0.0812 3.024349,-0.57829 4.360771,-1.3864 1.166567,-0.78184 2.244099,-1.65512 2.376417,-3.15174 0.02153,-1.50653 -0.288171,-2.67081 -1.781957,-3.30126 -0.250182,-0.0538 -0.495977,-0.13536 -0.750547,-0.16149 -1.533803,-0.15745 -3.072311,0.39447 -4.408408,1.08671 -0.230849,0.15588 -0.473543,0.2955 -0.692551,0.46762 -1.189345,0.93469 -1.87009,2.29561 -2.189342,3.7504 -0.09059,0.69864 -0.347416,2.06346 0.454316,2.51728 0.139004,0.0787 0.302246,0.10344 0.453369,0.15516 0.198031,0.003 0.396755,0.0259 0.594094,0.01 0.999569,-0.0853 1.93057,-0.52318 2.872021,-0.82983 0,0 0.677119,1.00315 0.677119,1.00315 z"
             inkscape:connector-curvature="0" />
          <path
             style="color:#000000;display:inline;overflow:visible;visibility:visible;fill:#1f4673;fill-opacity:1;fill-rule:nonzero;stroke:none;stroke-width:3.27900004;marker:none;enable-background:accumulate"
             id="path5011"
             d="m 16.578793,441.52341 c 0.174751,0.43509 0.587442,0.48358 1.046535,0.49858 0.909248,-0.0519 1.813727,-0.17012 2.713103,-0.29885 0.06479,-0.10299 0.286132,6.8e-4 0.382288,-0.0786 -0.135177,0.0125 -0.05948,-0.005 -0.231465,0.10489 -0.01775,0.0114 -0.0403,0.0527 -0.05171,0.036 -0.0204,-0.0298 0.0032,-0.0698 0.0047,-0.10465 0.0226,-0.31749 -0.07176,-0.65846 0.232926,-0.87759 0.349581,-0.1823 0.146716,-0.14213 0.622169,-0.0342 0,0 -0.0022,0.0416 -0.0022,0.0416 l 0,0 c 0.358396,0.10469 0.192077,0.11404 0.499618,0.0158 0.376533,0.16943 0.175496,0.70935 0.186549,1.00805 -0.120806,0.79384 -0.517356,1.19046 -1.42761,1.23731 -1.04037,0.11696 -2.086324,0.27325 -3.13804,0.21427 -1.193967,-0.22232 -1.919911,-0.60423 -2.077082,-1.75742 0,0 1.240214,-0.005 1.240214,-0.005 z"
             inkscape:connector-curvature="0" />
          <path
             style="color:#000000;display:inline;overflow:visible;visibility:visible;fill:#1f4673;fill-opacity:1;fill-rule:nonzero;stroke:none;stroke-width:3.27900004;marker:none;enable-background:accumulate"
             id="path5013"
             d="m 16.098653,442.90261 c 0.246143,0.48521 0.698179,0.65077 1.255034,0.73452 1.084697,0.0439 2.158119,-0.16032 3.216737,-0.34729 0.213352,-0.0506 0.43136,-0.0825 0.646323,-0.12664 0.05623,-0.0115 0.210967,-0.0678 0.169309,-0.0321 -0.07926,0.0679 -0.223248,0.0954 -0.251279,0.19028 -0.06004,0.20323 0.0058,0.42038 0.0088,0.63057 -0.131335,-0.40772 -0.07451,-0.76025 0.19405,-1.10609 0.270623,-0.10205 0.239971,-0.0133 0.250276,-0.16606 0,0 0.04647,-0.003 0.04647,-0.003 l 0,0 c 0.03211,0.16075 -0.0092,0.0676 0.230134,0.21947 0.08298,0.15647 0.129341,0.32805 0.211948,0.483 0.0093,0.0173 0.02113,-0.13859 0.05003,-0.0367 0.03456,0.25099 0.154344,0.50418 0.103687,0.75298 -0.07207,0.35397 -1.113998,0.44473 -1.390307,0.48607 -1.264525,0.19836 -2.546703,0.45695 -3.834482,0.27699 -0.219541,-0.0595 -0.448062,-0.0973 -0.658612,-0.17876 -0.807015,-0.31227 -1.364887,-0.98976 -1.431465,-1.76886 0,0 1.183394,-0.009 1.183394,-0.009 z"
             inkscape:connector-curvature="0" />
          <path
             style="color:#000000;display:inline;overflow:visible;visibility:visible;fill:#1f4673;fill-opacity:1;fill-rule:nonzero;stroke:none;stroke-width:3.27900004;marker:none;enable-background:accumulate"
             id="path5015"
             d="m 16.187784,444.60555 c 0.511909,0.43324 1.192029,0.54966 1.868616,0.61015 0.943808,0.0131 1.842837,-0.27335 2.73946,-0.50081 0.486021,-0.15445 0.822738,-0.005 1.243558,0.19316 0,0 0.01117,0.0404 0.01117,0.0404 l 0,0 c -0.203325,0.35165 -0.306984,0.67727 -0.75389,0.85457 -1.064225,0.51142 -2.192469,0.86617 -3.421832,0.79131 -1.199814,-0.13941 -2.421439,-0.44458 -2.994452,-1.4941 0,0 1.307366,-0.49469 1.307366,-0.49469 z"
             inkscape:connector-curvature="0" />
          <path
             style="color:#000000;display:inline;overflow:visible;visibility:visible;fill:#1f4673;fill-opacity:1;fill-rule:nonzero;stroke:none;stroke-width:3.27900004;marker:none;enable-background:accumulate"
             id="path5017"
             d="m 19.740445,432.56267 c 0.444759,0.21873 0.685026,0.66443 0.897512,1.08933 0.269662,0.588 0.392504,1.22054 0.445569,1.86097 0.02136,0.34627 0.0015,0.69288 -0.02471,1.03818 -0.02081,0.25545 -7.76e-4,0.0685 -0.638483,-0.0711 -0.0079,-0.002 0.0039,-0.0156 0.0056,-0.0235 0.01146,-0.051 0.0092,-0.0428 0.01926,-0.10121 0.0371,-0.21663 0.04094,-0.43523 0.0306,-0.65412 -0.05275,-0.51975 -0.249892,-1.00842 -0.452557,-1.48498 -0.162579,-0.36697 -0.34906,-0.72279 -0.547531,-1.07147 -0.128871,-0.2051 -0.173896,-0.42883 -0.04964,-0.6527 0.03164,-0.057 0.07933,-0.10345 0.119001,-0.15517 0.305492,-0.29817 0.699394,-0.46643 1.100797,-0.59177 0.459693,-0.1153 0.923321,-0.0535 1.298377,0.25206 0.07619,0.0621 0.139731,0.13823 0.209597,0.20734 0.323313,0.39693 0.537531,0.86682 0.740479,1.33308 0.181995,0.40817 0.265608,0.837 0.250798,1.28182 -0.03295,0.39169 -0.247939,0.71735 -0.441659,1.04653 -0.142748,0.23569 -0.264533,0.48495 -0.463664,0.67867 -0.158487,0.13133 -0.522732,0.15252 -0.571522,-0.10948 -0.0073,-0.0396 0.0033,-0.0806 0.0049,-0.12092 0.07744,-0.15037 0.03616,-0.0862 0.117327,-0.19653 0,0 0.01359,7.6e-4 0.01359,7.6e-4 l 0,0 c 0.07141,0.0616 0.02835,0.0494 0.134254,0.002 0.01021,-0.01 0.07413,-0.0593 0.07528,-0.0897 0.0031,-0.0807 -0.204442,-0.0524 -0.225642,0.006 0.140032,-0.13831 0.215706,-0.35142 0.331271,-0.51524 0.136738,-0.23237 0.303101,-0.46129 0.348707,-0.73222 0.02034,-0.34156 -0.05895,-0.66928 -0.194757,-0.98259 -0.169793,-0.39194 -0.347576,-0.78714 -0.604608,-1.13078 -0.257672,-0.28308 -0.437791,-0.36586 -0.824695,-0.28366 -0.284278,0.0844 -0.559225,0.20293 -0.794292,0.38731 -0.01021,0.005 -0.01992,0.019 -0.03049,0.015 -0.0024,-9.4e-4 -0.03983,-0.11667 -0.03876,-0.0708 4.17e-4,0.0181 0.0095,0.035 0.01615,0.0518 0.01021,0.0257 0.02295,0.0504 0.03443,0.0756 0.183661,0.37577 0.366186,0.75208 0.533722,1.13541 0.226703,0.53852 0.439602,1.08998 0.509596,1.67424 0.02091,0.25555 0.02125,0.5101 -0.0073,0.76527 -6.09e-4,0.01 -0.0088,0.18628 -0.01569,0.18637 -0.6068,0.007 -0.669658,0.1569 -0.644266,-0.11056 0.02289,-0.31187 0.03768,-0.62499 0.02318,-0.93765 -0.04227,-0.55976 -0.147815,-1.11263 -0.371889,-1.63067 -0.142927,-0.3035 -0.296152,-0.61677 -0.570387,-0.82435 0,0 0.252545,-0.54718 0.252545,-0.54718 z"
             inkscape:connector-curvature="0" />
          <path
             style="color:#000000;display:inline;overflow:visible;visibility:visible;fill:#1f4673;fill-opacity:1;fill-rule:nonzero;stroke:none;stroke-width:3.27900004;marker:none;enable-background:accumulate"
             id="path5019"
             d="m 20.514699,436.26103 c 0.284604,0.007 0.53394,-0.0885 0.779148,-0.22376 0.297232,-0.14994 0.473271,-0.44532 0.728536,-0.64278 0.100136,-0.0408 0.203451,-0.0134 0.307328,-0.01 0,0 0.01189,0.006 0.01189,0.006 l 0,0 c 0.05862,0.10196 0.125019,0.19045 0.103751,0.31556 -0.169573,0.37891 -0.537758,0.63096 -0.872111,0.85531 -0.345673,0.1789 -0.716261,0.32152 -1.11279,0.25592 0,0 0.05425,-0.55761 0.05425,-0.55761 z"
             inkscape:connector-curvature="0" />
          <path
             inkscape:connector-curvature="0"
             d="m 31.413951,448.28095 c -2.419447,0.53358 -4.919878,0.60439 -7.409172,0.64424 -4.187568,-0.0379 -8.36764,-0.28019 -12.547691,-0.47272 -10.022048,-0.85921 -8.2299705,2.50949 -0.145218,2.18129 4.251048,0.18409 8.501209,0.43822 12.759714,0.45692 2.747831,-0.069 5.591347,-0.14009 8.154924,-1.04857 L 31.41395,448.281 Z"
             id="path5021"
             style="color:#000000;display:inline;overflow:visible;visibility:visible;fill:#1f4673;fill-opacity:1;fill-rule:nonzero;stroke:none;stroke-width:3.27900004;marker:none;enable-background:accumulate"
             sodipodi:nodetypes="cccccccc" />
          <path
             inkscape:connector-curvature="0"
             d="m 16.170362,446.25482 c 0.511909,0.43324 1.192029,0.54965 1.868616,0.61015 0.943808,0.0131 1.842837,-0.27335 2.73946,-0.50081 0.486021,-0.15445 0.822738,-0.005 1.243558,0.19316 0,0 0.01117,0.0404 0.01117,0.0404 l 0,0 c -0.203325,0.35165 -0.306984,0.67726 -0.75389,0.85457 -1.064225,0.51141 -2.192469,0.86617 -3.421832,0.7913 -1.199814,-0.1394 -2.421439,-0.44457 -2.994452,-1.49409 0,0 1.307366,-0.49469 1.307366,-0.49469 z"
             id="path5023"
             style="color:#000000;display:inline;overflow:visible;visibility:visible;fill:#1f4673;fill-opacity:1;fill-rule:nonzero;stroke:none;stroke-width:3.27900004;marker:none;enable-background:accumulate" />
        </g>
      </g>
    </g>
    <g
       id="g5234"
       transform="translate(-19.181004,9809.7461)">
      <path
         inkscape:connector-curvature="0"
         d="m 433.38996,-9528.9495 c 1.43736,18.6491 1.11718,37.4042 1.25178,56.0971 0.31359,37.7418 0.81854,75.4822 -0.15133,113.2172 -0.0422,11.1011 -1.18634,22.1013 -2.85393,33.0532 0,0 -0.20614,-0.01 -0.20614,-0.01 l 0,0 c -1.17711,-10.9791 -2.27061,-21.9737 -2.4766,-33.0255 -1.28372,-37.7202 -1.25297,-75.4614 -1.48539,-113.1993 -0.0785,-18.6582 -0.39582,-37.3463 0.55932,-55.9871 0,0 5.36229,-0.1509 5.36229,-0.1509 z"
         id="path5025"
         style="color:#000000;clip-rule:nonzero;display:inline;overflow:visible;visibility:visible;opacity:1;isolation:auto;mix-blend-mode:normal;color-interpolation:sRGB;color-interpolation-filters:linearRGB;solid-color:#000000;solid-opacity:1;fill:#000000;fill-opacity:1;fill-rule:nonzero;stroke:none;stroke-width:5;stroke-linecap:butt;stroke-linejoin:miter;stroke-miterlimit:4;stroke-dasharray:none;stroke-dashoffset:0;stroke-opacity:1;marker:none;color-rendering:auto;image-rendering:auto;shape-rendering:auto;text-rendering:auto;enable-background:accumulate" />
      <path
         inkscape:connector-curvature="0"
         d="m 428.02934,-9531.1956 c 0.71307,-0.323 1.40735,-0.6912 2.13921,-0.969 5.81059,-2.2058 12.0137,-3.6089 18.03359,-5.055 10.7388,-2.5797 15.21478,-3.4822 26.59108,-5.961 50.59514,-10.3048 101.35926,-19.7664 152.05915,-29.5411 45.63656,-8.778 91.16136,-18.1543 136.97735,-25.9655 9.52101,-1.2909 19.01218,-3.4911 28.66937,-3.57 0.66993,-0.01 4.70908,0.036 5.19066,0.8562 0.22447,0.382 -0.19691,0.8639 -0.29536,1.2959 0,0 0.007,-0.2061 0.007,-0.2061 l 0,0 c 0.29824,0.4455 0.96169,0.8046 0.89474,1.3365 -0.13763,1.0934 -3.82931,2.5471 -4.79103,2.8758 -9.10629,3.1125 -18.86023,3.7142 -28.18866,5.8322 -45.67386,8.3435 -91.24828,17.2052 -136.81872,26.094 -50.67518,9.7365 -101.40512,19.175 -152.134,28.6267 -15.47624,2.9952 -30.92256,6.1406 -46.40983,9.0775 0,0 -1.92458,-4.7271 -1.92458,-4.7271 z"
         id="path5029"
         style="color:#000000;clip-rule:nonzero;display:inline;overflow:visible;visibility:visible;opacity:1;isolation:auto;mix-blend-mode:normal;color-interpolation:sRGB;color-interpolation-filters:linearRGB;solid-color:#000000;solid-opacity:1;fill:#000000;fill-opacity:1;fill-rule:nonzero;stroke:none;stroke-width:5;stroke-linecap:butt;stroke-linejoin:miter;stroke-miterlimit:4;stroke-dasharray:none;stroke-dashoffset:0;stroke-opacity:1;marker:none;color-rendering:auto;image-rendering:auto;shape-rendering:auto;text-rendering:auto;enable-background:accumulate" />
      <path
         inkscape:connector-curvature="0"
         d="m 805.95049,-9603.0456 c -0.0936,12.2641 -1.05393,24.4875 -2.08907,36.7007 -3.25129,31.7746 -6.38973,63.5565 -9.13005,95.3801 -1.88147,21.5932 -3.62661,43.1973 -5.41968,64.7978 0.20546,0.2087 0.41092,0.4173 0.61638,0.6259 0,0 -0.0819,0.1893 -0.0819,0.1893 l 0,0 c -0.63575,-0.1552 -1.2715,-0.3104 -1.90725,-0.4656 -0.69011,-1.1916 -1.6497,-2.2637 -2.07034,-3.575 -1.52098,-4.7412 -1.79485,-12.6607 -1.83839,-17.1868 -0.14488,-15.0621 1.41258,-30.0949 2.46785,-45.0969 2.76015,-31.8428 5.75129,-63.6636 9.29319,-95.4301 1.28795,-12.3809 1.9561,-24.9515 4.54342,-37.1394 0,0 5.61579,1.2 5.61579,1.2 z"
         id="path5033"
         style="color:#000000;clip-rule:nonzero;display:inline;overflow:visible;visibility:visible;opacity:1;isolation:auto;mix-blend-mode:normal;color-interpolation:sRGB;color-interpolation-filters:linearRGB;solid-color:#000000;solid-opacity:1;fill:#000000;fill-opacity:1;fill-rule:nonzero;stroke:none;stroke-width:5;stroke-linecap:butt;stroke-linejoin:miter;stroke-miterlimit:4;stroke-dasharray:none;stroke-dashoffset:0;stroke-opacity:1;marker:none;color-rendering:auto;image-rendering:auto;shape-rendering:auto;text-rendering:auto;enable-background:accumulate" />
      <path
         inkscape:connector-curvature="0"
         d="m 491.93072,-9440.3178 c 2.46386,9.8403 4.84757,20.1265 11.00438,28.4529 1.62613,2.1992 3.70377,4.0255 5.55566,6.0382 2.33447,1.4151 4.47952,3.2049 7.00338,4.245 13.17581,5.4305 28.68192,1.0317 41.06611,-4.31 3.82134,-1.6483 7.43787,-3.7358 11.15682,-5.6036 12.2698,-7.1333 23.29453,-16.1855 32.69227,-26.8134 3.39088,-3.8347 5.63263,-6.9389 8.67375,-10.9579 3.62886,-5.3221 2.02061,-2.792 4.88755,-7.5498 0,0 0.191,0.078 0.191,0.078 l 0,0 c -1.31572,5.5425 -0.55499,2.5366 -2.3342,9.0045 -0.84834,2.1222 -1.52652,4.3206 -2.54503,6.3666 -8.09081,16.253 -22.9219,27.6122 -38.14312,36.7285 -3.99918,1.9846 -7.88667,4.2122 -11.99755,5.9536 -14.67921,6.2183 -32.45194,10.4913 -47.71428,3.4847 -3.10673,-1.4262 -5.69858,-3.7775 -8.54788,-5.6662 -2.11512,-2.4755 -4.50488,-4.7406 -6.34536,-7.4265 -6.25812,-9.133 -9.14018,-20.6412 -9.59369,-31.5699 0,0 4.99019,-0.4544 4.99019,-0.4544 z"
         id="path5037"
         style="color:#000000;clip-rule:nonzero;display:inline;overflow:visible;visibility:visible;opacity:1;isolation:auto;mix-blend-mode:normal;color-interpolation:sRGB;color-interpolation-filters:linearRGB;solid-color:#000000;solid-opacity:1;fill:#000000;fill-opacity:1;fill-rule:nonzero;stroke:none;stroke-width:5;stroke-linecap:butt;stroke-linejoin:miter;stroke-miterlimit:4;stroke-dasharray:none;stroke-dashoffset:0;stroke-opacity:1;marker:none;color-rendering:auto;image-rendering:auto;shape-rendering:auto;text-rendering:auto;enable-background:accumulate" />
      <path
         inkscape:connector-curvature="0"
         d="m 651.62901,-9453.6351 c 2.52718,6.444 4.74174,13.1027 9.05523,18.6461 1.34325,1.7263 2.96448,3.217 4.44671,4.8255 1.81896,1.292 3.49572,2.8121 5.45688,3.8759 9.04172,4.9043 19.40015,4.0216 28.84366,0.89 2.71343,-0.8997 5.30004,-2.1444 7.95007,-3.2167 9.8722,-4.6711 18.78517,-11.0557 26.71982,-18.5313 3.20073,-3.0156 6.21153,-6.3265 9.21497,-9.5364 1.94035,-2.8426 4.89912,-4.614 6.76727,-7.4654 0,0 0.20566,0.015 0.20566,0.015 l 0,0 c 0.19854,0.692 0.59935,1.3562 0.59561,2.0761 -0.0203,3.9007 -1.29768,5.3761 -3.00905,8.9867 -1.26491,1.8724 -2.41623,3.8269 -3.79472,5.6173 -8.8189,11.4545 -20.95742,19.7489 -33.83303,26.016 -7.14462,2.8198 -10.55194,4.6387 -18.21799,5.7795 -8.99791,1.3389 -18.0365,0.1728 -25.99305,-4.4217 -2.38499,-1.3772 -4.40303,-3.3095 -6.60454,-4.9642 -1.72858,-1.9646 -3.62177,-3.7957 -5.18576,-5.8937 -4.73432,-6.3507 -8.28363,-14.4205 -8.07362,-22.4407 0,0 5.45588,-0.258 5.45588,-0.258 z"
         id="path5039"
         style="color:#000000;clip-rule:nonzero;display:inline;overflow:visible;visibility:visible;opacity:1;isolation:auto;mix-blend-mode:normal;color-interpolation:sRGB;color-interpolation-filters:linearRGB;solid-color:#000000;solid-opacity:1;fill:#000000;fill-opacity:1;fill-rule:nonzero;stroke:none;stroke-width:5;stroke-linecap:butt;stroke-linejoin:miter;stroke-miterlimit:4;stroke-dasharray:none;stroke-dashoffset:0;stroke-opacity:1;marker:none;color-rendering:auto;image-rendering:auto;shape-rendering:auto;text-rendering:auto;enable-background:accumulate" />
      <path
         inkscape:connector-curvature="0"
         d="m 498.28037,-9266.6411 c -4.42078,-8.4236 -3.45367,-18.6798 -0.43749,-27.434 1.04057,-3.0201 2.54215,-5.8612 3.81322,-8.7918 1.89428,-2.9571 3.54678,-6.0839 5.68282,-8.8714 9.41775,-12.29 23.01608,-21.6022 38.44089,-24.2572 3.90134,-0.6715 7.90176,-0.4978 11.85265,-0.7467 3.91792,0.5574 7.90501,0.7513 11.75375,1.6722 13.70013,3.278 28.45787,11.8369 35.97488,24.1038 1.69221,2.7615 2.61354,5.9268 3.92031,8.8901 0.3045,3.2063 1.18636,6.4097 0.91349,9.6188 -1.33543,15.706 -14.72781,27.3291 -27.00451,35.301 -3.53942,2.2983 -7.33908,4.1686 -11.00863,6.2529 -3.72252,1.6036 -7.36396,3.4105 -11.16757,4.8111 -10.73356,3.9523 -24.78353,7.2853 -36.11904,3.7412 -1.8747,-0.5862 -3.53087,-1.722 -5.2963,-2.583 -4.00166,-4.5979 -2.93116,-2.0319 -3.67182,-7.4894 0,0 0.1631,-0.1262 0.1631,-0.1262 l 0,0 c 3.87716,0.6311 1.8981,0.2399 5.93261,1.1964 3.76811,0.891 5.70645,1.5039 9.79569,1.6923 12.66574,0.5839 24.78095,-3.4778 36.09511,-8.8112 3.38648,-1.8948 6.88722,-3.5985 10.15946,-5.6845 9.49205,-6.0507 21.83514,-15.7601 23.74621,-27.7632 0.36616,-2.2997 -0.10131,-4.6562 -0.15197,-6.9843 -0.90219,-2.3395 -1.45994,-4.8428 -2.70656,-7.0183 -6.14363,-10.7212 -19.1181,-18.1811 -30.76948,-21.1481 -3.30839,-0.8424 -6.74462,-1.0633 -10.11693,-1.595 -9.05211,0.4074 -11.37524,-0.2108 -19.99485,3.0776 -12.72031,4.8527 -22.41992,14.5464 -29.51628,25.8902 -1.23143,2.5235 -2.64481,4.9661 -3.6943,7.5705 -2.94198,7.3007 -4.20108,15.506 -2.3672,23.2248 0,0 -4.22126,2.2614 -4.22126,2.2614 z"
         id="path5041"
         style="color:#000000;clip-rule:nonzero;display:inline;overflow:visible;visibility:visible;opacity:1;isolation:auto;mix-blend-mode:normal;color-interpolation:sRGB;color-interpolation-filters:linearRGB;solid-color:#000000;solid-opacity:1;fill:#000000;fill-opacity:1;fill-rule:nonzero;stroke:none;stroke-width:5;stroke-linecap:butt;stroke-linejoin:miter;stroke-miterlimit:4;stroke-dasharray:none;stroke-dashoffset:0;stroke-opacity:1;marker:none;color-rendering:auto;image-rendering:auto;shape-rendering:auto;text-rendering:auto;enable-background:accumulate" />
      <path
         inkscape:connector-curvature="0"
         d="m 656.42298,-9381.301 c 4.54125,4.557 7.73845,10.5663 8.12087,17.0871 0.0967,1.6481 -0.14135,3.2988 -0.21202,4.9482 -0.45552,1.6714 -0.72695,3.4042 -1.36656,5.0141 -2.83163,7.1271 -8.8365,12.4544 -15.72907,15.5474 -1.74127,0.7814 -3.60231,1.2625 -5.40347,1.8937 -4.02634,0.7819 -5.88805,1.4465 -9.93284,1.1397 -9.53813,-0.7233 0.663,-0.9333 -6.26823,-0.6589 0,0 -0.059,-0.1976 -0.059,-0.1976 l 0,0 c 3.31904,-1.9501 1.53391,-0.7846 5.27273,-3.6199 2.06716,-1.2549 6.0254,-2.7781 8.2023,-3.6746 7.82742,-3.5706 14.78516,-7.0326 17.17125,-15.9875 0.11339,-1.0974 0.33925,-2.189 0.34017,-3.2923 0.004,-4.7284 -2.03628,-9.2208 -4.96536,-12.8336 0,0 4.82919,-5.3658 4.82919,-5.3658 z"
         id="path5043"
         style="color:#000000;clip-rule:nonzero;display:inline;overflow:visible;visibility:visible;opacity:1;isolation:auto;mix-blend-mode:normal;color-interpolation:sRGB;color-interpolation-filters:linearRGB;solid-color:#000000;solid-opacity:1;fill:#000000;fill-opacity:1;fill-rule:nonzero;stroke:none;stroke-width:5;stroke-linecap:butt;stroke-linejoin:miter;stroke-miterlimit:4;stroke-dasharray:none;stroke-dashoffset:0;stroke-opacity:1;marker:none;color-rendering:auto;image-rendering:auto;shape-rendering:auto;text-rendering:auto;enable-background:accumulate" />
      <path
         inkscape:connector-curvature="0"
         d="m 433.58824,-9328.9174 c -8.67182,1.0651 -16.95751,3.9867 -25.1718,6.8247 -17.51959,6.4389 -34.52046,14.3824 -50.5287,24.0008 -3.97449,2.388 -7.83363,4.963 -11.75045,7.4446 -18.13836,12.4067 -35.64767,26.0331 -51.06663,41.7531 -2.03141,2.0711 -3.91245,4.2845 -5.86866,6.4268 -1.08239,1.5389 -4.43311,5.1345 -4.27919,7.8702 0.10285,1.8282 1.3458,-0.9636 1.89392,-1.0988 1.10845,-0.2736 2.28455,0.012 3.42475,-0.047 2.00272,-0.1026 4.00013,-0.2909 6.0002,-0.4363 17.00832,-1.9815 33.85017,-5.2845 50.94281,-6.5689 3.77807,-0.284 7.56796,-0.3792 11.35193,-0.5689 12.25342,-0.2297 24.55281,0.9541 36.14887,5.1036 4.62284,1.6543 6.14092,2.6009 10.29763,4.7586 2.15299,1.5523 4.76355,2.5378 6.87143,4.169 0.97645,0.7557 0.29906,0.8696 1.79136,1.7922 0.38543,-0.071 0.77086,-0.1423 1.15629,-0.2135 0,0 0.16475,0.124 0.16475,0.124 l 0,0 c -0.0572,0.5169 -0.11443,1.0338 -0.17165,1.5507 -0.26249,0.6729 -0.33142,1.4585 -0.78747,2.0185 -3.41579,4.1943 -9.62029,0.2638 -13.09466,-1.482 -3.40133,-1.7093 -5.23534,-2.7394 -8.93702,-4.0903 -10.57652,-3.86 -21.79819,-4.9771 -33.00182,-4.7986 -3.6389,0.1742 -7.28324,0.2582 -10.91671,0.5225 -17.21932,1.2526 -34.16717,4.6527 -51.31349,6.5144 -3.61536,0.1587 -10.12501,0.9183 -13.75925,-0.657 -11.07427,-4.8002 -4.66055,-13.7468 0.34725,-19.9174 2.09803,-2.2209 4.13085,-4.5054 6.29409,-6.6629 15.95393,-15.9114 33.89657,-29.8083 52.56801,-42.3571 4.0389,-2.5024 8.02288,-5.0957 12.1167,-7.5072 16.48222,-9.7092 33.91816,-17.7655 51.99293,-24.0244 8.80978,-2.7958 17.77995,-5.731 27.08665,-6.1619 0,0 0.19793,5.718 0.19793,5.718 z"
         id="path5051"
         style="color:#000000;clip-rule:nonzero;display:inline;overflow:visible;visibility:visible;opacity:1;isolation:auto;mix-blend-mode:normal;color-interpolation:sRGB;color-interpolation-filters:linearRGB;solid-color:#000000;solid-opacity:1;fill:#000000;fill-opacity:1;fill-rule:nonzero;stroke:none;stroke-width:5;stroke-linecap:butt;stroke-linejoin:miter;stroke-miterlimit:4;stroke-dasharray:none;stroke-dashoffset:0;stroke-opacity:1;marker:none;color-rendering:auto;image-rendering:auto;shape-rendering:auto;text-rendering:auto;enable-background:accumulate" />
      <path
         inkscape:connector-curvature="0"
         d="m 383.28617,-9210.7187 c -5.97517,0.9405 -11.88542,2.5504 -17.30756,5.283 -1.62443,0.8187 -3.15738,1.8075 -4.73607,2.7112 -4.65985,3.2392 -10.00301,7.405 -9.86966,13.7258 0.0663,3.1434 1.06471,4.3857 2.41447,7.163 4.74806,6.6782 12.09456,10.7291 20.41534,10.3017 1.60605,-0.083 3.17949,-0.4854 4.76923,-0.7281 10.72418,-3.1391 17.93962,-11.5836 24.57472,-20.07 3.6242,-3.8161 5.84041,-10.2014 9.69598,-13.7407 1.91341,-0.8324 1.62362,-0.948 3.97789,3.014 0.24947,0.4199 -0.97086,-0.1065 -1.4563,-0.1597 0,0 -0.15523,-0.1358 -0.15523,-0.1358 l 0,0 c -1.78853,-3.2278 1.45872,0.725 3.69688,1.2467 -0.38811,1.4819 -1.20612,2.8291 -1.98114,4.1373 -2.20557,3.7232 -4.65046,7.3041 -7.22207,10.7823 -8.03703,10.2095 -16.90327,19.9394 -30.02384,23.1658 -5.66719,0.6846 -7.28637,1.33 -12.99105,0.2126 -6.49781,-1.2727 -12.5892,-4.628 -17.05251,-9.5331 -1.46208,-1.6067 -2.54866,-3.5188 -3.82298,-5.2782 -1.94711,-5.0306 -3.24465,-6.5974 -2.68628,-12.1409 0.86958,-8.6333 7.50457,-14.259 14.56537,-18.2063 7.9093,-3.5366 16.42972,-6.9869 25.27902,-6.1485 0,0 -0.0842,4.3979 -0.0842,4.3979 z"
         id="path5059"
         style="color:#000000;clip-rule:nonzero;display:inline;overflow:visible;visibility:visible;opacity:1;isolation:auto;mix-blend-mode:normal;color-interpolation:sRGB;color-interpolation-filters:linearRGB;solid-color:#000000;solid-opacity:1;fill:#000000;fill-opacity:1;fill-rule:nonzero;stroke:none;stroke-width:5;stroke-linecap:butt;stroke-linejoin:miter;stroke-miterlimit:4;stroke-dasharray:none;stroke-dashoffset:0;stroke-opacity:1;marker:none;color-rendering:auto;image-rendering:auto;shape-rendering:auto;text-rendering:auto;enable-background:accumulate" />
      <path
         inkscape:connector-curvature="0"
         d="m 400.62819,-9184.4224 c 2.04889,3.6686 3.58916,5.8313 8.05952,5.6215 5.474,-1.6198 8.67491,-6.6 11.46365,-11.2302 2.63518,-4.5866 4.21176,-9.6443 6.13673,-14.5405 0.12894,-0.2167 0.18075,-0.7953 0.38684,-0.65 0.26251,0.185 0.0371,0.6413 0.0556,0.9619 1.82271,0.5099 3.7414,0.7546 5.46813,1.5296 0.2648,0.1188 -0.39136,0.4333 -0.54227,0.6812 -0.47328,0.7776 -0.56523,1.2759 -0.83407,2.146 -0.78332,2.4393 -0.0153,4.7692 0.81685,7.0739 0.79641,2.1759 1.99352,3.3764 4.32384,3.1342 3.46784,-0.7158 6.47375,-2.7228 9.25814,-4.819 3.44797,-2.7191 5.07642,-6.5093 6.03693,-10.6713 0.98464,-5.1792 -0.31305,-10.1505 -2.00248,-15.0168 -1.44192,-3.7413 -2.93426,-7.548 -5.4183,-10.7363 -2.64759,-3.421 1.2621,-0.662 1.83438,-2.8971 0.12746,-0.4978 -0.71183,-0.7412 -1.06775,-1.1118 0,0 -0.18594,-0.089 -0.18594,-0.089 l 0,0 c -0.20601,-0.6834 -0.92108,-1.404 -0.61801,-2.0502 0.81594,-1.7398 3.58961,-1.6065 4.9677,-0.9335 0.90493,0.4419 1.34725,1.0396 2.0486,1.7579 3.0259,4.0179 5.0824,8.61 6.70593,13.3569 2.02008,6.5053 3.33831,13.1436 1.54791,19.8906 -1.7949,5.7459 -4.49609,10.915 -9.49287,14.5295 -4.2226,2.9528 -8.78368,5.5618 -14.07432,5.7059 -0.89102,-0.1087 -1.80451,-0.099 -2.67304,-0.3261 -3.93128,-1.026 -6.15788,-4.4283 -7.17898,-8.1267 -0.69621,-3.4483 -0.64712,-6.7493 0.59807,-10.0861 0.25429,-0.8208 0.53421,-1.6112 0.6707,-2.4628 0.0546,-0.3402 -0.25986,-1.0021 0.0835,-1.0303 5.61292,-0.4599 6.18102,-0.9122 5.83775,2.4117 -1.54946,5.5999 -3.8858,10.9801 -6.64002,16.0862 -4.2519,6.8033 -9.3678,13.2135 -17.85897,14.2724 -1.21795,-0.1179 -2.4654,-0.063 -3.65384,-0.3539 -4.97862,-1.221 -8.25692,-5.452 -9.86261,-10.0704 0,0 5.80267,-1.9573 5.80267,-1.9573 z"
         id="path5061"
         style="color:#000000;clip-rule:nonzero;display:inline;overflow:visible;visibility:visible;opacity:1;isolation:auto;mix-blend-mode:normal;color-interpolation:sRGB;color-interpolation-filters:linearRGB;solid-color:#000000;solid-opacity:1;fill:#000000;fill-opacity:1;fill-rule:nonzero;stroke:none;stroke-width:5;stroke-linecap:butt;stroke-linejoin:miter;stroke-miterlimit:4;stroke-dasharray:none;stroke-dashoffset:0;stroke-opacity:1;marker:none;color-rendering:auto;image-rendering:auto;shape-rendering:auto;text-rendering:auto;enable-background:accumulate" />
      <path
         inkscape:connector-curvature="0"
         d="m 431.42094,-9184.327 c 1.9893,13.836 0.558,27.9169 -0.22635,41.7997 -0.64529,9.9241 -1.01614,19.8577 -1.2046,29.7993 -0.2379,0.5167 0.17684,1.0975 0.0654,1.6296 -0.11073,0.529 -0.34819,0.3279 0.24559,0.76 0.0814,-0.054 0.16289,-0.109 0.24432,-0.1636 0,0 0.12872,0.1611 0.12872,0.1611 l 0,0 c -0.0809,0.075 -0.16183,0.1504 -0.24275,0.2256 -0.84429,2.4939 -4.35563,-0.2585 -4.502,-1.9648 -3.09352,-9.7928 -1.11377,-20.7521 -1.08728,-30.8063 0.75405,-13.3359 2.02071,-26.8064 0.71492,-40.1375 0,0 5.86399,-1.3031 5.86399,-1.3031 z"
         id="path5063"
         style="color:#000000;clip-rule:nonzero;display:inline;overflow:visible;visibility:visible;opacity:1;isolation:auto;mix-blend-mode:normal;color-interpolation:sRGB;color-interpolation-filters:linearRGB;solid-color:#000000;solid-opacity:1;fill:#000000;fill-opacity:1;fill-rule:nonzero;stroke:none;stroke-width:5;stroke-linecap:butt;stroke-linejoin:miter;stroke-miterlimit:4;stroke-dasharray:none;stroke-dashoffset:0;stroke-opacity:1;marker:none;color-rendering:auto;image-rendering:auto;shape-rendering:auto;text-rendering:auto;enable-background:accumulate" />
      <path
         inkscape:connector-curvature="0"
         d="m 424.16979,-9111.1855 c 5.96006,-5.1149 13.82067,-7.1974 21.04599,-9.4992 6.63721,-2.1146 18.67919,-5.6655 24.92997,-7.5294 44.76263,-12.9657 89.09511,-27.4479 133.22907,-42.5811 37.22815,-12.429 74.08163,-26.765 112.40675,-35.184 5.26889,-1.1574 10.59763,-1.9912 15.89646,-2.9868 10.73874,-1.7399 21.5814,-2.3597 32.42858,-1.8521 4.50804,0.2108 8.98047,0.7944 13.46852,1.2418 2.54514,-0.075 0.0818,-0.4013 -0.84646,1.951 -0.73947,1.8738 0.4741,1.9187 0.49784,0.9137 0.0125,-0.5285 -0.13789,-1.0473 -0.20683,-1.571 -0.63573,-2.5567 -0.20272,-1.3253 -1.29671,-3.6952 0,0 0.14693,-0.1368 0.14693,-0.1368 l 0,0 c 2.08158,1.3709 0.95624,0.8393 3.38827,1.5662 1.08747,0.3746 2.83964,0.7622 3.51596,1.9302 2.86268,4.9441 -1.67776,7.6262 -5.68778,7.7446 -4.3939,-0.1212 -8.75278,-0.6435 -13.14612,-0.8006 -10.26869,-0.3675 -20.52448,0.3211 -30.68561,1.951 -5.14351,0.9666 -10.31496,1.7816 -15.43053,2.8995 -38.08415,8.3233 -74.71869,22.4902 -111.69885,34.8611 -44.2575,15.1874 -88.68612,29.8499 -133.75416,42.1957 -14.77141,4.1688 -29.73543,7.8697 -44.13817,13.3197 0,0 -4.06312,-4.7383 -4.06312,-4.7383 z"
         id="path5067"
         style="color:#000000;clip-rule:nonzero;display:inline;overflow:visible;visibility:visible;opacity:1;isolation:auto;mix-blend-mode:normal;color-interpolation:sRGB;color-interpolation-filters:linearRGB;solid-color:#000000;solid-opacity:1;fill:#000000;fill-opacity:1;fill-rule:nonzero;stroke:none;stroke-width:5;stroke-linecap:butt;stroke-linejoin:miter;stroke-miterlimit:4;stroke-dasharray:none;stroke-dashoffset:0;stroke-opacity:1;marker:none;color-rendering:auto;image-rendering:auto;shape-rendering:auto;text-rendering:auto;enable-background:accumulate" />
      <path
         inkscape:connector-curvature="0"
         d="m 793.82805,-9419.0405 c 9.61132,3.1526 19.4591,5.5562 29.24783,8.0901 20.18881,5.2139 40.98,7.2394 61.53532,10.4341 9.90187,2.1198 26.47674,4.5322 29.52187,16.5477 0.48003,1.894 0.16147,3.9044 0.24223,5.8566 -0.62435,1.9229 -1.01968,3.936 -1.87312,5.7688 -4.87956,10.4792 -17.64747,20.0487 -26.40033,27.2086 -16.41001,12.8316 -32.8851,25.5735 -48.92048,38.8735 -5.05569,4.1128 -9.79785,8.616 -14.9387,12.6269 -1.36801,1.0673 -3.29472,2.7094 -5.20945,2.9189 -0.70318,0.077 -1.39266,-0.2491 -2.08898,-0.3736 -0.4172,-0.3758 -0.83439,-0.7516 -1.25159,-1.1273 0,0 0.0383,-0.2026 0.0383,-0.2026 l 0,0 c -0.0813,-0.3123 -0.16265,-0.6244 -0.24398,-0.9365 -0.0427,-0.5448 -0.25979,-1.1041 -0.12816,-1.6344 0.43307,-1.7449 2.3196,-3.6195 3.40736,-4.7491 4.60296,-4.7802 9.77447,-8.9806 14.80397,-13.2896 16.06912,-13.32 32.55757,-26.1048 49.15865,-38.7532 8.25026,-6.5874 18.65565,-14.0931 24.01067,-23.4282 0.56165,-0.9791 0.93092,-2.0566 1.39639,-3.0849 0.14225,-0.8222 0.46817,-1.6333 0.42675,-2.4667 -0.41426,-8.3309 -17.67417,-10.405 -23.20179,-11.7625 -20.81364,-3.2778 -41.87558,-5.3063 -62.31931,-10.6175 -10.26917,-2.6919 -20.74845,-5.2794 -30.37775,-9.8373 0,0 3.16424,-6.0618 3.16424,-6.0618 z"
         id="path5075"
         style="color:#000000;clip-rule:nonzero;display:inline;overflow:visible;visibility:visible;opacity:1;isolation:auto;mix-blend-mode:normal;color-interpolation:sRGB;color-interpolation-filters:linearRGB;solid-color:#000000;solid-opacity:1;fill:#000000;fill-opacity:1;fill-rule:nonzero;stroke:none;stroke-width:5;stroke-linecap:butt;stroke-linejoin:miter;stroke-miterlimit:4;stroke-dasharray:none;stroke-dashoffset:0;stroke-opacity:1;marker:none;color-rendering:auto;image-rendering:auto;shape-rendering:auto;text-rendering:auto;enable-background:accumulate" />
      <path
         inkscape:connector-curvature="0"
         d="m 812.92666,-9286.619 c 7.10033,0.2045 14.11036,1.2694 21.05055,2.719 7.14355,1.9548 14.95575,4.4031 19.85935,10.3653 0.77577,0.9433 1.33125,2.048 1.99687,3.0719 0.34795,1.1214 0.89179,2.1998 1.04383,3.364 0.71307,5.4598 -2.93894,9.4532 -7.61906,11.5528 -1.23623,0.5547 -2.56352,0.8785 -3.84528,1.3178 -8.54171,2.0568 -17.3714,2.3669 -26.11684,2.6052 -3.33509,-0.032 -9.40591,0.1319 -10.15357,-4.4879 -0.3171,-1.9594 1.14579,-3.7629 2.07625,-5.2423 0,0 0.20097,0.046 0.20097,0.046 l 0,0 c 0.14111,0.6381 0.0419,1.3836 0.42333,1.9142 0.20423,0.2842 0.71496,0.2485 1.04234,0.1248 0.18583,-0.07 -0.0188,-0.4758 0.15272,-0.5759 0.94639,-0.5522 5.45046,0.5703 6.05002,-0.093 7.95063,-0.1802 15.97566,-0.4459 23.76918,-2.1571 0.89835,-0.2679 6.00325,-1.575 6.24723,-3.0631 0.0646,-0.3937 -0.0629,-0.7956 -0.0943,-1.1933 -0.27977,-0.5449 -0.47721,-1.1405 -0.83929,-1.6346 -3.62712,-4.9484 -10.30314,-6.5783 -15.82323,-8.2231 -6.51182,-1.401 -13.09428,-2.3389 -19.7519,-2.6901 0,0 0.33088,-7.7203 0.33088,-7.7203 z"
         id="path5079"
         style="color:#000000;clip-rule:nonzero;display:inline;overflow:visible;visibility:visible;opacity:1;isolation:auto;mix-blend-mode:normal;color-interpolation:sRGB;color-interpolation-filters:linearRGB;solid-color:#000000;solid-opacity:1;fill:#000000;fill-opacity:1;fill-rule:nonzero;stroke:none;stroke-width:5;stroke-linecap:butt;stroke-linejoin:miter;stroke-miterlimit:4;stroke-dasharray:none;stroke-dashoffset:0;stroke-opacity:1;marker:none;color-rendering:auto;image-rendering:auto;shape-rendering:auto;text-rendering:auto;enable-background:accumulate" />
      <path
         inkscape:connector-curvature="0"
         d="m 823.49445,-9298.8346 c 5.48487,0.1407 10.1017,2.6844 14.09821,6.2522 3.29733,3.7496 4.06708,8.724 0.44231,12.5929 -0.5448,0.5815 -1.24175,0.9989 -1.86263,1.4984 -1.78276,0.8408 -4.36635,1.6074 -5.7255,-0.5468 -0.35106,-0.5565 -0.2231,-1.2968 -0.33465,-1.9451 0,0 0.13634,-0.1548 0.13634,-0.1548 l 0,0 c 0.23409,-0.3437 0.5633,-0.6392 0.70227,-1.0312 0.32567,-0.9185 -0.24961,-1.4581 0.83017,-2.0345 1.72928,-1.1474 2.33492,-1.1959 0.99368,-3.49 -2.42673,-2.8228 -5.69618,-4.378 -9.40534,-4.7449 0,0 0.12514,-6.3962 0.12514,-6.3962 z"
         id="path5081"
         style="color:#000000;clip-rule:nonzero;display:inline;overflow:visible;visibility:visible;opacity:1;isolation:auto;mix-blend-mode:normal;color-interpolation:sRGB;color-interpolation-filters:linearRGB;solid-color:#000000;solid-opacity:1;fill:#000000;fill-opacity:1;fill-rule:nonzero;stroke:none;stroke-width:5;stroke-linecap:butt;stroke-linejoin:miter;stroke-miterlimit:4;stroke-dasharray:none;stroke-dashoffset:0;stroke-opacity:1;marker:none;color-rendering:auto;image-rendering:auto;shape-rendering:auto;text-rendering:auto;enable-background:accumulate" />
      <path
         inkscape:connector-curvature="0"
         d="m 789.79001,-9356.6474 c -0.40243,10.6357 0.62988,21.2771 1.24013,31.8901 1.47633,27.2914 1.05049,54.6286 0.53933,81.9393 -0.1392,14.6782 -0.80007,29.374 -0.27277,44.0521 -3.64433,-4.4839 -4.73038,1.6247 -3.4422,-2.4033 0.14503,-0.4536 0.25706,-0.9175 0.3581,-1.3828 0.0896,-0.4124 0.14212,-0.8321 0.21318,-1.2481 0.14749,-0.9104 0.0895,-1.3117 -0.50933,-1.8011 0.51514,0.7863 2.79956,-0.3197 1.57653,0.5342 -1.19026,1.3485 -0.74088,0.095 -3.1528,0.8331 -1.12262,0.3435 1.01717,0.2829 0.91441,0.5682 -0.0567,0.1575 -0.23458,0.2387 -0.35188,0.3581 -3.04658,2.4346 -3.94303,0.5885 -3.12976,-2.6997 0,0 0.20588,0.011 0.20588,0.011 l 0,0 c 0.0767,0.4322 0.13624,0.8678 0.23001,1.2967 0.0447,0.2045 0.0647,-0.4741 -0.0827,-0.6228 -0.12936,-0.1306 -0.45508,0.1399 -0.55106,-0.017 -0.24941,-0.4071 1.75821,-0.6244 1.06015,-0.9633 1.04268,-0.6845 4.07107,-1.8436 3.68352,-0.6581 -0.19584,0.599 -1.23218,0.2815 -1.82377,0.4989 -0.10853,0.04 -0.12147,0.2268 -0.23314,0.2569 -0.063,0.017 -0.0683,-0.1111 -0.10255,-0.1666 2.7e-4,-2.2017 2.37873,-3.5372 4.29869,-2.3867 1.73948,1.3963 2.21424,3.3862 1.91385,5.5574 -0.14595,1.0835 -0.56137,6.6378 -1.36214,6.9919 -4.29657,1.8999 -4.30609,0.801 -5.80078,-1.5077 -1.28406,-4.5908 -1.4851,-9.1482 -1.60544,-13.9205 -0.2634,-10.4454 0.19282,-20.8901 0.33963,-31.3326 0.56828,-27.1211 1.09951,-54.2716 -0.3754,-81.376 -0.0689,-1.3021 -0.87552,-16.3281 -0.95484,-18.5437 -0.20418,-5.7036 -0.79441,-12.0088 2.0931,-17.1775 0,0 5.08401,3.419 5.08401,3.419 z"
         id="path5083"
         style="color:#000000;clip-rule:nonzero;display:inline;overflow:visible;visibility:visible;opacity:1;isolation:auto;mix-blend-mode:normal;color-interpolation:sRGB;color-interpolation-filters:linearRGB;solid-color:#000000;solid-opacity:1;fill:#000000;fill-opacity:1;fill-rule:nonzero;stroke:none;stroke-width:5;stroke-linecap:butt;stroke-linejoin:miter;stroke-miterlimit:4;stroke-dasharray:none;stroke-dashoffset:0;stroke-opacity:1;marker:none;color-rendering:auto;image-rendering:auto;shape-rendering:auto;text-rendering:auto;enable-background:accumulate" />
      <path
         inkscape:connector-curvature="0"
         d="m 800.42321,-9296.8666 c 0.0657,-0.4858 0.13139,-0.9715 0.19709,-1.4573 0,0 0.20433,0.028 0.20433,0.028 l 0,0 c -0.0651,0.4796 -0.13028,0.9592 -0.19543,1.4388 0,0 -0.20599,-0.01 -0.20599,-0.01 z"
         id="path5085"
         style="color:#000000;clip-rule:nonzero;display:inline;overflow:visible;visibility:visible;opacity:1;isolation:auto;mix-blend-mode:normal;color-interpolation:sRGB;color-interpolation-filters:linearRGB;solid-color:#000000;solid-opacity:1;fill:#000000;fill-opacity:1;fill-rule:nonzero;stroke:none;stroke-width:5;stroke-linecap:butt;stroke-linejoin:miter;stroke-miterlimit:4;stroke-dasharray:none;stroke-dashoffset:0;stroke-opacity:1;marker:none;color-rendering:auto;image-rendering:auto;shape-rendering:auto;text-rendering:auto;enable-background:accumulate" />
      <path
         inkscape:connector-curvature="0"
         d="m 802.6762,-9304.7486 c -3.71226,2.7845 -5.03594,6.9875 -5.85038,11.3618 -0.52907,3.5163 -0.53339,7.0859 -0.28994,10.6251 0.56501,0.6948 -0.62004,0.2102 -0.58459,0.1073 0.124,-0.3604 0.3597,-0.672 0.53954,-1.0079 0,0 0.20525,0.02 0.20525,0.02 l 0,0 c 0.49064,2.0385 0.19878,3.3598 -2.08017,2.002 -3.7278,-3.2642 -4.63036,-8.2391 -4.27035,-13.0035 1.32079,-6.6062 3.46965,-12.7729 10.09448,-15.6654 0,0 2.23616,5.5608 2.23616,5.5608 z"
         id="path5087"
         style="color:#000000;clip-rule:nonzero;display:inline;overflow:visible;visibility:visible;opacity:1;isolation:auto;mix-blend-mode:normal;color-interpolation:sRGB;color-interpolation-filters:linearRGB;solid-color:#000000;solid-opacity:1;fill:#000000;fill-opacity:1;fill-rule:nonzero;stroke:none;stroke-width:5;stroke-linecap:butt;stroke-linejoin:miter;stroke-miterlimit:4;stroke-dasharray:none;stroke-dashoffset:0;stroke-opacity:1;marker:none;color-rendering:auto;image-rendering:auto;shape-rendering:auto;text-rendering:auto;enable-background:accumulate" />
      <path
         inkscape:connector-curvature="0"
         d="m 789.68992,-9311.0477 c 0.35922,-2.708 0.39851,-5.4403 0.96458,-8.1186 0.64037,-2.9635 3.15252,-4.017 5.63239,-5.1816 4.08809,-2.0505 7.15887,-5.5346 11.0198,-7.9027 2.22426,-0.9683 1.12755,-0.6426 3.26594,-1.0551 0,0 0.16454,0.1242 0.16454,0.1242 l 0,0 c 0.0523,2.3572 0.20758,1.1346 -0.60614,3.6472 -0.43506,0.7307 -0.78331,1.5206 -1.30519,2.192 -2.65617,3.4171 -6.65413,5.8063 -10.40737,7.7956 -0.82458,0.3475 -1.5033,0.689 -2.35961,0.8909 -0.66278,0.1562 -0.6907,-0.3732 -1.06198,0.583 -0.73459,2.4064 -1.31857,4.8817 -1.70863,7.3654 0,0 -3.59833,-0.3403 -3.59833,-0.3403 z"
         id="path5089"
         style="color:#000000;clip-rule:nonzero;display:inline;overflow:visible;visibility:visible;opacity:1;isolation:auto;mix-blend-mode:normal;color-interpolation:sRGB;color-interpolation-filters:linearRGB;solid-color:#000000;solid-opacity:1;fill:#000000;fill-opacity:1;fill-rule:nonzero;stroke:none;stroke-width:5;stroke-linecap:butt;stroke-linejoin:miter;stroke-miterlimit:4;stroke-dasharray:none;stroke-dashoffset:0;stroke-opacity:1;marker:none;color-rendering:auto;image-rendering:auto;shape-rendering:auto;text-rendering:auto;enable-background:accumulate" />
      <path
         inkscape:connector-curvature="0"
         d="m 785.6161,-9375.1914 c 7.75711,-2.4897 16.0063,-2.9994 24.08162,-3.6031 12.02008,-0.5748 24.08683,-0.6867 36.04963,0.7289 1.85022,0.3595 7.87744,1.4275 8.90892,3.6027 0.17007,0.3587 0.0486,0.7924 0.0728,1.1885 0,0 -0.16681,0.1213 -0.16681,0.1213 l 0,0 c -0.0831,0.2484 -0.0809,0.5446 -0.24944,0.7451 -1.70404,2.0276 -6.86425,1.745 -9.04876,1.9883 -11.70327,-0.078 -23.41094,-0.6614 -35.11123,-0.031 -7.6595,0.2581 -15.31364,0.6373 -22.92334,1.5938 0,0 -1.61339,-6.334 -1.61339,-6.334 z"
         id="path5091"
         style="color:#000000;clip-rule:nonzero;display:inline;overflow:visible;visibility:visible;opacity:1;isolation:auto;mix-blend-mode:normal;color-interpolation:sRGB;color-interpolation-filters:linearRGB;solid-color:#000000;solid-opacity:1;fill:#000000;fill-opacity:1;fill-rule:nonzero;stroke:none;stroke-width:5;stroke-linecap:butt;stroke-linejoin:miter;stroke-miterlimit:4;stroke-dasharray:none;stroke-dashoffset:0;stroke-opacity:1;marker:none;color-rendering:auto;image-rendering:auto;shape-rendering:auto;text-rendering:auto;enable-background:accumulate" />
      <text
         transform="matrix(0.86486539,-0.22325555,0,1.1562493,0,0)"
         sodipodi:linespacing="119.00001%"
         id="text5119"
         y="-7818.8193"
         x="527.96039"
         style="font-style:normal;font-weight:bold;font-size:75.16825867px;line-height:119.00000572%;font-family:Sans;-inkscape-font-specification:'Sans Bold';letter-spacing:0px;word-spacing:0px;fill:#000000;fill-opacity:1;stroke:none;stroke-width:1px;stroke-linecap:butt;stroke-linejoin:miter;stroke-opacity:1"
         xml:space="preserve"><tspan
           y="-7818.8193"
           x="527.96039"
           id="tspan5121"
           sodipodi:role="line">orange™<tspan
   id="tspan5128"
   style="font-size:48.85936737px;baseline-shift:super" /></tspan></text>
      <text
         sodipodi:linespacing="100%"
         id="text5528-6-7-3"
         y="-9954.3398"
         x="209.5"
         style="font-style:normal;font-variant:normal;font-weight:normal;font-stretch:normal;font-size:40px;line-height:100%;font-family:'Domestic Manners';-inkscape-font-specification:'Domestic Manners';text-align:center;letter-spacing:0px;word-spacing:0px;text-anchor:middle;fill:#000000;fill-opacity:1;stroke:none"
         xml:space="preserve"><tspan
           y="-9954.3398"
           x="209.5"
           sodipodi:role="line"
           id="tspan5530-31-67-6">Bah quoi ?</tspan></text>
      <text
         xml:space="preserve"
         style="font-style:normal;font-variant:normal;font-weight:normal;font-stretch:normal;font-size:40px;line-height:100%;font-family:'Domestic Manners';-inkscape-font-specification:'Domestic Manners';text-align:center;letter-spacing:0px;word-spacing:0px;text-anchor:middle;fill:#000000;fill-opacity:1;stroke:none"
         x="936.22894"
         y="-9946.7139"
         id="text5148"
         sodipodi:linespacing="100%"><tspan
           id="tspan5154"
           sodipodi:role="line"
           x="936.22894"
           y="-9946.7139">100% des terroristes</tspan><tspan
           id="tspan5156"
           sodipodi:role="line"
           x="936.22894"
           y="-9906.7139">utilisent Google. Mission</tspan><tspan
           id="tspan5158"
           sodipodi:role="line"
           x="936.22894"
           y="-9866.7139">accomplie.</tspan></text>
      <text
         sodipodi:linespacing="100%"
         id="text5160"
         y="-9313.7559"
         x="1034.6094"
         style="font-style:normal;font-variant:normal;font-weight:normal;font-stretch:normal;font-size:32px;line-height:100%;font-family:'Domestic Manners';-inkscape-font-specification:'Domestic Manners';text-align:center;letter-spacing:0px;word-spacing:0px;text-anchor:middle;fill:#000000;fill-opacity:1;stroke:none"
         xml:space="preserve"><tspan
           id="tspan5186"
           y="-9313.7559"
           x="1034.6094"
           sodipodi:role="line">On dit merci</tspan><tspan
           id="tspan5232"
           y="-9281.7559"
           x="1034.6094"
           sodipodi:role="line">qui ?</tspan></text>
      <path
         inkscape:connector-curvature="0"
         d="m 100.98629,-9994.5416 c -6.558998,11.0385 -9.776913,23.5553 -12.206349,36.0408 -1.007077,9.1637 -1.672417,19.774 5.407268,26.9355 3.97558,4.0215 7.491611,4.9185 12.650241,7.2022 3.27585,0.8921 6.51096,1.9502 9.82755,2.6763 25.58775,5.602 53.97934,5.6542 80.07869,6.1924 28.05332,-0.4418 56.65148,0.6499 84.30304,-5.1175 4.23309,-0.8829 8.36391,-2.1999 12.54587,-3.2998 12.70554,-4.3835 24.49569,-11.1441 31.53279,-23.01 3.71082,-6.2572 3.973,-9.0775 5.84288,-15.9903 1.50722,-8.8166 1.42602,-17.853 -1.34592,-26.4157 -0.75006,-2.317 -1.74434,-4.5501 -2.49584,-6.8666 0,0 0.21339,-0.1945 0.21339,-0.1945 l 0,0 c 1.14839,0.5794 2.45473,0.9175 3.44516,1.7382 6.69718,5.5495 8.23855,16.4271 7.96266,24.4647 -0.1052,3.0647 -0.70037,6.0928 -1.05056,9.1393 -2.25921,7.979 -2.55664,11.0922 -6.97862,18.2974 -8.04547,13.1093 -21.1472,20.7274 -35.37534,25.545 -4.40196,1.1404 -8.75219,2.5034 -13.20587,3.4212 -28.07172,5.7851 -57.06589,4.6499 -85.53437,4.9281 -17.96062,-0.3909 -35.91989,-0.7513 -53.82048,-2.4218 -9.01071,-0.8409 -19.01527,-2.0612 -27.88936,-4.1287 -3.63395,-0.8466 -7.16532,-2.0852 -10.74799,-3.1277 -6.65771,-3.183 -10.272908,-4.0048 -15.152966,-9.6393 -7.575778,-8.7468 -6.793288,-20.7195 -5.336638,-31.3469 2.661919,-13.1287 5.936538,-26.7011 13.729644,-37.8467 0,0 3.60112,2.8244 3.60112,2.8244 z"
         id="path5200"
         style="color:#000000;clip-rule:nonzero;display:inline;overflow:visible;visibility:visible;opacity:1;isolation:auto;mix-blend-mode:normal;color-interpolation:sRGB;color-interpolation-filters:linearRGB;solid-color:#000000;solid-opacity:1;fill:#000000;fill-opacity:1;fill-rule:nonzero;stroke:none;stroke-width:5;stroke-linecap:butt;stroke-linejoin:miter;stroke-miterlimit:4;stroke-dasharray:none;stroke-dashoffset:0;stroke-opacity:1;marker:none;color-rendering:auto;image-rendering:auto;shape-rendering:auto;text-rendering:auto;enable-background:accumulate" />
      <path
         inkscape:connector-curvature="0"
         d="m 199.1006,-9909.6195 c -8.05457,11.1976 -16.87338,21.1632 -25.50906,31.3901 -7.15706,8.5264 -14.40803,16.9265 -21.17197,26.1151 -3.17821,4.3175 -7.22256,10.0222 -9.79728,15.318 -0.86071,1.7703 -1.43094,3.8014 -2.14643,5.7021 -0.0405,1.2261 -0.36079,2.5004 -0.12153,3.678 0.30555,1.5039 3.53636,3.6674 3.87854,3.8808 5.41599,3.3796 11.35276,5.0979 17.02395,7.3058 7.04823,3.1888 16.34398,7.3798 17.28793,20.0868 0.53234,7.1659 -1.50926,12.1769 -3.25534,18.5829 -5.09138,15.6258 -15.18449,32.8951 -14.63294,51.0468 0.093,3.0597 0.87541,5.9931 1.3131,8.9896 1.14834,2.7993 2.03709,5.8585 3.44497,8.3979 9.18746,16.5713 28.21664,26.375 41.49684,34.0511 2.92661,1.4118 5.85326,2.8235 8.77987,4.2352 0,0 -0.0457,0.3082 -0.0457,0.3082 l 0,0 c -3.12445,-0.4694 -6.24887,-0.9387 -9.37331,-1.4081 -3.44337,-0.9884 -6.92961,-1.704 -10.33011,-2.9652 -12.86691,-4.7721 -27.80038,-13.8447 -35.99515,-29.7926 -1.74197,-3.3901 -2.75576,-7.4482 -4.13364,-11.1722 -0.44971,-3.9103 -1.30152,-7.7677 -1.34909,-11.7312 -0.23907,-19.9086 9.3535,-36.567 15.32943,-53.3089 1.39732,-4.4327 4.7459,-12.0805 2.93161,-17.4717 -2.2628,-6.7239 -8.60649,-8.2339 -12.82112,-10.5258 -2.17576,-0.8342 -4.3532,-1.6595 -6.5273,-2.5028 -6.46001,-2.5058 -17.46123,-4.8354 -18.72909,-16.9119 -0.24095,-2.2951 0.45364,-4.5963 0.68046,-6.8944 0.91599,-2.3609 1.66592,-4.8736 2.74795,-7.0825 2.64428,-5.3982 7.18277,-11.7686 10.42727,-16.1539 6.86032,-9.2724 14.17559,-17.8189 21.53086,-26.2453 8.68215,-9.6988 17.72419,-18.8354 25.93694,-29.3532 0,0 3.12943,4.4313 3.12943,4.4313 z"
         id="path5204"
         style="color:#000000;clip-rule:nonzero;display:inline;overflow:visible;visibility:visible;opacity:1;isolation:auto;mix-blend-mode:normal;color-interpolation:sRGB;color-interpolation-filters:linearRGB;solid-color:#000000;solid-opacity:1;fill:#000000;fill-opacity:1;fill-rule:nonzero;stroke:none;stroke-width:5;stroke-linecap:butt;stroke-linejoin:miter;stroke-miterlimit:4;stroke-dasharray:none;stroke-dashoffset:0;stroke-opacity:1;marker:none;color-rendering:auto;image-rendering:auto;shape-rendering:auto;text-rendering:auto;enable-background:accumulate" />
      <path
         inkscape:connector-curvature="0"
         d="m 724.04451,-9989.2131 c -8.03088,10.6902 -15.11117,21.9125 -20.68888,33.6646 -1.99647,4.2064 -3.66956,8.5106 -5.50433,12.7658 -1.38871,4.5925 -3.15789,9.1285 -4.1661,13.7774 -2.92891,13.5056 -2.93341,27.7527 3.81844,39.967 5.94335,10.7518 10.38333,12.4648 20.55867,20.1918 5.47794,2.588 10.7067,5.5875 16.43386,7.7641 14.2823,5.428 30.67039,8.9428 46.00211,11.5216 19.7838,3.3276 41.6157,5.531 61.7547,6.9282 11.5756,0.8031 23.2137,1.1769 34.8207,1.7653 58.4349,1.7742 117.5176,0.014 175.96122,-8.6231 9.9378,-1.4688 19.8053,-3.4286 29.708,-5.1428 27.766,-5.9643 56.9998,-12.6887 79.5707,-29.812 9.8593,-7.4797 11.8755,-11.2045 19.1183,-20.334 3.5951,-6.1253 9.3209,-15.1158 11.5172,-21.8058 1.0986,-3.3463 1.2301,-6.8317 1.8451,-10.2476 0,0 0.2699,0.022 0.2699,0.022 l 0,0 c -1.9444,11.6663 -3.0237,23.3943 -9.5199,34.2516 -7.5172,10.6984 -8.5492,13.9233 -19.7308,22.4905 -23.1759,17.7572 -53.6796,24.6355 -82.1699,31.1033 -10.0216,1.722 -20.009,3.6865 -30.065,5.1663 -58.88622,8.6657 -118.41432,10.494 -177.31962,9.0327 -11.7089,-0.5881 -23.4498,-0.9567 -35.1268,-1.7645 -20.1365,-1.393 -42.8268,-3.6742 -62.61992,-7.0451 -15.56889,-2.6513 -33.11651,-6.5125 -47.61705,-12.1225 -6.14419,-2.3771 -11.7401,-5.6457 -17.61015,-8.4685 -11.22695,-8.7735 -15.99152,-10.6088 -22.3894,-22.7716 -9.4863,-18.0343 -5.45757,-38.5981 1.31229,-57.4913 1.9598,-4.3611 3.73117,-8.7823 5.87941,-13.0832 5.941,-11.8944 13.60395,-23.372 22.79115,-33.6864 0,0 3.1661,1.9862 3.1661,1.9862 z"
         id="path5220"
         style="color:#000000;clip-rule:nonzero;display:inline;overflow:visible;visibility:visible;opacity:1;isolation:auto;mix-blend-mode:normal;color-interpolation:sRGB;color-interpolation-filters:linearRGB;solid-color:#000000;solid-opacity:1;fill:#000000;fill-opacity:1;fill-rule:nonzero;stroke:none;stroke-width:5;stroke-linecap:butt;stroke-linejoin:miter;stroke-miterlimit:4;stroke-dasharray:none;stroke-dashoffset:0;stroke-opacity:1;marker:none;color-rendering:auto;image-rendering:auto;shape-rendering:auto;text-rendering:auto;enable-background:accumulate" />
      <path
         inkscape:connector-curvature="0"
         d="m 1070.9679,-9850.9307 c 1.9126,4.6664 5.6069,8.2094 8.6807,12.1057 5.5994,8.5075 -0.4926,15.9027 -5.6412,22.8227 -7.0428,9.0466 -15.0889,17.5074 -20.3767,27.7861 -0.9938,1.9319 -1.7594,3.9728 -2.6392,5.9593 -4.3598,11.7159 -1.3727,21.445 2.6004,32.6428 3.223,8.8959 4.7154,18.2657 1.9051,27.5243 -2.4392,8.0361 -4.7191,10.344 -9.385,17.5342 -2.8665,3.1578 -5.5274,6.5151 -8.5994,9.4732 -21.4988,20.7033 -49.13096,33.4159 -76.00287,45.4578 -15.27996,6.121 -30.61321,12.7464 -46.91138,15.7298 -4.84994,0.8878 -13.96477,1.3597 -19.33216,1.7018 0,0 -0.0534,-0.2837 -0.0534,-0.2837 l 0,0 c 14.21409,-4.6063 0.43735,0.165 17.61037,-7.0222 14.96213,-6.2619 30.47392,-11.1147 45.34556,-17.6084 25.92438,-11.5341 52.64478,-23.6467 73.70118,-43.1929 2.8408,-2.637 5.3202,-5.6385 7.9801,-8.4577 4.2509,-6.0993 6.2276,-7.8949 8.5032,-14.732 2.6468,-7.9516 1.1605,-16.0072 -1.6151,-23.668 -5.003,-13.8289 -7.9796,-23.6593 -2.6869,-38.2144 1.0152,-2.2354 1.9065,-4.5312 3.0457,-6.7059 5.5339,-10.5647 13.6792,-19.407 21.5484,-28.2401 2.3012,-2.6277 7.9591,-7.895 8.37,-11.705 0.165,-1.5302 -0.5639,-2.2917 -1.2794,-3.5533 -3.6838,-4.1906 -8.0851,-7.8572 -9.9681,-13.3259 0,0 5.2005,-2.0283 5.2005,-2.0283 z"
         id="path5222"
         style="color:#000000;clip-rule:nonzero;display:inline;overflow:visible;visibility:visible;opacity:1;isolation:auto;mix-blend-mode:normal;color-interpolation:sRGB;color-interpolation-filters:linearRGB;solid-color:#000000;solid-opacity:1;fill:#000000;fill-opacity:1;fill-rule:nonzero;stroke:none;stroke-width:5;stroke-linecap:butt;stroke-linejoin:miter;stroke-miterlimit:4;stroke-dasharray:none;stroke-dashoffset:0;stroke-opacity:1;marker:none;color-rendering:auto;image-rendering:auto;shape-rendering:auto;text-rendering:auto;enable-background:accumulate" />
      <text
         xml:space="preserve"
         style="font-style:normal;font-variant:normal;font-weight:normal;font-stretch:normal;font-size:32px;line-height:100%;font-family:'Domestic Manners';-inkscape-font-specification:'Domestic Manners';text-align:center;letter-spacing:0px;word-spacing:0px;text-anchor:middle;fill:#000000;fill-opacity:1;stroke:none"
         x="182.63696"
         y="-9490.2393"
         id="text5224"
         sodipodi:linespacing="100%"><tspan
           id="tspan5226"
           sodipodi:role="line"
           x="182.63696"
           y="-9490.2393">Faudrait savoir c'que</tspan><tspan
           sodipodi:role="line"
           x="182.63696"
           y="-9458.2393"
           id="tspan5228">vous voulez...</tspan></text>
    </g>
    <g
       id="g5331"
       transform="translate(-291.61838,0)">
      <path
         inkscape:connector-curvature="0"
         d="m 1168.5729,1011.6916 c -0.4756,2.8167 1.0107,2.3115 -0.1613,0.5185 -0.3491,-0.534 -1.5814,-0.5717 -1.5272,-1.1991 0.064,-0.7498 1.1903,-0.9856 1.7607,-1.5042 1.187,-1.0792 2.3401,-2.1921 3.5102,-3.2882 11.2668,-11.17234 20.3291,-24.04436 27.7886,-37.77156 1.2001,-3.52619 6.1594,-11.66341 5.5039,-15.59283 -0.039,-0.23541 -0.533,0.44907 -0.3642,0.6245 1.2178,1.26536 2.7628,2.20229 4.1442,3.30348 0.3804,0.12048 1.1525,-0.0215 1.1411,0.36141 -0.028,0.93461 -0.8653,1.6794 -1.2282,2.5477 -0.6025,1.44213 -1.1746,2.89785 -1.6658,4.37805 -2.3697,7.14122 -3.7219,14.45232 -5.0807,21.81348 -1.677,12.82011 -3.4332,26.03857 -1.0585,38.88667 1.1883,2.781 0.118,2.102 3.6042,1.3043 0,0 0.075,0.2482 0.075,0.2482 l 0,0 c -4.518,1.4168 -2.0439,1.0768 -7.47,0.6253 -1.1493,-1.1485 -2.5814,-2.0891 -3.4478,-3.4455 -6.3088,-9.8766 -3.0099,-28.49914 -1.674,-39.31518 1.4995,-7.98225 2.9283,-15.94397 5.8121,-23.60611 0.7993,-2.12391 3.106,-7.52077 4.9198,-9.41733 1.2052,-1.26009 2.8493,-2.05984 4.274,-3.08981 2.0918,0.96715 4.5769,1.38601 6.2754,2.90142 0.7879,0.70297 0.4432,2.03536 0.4121,3.06506 -0.1877,6.22948 -4.877,12.50267 -7.4339,17.92767 -8.3942,13.98922 -18.015,27.32748 -29.8877,38.86268 -1.1303,1.0209 -5.8768,5.6837 -7.891,6.2228 -6.3581,1.7018 -7.5453,-2.5821 -6.1518,-6.9369 0,0 5.8214,1.5755 5.8214,1.5755 z"
         id="path5279"
         style="color:#000000;clip-rule:nonzero;display:inline;overflow:visible;visibility:visible;opacity:1;isolation:auto;mix-blend-mode:normal;color-interpolation:sRGB;color-interpolation-filters:linearRGB;solid-color:#000000;solid-opacity:1;fill:#000000;fill-opacity:1;fill-rule:nonzero;stroke:none;stroke-width:5;stroke-linecap:butt;stroke-linejoin:miter;stroke-miterlimit:4;stroke-dasharray:none;stroke-dashoffset:0;stroke-opacity:1;marker:none;color-rendering:auto;image-rendering:auto;shape-rendering:auto;text-rendering:auto;enable-background:accumulate" />
      <path
         inkscape:connector-curvature="0"
         d="m 1215.396,959.01514 c 6.6126,-0.23325 13.2024,0.39143 19.6456,1.7895 7.3238,2.13573 10.5097,5.45333 12.0688,12.54459 0.438,7.77323 -4.1203,14.3996 -8.1494,20.79308 -5.1829,7.49749 -10.3,15.11129 -16.5213,21.87399 -0.134,0.1242 -1.8116,1.9081 -2.5236,1.9774 -0.891,0.087 -0.4479,-1.1154 -1.5685,-0.6735 -0.2287,0.09 0.4041,0.2725 0.6062,0.4087 0,0 0.027,0.2568 0.027,0.2568 l 0,0 c -4.8289,2.2787 -4.3791,-3.8208 -2.9534,-6.2788 4.504,-7.6822 10.783,-14.28443 15.4933,-21.85953 2.937,-4.63069 6.4857,-9.4764 7.021,-15.01382 -0.402,-3.27158 -2.0376,-5.08665 -5.4673,-5.98382 -5.6206,-1.29922 -11.3949,-1.76529 -17.1758,-1.65366 0,0 -0.5025,-8.18093 -0.5025,-8.18093 z"
         id="path5287"
         style="color:#000000;clip-rule:nonzero;display:inline;overflow:visible;visibility:visible;opacity:1;isolation:auto;mix-blend-mode:normal;color-interpolation:sRGB;color-interpolation-filters:linearRGB;solid-color:#000000;solid-opacity:1;fill:#000000;fill-opacity:1;fill-rule:nonzero;stroke:none;stroke-width:5;stroke-linecap:butt;stroke-linejoin:miter;stroke-miterlimit:4;stroke-dasharray:none;stroke-dashoffset:0;stroke-opacity:1;marker:none;color-rendering:auto;image-rendering:auto;shape-rendering:auto;text-rendering:auto;enable-background:accumulate" />
      <path
         inkscape:connector-curvature="0"
         d="m 1215.9527,980.70646 c 7.6367,-0.41038 15.1527,1.52462 22.5505,3.08122 6.0158,1.02139 11.3517,3.88037 16.9914,5.90821 0,0 0.032,0.25623 0.032,0.25623 l 0,0 c -0.9445,0.53244 -1.8306,1.1733 -2.8334,1.59744 -5.1311,2.17066 -10.7677,1.40165 -16.077,0.37463 -6.7805,-1.44534 -13.5658,-2.93296 -20.4992,-3.54021 0,0 -0.1643,-7.67752 -0.1643,-7.67752 z"
         id="path5293"
         style="color:#000000;clip-rule:nonzero;display:inline;overflow:visible;visibility:visible;opacity:1;isolation:auto;mix-blend-mode:normal;color-interpolation:sRGB;color-interpolation-filters:linearRGB;solid-color:#000000;solid-opacity:1;fill:#000000;fill-opacity:1;fill-rule:nonzero;stroke:none;stroke-width:5;stroke-linecap:butt;stroke-linejoin:miter;stroke-miterlimit:4;stroke-dasharray:none;stroke-dashoffset:0;stroke-opacity:1;marker:none;color-rendering:auto;image-rendering:auto;shape-rendering:auto;text-rendering:auto;enable-background:accumulate" />
      <path
         inkscape:connector-curvature="0"
         d="m 1285.6116,937.16145 c -6.1337,10.72255 -11.4939,21.82733 -16.7751,32.94953 -8.8968,18.80688 -16.4535,38.13892 -23.6624,57.58142 -6.667,18.1136 0.7767,-2.2515 -4.1457,11.5584 -0.2947,0.8268 -0.4867,1.7013 -0.9316,2.4642 -0.086,0.1476 -0.363,0.1 -0.5289,0.041 -0.099,-0.034 0.1912,-0.084 0.2868,-0.1265 0,0 0.1304,0.226 0.1304,0.226 l 0,0 c -0.9216,0.4941 -1.7132,1.5806 -2.7649,1.4822 -5.3018,-0.4957 -0.3171,-16.4391 0.2015,-18.1563 6.7445,-19.886 14.897,-39.30707 23.7664,-58.41216 5.5169,-11.44313 10.9216,-23.13032 18.8661,-33.27001 0,0 5.5574,3.66247 5.5574,3.66247 z"
         id="path5297"
         style="color:#000000;clip-rule:nonzero;display:inline;overflow:visible;visibility:visible;opacity:1;isolation:auto;mix-blend-mode:normal;color-interpolation:sRGB;color-interpolation-filters:linearRGB;solid-color:#000000;solid-opacity:1;fill:#000000;fill-opacity:1;fill-rule:nonzero;stroke:none;stroke-width:5;stroke-linecap:butt;stroke-linejoin:miter;stroke-miterlimit:4;stroke-dasharray:none;stroke-dashoffset:0;stroke-opacity:1;marker:none;color-rendering:auto;image-rendering:auto;shape-rendering:auto;text-rendering:auto;enable-background:accumulate" />
      <path
         inkscape:connector-curvature="0"
         d="m 1254.4691,995.67283 c 6.7442,-3.19768 11.2572,-9.40232 15.4428,-15.14788 3.6529,-5.28084 6.1155,-11.13758 8.0297,-17.16321 0.1084,-0.3565 -0.058,-1.13266 0.3253,-1.06948 2.6699,0.44014 5.5173,0.90512 7.7313,2.39757 0.7873,0.53085 0,1.84348 -0.079,2.76129 -0.3399,4.04114 -1.3211,8.04187 -2.1512,12.00606 -2.5379,10.52916 -4.2691,21.17682 -4.9138,31.96072 -0.7017,3.3543 0.3672,7.1457 -0.757,10.4545 -0.2367,0.6967 -0.7578,1.2736 -1.1366,1.9104 0,0 -0.2091,0.1635 -0.2091,0.1635 l 0,0 c -1.1608,-0.2764 -2.5233,-0.1461 -3.4828,-0.8293 -3.1484,-2.2416 -3.033,-8.9933 -3.2972,-12.1315 0.5311,-11.224 2.3841,-22.29705 5.0378,-33.24213 0.8059,-3.67535 1.5973,-7.35257 2.381,-11.03221 0.1013,-0.4758 -0.1821,-1.3424 0.3188,-1.42462 2.4817,-0.40716 5.044,-0.0724 7.5528,0.13298 0.2099,0.017 -0.2797,0.30126 -0.4196,0.45185 -2.9887,6.1646 -5.6931,12.48614 -9.845,18.06547 -5.2023,7.02566 -10.9118,14.77718 -19.8013,17.65386 0,0 -0.727,-5.91787 -0.727,-5.91787 z"
         id="path5299"
         style="color:#000000;clip-rule:nonzero;display:inline;overflow:visible;visibility:visible;opacity:1;isolation:auto;mix-blend-mode:normal;color-interpolation:sRGB;color-interpolation-filters:linearRGB;solid-color:#000000;solid-opacity:1;fill:#000000;fill-opacity:1;fill-rule:nonzero;stroke:none;stroke-width:5;stroke-linecap:butt;stroke-linejoin:miter;stroke-miterlimit:4;stroke-dasharray:none;stroke-dashoffset:0;stroke-opacity:1;marker:none;color-rendering:auto;image-rendering:auto;shape-rendering:auto;text-rendering:auto;enable-background:accumulate" />
      <path
         inkscape:connector-curvature="0"
         d="m 1302.8207,973.10821 c -6.0892,7.68949 -9.4029,16.80968 -12.25,25.94532 -0.5392,1.96777 -3.678,15.35947 -0.6757,16.63397 0.363,0.154 -0.1065,-0.7539 -0.1124,-1.1333 -0.01,-0.326 0.053,-0.6499 0.08,-0.9748 7.45,-6.6144 10.6199,-14.71149 11.9853,-24.12802 -0.1397,-2.41007 0.518,-9.13707 -2.0912,-10.8448 -0.1242,-0.0813 -0.2888,0.26086 -0.2086,0.38249 0.1887,0.28669 0.5711,0.40117 0.8567,0.60181 -2.945,1.07687 -4.9672,3.1495 -6.6344,5.65869 0,0 -0.262,-0.0626 -0.262,-0.0626 l 0,0 c -0.1841,-3.87232 -0.306,-8.84385 2.9627,-11.77325 1.006,-0.90154 2.3828,-1.3281 3.574,-1.9921 1.462,0.15327 3.0223,-0.0661 4.386,0.45989 6.7292,2.59774 6.2966,13.55936 5.8002,18.91304 -0.3661,1.82507 -0.6108,3.67633 -1.0985,5.47522 -2.0462,7.54683 -5.9831,15.52143 -11.8177,21.09263 -1.3944,1.3315 -3.0811,2.3504 -4.6216,3.5256 -2.0112,0.3958 -4.0079,1.5085 -6.0336,1.1874 -10.9434,-1.7345 -6.1782,-19.3619 -4.6839,-25.50875 3.323,-10.33568 7.2286,-21.03902 16.0582,-28.32484 0,0 4.7866,4.866 4.7866,4.866 z"
         id="path5301"
         style="color:#000000;clip-rule:nonzero;display:inline;overflow:visible;visibility:visible;opacity:1;isolation:auto;mix-blend-mode:normal;color-interpolation:sRGB;color-interpolation-filters:linearRGB;solid-color:#000000;solid-opacity:1;fill:#000000;fill-opacity:1;fill-rule:nonzero;stroke:none;stroke-width:5;stroke-linecap:butt;stroke-linejoin:miter;stroke-miterlimit:4;stroke-dasharray:none;stroke-dashoffset:0;stroke-opacity:1;marker:none;color-rendering:auto;image-rendering:auto;shape-rendering:auto;text-rendering:auto;enable-background:accumulate" />
      <path
         inkscape:connector-curvature="0"
         d="m 1347.0426,942.5978 c -5.6866,10.0824 -10.5777,20.52586 -15.3389,31.02928 -7.3339,16.00312 -13.1121,32.57812 -18.8949,49.13172 -2.0809,4.4728 -2.6823,9.9744 -5.8163,14.0172 -2.0708,2.6715 -1.5015,1.1225 -1.3185,0.461 0,0 0.1683,0.2019 0.1683,0.2019 l 0,0 c -1.3735,0.4486 -1.7881,0.964 -2.4052,-1.4486 -1.2099,-4.7305 1.6831,-10.7278 2.3374,-15.2625 4.876,-17.1577 11.1681,-33.89302 18.6308,-50.18436 5.0874,-10.7793 10.0993,-21.94405 17.8137,-31.28587 0,0 4.8236,3.34023 4.8236,3.34023 z"
         id="path5305"
         style="color:#000000;clip-rule:nonzero;display:inline;overflow:visible;visibility:visible;opacity:1;isolation:auto;mix-blend-mode:normal;color-interpolation:sRGB;color-interpolation-filters:linearRGB;solid-color:#000000;solid-opacity:1;fill:#000000;fill-opacity:1;fill-rule:nonzero;stroke:none;stroke-width:5;stroke-linecap:butt;stroke-linejoin:miter;stroke-miterlimit:4;stroke-dasharray:none;stroke-dashoffset:0;stroke-opacity:1;marker:none;color-rendering:auto;image-rendering:auto;shape-rendering:auto;text-rendering:auto;enable-background:accumulate" />
      <path
         inkscape:connector-curvature="0"
         d="m 1321.1222,999.59894 c 7.4987,-3.17488 12.6716,-9.71341 17.4859,-15.78292 4.4929,-6.30116 8.6043,-13.19358 9.1224,-20.95135 -0.076,-0.23745 -0.2461,-0.95999 -0.2278,-0.71235 0.3065,4.13505 5.6974,2.31132 5.5863,3.02037 -0.1003,0.64015 -0.4976,1.2045 -0.7176,1.81667 -0.3326,0.92558 -0.6265,1.86351 -0.9398,2.79525 -2.8491,9.71011 -4.5882,19.65891 -5.9412,29.64569 -0.9573,4.8377 -0.6879,9.9104 -1.8246,14.7225 -0.8903,3.7684 -1.1755,1.1593 -0.7225,3.5694 0,0 -0.1339,0.2241 -0.1339,0.2241 l 0,0 c -0.936,-0.1729 -2.0063,-0.026 -2.8077,-0.5187 -5.9324,-3.6507 -3.7518,-13.6595 -3.5551,-19.11771 1.4383,-10.58786 3.1502,-21.2156 6.8059,-31.34609 0.56,-1.35303 3.0203,-7.95152 4.6986,-8.37709 6.1241,-1.55321 7.3699,0.72809 7.3042,5.09183 -1.3525,8.8116 -6.3053,16.65222 -11.3835,23.96127 -5.1265,6.42671 -11.3865,14.45999 -19.4455,17.72739 -0.9632,0.3905 -2.015,0.5394 -3.0225,0.8091 0,0 -0.2816,-6.57736 -0.2816,-6.57736 z"
         id="path5307"
         style="color:#000000;clip-rule:nonzero;display:inline;overflow:visible;visibility:visible;opacity:1;isolation:auto;mix-blend-mode:normal;color-interpolation:sRGB;color-interpolation-filters:linearRGB;solid-color:#000000;solid-opacity:1;fill:#000000;fill-opacity:1;fill-rule:nonzero;stroke:none;stroke-width:5;stroke-linecap:butt;stroke-linejoin:miter;stroke-miterlimit:4;stroke-dasharray:none;stroke-dashoffset:0;stroke-opacity:1;marker:none;color-rendering:auto;image-rendering:auto;shape-rendering:auto;text-rendering:auto;enable-background:accumulate" />
      <path
         inkscape:connector-curvature="0"
         d="m 1383.2655,968.84429 c -7.7094,5.70847 -11.9271,14.25714 -15.8614,22.5327 -2.2087,5.51473 -4.4102,11.22311 -4.6318,17.20261 -0.039,1.0542 0.06,2.1245 0.3175,3.1503 0.078,0.3139 0.5909,1.0521 0.6592,0.7358 0.098,-0.4531 -0.3599,-0.8591 -0.5399,-1.2886 -0.022,-0.2739 -0.2136,-0.586 -0.065,-0.8215 0.3922,-0.6252 1.0959,-1.0188 1.5758,-1.5854 2.1602,-2.5505 4.1944,-5.6014 2.9385,-8.91808 -0.2457,0.0268 -0.5314,-0.0509 -0.737,0.0805 -0.2098,0.13378 -0.1747,0.48068 -0.3739,0.62848 -2.4984,1.8538 -6.7435,0.1747 -9.2447,-0.4703 0,0 -0.1544,-0.21171 -0.1544,-0.21171 l 0,0 c 0.4016,-1.36635 0.4428,-2.88087 1.2046,-4.09923 3.3881,-5.41846 12.5062,-5.20406 16.518,-0.60296 0.9747,1.11782 1.2203,2.66603 1.8304,3.99904 -0.02,1.35906 0.1765,2.73666 -0.058,4.07716 -0.8462,4.8443 -5.6821,12.1689 -10.4059,14.3195 -1.6312,0.7427 -3.513,0.8103 -5.2694,1.2155 -1.6025,-0.8122 -3.5171,-1.2184 -4.8075,-2.4365 -2.2214,-2.0971 -2.4397,-6.2706 -2.3075,-8.8904 0.3458,-6.8524 2.9577,-13.39451 5.5289,-19.70041 4.9229,-9.6479 10.6514,-19.65569 21.1135,-24.67183 0,0 2.7706,5.75575 2.7706,5.75575 z"
         id="path5309"
         style="color:#000000;clip-rule:nonzero;display:inline;overflow:visible;visibility:visible;opacity:1;isolation:auto;mix-blend-mode:normal;color-interpolation:sRGB;color-interpolation-filters:linearRGB;solid-color:#000000;solid-opacity:1;fill:#000000;fill-opacity:1;fill-rule:nonzero;stroke:none;stroke-width:5;stroke-linecap:butt;stroke-linejoin:miter;stroke-miterlimit:4;stroke-dasharray:none;stroke-dashoffset:0;stroke-opacity:1;marker:none;color-rendering:auto;image-rendering:auto;shape-rendering:auto;text-rendering:auto;enable-background:accumulate" />
      <path
         inkscape:connector-curvature="0"
         d="m 1426.0265,966.97604 c -6.6448,1.34068 -11.5496,6.00746 -16.1476,10.66238 -4.0187,4.97165 -11.2893,14.73653 -9.6566,21.64305 0.1194,0.50527 0.5963,0.85013 0.8944,1.27513 8.5462,-1.27819 14.512,-7.87498 20.0351,-13.94122 3.1568,-4.14888 10.2005,-13.78518 7.4371,-19.55394 -0.1507,-0.31444 -0.5518,-0.4263 -0.8278,-0.63941 -0.06,0.22991 -0.2832,0.47583 -0.1799,0.68981 0.014,0.0298 1.3082,1.06265 1.3177,1.45166 0.013,0.5555 -0.2543,1.08306 -0.3362,1.6326 -0.1558,1.04593 -0.3295,2.09351 -0.3765,3.14988 -0.067,1.49578 0.024,2.99439 0.036,4.4915 1.0516,13.15982 5.1419,25.80342 7.8326,38.67482 1.3355,8.9415 2.5449,19.7346 -3.4637,27.4428 -0.9525,1.2219 -2.2487,2.1317 -3.373,3.1976 -1.4218,0.6103 -2.754,1.4996 -4.2653,1.8309 -6.8185,1.4943 -13.4875,-2.8707 -16.1565,-9.0527 -0.7645,-1.7707 -0.9639,-3.735 -1.4459,-5.6025 0.092,-2.0972 -0.066,-4.2202 0.2749,-6.2915 2.0387,-12.381 11.23,-22.0019 19.4403,-30.76558 7.0576,-7.86588 15.519,-14.62781 21.5274,-23.40924 0.7723,-1.12874 1.3979,-2.35105 2.0969,-3.52658 1.2601,-1.25684 2.8063,-8.96526 -1.0563,-6.97442 -4.893,2.64902 -6.1913,8.20011 -7.167,13.24216 -0.2603,5.86562 0.3976,13.3081 5.5902,17.15336 0.6913,0.51201 1.533,0.78148 2.2994,1.17215 0.9146,-0.008 1.8432,0.14545 2.7436,-0.0149 6.6113,-1.17584 11.2507,-7.35048 14.8343,-12.43728 1.8102,-3.53827 4.7512,-7.94311 3.7471,-12.20227 -0.3799,-1.61101 -0.5725,-1.17608 -1.2782,-0.67607 -0.2777,0.62285 0.7165,1.21116 0.5704,1.83464 -0.1041,0.4438 -0.4711,0.78125 -0.6811,1.18581 -0.3455,0.66562 -0.7128,1.32403 -0.9844,2.02302 -1.0368,2.66848 -0.9428,3.1772 -1.3969,6.10165 -0.053,4.12878 0.7762,10.66708 4.2815,13.48243 0.6951,0.55817 1.5226,0.92748 2.2839,1.39122 1.2169,0.27426 2.4338,0.54852 3.6507,0.82278 0,0 0.032,0.22441 0.032,0.22441 l 0,0 c -1.4156,0.6486 -2.8312,1.29727 -4.2468,1.94586 -1.5262,0.033 -3.0845,0.41053 -4.5787,0.0979 -1.473,-0.30825 -2.8589,-1.04617 -4.0898,-1.91188 -5.7926,-4.07352 -6.4859,-11.17 -6.0762,-17.64174 0.3238,-1.62012 0.4945,-3.27846 0.9713,-4.86019 1.486,-4.92989 5.6074,-11.85557 11.7776,-11.30007 1.328,0.11963 2.4469,1.06022 3.6704,1.59029 0.5906,0.95747 1.3783,1.81847 1.7719,2.87233 2.1638,5.79505 -2.2411,13.42207 -4.8776,18.24827 -4.7441,6.63721 -10.7618,13.78745 -19.4817,14.79634 -1.5605,0.1806 -3.1402,-0.099 -4.7104,-0.1487 -1.5315,-0.48498 -3.173,-0.70697 -4.5948,-1.45517 -8.6968,-4.57667 -10.0632,-15.26903 -9.3204,-23.99559 0.4042,-1.81494 0.6487,-3.67297 1.2124,-5.44489 1.8117,-5.69395 5.7594,-11.7682 12.0042,-13.16877 1.2428,-0.27873 2.5454,-0.10118 3.8181,-0.15181 1.1344,0.45488 2.3928,0.67709 3.4034,1.36454 5.6308,3.83051 3.3594,11.16098 0.6156,15.89738 -7.0199,10.10672 -16.1907,18.33414 -24.6,27.25111 -6.8692,7.997 -14.7495,16.8422 -16.5044,27.667 -0.2309,1.424 -0.1124,2.883 -0.1685,4.3245 0.2655,1.1466 0.375,2.3409 0.7964,3.4398 1.414,3.6874 5.185,6.3608 9.0913,5.178 0.6049,-0.4528 1.3111,-0.7951 1.8148,-1.3583 4.9887,-5.5764 3.2024,-15.1481 2.3413,-21.7445 -2.8126,-13.4296 -7.1307,-26.62732 -8.01,-40.39115 0.088,-3.93216 -0.177,-6.93706 1.1155,-10.69621 1.4495,-4.21575 5.024,-8.23692 10.0053,-6.43792 1.1756,0.4245 1.9015,1.62263 2.8521,2.43402 0.4199,1.11336 1.0451,2.16965 1.2597,3.34007 1.5863,8.65435 -5.4695,17.55839 -10.164,23.96467 -5.4102,5.89238 -17.1271,18.61132 -26.3674,16.25422 -1.7212,-0.4391 -2.9974,-1.9072 -4.4961,-2.8608 -0.6175,-1.4947 -1.5689,-2.8919 -1.8523,-4.48405 -1.6168,-9.08284 6.6205,-20.64476 12.1617,-27.03338 1.4947,-1.37129 2.8983,-2.8491 4.4842,-4.11371 4.798,-3.82579 10.7956,-6.79671 17.0549,-6.30817 0,0 -0.2156,5.15235 -0.2156,5.15235 z"
         id="path5315"
         style="color:#000000;clip-rule:nonzero;display:inline;overflow:visible;visibility:visible;opacity:1;isolation:auto;mix-blend-mode:normal;color-interpolation:sRGB;color-interpolation-filters:linearRGB;solid-color:#000000;solid-opacity:1;fill:#000000;fill-opacity:1;fill-rule:nonzero;stroke:none;stroke-width:5;stroke-linecap:butt;stroke-linejoin:miter;stroke-miterlimit:4;stroke-dasharray:none;stroke-dashoffset:0;stroke-opacity:1;marker:none;color-rendering:auto;image-rendering:auto;shape-rendering:auto;text-rendering:auto;enable-background:accumulate" />
    </g>
  </g>
</svg>
