<?xml version="1.0" encoding="UTF-8" standalone="no"?>
<!-- Created with Inkscape (http://www.inkscape.org/) -->

<svg
   xmlns:dc="http://purl.org/dc/elements/1.1/"
   xmlns:cc="http://creativecommons.org/ns#"
   xmlns:rdf="http://www.w3.org/1999/02/22-rdf-syntax-ns#"
   xmlns:svg="http://www.w3.org/2000/svg"
   xmlns="http://www.w3.org/2000/svg"
   xmlns:sodipodi="http://sodipodi.sourceforge.net/DTD/sodipodi-0.dtd"
   xmlns:inkscape="http://www.inkscape.org/namespaces/inkscape"
   width="96.385109mm"
   height="46.863464mm"
   viewBox="0 0 96.385109 46.863464"
   version="1.1"
   id="svg1687"
   inkscape:version="0.92.5 (2060ec1f9f, 2020-04-08)"
   sodipodi:docname="s01e00p3_logo.svg"
   inkscape:export-filename="/home/gee/art/GriseBouille/png/bd_a5_90dpi/s01e00.png"
   inkscape:export-xdpi="179.944"
   inkscape:export-ydpi="179.944">
  <defs
     id="defs1681" />
  <sodipodi:namedview
     id="base"
     pagecolor="#ffffff"
     bordercolor="#666666"
     borderopacity="1.0"
     inkscape:pageopacity="0.0"
     inkscape:pageshadow="2"
     inkscape:zoom="2.4165778"
     inkscape:cx="215.95964"
     inkscape:cy="147.77243"
     inkscape:document-units="mm"
     inkscape:current-layer="layer1"
     showgrid="false"
     inkscape:window-width="2560"
     inkscape:window-height="1391"
     inkscape:window-x="0"
     inkscape:window-y="24"
     inkscape:window-maximized="1"
     borderlayer="true"
     showguides="true"
     inkscape:guide-bbox="true"
     inkscape:snap-global="true"
     fit-margin-top="0"
     fit-margin-left="0"
     fit-margin-right="0"
     fit-margin-bottom="0"
     inkscape:snap-page="true">
    <sodipodi:guide
       position="15,0"
       orientation="1,0"
       id="guide1801"
       inkscape:locked="false"
       inkscape:label=""
       inkscape:color="rgb(0,0,255)" />
    <sodipodi:guide
       position="0,10"
       orientation="0,1"
       id="guide1803"
       inkscape:locked="false"
       inkscape:label=""
       inkscape:color="rgb(0,0,255)" />
    <sodipodi:guide
       position="0,30"
       orientation="0,1"
       id="guide1805"
       inkscape:locked="false"
       inkscape:label=""
       inkscape:color="rgb(0,0,255)" />
    <sodipodi:guide
       position="138,0"
       orientation="1,0"
       id="guide1807"
       inkscape:locked="false"
       inkscape:label=""
       inkscape:color="rgb(0,0,255)" />
    <sodipodi:guide
       position="0,190.5"
       orientation="0,1"
       id="guide1809"
       inkscape:locked="false"
       inkscape:label=""
       inkscape:color="rgb(0,0,255)" />
  </sodipodi:namedview>
  <metadata
     id="metadata1684">
    <rdf:RDF>
      <cc:Work
         rdf:about="">
        <dc:format>image/svg+xml</dc:format>
        <dc:type
           rdf:resource="http://purl.org/dc/dcmitype/StillImage" />
        <dc:title />
      </cc:Work>
    </rdf:RDF>
  </metadata>
  <g
     inkscape:label="Calque 1"
     inkscape:groupmode="layer"
     id="layer1"
     transform="translate(-27.064449,-112.55572)">
    <rect
       style="opacity:1;vector-effect:none;fill:#ffffff;fill-opacity:1;stroke:none;stroke-width:0.18376082px;stroke-linecap:butt;stroke-linejoin:miter;stroke-miterlimit:4;stroke-dasharray:none;stroke-dashoffset:0;stroke-opacity:1;marker:none"
       id="rect912"
       width="96.385109"
       height="46.863461"
       x="27.064449"
       y="112.55572" />
    <g
       id="g6199"
       transform="matrix(1.9672913,0.00132538,-0.00132538,1.9672913,-714.92892,78.64131)"
       style="stroke-width:0.40589717">
      <g
         transform="matrix(0.96251363,0.01961659,-0.01961659,0.96251363,273.05999,-168.39628)"
         id="g5080-2"
         style="stroke-width:0.40589717">
        <path
           inkscape:connector-curvature="0"
           id="path5054-3"
           d="m 124.73828,193.14453 c -4.6807,0.50667 -9.0286,3.28308 -11.6151,7.19087 -0.67127,1.37654 -0.0559,3.2821 1.44511,3.79528 0.60947,0.3281 1.27489,0.54414 1.94929,0.69354 -1.64264,0.45274 -3.44936,1.41458 -3.99219,3.14648 -0.31896,1.10849 0.23822,2.34587 1.28711,2.83594 2.03154,1.20983 4.52018,0.85391 6.75337,0.59922 2.45132,-0.38535 5.07043,-1.0552 6.85991,-2.88047 0.87335,-1.00435 1.03866,-2.71859 -0.0742,-3.61914 -1.45638,-1.35081 -3.54972,-1.47784 -5.38522,-1.95361 -1.91334,-0.39704 -3.85218,-0.691 -5.66946,-1.43116 -0.17916,-1.06576 0.95054,-1.69871 1.58874,-2.36524 2.22338,-1.87798 5.14945,-2.80627 8.03821,-2.71874 -1.67104,1.10741 -3.66797,1.49616 -5.54557,2.05981 -1.15108,0.66932 -1.68768,2.09976 -1.72982,3.3523 0.57056,0.69349 1.4898,0.0647 2.21066,0.0748 3.17923,-0.54528 6.46965,-1.78372 8.54129,-4.37168 0.81555,-1.23046 0.49357,-3.14723 -0.92288,-3.78572 -1.12144,-0.65414 -2.47396,-0.72154 -3.73923,-0.62248 z m -5.11914,12.20117 c 1.76739,0.26926 3.56472,0.43294 5.2207,1.16211 -0.10503,0.74796 -1.07814,0.7643 -1.58967,1.13051 -2.21657,1.00946 -4.73054,1.58845 -7.14275,0.99645 1.32033,-0.70197 2.92272,-0.3648 4.36609,-0.5723 0.26741,-0.10811 1.12661,-1.2e-4 0.90512,-0.4016 -0.40845,-0.98764 -1.15444,-1.82699 -2.07394,-2.3679 0.10482,0.0176 0.20963,0.0352 0.31445,0.0527 z"
           style="vector-effect:none;fill:#000000;fill-opacity:1;fill-rule:nonzero;stroke:none;stroke-width:0.56843448;stroke-linecap:butt;stroke-linejoin:miter;stroke-miterlimit:4;stroke-dasharray:none;stroke-dashoffset:0;stroke-opacity:1;marker:none" />
        <path
           inkscape:connector-curvature="0"
           id="path5056-7"
           d="m 129.43164,198.73828 c -0.72292,-0.042 -1.34564,0.55732 -1.53125,1.20899 -0.35229,-0.85977 -1.53104,-0.7308 -2.23828,-0.45118 -0.92299,0.34269 -1.42725,1.31988 -1.35843,2.27379 -0.12089,1.71838 0.82205,3.77675 2.68223,4.05875 2.3979,0.3609 4.48176,-1.92959 4.57709,-4.21369 0.12552,-1.28716 -0.62325,-2.97374 -2.13136,-2.87666 z m -1.42578,2.32031 c 0.39809,0.37457 0.66875,0.94313 0.37695,1.47461 -0.12316,0.50311 -1.03171,0.74872 -1.01758,0.0508 -0.008,-0.61637 0.4068,-1.12931 0.55665,-1.70898 0.028,0.0612 0.056,0.1224 0.084,0.18359 z"
           style="vector-effect:none;fill:#000000;fill-opacity:1;fill-rule:nonzero;stroke:none;stroke-width:0.56843448;stroke-linecap:butt;stroke-linejoin:miter;stroke-miterlimit:4;stroke-dasharray:none;stroke-dashoffset:0;stroke-opacity:1;marker:none" />
        <path
           inkscape:connector-curvature="0"
           id="path5058-5"
           d="m 131.81836,195.76758 c -1.38598,0.15829 -2.16341,1.85869 -1.61719,3.08008 0.18053,3.01187 -0.30067,6.05986 -1.42288,8.85529 -0.46426,0.78962 -1.25638,1.5643 -1.1611,2.5451 0.61292,0.97793 1.89721,0.49517 2.7845,0.29416 1.1443,-0.15531 2.04391,-1.27416 1.86508,-2.43233 0.38868,-3.79013 1.19738,-7.62089 0.64787,-11.43358 -0.14338,-0.4783 -0.55332,-0.95364 -1.09628,-0.90872 z"
           style="vector-effect:none;fill:#000000;fill-opacity:1;fill-rule:nonzero;stroke:none;stroke-width:0.56843448;stroke-linecap:butt;stroke-linejoin:miter;stroke-miterlimit:4;stroke-dasharray:none;stroke-dashoffset:0;stroke-opacity:1;marker:none" />
        <path
           inkscape:connector-curvature="0"
           id="path5060-9"
           d="m 132.19727,193.79102 c -1.56833,0.0178 -3.35503,0.90278 -3.62414,2.59065 -0.24861,0.72245 -0.2089,1.85005 0.66125,2.11247 1.5544,0.0135 2.28027,-2.02826 3.89101,-1.76603 1.2122,-0.008 2.57565,0.0592 3.44492,1.02384 0.22585,0.94475 -0.93419,1.38824 -1.67062,1.53195 -1.14142,0.28609 -2.43607,-0.14261 -3.49718,0.4155 -1.15955,0.92401 -0.20765,3.1377 1.27751,2.89594 2.77138,0.16109 5.87819,-1.14538 6.96381,-3.85133 0.54768,-1.40458 -0.29916,-2.97588 -1.56789,-3.653 -1.7326,-1.08463 -3.87554,-1.31674 -5.87867,-1.29999 z"
           style="vector-effect:none;fill:#000000;fill-opacity:1;fill-rule:nonzero;stroke:none;stroke-width:0.56843448;stroke-linecap:butt;stroke-linejoin:miter;stroke-miterlimit:4;stroke-dasharray:none;stroke-dashoffset:0;stroke-opacity:1;marker:none" />
        <path
           inkscape:connector-curvature="0"
           id="path5062-2"
           d="m 137.96289,201.00195 c -1.91153,0.13977 -3.95859,0.87218 -4.97565,2.60713 -1.11952,1.47589 -1.70876,3.75373 -0.45646,5.32939 1.23104,1.46128 3.35835,1.39888 5.07286,1.09023 1.33005,-0.08 3.04662,-0.44406 3.47704,-1.91042 0.20384,-0.68213 0.13597,-1.4097 -0.0162,-2.09484 -2.13253,-0.17402 -3.8853,1.86055 -6.03906,1.26758 -0.59504,-0.48223 -0.0323,-1.33659 0.15039,-1.89063 0.50908,-0.97038 1.77233,-1.48582 2.80309,-1.00357 0.81029,0.23143 1.76532,-0.28002 1.89685,-1.13896 0.41527,-0.77975 0.2681,-2.13423 -0.78102,-2.28197 -0.37404,-0.0569 -0.75599,0.0226 -1.13181,0.0261 z"
           style="vector-effect:none;fill:#000000;fill-opacity:1;fill-rule:nonzero;stroke:none;stroke-width:0.56843448;stroke-linecap:butt;stroke-linejoin:miter;stroke-miterlimit:4;stroke-dasharray:none;stroke-dashoffset:0;stroke-opacity:1;marker:none" />
        <path
           inkscape:connector-curvature="0"
           id="path5064-2"
           d="m 138.85352,203.29297 c -1.99545,0.74875 -4.4244,0.56336 -6.07583,2.07347 -0.47701,0.64518 -0.39678,1.92788 0.53481,2.08864 1.84438,-0.52549 3.82041,-0.43175 5.6582,-0.98828 0.88985,-0.81186 0.96669,-2.45828 -0.0605,-3.19336 z"
           style="vector-effect:none;fill:#000000;fill-opacity:1;fill-rule:nonzero;stroke:none;stroke-width:0.56843448;stroke-linecap:butt;stroke-linejoin:miter;stroke-miterlimit:4;stroke-dasharray:none;stroke-dashoffset:0;stroke-opacity:1;marker:none" />
        <path
           inkscape:connector-curvature="0"
           id="path5066-8"
           d="m 140.07617,195.54492 c -0.20953,0.94368 -0.0891,1.90599 -0.11523,2.86133 -1.03905,0.31633 -1.10049,1.60754 -1.00147,2.50611 -0.0722,2.05905 -0.57713,4.05042 -0.97705,6.06811 1.04345,1.33627 3.34002,0.25259 3.38281,-1.30859 0.0739,-1.44407 -0.043,-2.89984 0.25844,-4.32484 0.0678,-0.98251 0.3627,-2.01067 0.20507,-2.97567 -0.59182,-1.05363 -1.32131,-2.03756 -1.70374,-3.19754 -0.0163,0.1237 -0.0325,0.24739 -0.0488,0.37109 z"
           style="vector-effect:none;fill:#000000;fill-opacity:1;fill-rule:nonzero;stroke:none;stroke-width:0.56843448;stroke-linecap:butt;stroke-linejoin:miter;stroke-miterlimit:4;stroke-dasharray:none;stroke-dashoffset:0;stroke-opacity:1;marker:none" />
        <path
           inkscape:connector-curvature="0"
           id="path5068-9"
           d="m 142.70312,196.80469 c -1.63956,-0.1062 -3.41624,0.41059 -4.47656,1.72656 0.48433,0.87874 -0.37034,2.19071 0.63867,2.83398 1.56512,-0.18003 2.63634,-1.91539 4.29883,-1.59179 0.58765,0.47686 -0.11632,1.18644 -0.65429,1.30664 -1.07208,0.46262 -2.67106,0.42619 -3.16993,1.6914 -0.21002,0.78735 0.36598,1.81063 1.24805,1.76172 0.81691,0.69903 0.79254,1.91403 1.46606,2.72423 1.06604,2.01433 2.76592,4.03025 5.1318,4.41796 1.5408,0.12201 3.43827,-0.89577 3.42787,-2.60973 0.0124,-0.87886 -0.40493,-2.17225 -1.47495,-2.1223 -1.00684,0.14738 -1.13983,1.47357 -2.05664,1.75781 -1.62502,-0.62308 -2.41386,-2.34909 -3.17102,-3.79775 -0.0472,-0.41357 -0.87508,-1.1182 -0.46994,-1.32581 2.02662,-0.67732 3.47168,-3.25389 2.35066,-5.23448 -0.60286,-1.06527 -1.88665,-1.65288 -3.08861,-1.53844 z"
           style="vector-effect:none;fill:#000000;fill-opacity:1;fill-rule:nonzero;stroke:none;stroke-width:0.56843448;stroke-linecap:butt;stroke-linejoin:miter;stroke-miterlimit:4;stroke-dasharray:none;stroke-dashoffset:0;stroke-opacity:1;marker:none" />
        <path
           inkscape:connector-curvature="0"
           id="path5070-7"
           d="m 147.52539,195.53125 c -1.87903,0.85373 -2.38234,3.25641 -1.94141,5.11133 0.2862,1.84883 1.17758,3.61947 0.9336,5.51953 -0.76249,0.17798 -1.72013,0.86672 -1.38867,1.75195 0.22833,1.37523 2.24782,2.18067 3.18708,1.00272 1.40431,-1.3022 1.15341,-3.42352 0.85148,-5.12369 -0.25243,-1.76116 -1.11328,-3.62159 -0.31257,-5.35695 0.60397,-0.88819 1.54066,-1.45782 2.34822,-2.13926 -1.18453,-0.40442 -2.40023,-0.88569 -3.67773,-0.76563 z"
           style="vector-effect:none;fill:#000000;fill-opacity:1;fill-rule:nonzero;stroke:none;stroke-width:0.56843448;stroke-linecap:butt;stroke-linejoin:miter;stroke-miterlimit:4;stroke-dasharray:none;stroke-dashoffset:0;stroke-opacity:1;marker:none" />
        <path
           inkscape:connector-curvature="0"
           id="path5072-3"
           d="m 161.03516,193.02734 c -2.55031,1.17299 -5.18413,2.44635 -8.06128,2.28653 -3.74092,-0.14578 -7.43799,-1.38147 -11.20205,-0.82774 -0.9497,0.16688 -1.96989,0.34373 -2.77574,0.89668 -0.61065,0.59974 -0.17223,1.52309 0.45185,1.91394 1.09806,0.87084 2.59681,0.61284 3.83813,0.26283 3.88357,-0.62426 7.72574,0.81911 11.61929,0.53759 1.83898,-0.113 3.72127,-0.38702 5.40323,-1.16748 1.14025,-0.6979 1.93599,-2.19776 1.51398,-3.51428 -0.1508,-0.27049 -0.48089,-0.44004 -0.78741,-0.38807 z"
           style="vector-effect:none;fill:#000000;fill-opacity:1;fill-rule:nonzero;stroke:none;stroke-width:0.56843448;stroke-linecap:butt;stroke-linejoin:miter;stroke-miterlimit:4;stroke-dasharray:none;stroke-dashoffset:0;stroke-opacity:1;marker:none" />
        <path
           inkscape:connector-curvature="0"
           id="path5074-6"
           d="m 154.42969,197.51562 c -1.93708,0.98821 -3.79658,2.64602 -6.12577,2.38471 -1.01578,0.0161 -2.17057,-0.42195 -3.09977,0.14242 -1.02022,0.87649 -0.3718,3.01706 1.08904,2.82049 2.85871,-0.18372 5.95055,-0.19422 8.42361,-1.8359 0.79826,-0.67797 0.90455,-1.94286 0.56445,-2.88086 -0.15768,-0.33384 -0.43112,-0.70394 -0.85156,-0.63086 z"
           style="vector-effect:none;fill:#000000;fill-opacity:1;fill-rule:nonzero;stroke:none;stroke-width:0.56843448;stroke-linecap:butt;stroke-linejoin:miter;stroke-miterlimit:4;stroke-dasharray:none;stroke-dashoffset:0;stroke-opacity:1;marker:none" />
        <path
           inkscape:connector-curvature="0"
           id="path5076-1"
           d="m 151.42969,201.33398 c -1.21815,-0.0717 -2.15921,1.60895 -1.29492,2.54493 0.33716,1.50213 -0.98639,2.87981 -0.50712,4.38328 0.29722,1.92036 2.22011,3.28294 4.1143,3.21693 1.52651,0.1886 3.38316,0.0341 4.31078,-1.3756 0.44658,-0.60606 0.98208,-1.37313 0.83549,-2.14278 -0.47855,-0.76865 -1.47261,-0.19023 -2.11967,-0.0115 -1.32124,0.37684 -2.83991,0.8884 -4.13769,0.16408 -0.48809,-0.91423 0.365,-1.82529 0.49468,-2.72817 0.44234,-1.28439 0.50461,-3.10245 -0.81312,-3.89565 -0.26728,-0.14498 -0.58353,-0.17578 -0.88273,-0.15548 z"
           style="vector-effect:none;fill:#000000;fill-opacity:1;fill-rule:nonzero;stroke:none;stroke-width:0.56843448;stroke-linecap:butt;stroke-linejoin:miter;stroke-miterlimit:4;stroke-dasharray:none;stroke-dashoffset:0;stroke-opacity:1;marker:none" />
        <path
           inkscape:connector-curvature="0"
           id="path5078-2"
           d="m 161.73633,195.25586 c -1.73573,0.58085 -2.38919,2.83111 -1.65821,4.4082 0.62345,2.70151 -0.98554,5.98132 -3.8164,6.56836 -0.47902,0.13999 -0.66221,-0.27972 -0.46516,-0.65952 0.66783,-2.68701 1.51678,-5.31345 2.39875,-7.94204 -0.0732,-0.91286 -1.24127,-0.95386 -1.8942,-0.67946 -1.22276,0.1209 -2.24816,1.3074 -2.06799,2.54619 -0.29099,2.50656 -1.45384,4.91973 -1.38811,7.48108 0.2833,1.46825 1.93946,2.28591 3.33302,1.95936 2.42047,-0.23303 4.61397,-1.77067 5.91963,-3.77983 1.18827,-2.16452 0.98514,-4.72949 1.01786,-7.11242 -0.094,-0.85218 0.005,-1.88752 -0.59794,-2.56531 -0.21788,-0.17284 -0.5022,-0.2712 -0.78125,-0.22461 z"
           style="vector-effect:none;fill:#000000;fill-opacity:1;fill-rule:nonzero;stroke:none;stroke-width:0.56843448;stroke-linecap:butt;stroke-linejoin:miter;stroke-miterlimit:4;stroke-dasharray:none;stroke-dashoffset:0;stroke-opacity:1;marker:none" />
      </g>
      <path
         id="path5892"
         d="m 389.977,20.679843 c -2.53098,0.0182 -5.00719,1.032899 -7.15823,2.457214 a 27.827483,6.736864 84.984297 0 0 0.0196,1.170988 c 1.98025,-1.347382 4.18053,-2.049607 6.73035,-2.128035 0.86886,0.0197 1.72188,-0.195326 2.41948,0.374654 0.22193,0.17376 0.13515,0.354407 -0.0548,0.532267 -0.64307,0.64603 -1.48614,0.897568 -2.2469,1.384929 -1.25745,0.73862 -2.93129,0.843808 -4.34186,1.225248 -0.27371,0.15859 -1.09456,1.595931 -1.0604,1.842781 1.22071,-0.11473 4.07083,-0.660919 5.14699,-1.196309 1.23082,-0.6787 2.44975,-1.401834 3.49176,-2.350244 0.41595,-0.41132 0.68117,-1.687396 0.26975,-2.147156 -0.70784,-0.90162 -2.15117,-1.131807 -3.2158,-1.166337 z"
         style="color:#000000;clip-rule:nonzero;display:inline;overflow:visible;visibility:visible;opacity:1;isolation:auto;mix-blend-mode:normal;color-interpolation:sRGB;color-interpolation-filters:linearRGB;solid-color:#000000;solid-opacity:1;vector-effect:none;fill:#aa8800;fill-opacity:1;fill-rule:nonzero;stroke:none;stroke-width:0.15580291;stroke-linecap:butt;stroke-linejoin:miter;stroke-miterlimit:4;stroke-dasharray:none;stroke-dashoffset:0;stroke-opacity:1;marker:none;color-rendering:auto;image-rendering:auto;shape-rendering:auto;text-rendering:auto;enable-background:accumulate"
         inkscape:connector-curvature="0" />
      <path
         id="path5890"
         d="m 424.34905,21.320114 c -1.63005,0.93301 -4.56317,2.015124 -6.41306,2.086694 -3.35311,0.0591 -6.00953,-0.764024 -9.84538,-1.205094 -0.4191,-0.01021 -1.11688,0.0331 -1.85052,0.120923 l -0.63511,1.597318 c 1.71321,-0.47934 3.64326,-0.546879 5.37435,-0.320394 0.0553,0.0084 0.10668,0.01735 0.16174,0.02584 -0.81759,0.621457 -1.11871,1.900389 -1.0754,2.886129 0.0201,0.339267 0.065,0.67626 0.12248,1.011825 -0.48911,-0.07183 -0.75213,-0.100577 -0.7488,0.06046 -0.0885,0.3128 -0.16542,1.24795 0.14317,1.197859 0.27982,-0.0012 0.57816,-0.009 0.86971,-0.01343 0.34843,1.453243 0.76494,2.897874 0.53639,4.399215 -0.0792,0.45309 -0.92612,0.637366 -1.39629,0.772046 -0.29583,0.12751 0.40196,1.187496 0.69763,1.265556 0.56655,0.16375 1.20658,-0.476978 1.41851,-0.939477 0.54398,-1.150471 0.25159,-2.697998 0.0574,-3.902088 -0.0973,-0.543054 -0.19677,-1.080015 -0.28628,-1.617473 1.55236,-0.05477 3.0916,-0.191126 4.06694,-0.534334 1.37938,-0.48537 2.15701,-0.657756 2.24636,-1.037146 0.0893,-0.3794 0.34777,-1.73437 0.0817,-1.66088 -0.26609,0.0735 -0.85651,0.757728 -2.01692,1.281059 -1.16046,0.523339 -1.88505,0.971058 -3.66387,0.926558 -0.32009,-0.008 -0.60491,-0.02959 -0.8723,-0.05478 -0.06,-0.538348 -0.0911,-1.081419 -0.0723,-1.635559 0.0413,-0.633445 0.88985,-1.636635 1.5141,-2.147156 2.55612,0.412326 4.96499,0.757973 7.64038,0.266134 0.88061,-0.16308 2.53995,-0.338338 3.22617,-0.941028 0.20868,-0.29872 0.99232,-1.934644 0.71933,-1.888774 z"
         style="color:#000000;clip-rule:nonzero;display:inline;overflow:visible;visibility:visible;opacity:1;isolation:auto;mix-blend-mode:normal;color-interpolation:sRGB;color-interpolation-filters:linearRGB;solid-color:#000000;solid-opacity:1;vector-effect:none;fill:#aa8800;fill-opacity:1;fill-rule:nonzero;stroke:none;stroke-width:0.15580291;stroke-linecap:butt;stroke-linejoin:miter;stroke-miterlimit:4;stroke-dasharray:none;stroke-dashoffset:0;stroke-opacity:1;marker:none;color-rendering:auto;image-rendering:auto;shape-rendering:auto;text-rendering:auto;enable-background:accumulate"
         inkscape:connector-curvature="0" />
      <path
         id="path5888"
         d="m 395.4516,21.696318 c -0.31488,0.09933 -0.65117,0.245973 -1.08678,0.47439 -0.33414,0.214 -0.87656,2.341812 -0.55861,2.147673 0.94974,-0.558061 1.42176,-1.021736 1.87171,-1.322917 a 27.827483,6.736864 84.984297 0 0 -0.22632,-1.299146 z"
         style="color:#000000;clip-rule:nonzero;display:inline;overflow:visible;visibility:visible;opacity:1;isolation:auto;mix-blend-mode:normal;color-interpolation:sRGB;color-interpolation-filters:linearRGB;solid-color:#000000;solid-opacity:1;vector-effect:none;fill:#aa8800;fill-opacity:1;fill-rule:nonzero;stroke:none;stroke-width:0.15580291;stroke-linecap:butt;stroke-linejoin:miter;stroke-miterlimit:4;stroke-dasharray:none;stroke-dashoffset:0;stroke-opacity:1;marker:none;color-rendering:auto;image-rendering:auto;shape-rendering:auto;text-rendering:auto;enable-background:accumulate"
         inkscape:connector-curvature="0" />
      <path
         id="path5886"
         d="m 400.1066,21.996042 a 9.8449985,28.898231 0 0 1 0.13229,1.125512 c 0.3475,0.157157 0.68305,0.357958 1.00407,0.615467 0.42166,0.36004 0.53049,1.242957 0.20928,1.765267 -0.25283,0.443918 -0.58259,0.709373 -0.96271,0.896069 a 9.8449985,28.898231 0 0 1 0.0532,1.177189 c 0.25296,-0.130337 0.49548,-0.278771 0.7276,-0.441834 a 13.261988,31.622116 19.154696 0 1 1.46039,-3.379121 c -0.60497,-0.960915 -1.57069,-1.431866 -2.62413,-1.758549 z"
         style="color:#000000;clip-rule:nonzero;display:inline;overflow:visible;visibility:visible;opacity:1;isolation:auto;mix-blend-mode:normal;color-interpolation:sRGB;color-interpolation-filters:linearRGB;solid-color:#000000;solid-opacity:1;vector-effect:none;fill:#aa8800;fill-opacity:1;fill-rule:nonzero;stroke:none;stroke-width:0.15580291;stroke-linecap:butt;stroke-linejoin:miter;stroke-miterlimit:4;stroke-dasharray:none;stroke-dashoffset:0;stroke-opacity:1;marker:none;color-rendering:auto;image-rendering:auto;shape-rendering:auto;text-rendering:auto;enable-background:accumulate"
         inkscape:connector-curvature="0" />
      <path
         id="path5884"
         d="m 425.05133,23.490007 c -0.43307,0.0031 -1.19589,1.353107 -1.2051,1.643828 -0.16409,0.41696 0.57327,1.325688 0.34573,3.132108 -0.22754,1.80641 -0.0821,2.087431 -1.202,3.478341 -0.92273,1.14732 -1.66256,1.788362 -3.0825,2.143022 -0.51824,0.109839 -1.36295,0.239456 -1.72651,-0.213424 -0.42455,-0.74754 0.12866,-1.532317 0.25839,-2.313037 0.38769,-1.65833 1.12397,-3.383264 1.33323,-4.324284 0.20926,-0.94102 0.83939,-1.899182 0.85424,-2.128552 -0.26332,-0.032 -1.95011,0.329334 -1.95339,0.711584 -0.20466,1.34893 -0.48628,3.009231 -0.88572,4.307231 -0.39741,1.19485 -0.9805,2.724744 -0.68988,3.990454 0.23916,0.78634 1.23836,1.006813 2.03399,0.952913 1.32434,-0.0303 2.54135,-0.683674 3.60441,-1.414384 1.24101,-0.88074 2.08667,-2.042017 2.3182,-3.568258 0.25668,-1.350679 0.44892,-4.804359 0.23101,-6.155179 -0.0515,-0.172348 -0.13417,-0.243082 -0.2341,-0.242363 z"
         style="color:#000000;clip-rule:nonzero;display:inline;overflow:visible;visibility:visible;opacity:1;isolation:auto;mix-blend-mode:normal;color-interpolation:sRGB;color-interpolation-filters:linearRGB;solid-color:#000000;solid-opacity:1;vector-effect:none;fill:#aa8800;fill-opacity:1;fill-rule:nonzero;stroke:none;stroke-width:0.15580291;stroke-linecap:butt;stroke-linejoin:miter;stroke-miterlimit:4;stroke-dasharray:none;stroke-dashoffset:0;stroke-opacity:1;marker:none;color-rendering:auto;image-rendering:auto;shape-rendering:auto;text-rendering:auto;enable-background:accumulate"
         inkscape:connector-curvature="0" />
      <path
         id="path5882"
         d="m 395.77198,23.625916 c -0.28884,0.199429 -0.59756,0.478488 -0.49453,0.691948 0.26027,1.21247 0.21815,2.574828 0.0754,3.802868 -0.23066,1.99242 -0.40722,2.081842 -0.70279,4.062802 -0.67138,2.81049 -2.37836,3.824068 -2.01282,3.943428 0.30856,0.1147 2.65573,-0.432586 2.6691,-0.684196 0.38697,-1.59531 0.47625,-3.67663 0.75448,-5.29425 0.0753,-0.327547 0.17735,-1.094502 0.26718,-1.982308 0.0185,0.0054 0.0386,0.008 0.0574,0.01292 a 27.827483,6.736864 84.984297 0 0 -0.61341,-4.553212 z"
         style="color:#000000;clip-rule:nonzero;display:inline;overflow:visible;visibility:visible;opacity:1;isolation:auto;mix-blend-mode:normal;color-interpolation:sRGB;color-interpolation-filters:linearRGB;solid-color:#000000;solid-opacity:1;vector-effect:none;fill:#aa8800;fill-opacity:1;fill-rule:nonzero;stroke:none;stroke-width:0.15580291;stroke-linecap:butt;stroke-linejoin:miter;stroke-miterlimit:4;stroke-dasharray:none;stroke-dashoffset:0;stroke-opacity:1;marker:none;color-rendering:auto;image-rendering:auto;shape-rendering:auto;text-rendering:auto;enable-background:accumulate"
         inkscape:connector-curvature="0" />
      <path
         id="path5880"
         d="m 381.25659,24.285308 c -0.20608,0.166896 -0.40957,0.33547 -0.60668,0.507462 -0.8414,0.76751 -1.70811,1.643219 -1.99265,2.782259 -0.15391,0.61454 0.11008,1.273612 0.62425,1.633492 0.50251,0.383029 1.08606,0.606254 1.69189,0.774113 a 9.8449985,28.898231 0 0 1 0.0222,-1.243851 c -0.0491,-0.01662 -0.0976,-0.03002 -0.14677,-0.04703 -0.44112,-0.17158 -0.76523,-0.30359 -0.74052,-0.86558 0.10408,-0.934272 0.44387,-1.524088 1.0325,-2.143539 a 9.8449985,28.898231 0 0 1 0.11575,-1.39733 z"
         style="color:#000000;clip-rule:nonzero;display:inline;overflow:visible;visibility:visible;opacity:1;isolation:auto;mix-blend-mode:normal;color-interpolation:sRGB;color-interpolation-filters:linearRGB;solid-color:#000000;solid-opacity:1;vector-effect:none;fill:#aa8800;fill-opacity:1;fill-rule:nonzero;stroke:none;stroke-width:0.15580291;stroke-linecap:butt;stroke-linejoin:miter;stroke-miterlimit:4;stroke-dasharray:none;stroke-dashoffset:0;stroke-opacity:1;marker:none;color-rendering:auto;image-rendering:auto;shape-rendering:auto;text-rendering:auto;enable-background:accumulate"
         inkscape:connector-curvature="0" />
      <path
         id="path5874"
         d="m 393.9726,26.215422 c -0.47535,0.0026 -0.94139,0.380096 -0.92757,0.54312 0.15705,0.5921 1.00396,1.576522 0.66815,2.127002 -0.44059,0.72226 -0.71165,1.351964 -1.54046,1.537374 -0.48307,0.0616 -1.23158,-0.538671 -1.29863,-0.972551 -0.18854,-0.74812 0.48713,-1.981675 0.70022,-2.704744 -0.21606,-0.0945 -1.50302,0.05346 -1.67743,0.365869 -0.3752,1.09184 -0.29586,2.595435 0.42323,3.573425 0.57594,0.71743 2.03872,0.853809 2.73473,0.345199 1.08548,-0.66213 2.18435,-2.19783 1.82158,-3.863331 -0.1587,-0.728656 -0.53409,-0.953395 -0.90382,-0.951363 z"
         style="color:#000000;clip-rule:nonzero;display:inline;overflow:visible;visibility:visible;opacity:1;isolation:auto;mix-blend-mode:normal;color-interpolation:sRGB;color-interpolation-filters:linearRGB;solid-color:#000000;solid-opacity:1;vector-effect:none;fill:#aa8800;fill-opacity:1;fill-rule:nonzero;stroke:none;stroke-width:0.15580291;stroke-linecap:butt;stroke-linejoin:miter;stroke-miterlimit:4;stroke-dasharray:none;stroke-dashoffset:0;stroke-opacity:1;marker:none;color-rendering:auto;image-rendering:auto;shape-rendering:auto;text-rendering:auto;enable-background:accumulate"
         inkscape:connector-curvature="0" />
      <path
         id="path5872"
         d="m 400.63473,28.72328 c -0.0132,0.0024 -0.0262,0.0052 -0.0393,0.0078 a 9.8449985,28.898231 0 0 1 0.004,0.08165 13.261988,31.622116 19.154696 0 1 0.0357,-0.0894 z"
         style="color:#000000;clip-rule:nonzero;display:inline;overflow:visible;visibility:visible;opacity:1;isolation:auto;mix-blend-mode:normal;color-interpolation:sRGB;color-interpolation-filters:linearRGB;solid-color:#000000;solid-opacity:1;vector-effect:none;fill:#aa8800;fill-opacity:1;fill-rule:nonzero;stroke:none;stroke-width:0.15580291;stroke-linecap:butt;stroke-linejoin:miter;stroke-miterlimit:4;stroke-dasharray:none;stroke-dashoffset:0;stroke-opacity:1;marker:none;color-rendering:auto;image-rendering:auto;shape-rendering:auto;text-rendering:auto;enable-background:accumulate"
         inkscape:connector-curvature="0" />
      <path
         id="path5870"
         d="m 415.11911,29.140825 c -0.55785,-0.03477 -1.1666,0.50868 -0.93274,0.784448 0.36674,0.65276 0.56468,0.985222 0.37825,1.649512 -0.3896,1.20194 -0.90313,2.363684 -0.57462,3.655074 0.30313,0.9938 1.14927,1.664096 2.15387,1.864486 1.18446,0.26645 2.80244,0.383224 3.88606,-0.170015 -0.003,-0.262721 1.30675,-1.70185 1.06403,-1.605071 -0.63003,0.0868 -2.006,0.741341 -3.4153,0.780831 -0.88865,-0.0672 -1.80626,-0.08385 -2.45618,-0.701765 -0.54091,-0.678501 -0.27932,-1.328744 -0.0729,-2.066024 0.35354,-1.16446 0.96512,-2.069525 0.72554,-3.321245 -0.10498,-0.620021 -0.42132,-0.849366 -0.75604,-0.870231 z"
         style="color:#000000;clip-rule:nonzero;display:inline;overflow:visible;visibility:visible;opacity:1;isolation:auto;mix-blend-mode:normal;color-interpolation:sRGB;color-interpolation-filters:linearRGB;solid-color:#000000;solid-opacity:1;vector-effect:none;fill:#aa8800;fill-opacity:1;fill-rule:nonzero;stroke:none;stroke-width:0.15580291;stroke-linecap:butt;stroke-linejoin:miter;stroke-miterlimit:4;stroke-dasharray:none;stroke-dashoffset:0;stroke-opacity:1;marker:none;color-rendering:auto;image-rendering:auto;shape-rendering:auto;text-rendering:auto;enable-background:accumulate"
         inkscape:connector-curvature="0" />
      <path
         id="path5868"
         d="m 383.03942,29.34288 a 27.827483,6.736864 84.984297 0 0 0.0754,1.120862 c 2.23962,0.417482 4.1996,0.510833 6.37895,1.388546 0.3253,0.13101 0.7784,0.562747 0.68728,0.957047 -0.16137,0.69845 -0.3927,0.939815 -0.99166,1.224215 -1.90834,0.90609 -2.84647,1.414778 -4.94337,1.611788 -0.18847,0.01342 -0.41158,0.02946 -0.62477,0.04548 a 27.827483,6.736864 84.984297 0 0 0.11937,0.967383 c 1.7197,-0.125884 3.47223,-0.47761 4.99919,-1.024227 1.04127,-0.37276 1.95834,-0.997853 2.62101,-1.922363 0.34618,-0.48294 0.2562,-1.342239 -0.1824,-1.774569 -0.70324,-0.693185 -1.66706,-1.035144 -2.58744,-1.282614 -1.90733,-0.512812 -3.71742,-0.837418 -5.55161,-1.311548 z"
         style="color:#000000;clip-rule:nonzero;display:inline;overflow:visible;visibility:visible;opacity:1;isolation:auto;mix-blend-mode:normal;color-interpolation:sRGB;color-interpolation-filters:linearRGB;solid-color:#000000;solid-opacity:1;vector-effect:none;fill:#aa8800;fill-opacity:1;fill-rule:nonzero;stroke:none;stroke-width:0.15580291;stroke-linecap:butt;stroke-linejoin:miter;stroke-miterlimit:4;stroke-dasharray:none;stroke-dashoffset:0;stroke-opacity:1;marker:none;color-rendering:auto;image-rendering:auto;shape-rendering:auto;text-rendering:auto;enable-background:accumulate"
         inkscape:connector-curvature="0" />
      <path
         id="path5866"
         d="m 402.67337,31.292632 -0.42116,1.059884 c 0.17394,-0.06506 0.39177,-0.645367 0.42116,-1.059884 z"
         style="color:#000000;clip-rule:nonzero;display:inline;overflow:visible;visibility:visible;opacity:1;isolation:auto;mix-blend-mode:normal;color-interpolation:sRGB;color-interpolation-filters:linearRGB;solid-color:#000000;solid-opacity:1;vector-effect:none;fill:#aa8800;fill-opacity:1;fill-rule:nonzero;stroke:none;stroke-width:0.15580291;stroke-linecap:butt;stroke-linejoin:miter;stroke-miterlimit:4;stroke-dasharray:none;stroke-dashoffset:0;stroke-opacity:1;marker:none;color-rendering:auto;image-rendering:auto;shape-rendering:auto;text-rendering:auto;enable-background:accumulate"
         inkscape:connector-curvature="0" />
      <path
         id="path5864"
         d="m 380.95531,31.940138 c -0.88642,0.289522 -1.73194,0.700987 -2.34611,1.418001 -0.45939,0.52806 -0.79318,1.488801 -0.30127,2.018481 0.65263,0.783466 1.82779,1.151195 2.8329,1.277958 a 9.8449985,28.898231 0 0 1 -0.061,-1.004589 c -0.36769,-0.06998 -0.70708,-0.181541 -0.99012,-0.356051 -0.31642,-0.20719 -0.57332,-0.540905 -0.12815,-1.137915 0.3968,-0.532164 0.56418,-0.392011 1.03663,-0.56224 a 9.8449985,28.898231 0 0 1 -0.0429,-1.653645 z"
         style="color:#000000;clip-rule:nonzero;display:inline;overflow:visible;visibility:visible;opacity:1;isolation:auto;mix-blend-mode:normal;color-interpolation:sRGB;color-interpolation-filters:linearRGB;solid-color:#000000;solid-opacity:1;vector-effect:none;fill:#aa8800;fill-opacity:1;fill-rule:nonzero;stroke:none;stroke-width:0.15580291;stroke-linecap:butt;stroke-linejoin:miter;stroke-miterlimit:4;stroke-dasharray:none;stroke-dashoffset:0;stroke-opacity:1;marker:none;color-rendering:auto;image-rendering:auto;shape-rendering:auto;text-rendering:auto;enable-background:accumulate"
         inkscape:connector-curvature="0" />
      <path
         id="path5862"
         d="m 383.24045,32.081731 a 27.827483,6.736864 84.984297 0 0 0.12454,1.265556 c 0.621,0.0022 1.18368,0.0087 1.32807,-0.04134 0.004,-0.17327 -0.76749,-0.778998 -1.45261,-1.224216 z"
         style="color:#000000;clip-rule:nonzero;display:inline;overflow:visible;visibility:visible;opacity:1;isolation:auto;mix-blend-mode:normal;color-interpolation:sRGB;color-interpolation-filters:linearRGB;solid-color:#000000;solid-opacity:1;vector-effect:none;fill:#aa8800;fill-opacity:1;fill-rule:nonzero;stroke:none;stroke-width:0.15580291;stroke-linecap:butt;stroke-linejoin:miter;stroke-miterlimit:4;stroke-dasharray:none;stroke-dashoffset:0;stroke-opacity:1;marker:none;color-rendering:auto;image-rendering:auto;shape-rendering:auto;text-rendering:auto;enable-background:accumulate"
         inkscape:connector-curvature="0" />
      <path
         id="path5860"
         d="m 396.80706,32.833106 c -0.0739,0.427232 -0.0614,0.860056 0.0842,1.26659 a 27.827483,6.736864 84.984297 0 0 -0.0842,-1.26659 z"
         style="color:#000000;clip-rule:nonzero;display:inline;overflow:visible;visibility:visible;opacity:1;isolation:auto;mix-blend-mode:normal;color-interpolation:sRGB;color-interpolation-filters:linearRGB;solid-color:#000000;solid-opacity:1;vector-effect:none;fill:#aa8800;fill-opacity:1;fill-rule:nonzero;stroke:none;stroke-width:0.15580291;stroke-linecap:butt;stroke-linejoin:miter;stroke-miterlimit:4;stroke-dasharray:none;stroke-dashoffset:0;stroke-opacity:1;marker:none;color-rendering:auto;image-rendering:auto;shape-rendering:auto;text-rendering:auto;enable-background:accumulate"
         inkscape:connector-curvature="0" />
      <path
         id="path5858"
         d="m 404.02987,33.447539 c -0.45895,-0.0068 -2.10127,0.906012 -2.3921,0.91519 -0.0761,0.02194 -0.13761,0.03781 -0.20773,0.05736 l -0.4527,1.137915 c 0.93668,-0.05786 1.8972,-0.18601 2.64687,-0.520382 0.26035,-0.15735 0.60401,-1.281311 0.48111,-1.576131 -0.0193,-0.0092 -0.0448,-0.0135 -0.0755,-0.01395 z"
         style="color:#000000;clip-rule:nonzero;display:inline;overflow:visible;visibility:visible;opacity:1;isolation:auto;mix-blend-mode:normal;color-interpolation:sRGB;color-interpolation-filters:linearRGB;solid-color:#000000;solid-opacity:1;vector-effect:none;fill:#aa8800;fill-opacity:1;fill-rule:nonzero;stroke:none;stroke-width:0.15580291;stroke-linecap:butt;stroke-linejoin:miter;stroke-miterlimit:4;stroke-dasharray:none;stroke-dashoffset:0;stroke-opacity:1;marker:none;color-rendering:auto;image-rendering:auto;shape-rendering:auto;text-rendering:auto;enable-background:accumulate"
         inkscape:connector-curvature="0" />
      <path
         id="path5994"
         d="m 397.46542,21.491163 c -0.91443,0.0081 -1.42449,0.019 -2.01435,0.205155 a 27.827483,6.736864 84.984297 0 1 0.22738,1.298629 c 0.30297,-0.202714 0.59664,-0.333785 1.01751,-0.362252 1.26021,-0.05647 2.46115,-7.41e-4 3.54346,0.488859 a 9.8449995,28.898231 0 0 0 -0.13229,-1.125512 c -0.007,-0.0023 -0.0143,-0.005 -0.0217,-0.0072 -0.75505,-0.20884 -1.8356,-0.492874 -2.61948,-0.497644 z"
         style="opacity:1;vector-effect:none;fill:#d4aa00;fill-opacity:1;stroke:none;stroke-width:0.09374304;stroke-linecap:butt;stroke-linejoin:miter;stroke-miterlimit:4;stroke-dasharray:none;stroke-dashoffset:0;stroke-opacity:1;marker:none"
         inkscape:connector-curvature="0" />
      <path
         id="path5992"
         d="m 406.24009,22.322637 c -1.02613,0.122832 -2.12402,0.335465 -2.64171,0.634586 -0.21587,0.29329 1.56814,1.277806 1.86137,1.000456 0.0477,-0.01408 0.0972,-0.0243 0.14523,-0.03772 z"
         style="opacity:1;vector-effect:none;fill:#d4aa00;fill-opacity:1;stroke:none;stroke-width:0.09374304;stroke-linecap:butt;stroke-linejoin:miter;stroke-miterlimit:4;stroke-dasharray:none;stroke-dashoffset:0;stroke-opacity:1;marker:none"
         inkscape:connector-curvature="0" />
      <path
         id="path5990"
         d="m 382.82238,23.134473 c -0.54464,0.360452 -1.06789,0.747173 -1.56631,1.150835 a 9.8449995,28.898231 0 0 0 -0.11369,1.39578 c 0.0422,-0.04439 0.0823,-0.08849 0.12713,-0.133325 0.50723,-0.461629 1.02909,-0.872457 1.56631,-1.238167 a 27.827483,6.736864 84.984297 0 1 -0.0134,-1.175123 z"
         style="opacity:1;vector-effect:none;fill:#d4aa00;fill-opacity:1;stroke:none;stroke-width:0.09374304;stroke-linecap:butt;stroke-linejoin:miter;stroke-miterlimit:4;stroke-dasharray:none;stroke-dashoffset:0;stroke-opacity:1;marker:none"
         inkscape:connector-curvature="0" />
      <path
         id="path5988"
         d="m 396.20915,23.395956 c -0.0238,-0.0039 -0.0497,-4.49e-4 -0.077,0.01085 -0.0806,0.04094 -0.21799,0.120817 -0.35967,0.218592 a 27.827483,6.736864 84.984297 0 1 0.61187,4.553727 c 0.73568,0.194053 1.65905,0.08042 2.39882,-0.0083 0.59462,-0.0977 1.19674,-0.305297 1.75956,-0.595313 a 9.8449995,28.898231 0 0 0 -0.0537,-1.176672 c -0.43775,0.214865 -0.94321,0.323862 -1.48775,0.459404 -0.82103,0.18953 -1.72083,0.10732 -2.56419,0.02377 0.11975,-1.709833 0.131,-3.427011 -0.22791,-3.486093 z"
         style="opacity:1;vector-effect:none;fill:#d4aa00;fill-opacity:1;stroke:none;stroke-width:0.09374304;stroke-linecap:butt;stroke-linejoin:miter;stroke-miterlimit:4;stroke-dasharray:none;stroke-dashoffset:0;stroke-opacity:1;marker:none"
         inkscape:connector-curvature="0" />
      <path
         id="path5986"
         d="m 402.7297,23.75304 a 13.261988,31.622116 19.154696 0 0 -1.46089,3.382223 c 0.34673,-0.243381 0.66857,-0.517373 0.94411,-0.823206 0.54533,-0.60429 1.03193,-1.735879 0.57518,-2.465999 -0.0188,-0.032 -0.0389,-0.06205 -0.0584,-0.09302 z"
         style="opacity:1;vector-effect:none;fill:#d4aa00;fill-opacity:1;stroke:none;stroke-width:0.09374304;stroke-linecap:butt;stroke-linejoin:miter;stroke-miterlimit:4;stroke-dasharray:none;stroke-dashoffset:0;stroke-opacity:1;marker:none"
         inkscape:connector-curvature="0" />
      <path
         id="path5984"
         d="m 405.31558,24.648076 c -0.75922,0.09415 -1.47045,0.333529 -2.02726,0.89762 0.18798,0.18356 -0.32348,1.806152 -0.0217,1.583882 0.14827,-0.106345 0.34806,-0.236042 0.56687,-0.371036 0.0156,0.593995 -0.0273,1.225882 -0.10644,1.884122 z"
         style="opacity:1;vector-effect:none;fill:#d4aa00;fill-opacity:1;stroke:none;stroke-width:0.09374304;stroke-linecap:butt;stroke-linejoin:miter;stroke-miterlimit:4;stroke-dasharray:none;stroke-dashoffset:0;stroke-opacity:1;marker:none"
         inkscape:connector-curvature="0" />
      <path
         id="path5982"
         d="m 403.02942,28.564633 c -0.27897,-0.0306 -1.30611,0.09147 -1.59059,0.09457 -0.27636,-0.0082 -0.54399,0.01675 -0.8041,0.0646 a 13.261988,31.622116 19.154696 0 0 -0.0357,0.08888 9.8449995,28.898231 0 0 0 -0.004,-0.08165 c -1.40144,0.27302 -2.54545,1.310361 -3.22358,2.617928 -0.2563,0.445354 -0.47611,0.962987 -0.56639,1.489832 a 27.827483,6.736864 84.984297 0 1 0.0879,1.266072 c 0.0354,0.09803 0.0764,0.194994 0.12816,0.289388 0.53634,0.84889 1.40021,1.257811 2.32749,1.221631 0.49869,-0.01327 1.05918,-0.02272 1.62833,-0.05788 l 0.4527,-1.137915 c -1.26971,0.353932 -1.62573,0.324317 -3.05462,0.0098 -0.5239,-0.143669 -0.55745,-0.883713 -0.43561,-1.411283 0.009,-0.06861 0.0225,-0.132914 0.0336,-0.199471 1.42172,-0.295478 2.61777,-0.363338 4.26072,-0.458887 0.006,-9.79e-4 0.0122,-0.0055 0.018,-0.0078 l 0.42117,-1.059884 c 0.0124,-0.173883 -0.005,-0.320699 -0.0786,-0.382922 -1.39057,0.354824 -1.50363,0.137588 -4.35735,0.974618 0.25966,-0.610587 0.66982,-1.12382 1.24074,-1.573031 0.93469,-0.681411 2.05266,-0.300037 3.18638,-0.105937 0.15433,-0.23038 0.70993,-1.576637 0.36483,-1.640727 z"
         style="opacity:1;vector-effect:none;fill:#d4aa00;fill-opacity:1;stroke:none;stroke-width:0.09374304;stroke-linecap:butt;stroke-linejoin:miter;stroke-miterlimit:4;stroke-dasharray:none;stroke-dashoffset:0;stroke-opacity:1;marker:none"
         inkscape:connector-curvature="0" />
      <path
         id="path5980"
         d="m 380.99097,28.737749 a 9.8449995,28.898231 0 0 0 -0.0212,1.243852 c 0.53457,0.148338 1.08643,0.253848 1.61747,0.381889 0.17974,0.03739 0.35369,0.06798 0.52968,0.100769 a 27.827483,6.736864 84.984297 0 1 -0.0822,-1.122413 c -0.67581,-0.174785 -1.35514,-0.370816 -2.04381,-0.604097 z"
         style="opacity:1;vector-effect:none;fill:#d4aa00;fill-opacity:1;stroke:none;stroke-width:0.09374304;stroke-linecap:butt;stroke-linejoin:miter;stroke-miterlimit:4;stroke-dasharray:none;stroke-dashoffset:0;stroke-opacity:1;marker:none"
         inkscape:connector-curvature="0" />
      <path
         id="path5978"
         d="m 382.29787,31.58512 c -0.0299,-0.0047 -0.0532,-0.0035 -0.0687,0.0041 -0.41784,0.0996 -0.84565,0.211236 -1.26504,0.347782 a 9.8449995,28.898231 0 0 0 0.0289,1.658814 c 0.0589,-0.02106 0.12061,-0.04481 0.19016,-0.07752 0.35853,-0.168581 1.33023,-0.174038 2.17558,-0.171049 a 27.827483,6.736864 84.984297 0 1 -0.11885,-1.266031 c -0.4025,-0.261518 -0.77608,-0.470103 -0.94206,-0.496094 z"
         style="opacity:1;vector-effect:none;fill:#d4aa00;fill-opacity:1;stroke:none;stroke-width:0.09374304;stroke-linecap:butt;stroke-linejoin:miter;stroke-miterlimit:4;stroke-dasharray:none;stroke-dashoffset:0;stroke-opacity:1;marker:none"
         inkscape:connector-curvature="0" />
      <path
         id="path5976"
         d="m 381.08192,35.650505 a 9.8449995,28.898231 0 0 0 0.0522,1.00304 c 0.0981,0.01248 0.19669,0.02561 0.29094,0.03359 0.74665,0.04313 1.52594,0.0284 2.31149,-0.02894 a 27.827483,6.736864 84.984297 0 1 -0.11679,-0.966865 c -0.8062,0.06054 -1.73156,0.112235 -2.53783,-0.04082 z"
         style="opacity:1;vector-effect:none;fill:#d4aa00;fill-opacity:1;stroke:none;stroke-width:0.09374304;stroke-linecap:butt;stroke-linejoin:miter;stroke-miterlimit:4;stroke-dasharray:none;stroke-dashoffset:0;stroke-opacity:1;marker:none"
         inkscape:connector-curvature="0" />
      <path
         id="path5956"
         d="m 395.4516,21.696318 c -0.31488,0.09933 -0.65117,0.245973 -1.08678,0.47439 -0.12123,0.07765 -0.26924,0.409345 -0.39428,0.788582 0.0484,0.407826 0.1017,0.832974 0.1416,1.166854 0.74229,-0.471696 1.16941,-0.865361 1.56578,-1.13068 a 27.827483,6.736864 84.984297 0 0 -0.22632,-1.299146 z"
         style="opacity:1;vector-effect:none;fill:#ffd42a;fill-opacity:1;stroke:none;stroke-width:0.10589914;stroke-linecap:butt;stroke-linejoin:miter;stroke-miterlimit:4;stroke-dasharray:none;stroke-dashoffset:0;stroke-opacity:1;marker:none"
         inkscape:connector-curvature="0" />
      <path
         id="path5954"
         d="m 408.09061,22.201714 c -0.4191,-0.01021 -1.11688,0.0331 -1.85052,0.120923 l -0.63511,1.597318 c 1.18515,-0.331601 2.47235,-0.46385 3.72793,-0.439249 l -0.25218,-1.149801 c -0.32482,-0.04454 -0.64783,-0.08983 -0.99012,-0.129191 z"
         style="opacity:1;vector-effect:none;fill:#ffd42a;fill-opacity:1;stroke:none;stroke-width:0.10589914;stroke-linecap:butt;stroke-linejoin:miter;stroke-miterlimit:4;stroke-dasharray:none;stroke-dashoffset:0;stroke-opacity:1;marker:none"
         inkscape:connector-curvature="0" />
      <path
         id="path5952"
         d="m 384.09879,22.364495 c -0.43736,0.240027 -0.865,0.497753 -1.28002,0.772562 a 27.827483,6.736864 84.984297 0 0 0.0196,1.170988 c 0.44828,-0.305011 0.90787,-0.577049 1.38028,-0.815971 z"
         style="opacity:1;vector-effect:none;fill:#ffd42a;fill-opacity:1;stroke:none;stroke-width:0.10589914;stroke-linecap:butt;stroke-linejoin:miter;stroke-miterlimit:4;stroke-dasharray:none;stroke-dashoffset:0;stroke-opacity:1;marker:none"
         inkscape:connector-curvature="0" />
      <path
         id="path5950"
         d="m 395.77198,23.625916 c -0.28884,0.199429 -0.59756,0.478488 -0.49453,0.691948 0.26027,1.21247 0.21815,2.574828 0.0754,3.802868 -0.23066,1.99242 -0.40722,2.081842 -0.70279,4.062802 -0.13888,0.581285 -0.323,1.081682 -0.52297,1.51722 l 0.73329,1.126546 c 0,0 -0.009,0.757848 -0.0103,0.869714 0.26527,-0.09389 0.45265,-0.18513 0.4563,-0.254248 0.38698,-1.59531 0.47625,-3.67663 0.75449,-5.29425 0.0753,-0.327547 0.17735,-1.094502 0.26717,-1.982308 0.0185,0.0054 0.0386,0.008 0.0574,0.01292 a 27.827483,6.736864 84.984297 0 0 -0.6134,-4.553211 z"
         style="opacity:1;vector-effect:none;fill:#ffd42a;fill-opacity:1;stroke:none;stroke-width:0.10589914;stroke-linecap:butt;stroke-linejoin:miter;stroke-miterlimit:4;stroke-dasharray:none;stroke-dashoffset:0;stroke-opacity:1;marker:none"
         inkscape:connector-curvature="0" />
      <path
         id="path5948"
         d="m 406.12949,24.594333 c -0.2744,0.0047 -0.54692,0.02064 -0.81391,0.05374 l -1.58853,3.994588 c -0.16806,1.397278 -0.51533,2.924612 -0.92398,4.539775 0.0196,0.27305 1.1852,-0.255519 1.38234,-0.525549 0.27594,-0.30391 0.0654,-1.850772 0.17622,-2.214852 -0.005,-0.05722 -0.005,-0.117749 -0.007,-0.177767 0.22375,0.02089 0.52543,0.01044 0.62888,0.08217 0.004,0.0038 0.007,0.008 0.0114,0.01188 l 1.91977,-1.845883 c -0.13301,0.06536 -0.26731,0.130463 -0.39841,0.189653 -0.60354,0.297888 -1.43677,0.412211 -2.09704,0.599963 0.12187,-0.940337 0.36815,-2.040318 0.42167,-3.101619 0.63437,-0.312102 1.30109,-0.563186 1.7875,-0.561206 0.0645,2.63e-4 0.12586,0.005 0.18346,0.01447 0.79915,0.11943 1.30464,0.633703 1.28932,1.515153 -0.007,0.08777 -0.0238,0.169069 -0.046,0.247013 l 0.94099,-0.904853 c -0.0269,-0.524877 -0.1951,-1.01557 -0.55861,-1.306897 -0.5814,-0.51403 -1.54102,-0.606582 -2.30789,-0.609782 z"
         style="opacity:1;vector-effect:none;fill:#ffd42a;fill-opacity:1;stroke:none;stroke-width:0.10589914;stroke-linecap:butt;stroke-linejoin:miter;stroke-miterlimit:4;stroke-dasharray:none;stroke-dashoffset:0;stroke-opacity:1;marker:none"
         inkscape:connector-curvature="0" />
      <path
         id="path5946"
         d="m 394.11471,26.226791 c -0.16563,0.3612 -0.42368,0.830547 -0.70435,1.317232 0.25813,0.48318 0.51364,0.99595 0.30282,1.341521 -0.44059,0.72226 -0.71165,1.351964 -1.54046,1.537374 -0.0578,0.0074 -0.11964,0.005 -0.18346,-0.0052 l 0.54983,0.843876 c 0.19457,-0.05058 0.372,-0.126477 0.51575,-0.23151 1.08548,-0.662098 2.18435,-2.197798 1.82158,-3.863298 -0.13833,-0.635143 -0.44135,-0.887051 -0.76171,-0.939995 z"
         style="opacity:1;vector-effect:none;fill:#ffd42a;fill-opacity:1;stroke:none;stroke-width:0.10589914;stroke-linecap:butt;stroke-linejoin:miter;stroke-miterlimit:4;stroke-dasharray:none;stroke-dashoffset:0;stroke-opacity:1;marker:none"
         inkscape:connector-curvature="0" />
      <path
         id="path5944"
         d="m 425.35727,26.51928 -1.12448,0.937927 c 0.006,0.247847 -0.004,0.515233 -0.0408,0.808736 -0.22754,1.80641 -0.0821,2.087431 -1.202,3.478341 -0.80368,0.999279 -1.46937,1.614121 -2.56575,1.990576 l 0.20569,0.845427 c 0.75208,-0.264325 1.45812,-0.678935 2.10632,-1.12448 1.241,-0.88074 2.08666,-2.042017 2.3182,-3.568258 0.1388,-0.730349 0.25638,-2.073096 0.30284,-3.368269 z"
         style="opacity:1;vector-effect:none;fill:#ffd42a;fill-opacity:1;stroke:none;stroke-width:0.10589914;stroke-linecap:butt;stroke-linejoin:miter;stroke-miterlimit:4;stroke-dasharray:none;stroke-dashoffset:0;stroke-opacity:1;marker:none"
         inkscape:connector-curvature="0" />
      <path
         id="path5942"
         d="m 384.57214,26.818486 c -0.17314,0.325966 -0.30165,0.621562 -0.28784,0.721403 0.10401,-0.0098 0.2341,-0.02661 0.35968,-0.04237 z"
         style="opacity:1;vector-effect:none;fill:#ffd42a;fill-opacity:1;stroke:none;stroke-width:0.10589914;stroke-linecap:butt;stroke-linejoin:miter;stroke-miterlimit:4;stroke-dasharray:none;stroke-dashoffset:0;stroke-opacity:1;marker:none"
         inkscape:connector-curvature="0" />
      <path
         id="path5940"
         d="m 383.03942,29.34288 a 27.827483,6.736864 84.984297 0 0 0.0754,1.120862 c 0.64599,0.120418 1.2659,0.21904 1.8769,0.311609 l -0.10491,-0.990637 c -0.61566,-0.138042 -1.23087,-0.282454 -1.84744,-0.441834 z"
         style="opacity:1;vector-effect:none;fill:#ffd42a;fill-opacity:1;stroke:none;stroke-width:0.10589914;stroke-linecap:butt;stroke-linejoin:miter;stroke-miterlimit:4;stroke-dasharray:none;stroke-dashoffset:0;stroke-opacity:1;marker:none"
         inkscape:connector-curvature="0" />
      <path
         id="path5938"
         d="m 402.67337,31.292632 -0.42116,1.059884 c 0.17394,-0.06506 0.39177,-0.645367 0.42116,-1.059884 z"
         style="opacity:1;vector-effect:none;fill:#ffd42a;fill-opacity:1;stroke:none;stroke-width:0.10589914;stroke-linecap:butt;stroke-linejoin:miter;stroke-miterlimit:4;stroke-dasharray:none;stroke-dashoffset:0;stroke-opacity:1;marker:none"
         inkscape:connector-curvature="0" />
      <path
         id="path5936"
         d="m 383.24045,32.081731 a 27.827483,6.736864 84.984297 0 0 0.12454,1.265556 c 0.621,0.0022 1.18368,0.0087 1.32807,-0.04134 0.004,-0.17327 -0.76749,-0.778998 -1.45261,-1.224216 z"
         style="opacity:1;vector-effect:none;fill:#ffd42a;fill-opacity:1;stroke:none;stroke-width:0.10589914;stroke-linecap:butt;stroke-linejoin:miter;stroke-miterlimit:4;stroke-dasharray:none;stroke-dashoffset:0;stroke-opacity:1;marker:none"
         inkscape:connector-curvature="0" />
      <path
         id="path5934"
         d="m 396.80706,32.833106 c -0.0739,0.427232 -0.0614,0.860056 0.0842,1.26659 a 27.827483,6.736864 84.984297 0 0 -0.0842,-1.26659 z"
         style="opacity:1;vector-effect:none;fill:#ffd42a;fill-opacity:1;stroke:none;stroke-width:0.10589914;stroke-linecap:butt;stroke-linejoin:miter;stroke-miterlimit:4;stroke-dasharray:none;stroke-dashoffset:0;stroke-opacity:1;marker:none"
         inkscape:connector-curvature="0" />
      <path
         id="path5932"
         d="m 404.02987,33.447539 c -0.45895,-0.0068 -2.10127,0.906012 -2.3921,0.91519 -0.0761,0.02194 -0.13761,0.03781 -0.20773,0.05736 l -0.4527,1.137915 c 0.93668,-0.05786 1.8972,-0.18601 2.64687,-0.520382 0.26035,-0.15735 0.60401,-1.281311 0.48111,-1.576131 -0.0193,-0.0092 -0.0448,-0.0135 -0.0755,-0.01395 z"
         style="opacity:1;vector-effect:none;fill:#ffd42a;fill-opacity:1;stroke:none;stroke-width:0.10589914;stroke-linecap:butt;stroke-linejoin:miter;stroke-miterlimit:4;stroke-dasharray:none;stroke-dashoffset:0;stroke-opacity:1;marker:none"
         inkscape:connector-curvature="0" />
      <path
         id="path5930"
         d="m 386.9503,35.041757 c -0.78701,0.298567 -1.57877,0.497841 -2.70423,0.603581 -0.18847,0.01342 -0.41158,0.02946 -0.62477,0.04548 a 27.827483,6.736864 84.984297 0 0 0.11937,0.967383 c 0.95331,-0.06978 1.91356,-0.210189 2.84323,-0.414962 z"
         style="opacity:1;vector-effect:none;fill:#ffd42a;fill-opacity:1;stroke:none;stroke-width:0.10589914;stroke-linecap:butt;stroke-linejoin:miter;stroke-miterlimit:4;stroke-dasharray:none;stroke-dashoffset:0;stroke-opacity:1;marker:none"
         inkscape:connector-curvature="0" />
      <path
         id="path5928"
         d="m 421.12184,35.318226 c -0.004,-0.0053 -0.0127,-0.005 -0.0279,10e-4 -0.079,0.01088 -0.16978,0.03045 -0.2708,0.05684 l 0.0713,0.293005 c 0.13314,-0.175413 0.24397,-0.32745 0.22736,-0.350883 z"
         style="opacity:1;vector-effect:none;fill:#ffd42a;fill-opacity:1;stroke:none;stroke-width:0.10589914;stroke-linecap:butt;stroke-linejoin:miter;stroke-miterlimit:4;stroke-dasharray:none;stroke-dashoffset:0;stroke-opacity:1;marker:none"
         inkscape:connector-curvature="0" />
      <path
         id="path6059"
         d="m 390.20539,20.692762 0.11628,1.470711 c 0.60018,-0.02155 1.17266,-0.01235 1.66656,0.391191 0.22193,0.17376 0.13515,0.354407 -0.0548,0.532267 -0.42691,0.428856 -0.9429,0.684253 -1.46349,0.949813 l 0.12919,1.636593 c 0.82164,-0.49406 1.61425,-1.034091 2.32389,-1.680001 0.41595,-0.41132 0.68117,-1.687396 0.26975,-2.147156 -0.65916,-0.839582 -1.95242,-1.094094 -2.98741,-1.153418 z"
         style="opacity:1;vector-effect:none;fill:#ffe680;fill-opacity:1;stroke:none;stroke-width:0.09374304;stroke-linecap:butt;stroke-linejoin:miter;stroke-miterlimit:4;stroke-dasharray:none;stroke-dashoffset:0;stroke-opacity:1;marker:none"
         inkscape:connector-curvature="0" />
      <path
         id="path6057"
         d="m 386.7472,21.215728 c -0.91202,0.288385 -1.7989,0.682556 -2.64841,1.148767 l 0.11989,1.127579 c 0.82217,-0.415813 1.68299,-0.732115 2.59054,-0.950329 z"
         style="opacity:1;vector-effect:none;fill:#ffe680;fill-opacity:1;stroke:none;stroke-width:0.09374304;stroke-linecap:butt;stroke-linejoin:miter;stroke-miterlimit:4;stroke-dasharray:none;stroke-dashoffset:0;stroke-opacity:1;marker:none"
         inkscape:connector-curvature="0" />
      <path
         id="path6055"
         d="m 409.08073,22.330905 0.25218,1.149801 c 0.55941,0.01096 1.11286,0.04905 1.64642,0.118855 0.0553,0.0084 0.10668,0.01735 0.16174,0.02584 -0.81759,0.621457 -1.11871,1.900389 -1.0754,2.886129 0.0201,0.339267 0.065,0.67626 0.12248,1.011825 -0.48911,-0.07183 -0.75213,-0.100577 -0.7488,0.06046 -0.0885,0.3128 -0.16542,1.24795 0.14317,1.197859 0.27982,-0.0012 0.57816,-0.009 0.86971,-0.01343 0.0448,0.186999 0.0898,0.373837 0.13539,0.56069 l 0.94773,-1.645378 c -0.0713,-0.0058 -0.14525,-0.01058 -0.21394,-0.01705 -0.06,-0.538347 -0.0911,-1.081419 -0.0723,-1.635559 0.0409,-0.626798 0.87172,-1.613769 1.49397,-2.129069 l 0.0289,-0.981336 c -1.15644,-0.19328 -2.35482,-0.406366 -3.69123,-0.589628 z"
         style="opacity:1;vector-effect:none;fill:#ffe680;fill-opacity:1;stroke:none;stroke-width:0.09374304;stroke-linecap:butt;stroke-linejoin:miter;stroke-miterlimit:4;stroke-dasharray:none;stroke-dashoffset:0;stroke-opacity:1;marker:none"
         inkscape:connector-curvature="0" />
      <path
         id="path6053"
         d="m 424.05605,22.379995 c -0.47771,0.447394 -0.90483,0.846613 -1.39941,1.308964 0.38965,-0.122438 0.73967,-0.275071 0.97308,-0.480075 0.0846,-0.12107 0.26149,-0.4695 0.42633,-0.828889 z"
         style="opacity:1;vector-effect:none;fill:#ffe680;fill-opacity:1;stroke:none;stroke-width:0.09374304;stroke-linecap:butt;stroke-linejoin:miter;stroke-miterlimit:4;stroke-dasharray:none;stroke-dashoffset:0;stroke-opacity:1;marker:none"
         inkscape:connector-curvature="0" />
      <path
         id="path6051"
         d="m 393.97054,22.959287 c -0.21955,0.665933 -0.36693,1.482787 -0.16433,1.359091 0.11308,-0.06645 0.20558,-0.128478 0.30593,-0.192237 -0.0399,-0.33388 -0.0932,-0.759028 -0.1416,-1.166854 z"
         style="opacity:1;vector-effect:none;fill:#ffe680;fill-opacity:1;stroke:none;stroke-width:0.09374304;stroke-linecap:butt;stroke-linejoin:miter;stroke-miterlimit:4;stroke-dasharray:none;stroke-dashoffset:0;stroke-opacity:1;marker:none"
         inkscape:connector-curvature="0" />
      <path
         id="path6049"
         d="m 425.05133,23.490004 c -0.43307,0.0031 -1.19589,1.353107 -1.2051,1.643828 -0.13742,0.349213 0.35579,1.045793 0.38656,2.323372 l 1.12448,-0.937927 c 0.0394,-1.100071 0.0282,-2.166515 -0.0718,-2.78691 -0.0515,-0.172348 -0.13417,-0.243082 -0.2341,-0.242363 z"
         style="opacity:1;vector-effect:none;fill:#ffe680;fill-opacity:1;stroke:none;stroke-width:0.09374304;stroke-linecap:butt;stroke-linejoin:miter;stroke-miterlimit:4;stroke-dasharray:none;stroke-dashoffset:0;stroke-opacity:1;marker:none"
         inkscape:connector-curvature="0" />
      <path
         id="path6047"
         d="m 386.94151,25.346739 c -0.54512,0.108328 -1.08828,0.212853 -1.59681,0.350366 -0.16298,0.09445 -0.51761,0.641419 -0.77256,1.121378 l 0.0718,0.679028 c 0.63894,-0.08023 1.51405,-0.231514 2.37918,-0.423746 z"
         style="opacity:1;vector-effect:none;fill:#ffe680;fill-opacity:1;stroke:none;stroke-width:0.09374304;stroke-linecap:butt;stroke-linejoin:miter;stroke-miterlimit:4;stroke-dasharray:none;stroke-dashoffset:0;stroke-opacity:1;marker:none"
         inkscape:connector-curvature="0" />
      <path
         id="path6045"
         d="m 420.10746,26.065558 c -0.7198,0.667926 -1.39031,1.288702 -1.7906,1.651062 -0.14917,0.771554 -0.32268,1.539217 -0.52916,2.210201 -0.10166,0.305612 -0.2153,0.633645 -0.32351,0.973067 -0.0565,1.427981 -0.0673,2.818285 -0.0692,3.495394 0.41778,0.399107 1.13517,0.515666 1.73686,0.474906 0.51683,-0.01182 1.01671,-0.120727 1.49809,-0.289904 l -0.20568,-0.845427 c -0.16243,0.05577 -0.33354,0.106683 -0.51676,0.152446 -0.51824,0.109839 -1.36295,0.239456 -1.72651,-0.213424 -0.42455,-0.74754 0.12866,-1.532317 0.25839,-2.313037 0.38769,-1.65833 1.12398,-3.383264 1.33323,-4.324284 0.0741,-0.333125 0.20127,-0.666671 0.33489,-0.971 z"
         style="opacity:1;vector-effect:none;fill:#ffe680;fill-opacity:1;stroke:none;stroke-width:0.09374304;stroke-linecap:butt;stroke-linejoin:miter;stroke-miterlimit:4;stroke-dasharray:none;stroke-dashoffset:0;stroke-opacity:1;marker:none"
         inkscape:connector-curvature="0" />
      <path
         id="path6043"
         d="m 393.9726,26.215419 c -0.47535,0.0026 -0.94139,0.380096 -0.92757,0.54312 0.0584,0.220402 0.2123,0.498975 0.36533,0.785481 0.28067,-0.486685 0.53872,-0.956032 0.70435,-1.317232 -0.0471,-0.0078 -0.0946,-0.01163 -0.14211,-0.01137 z"
         style="opacity:1;vector-effect:none;fill:#ffe680;fill-opacity:1;stroke:none;stroke-width:0.09374304;stroke-linecap:butt;stroke-linejoin:miter;stroke-miterlimit:4;stroke-dasharray:none;stroke-dashoffset:0;stroke-opacity:1;marker:none"
         inkscape:connector-curvature="0" />
      <path
         id="path6041"
         d="m 408.99649,26.511009 -0.94102,0.904854 c -0.15171,0.535054 -0.63259,0.847003 -1.14051,1.096574 l -1.91976,1.845882 c 0.82478,0.806718 0.92035,2.159882 1.53582,3.115055 0.64191,1.127565 1.4876,2.233322 2.31664,2.950208 l 0.5452,-0.764811 c -0.77274,-0.574416 -1.25703,-1.322865 -1.83658,-2.226221 -0.64836,-1.05907 -1.09283,-2.652541 -1.89809,-3.605982 1.17483,-0.3832 2.45727,-0.641476 3.04477,-1.798856 0.20521,-0.428289 0.32057,-0.989725 0.29353,-1.516703 z"
         style="opacity:1;vector-effect:none;fill:#ffe680;fill-opacity:1;stroke:none;stroke-width:0.09374304;stroke-linecap:butt;stroke-linejoin:miter;stroke-miterlimit:4;stroke-dasharray:none;stroke-dashoffset:0;stroke-opacity:1;marker:none"
         inkscape:connector-curvature="0" />
      <path
         id="path6039"
         d="m 391.24565,26.718748 c -0.17254,0.0061 -0.38524,0.03181 -0.59222,0.07131 l 0.0377,4.213696 c 0.51705,0.319327 1.26325,0.409869 1.84793,0.257865 l -0.54983,-0.843876 c -0.46924,-0.07484 -1.05616,-0.58545 -1.11517,-0.967383 -0.18854,-0.74812 0.48713,-1.981674 0.70022,-2.704744 -0.054,-0.02362 -0.17491,-0.03233 -0.32866,-0.02687 z"
         style="opacity:1;vector-effect:none;fill:#ffe680;fill-opacity:1;stroke:none;stroke-width:0.09374304;stroke-linecap:butt;stroke-linejoin:miter;stroke-miterlimit:4;stroke-dasharray:none;stroke-dashoffset:0;stroke-opacity:1;marker:none"
         inkscape:connector-curvature="0" />
      <path
         id="path6037"
         d="m 384.88686,29.784711 0.10491,0.990637 c 1.22809,0.186064 2.41641,0.369362 3.65093,0.768945 l -0.35295,-0.966866 c -1.15874,-0.301416 -2.28436,-0.541914 -3.40289,-0.792716 z"
         style="opacity:1;vector-effect:none;fill:#ffe680;fill-opacity:1;stroke:none;stroke-width:0.09374304;stroke-linecap:butt;stroke-linejoin:miter;stroke-miterlimit:4;stroke-dasharray:none;stroke-dashoffset:0;stroke-opacity:1;marker:none"
         inkscape:connector-curvature="0" />
      <path
         id="path6035"
         d="m 390.69582,31.543776 0.0259,2.894397 c 0.23159,-0.218764 0.4472,-0.458666 0.63923,-0.72657 0.34618,-0.48294 0.2562,-1.342239 -0.1824,-1.774569 -0.14939,-0.147233 -0.31269,-0.275255 -0.48266,-0.393258 z"
         style="opacity:1;vector-effect:none;fill:#ffe680;fill-opacity:1;stroke:none;stroke-width:0.09374304;stroke-linecap:butt;stroke-linejoin:miter;stroke-miterlimit:4;stroke-dasharray:none;stroke-dashoffset:0;stroke-opacity:1;marker:none"
         inkscape:connector-curvature="0" />
      <path
         id="path6033"
         d="m 410.76899,33.48371 c -0.30091,0.233022 -0.83601,0.358207 -1.17666,0.455786 -0.20296,0.08748 0.0619,0.609445 0.34364,0.956531 l 0.89297,-1.253154 z"
         style="opacity:1;vector-effect:none;fill:#ffe680;fill-opacity:1;stroke:none;stroke-width:0.09374304;stroke-linecap:butt;stroke-linejoin:miter;stroke-miterlimit:4;stroke-dasharray:none;stroke-dashoffset:0;stroke-opacity:1;marker:none"
         inkscape:connector-curvature="0" />
      <path
         id="path6031"
         d="m 394.12712,33.700751 c -0.76684,1.670267 -1.77977,2.331535 -1.48984,2.426208 0.22381,0.08319 1.51243,-0.182048 2.21279,-0.429948 0.003,-0.111866 0.0103,-0.869714 0.0103,-0.869714 z"
         style="opacity:1;vector-effect:none;fill:#ffe680;fill-opacity:1;stroke:none;stroke-width:0.09374304;stroke-linecap:butt;stroke-linejoin:miter;stroke-miterlimit:4;stroke-dasharray:none;stroke-dashoffset:0;stroke-opacity:1;marker:none"
         inkscape:connector-curvature="0" />
      <path
         id="path6029"
         d="m 389.49175,33.870766 c -0.0899,0.05488 -0.18748,0.108263 -0.30231,0.162781 -0.88408,0.419769 -1.55983,0.750499 -2.23914,1.008207 l -0.3664,1.201477 c 0.74742,-0.164627 1.47545,-0.365659 2.15596,-0.609265 0.41833,-0.149764 0.81513,-0.342429 1.18493,-0.576709 z"
         style="opacity:1;vector-effect:none;fill:#ffe680;fill-opacity:1;stroke:none;stroke-width:0.09374304;stroke-linecap:butt;stroke-linejoin:miter;stroke-miterlimit:4;stroke-dasharray:none;stroke-dashoffset:0;stroke-opacity:1;marker:none"
         inkscape:connector-curvature="0" />
      <path
         id="path6027"
         d="m 420.82315,35.376101 c -0.70482,0.18416 -1.91187,0.689447 -3.14449,0.723986 -0.47082,-0.0356 -0.94869,-0.05965 -1.39165,-0.163814 -0.31417,0.250682 -0.66964,0.524919 -1.05421,0.814938 0.27937,0.158857 0.58523,0.278138 0.91107,0.343131 1.18446,0.26645 2.80244,0.383224 3.88606,-0.170015 0,-0.173544 0.54698,-0.836818 0.86456,-1.255221 z"
         style="opacity:1;vector-effect:none;fill:#ffe680;fill-opacity:1;stroke:none;stroke-width:0.09374304;stroke-linecap:butt;stroke-linejoin:miter;stroke-miterlimit:4;stroke-dasharray:none;stroke-dashoffset:0;stroke-opacity:1;marker:none"
         inkscape:connector-curvature="0" />
      <path
         id="path6097"
         d="m 389.977,20.679843 c -1.09416,0.0079 -2.17771,0.203213 -3.2298,0.535885 l 0.062,1.326017 c 0.87455,-0.210281 1.79149,-0.33196 2.75953,-0.361735 0.2537,0.0057 0.50538,-0.0076 0.75292,-0.01654 l -0.11628,-1.470712 c -0.0765,-0.0044 -0.15516,-0.01054 -0.22839,-0.01292 z"
         style="opacity:1;vector-effect:none;fill:#ffeeaa;fill-opacity:1;stroke:none;stroke-width:0.09374304;stroke-linecap:butt;stroke-linejoin:miter;stroke-miterlimit:4;stroke-dasharray:none;stroke-dashoffset:0;stroke-opacity:1;marker:none"
         inkscape:connector-curvature="0" />
      <path
         id="path6095"
         d="m 424.34905,21.320114 c -1.09797,0.628463 -2.78347,1.317671 -4.33462,1.727026 -0.32337,0.429452 -0.64461,0.8537 -0.97049,1.284676 0.44685,-0.03896 0.89908,-0.09724 1.35961,-0.181901 0.58108,-0.107608 1.4972,-0.223436 2.25309,-0.460953 0.49458,-0.462351 0.9217,-0.86157 1.39941,-1.308964 0.24188,-0.527342 0.45534,-1.087163 0.293,-1.059884 z"
         style="opacity:1;vector-effect:none;fill:#ffeeaa;fill-opacity:1;stroke:none;stroke-width:0.09374304;stroke-linecap:butt;stroke-linejoin:miter;stroke-miterlimit:4;stroke-dasharray:none;stroke-dashoffset:0;stroke-opacity:1;marker:none"
         inkscape:connector-curvature="0" />
      <path
         id="path6093"
         d="m 412.77196,22.920533 -0.0289,0.981336 c 0.007,-0.0055 0.0135,-0.01273 0.0201,-0.01809 0.6835,0.110255 1.35642,0.214257 2.02676,0.30024 l 0.35243,-0.923458 c -0.78531,-0.08776 -1.57406,-0.20694 -2.3704,-0.340031 z"
         style="opacity:1;vector-effect:none;fill:#ffeeaa;fill-opacity:1;stroke:none;stroke-width:0.09374304;stroke-linecap:butt;stroke-linejoin:miter;stroke-miterlimit:4;stroke-dasharray:none;stroke-dashoffset:0;stroke-opacity:1;marker:none"
         inkscape:connector-curvature="0" />
      <path
         id="path6091"
         d="m 390.46997,24.036744 c -0.26361,0.13448 -0.52766,0.271281 -0.78341,0.435116 -0.80412,0.47234 -1.7781,0.682724 -2.74505,0.874882 l 0.0817,1.727026 c 0.9602,-0.213359 1.89024,-0.472546 2.40813,-0.730188 0.39257,-0.216475 0.78306,-0.43886 1.16787,-0.670243 z"
         style="opacity:1;vector-effect:none;fill:#ffeeaa;fill-opacity:1;stroke:none;stroke-width:0.09374304;stroke-linecap:butt;stroke-linejoin:miter;stroke-miterlimit:4;stroke-dasharray:none;stroke-dashoffset:0;stroke-opacity:1;marker:none"
         inkscape:connector-curvature="0" />
      <path
         id="path6089"
         d="m 420.62681,24.908009 c -0.26332,-0.032 -1.95011,0.329334 -1.95339,0.711584 -0.0989,0.651619 -0.21717,1.376032 -0.35656,2.09703 0.40029,-0.36236 1.0708,-0.983136 1.7906,-1.651062 0.24378,-0.555348 0.50974,-1.00938 0.51935,-1.157552 z"
         style="opacity:1;vector-effect:none;fill:#ffeeaa;fill-opacity:1;stroke:none;stroke-width:0.09374304;stroke-linecap:butt;stroke-linejoin:miter;stroke-miterlimit:4;stroke-dasharray:none;stroke-dashoffset:0;stroke-opacity:1;marker:none"
         inkscape:connector-curvature="0" />
      <path
         id="path6087"
         d="m 417.98717,25.730697 c -0.69411,0.916898 -1.30678,1.727922 -1.67122,2.218986 0.88916,-0.298415 1.40624,-0.475045 1.47691,-0.775146 0.0648,-0.275447 0.21661,-1.059919 0.19431,-1.44384 z"
         style="opacity:1;vector-effect:none;fill:#ffeeaa;fill-opacity:1;stroke:none;stroke-width:0.09374304;stroke-linecap:butt;stroke-linejoin:miter;stroke-miterlimit:4;stroke-dasharray:none;stroke-dashoffset:0;stroke-opacity:1;marker:none"
         inkscape:connector-curvature="0" />
      <path
         id="path6085"
         d="m 390.65343,26.790064 c -0.34637,0.06611 -0.67466,0.174762 -0.75655,0.321428 -0.3752,1.09184 -0.29586,2.595435 0.42323,3.573425 0.0996,0.124057 0.22696,0.229865 0.37105,0.318844 z"
         style="opacity:1;vector-effect:none;fill:#ffeeaa;fill-opacity:1;stroke:none;stroke-width:0.09374304;stroke-linecap:butt;stroke-linejoin:miter;stroke-miterlimit:4;stroke-dasharray:none;stroke-dashoffset:0;stroke-opacity:1;marker:none"
         inkscape:connector-curvature="0" />
      <path
         id="path6083"
         d="m 411.53535,27.68355 -0.94773,1.645377 c 0.30855,1.265256 0.60015,2.530373 0.401,3.838526 -0.0217,0.124816 -0.1052,0.22766 -0.21963,0.31626 l 0.06,0.159163 -0.89297,1.253154 c 0.12888,0.158806 0.26117,0.284521 0.35398,0.309025 0.56656,0.163749 1.20658,-0.476978 1.41852,-0.939478 0.54398,-1.15047 0.25159,-2.697997 0.0574,-3.902087 -0.0973,-0.543055 -0.19678,-1.080015 -0.28628,-1.617473 0.26463,-0.0093 0.52535,-0.02509 0.7865,-0.03979 l 0.62063,-0.996838 c -0.21405,0.01229 -0.44077,0.01819 -0.69297,0.01188 -0.23789,-0.0059 -0.45209,-0.02087 -0.65836,-0.03772 z"
         style="opacity:1;vector-effect:none;fill:#ffeeaa;fill-opacity:1;stroke:none;stroke-width:0.09374304;stroke-linecap:butt;stroke-linejoin:miter;stroke-miterlimit:4;stroke-dasharray:none;stroke-dashoffset:0;stroke-opacity:1;marker:none"
         inkscape:connector-curvature="0" />
      <path
         id="path6081"
         d="m 415.74183,29.583175 c -0.0886,0.857168 -0.16348,1.985024 -0.20465,2.675806 0.27273,-0.715308 0.49966,-1.403125 0.33798,-2.247925 -0.0292,-0.172354 -0.0756,-0.311991 -0.13333,-0.427881 z"
         style="opacity:1;vector-effect:none;fill:#ffeeaa;fill-opacity:1;stroke:none;stroke-width:0.09374304;stroke-linecap:butt;stroke-linejoin:miter;stroke-miterlimit:4;stroke-dasharray:none;stroke-dashoffset:0;stroke-opacity:1;marker:none"
         inkscape:connector-curvature="0" />
      <path
         id="path6079"
         d="m 388.28975,30.57743 0.35295,0.966866 c 0.28065,0.09084 0.56388,0.192312 0.85112,0.307992 0.3253,0.13101 0.7784,0.562747 0.68728,0.957047 -0.13042,0.564561 -0.31031,0.830034 -0.68935,1.061434 l 0.43304,1.186491 c 0.28393,-0.179863 0.55034,-0.386224 0.79685,-0.619084 l -0.0259,-2.894397 c -0.63026,-0.437559 -1.37991,-0.694444 -2.10479,-0.889351 -0.10131,-0.02723 -0.20052,-0.05079 -0.30128,-0.077 z"
         style="opacity:1;vector-effect:none;fill:#ffeeaa;fill-opacity:1;stroke:none;stroke-width:0.09374304;stroke-linecap:butt;stroke-linejoin:miter;stroke-miterlimit:4;stroke-dasharray:none;stroke-dashoffset:0;stroke-opacity:1;marker:none"
         inkscape:connector-curvature="0" />
      <path
         id="path6077"
         d="m 417.46419,30.899891 c -0.31485,0.987617 -0.58267,2.075413 -0.36637,3.017387 0.0583,0.191695 0.16246,0.349347 0.29713,0.478007 0.003,-0.677109 0.0127,-2.067413 0.0692,-3.495394 z"
         style="opacity:1;vector-effect:none;fill:#ffeeaa;fill-opacity:1;stroke:none;stroke-width:0.09374304;stroke-linecap:butt;stroke-linejoin:miter;stroke-miterlimit:4;stroke-dasharray:none;stroke-dashoffset:0;stroke-opacity:1;marker:none"
         inkscape:connector-curvature="0" />
      <path
         id="path6075"
         d="m 415.16253,33.294577 -1.24333,1.564245 c 0.0169,0.122665 0.039,0.2461 0.0708,0.371037 0.20481,0.67148 0.66082,1.190412 1.2428,1.521355 0.38457,-0.290019 0.74004,-0.564256 1.0542,-0.814938 -0.39312,-0.09244 -0.75895,-0.247411 -1.06452,-0.537951 -0.54092,-0.678501 -0.27932,-1.328744 -0.0729,-2.066024 0.004,-0.01292 0.009,-0.02486 0.013,-0.03772 z"
         style="opacity:1;vector-effect:none;fill:#ffeeaa;fill-opacity:1;stroke:none;stroke-width:0.09374304;stroke-linecap:butt;stroke-linejoin:miter;stroke-miterlimit:4;stroke-dasharray:none;stroke-dashoffset:0;stroke-opacity:1;marker:none"
         inkscape:connector-curvature="0" />
      <path
         id="path6073"
         d="m 409.39286,35.658257 -0.5452,0.765328 c 0.30531,0.264 0.60839,0.4789 0.89816,0.617533 0.0881,0.04216 0.17468,0.07741 0.26043,0.109554 l 0.0243,-0.04599 0.54978,-0.852661 c -0.10039,-0.0025 -0.20088,-0.02474 -0.30076,-0.07596 -0.33755,-0.152588 -0.62817,-0.32555 -0.88675,-0.517798 z"
         style="opacity:1;vector-effect:none;fill:#ffeeaa;fill-opacity:1;stroke:none;stroke-width:0.09374304;stroke-linecap:butt;stroke-linejoin:miter;stroke-miterlimit:4;stroke-dasharray:none;stroke-dashoffset:0;stroke-opacity:1;marker:none"
         inkscape:connector-curvature="0" />
      <path
         id="path6071"
         d="m 413.13526,35.845842 -0.82735,1.041281 c 0.0624,-0.03833 0.12523,-0.07525 0.18606,-0.117306 0.63402,-0.43852 0.69201,-0.473286 0.64129,-0.923975 z"
         style="opacity:1;vector-effect:none;fill:#ffeeaa;fill-opacity:1;stroke:none;stroke-width:0.09374304;stroke-linecap:butt;stroke-linejoin:miter;stroke-miterlimit:4;stroke-dasharray:none;stroke-dashoffset:0;stroke-opacity:1;marker:none"
         inkscape:connector-curvature="0" />
      <path
         id="path6107"
         d="m 420.01443,23.04714 c -0.75166,0.19837 -1.4746,0.336307 -2.07844,0.359668 -0.97525,0.01719 -1.89007,-0.04528 -2.79362,-0.146244 l -0.35243,0.923458 c 1.40504,0.180218 2.79911,0.274655 4.254,0.147794 0.32588,-0.430976 0.64712,-0.855224 0.97049,-1.284676 z"
         style="opacity:1;vector-effect:none;fill:#fff6d5;fill-opacity:1;stroke:none;stroke-width:0.09374304;stroke-linecap:butt;stroke-linejoin:miter;stroke-miterlimit:4;stroke-dasharray:none;stroke-dashoffset:0;stroke-opacity:1;marker:none"
         inkscape:connector-curvature="0" />
      <path
         id="path6105"
         d="m 417.87451,25.513656 c -0.2661,0.0735 -0.85651,0.757729 -2.01692,1.281059 -0.99595,0.449142 -1.67511,0.840267 -2.9709,0.914673 l -0.62064,0.996838 c 1.27074,-0.07153 2.47137,-0.209844 3.28044,-0.494543 0.28826,-0.101438 0.53454,-0.183156 0.76946,-0.262 0.36444,-0.491064 0.97711,-1.302088 1.67122,-2.218986 -0.008,-0.14489 -0.0397,-0.237176 -0.11266,-0.217041 z"
         style="opacity:1;vector-effect:none;fill:#fff6d5;fill-opacity:1;stroke:none;stroke-width:0.09374304;stroke-linecap:butt;stroke-linejoin:miter;stroke-miterlimit:4;stroke-dasharray:none;stroke-dashoffset:0;stroke-opacity:1;marker:none"
         inkscape:connector-curvature="0" />
      <path
         id="path6103"
         d="m 415.11911,29.140825 c -0.55785,-0.03477 -1.1666,0.50868 -0.93274,0.784448 0.36674,0.65276 0.56468,0.985222 0.37825,1.649512 -0.35189,1.085657 -0.80314,2.138808 -0.64542,3.284037 l 1.24333,-1.564245 c 0.11276,-0.363844 0.24778,-0.702812 0.37465,-1.035596 0.0412,-0.690782 0.11607,-1.818638 0.20465,-2.675806 -0.14988,-0.301009 -0.38102,-0.427285 -0.62272,-0.44235 z"
         style="opacity:1;vector-effect:none;fill:#fff6d5;fill-opacity:1;stroke:none;stroke-width:0.09374304;stroke-linecap:butt;stroke-linejoin:miter;stroke-miterlimit:4;stroke-dasharray:none;stroke-dashoffset:0;stroke-opacity:1;marker:none"
         inkscape:connector-curvature="0" />
      <path
         id="path6101"
         d="m 412.74098,34.387017 c -0.0159,-0.002 -0.0241,0.01851 -0.0217,0.06356 -0.61592,0.57728 -1.37964,1.820588 -2.13889,1.80144 l -0.54983,0.852661 -0.0243,0.04599 c 0.87961,0.329713 1.63616,0.145186 2.30166,-0.263549 l 0.82735,-1.041281 c -0.0111,-0.0985 -0.0225,-0.191127 -0.0398,-0.341064 -0.0778,-0.679226 -0.2859,-1.109246 -0.35448,-1.117761 z"
         style="opacity:1;vector-effect:none;fill:#fff6d5;fill-opacity:1;stroke:none;stroke-width:0.09374304;stroke-linecap:butt;stroke-linejoin:miter;stroke-miterlimit:4;stroke-dasharray:none;stroke-dashoffset:0;stroke-opacity:1;marker:none"
         inkscape:connector-curvature="0" />
    </g>
    <text
       xml:space="preserve"
       style="font-style:normal;font-variant:normal;font-weight:bold;font-stretch:condensed;font-size:6.25098181px;line-height:1;font-family:'PT Sans Narrow';-inkscape-font-specification:'PT Sans Narrow Bold Condensed';font-variant-ligatures:normal;font-variant-position:normal;font-variant-caps:normal;font-variant-numeric:normal;font-variant-alternates:normal;font-feature-settings:normal;text-indent:0;text-align:center;text-decoration:none;text-decoration-line:none;text-decoration-style:solid;text-decoration-color:#000000;letter-spacing:0px;word-spacing:0px;text-transform:none;writing-mode:lr-tb;direction:ltr;text-orientation:mixed;dominant-baseline:auto;baseline-shift:baseline;text-anchor:middle;white-space:normal;shape-padding:0;opacity:1;vector-effect:none;fill:#000000;fill-opacity:1;stroke:none;stroke-width:0.20833448;stroke-linecap:butt;stroke-linejoin:miter;stroke-miterlimit:4;stroke-dasharray:none;stroke-dashoffset:0;stroke-opacity:1;marker:none"
       x="75.297218"
       y="116.94022"
       id="text6232"
       transform="rotate(0.03860053)"><tspan
         sodipodi:role="line"
         id="tspan6230"
         x="75.297218"
         y="116.94022"
         style="font-style:normal;font-variant:normal;font-weight:bold;font-stretch:condensed;font-size:6.25098181px;line-height:1;font-family:'PT Sans Narrow';-inkscape-font-specification:'PT Sans Narrow Bold Condensed';font-variant-ligatures:normal;font-variant-position:normal;font-variant-caps:normal;font-variant-numeric:normal;font-variant-alternates:normal;font-feature-settings:normal;text-indent:0;text-align:center;text-decoration:none;text-decoration-line:none;text-decoration-style:solid;text-decoration-color:#000000;letter-spacing:0px;word-spacing:0px;text-transform:none;writing-mode:lr-tb;direction:ltr;text-orientation:mixed;dominant-baseline:auto;baseline-shift:baseline;text-anchor:middle;white-space:normal;shape-padding:0;vector-effect:none;fill:#000000;fill-opacity:1;stroke:none;stroke-width:0.20833448;stroke-linecap:butt;stroke-linejoin:miter;stroke-miterlimit:4;stroke-dasharray:none;stroke-dashoffset:0;stroke-opacity:1;marker:none">Les aventures inutiles de</tspan></text>
    <text
       id="text6254"
       y="158.44731"
       x="75.363083"
       style="font-style:normal;font-variant:normal;font-weight:bold;font-stretch:condensed;font-size:4.11468315px;line-height:1;font-family:'PT Sans Narrow';-inkscape-font-specification:'PT Sans Narrow Bold Condensed';font-variant-ligatures:normal;font-variant-position:normal;font-variant-caps:normal;font-variant-numeric:normal;font-variant-alternates:normal;font-feature-settings:normal;text-indent:0;text-align:center;text-decoration:none;text-decoration-line:none;text-decoration-style:solid;text-decoration-color:#000000;letter-spacing:0px;word-spacing:0px;text-transform:none;writing-mode:lr-tb;direction:ltr;text-orientation:mixed;dominant-baseline:auto;baseline-shift:baseline;text-anchor:middle;white-space:normal;shape-padding:0;opacity:1;vector-effect:none;fill:#000000;fill-opacity:1;stroke:none;stroke-width:0.20833448;stroke-linecap:butt;stroke-linejoin:miter;stroke-miterlimit:4;stroke-dasharray:none;stroke-dashoffset:0;stroke-opacity:1;marker:none"
       xml:space="preserve"
       transform="rotate(0.03860053)"><tspan
         style="font-style:normal;font-variant:normal;font-weight:bold;font-stretch:condensed;font-size:4.11468315px;line-height:1;font-family:'PT Sans Narrow';-inkscape-font-specification:'PT Sans Narrow Bold Condensed';font-variant-ligatures:normal;font-variant-position:normal;font-variant-caps:normal;font-variant-numeric:normal;font-variant-alternates:normal;font-feature-settings:normal;text-indent:0;text-align:center;text-decoration:none;text-decoration-line:none;text-decoration-style:solid;text-decoration-color:#000000;letter-spacing:0px;word-spacing:0px;text-transform:none;writing-mode:lr-tb;direction:ltr;text-orientation:mixed;dominant-baseline:auto;baseline-shift:baseline;text-anchor:middle;white-space:normal;shape-padding:0;vector-effect:none;fill:#000000;fill-opacity:1;stroke:none;stroke-width:0.20833448;stroke-linecap:butt;stroke-linejoin:miter;stroke-miterlimit:4;stroke-dasharray:none;stroke-dashoffset:0;stroke-opacity:1;marker:none"
         y="158.44731"
         x="75.363083"
         id="tspan6252"
         sodipodi:role="line">(le superhéros qui ne sert à rien)</tspan></text>
  </g>
</svg>
