<?xml version="1.0" encoding="UTF-8" standalone="no"?>
<!-- Created with Inkscape (http://www.inkscape.org/) -->

<svg
   xmlns:dc="http://purl.org/dc/elements/1.1/"
   xmlns:cc="http://creativecommons.org/ns#"
   xmlns:rdf="http://www.w3.org/1999/02/22-rdf-syntax-ns#"
   xmlns:svg="http://www.w3.org/2000/svg"
   xmlns="http://www.w3.org/2000/svg"
   xmlns:sodipodi="http://sodipodi.sourceforge.net/DTD/sodipodi-0.dtd"
   xmlns:inkscape="http://www.inkscape.org/namespaces/inkscape"
   width="33cm"
   height="26.4cm"
   viewBox="0 0 330 263.99999"
   version="1.1"
   id="svg10437"
   inkscape:version="0.92.3 (2405546, 2018-03-11)"
   sodipodi:docname="repartition_des_richesses.svg">
  <defs
     id="defs10431" />
  <sodipodi:namedview
     id="base"
     pagecolor="#ffffff"
     bordercolor="#666666"
     borderopacity="1.0"
     inkscape:pageopacity="0.0"
     inkscape:pageshadow="2"
     inkscape:zoom="0.35355339"
     inkscape:cx="112.80835"
     inkscape:cy="775.79065"
     inkscape:document-units="mm"
     inkscape:current-layer="layer1"
     showgrid="false"
     inkscape:window-width="1920"
     inkscape:window-height="1026"
     inkscape:window-x="0"
     inkscape:window-y="27"
     inkscape:window-maximized="1"
     fit-margin-top="0"
     fit-margin-left="0"
     fit-margin-right="0"
     fit-margin-bottom="0"
     units="cm" />
  <metadata
     id="metadata10434">
    <rdf:RDF>
      <cc:Work
         rdf:about="">
        <dc:format>image/svg+xml</dc:format>
        <dc:type
           rdf:resource="http://purl.org/dc/dcmitype/StillImage" />
        <dc:title></dc:title>
      </cc:Work>
    </rdf:RDF>
  </metadata>
  <g
     inkscape:label="Calque 1"
     inkscape:groupmode="layer"
     id="layer1"
     transform="translate(148.5,-273.39004)">
    <rect
       style="color:#000000;clip-rule:nonzero;display:inline;overflow:visible;visibility:visible;opacity:1;isolation:auto;mix-blend-mode:normal;color-interpolation:sRGB;color-interpolation-filters:linearRGB;solid-color:#000000;solid-opacity:1;vector-effect:none;fill:#ffffff;fill-opacity:1;fill-rule:nonzero;stroke:none;stroke-width:0.26458329;stroke-linecap:butt;stroke-linejoin:miter;stroke-miterlimit:4;stroke-dasharray:none;stroke-dashoffset:0;stroke-opacity:1;marker:none;color-rendering:auto;image-rendering:auto;shape-rendering:auto;text-rendering:auto;enable-background:accumulate"
       id="rect832"
       width="330"
       height="264"
       x="-148.5"
       y="273.39005" />
    <g
       id="g11080"
       transform="matrix(10,0,0,10,-575.26222,-2514.2427)"
       style="stroke-width:0.1">
      <rect
         rx="0.27789235"
         ry="0.20870577"
         y="290.26019"
         x="47.307411"
         height="3.4061544"
         width="23.737621"
         id="rect11006"
         style="opacity:1;vector-effect:none;fill:#000000;fill-opacity:1;stroke:#000000;stroke-width:0.05626656;stroke-linecap:butt;stroke-linejoin:miter;stroke-miterlimit:4;stroke-dasharray:none;stroke-dashoffset:0;stroke-opacity:1" />
      <text
         transform="scale(1.0474077,0.95473807)"
         id="text11010"
         y="306.44424"
         x="45.580631"
         style="font-style:normal;font-variant:normal;font-weight:bold;font-stretch:condensed;font-size:0.73806149px;line-height:0%;font-family:'PT Sans Narrow';-inkscape-font-specification:'PT Sans Narrow Bold Condensed';letter-spacing:0px;word-spacing:0px;display:inline;fill:#ffffff;fill-opacity:1;stroke:none;stroke-width:0.02233428"
         xml:space="preserve"><tspan
           y="306.44424"
           x="45.580631"
           id="tspan11008"
           sodipodi:role="line"
           style="font-size:2.46020532px;line-height:1.19000006;fill:#ffffff;stroke-width:0.02233428">Répartition <tspan
   id="tspan11026"
   style="fill:#ff8080;stroke-width:0.02233428">des richesses</tspan></tspan></text>
    </g>
  </g>
</svg>
