<?xml version="1.0" encoding="UTF-8" standalone="no"?>
<!-- Created with Inkscape (http://www.inkscape.org/) -->

<svg
   xmlns:dc="http://purl.org/dc/elements/1.1/"
   xmlns:cc="http://creativecommons.org/ns#"
   xmlns:rdf="http://www.w3.org/1999/02/22-rdf-syntax-ns#"
   xmlns:svg="http://www.w3.org/2000/svg"
   xmlns="http://www.w3.org/2000/svg"
   xmlns:sodipodi="http://sodipodi.sourceforge.net/DTD/sodipodi-0.dtd"
   xmlns:inkscape="http://www.inkscape.org/namespaces/inkscape"
   width="33cm"
   height="26.4cm"
   id="svg5321"
   version="1.1"
   inkscape:version="0.92.3 (2405546, 2018-03-11)"
   sodipodi:docname="table_a_dessins.svg"
   inkscape:export-filename="/user/sgiraudo/home/Projets/post_gknd/table_a_dessins.png"
   inkscape:export-xdpi="90"
   inkscape:export-ydpi="90">
  <defs
     id="defs3" />
  <sodipodi:namedview
     inkscape:document-units="mm"
     id="base"
     pagecolor="#ffffff"
     bordercolor="#666666"
     borderopacity="1.0"
     inkscape:pageopacity="0.0"
     inkscape:pageshadow="2"
     inkscape:zoom="0.4851239"
     inkscape:cx="419.17625"
     inkscape:cy="338.03079"
     inkscape:current-layer="layer2"
     showgrid="false"
     units="cm"
     inkscape:window-width="1920"
     inkscape:window-height="1026"
     inkscape:window-x="0"
     inkscape:window-y="27"
     inkscape:window-maximized="1" />
  <metadata
     id="metadata4">
    <rdf:RDF>
      <cc:Work
         rdf:about="">
        <dc:format>image/svg+xml</dc:format>
        <dc:type
           rdf:resource="http://purl.org/dc/dcmitype/StillImage" />
        <dc:title></dc:title>
      </cc:Work>
    </rdf:RDF>
  </metadata>
  <g
     inkscape:groupmode="layer"
     id="layer2"
     inkscape:label="Fond 1">
    <rect
       style="color:#000000;clip-rule:nonzero;display:inline;overflow:visible;visibility:visible;opacity:1;isolation:auto;mix-blend-mode:normal;color-interpolation:sRGB;color-interpolation-filters:linearRGB;solid-color:#000000;solid-opacity:1;vector-effect:none;fill:#ffffff;fill-opacity:1;fill-rule:nonzero;stroke:none;stroke-width:1;stroke-linecap:butt;stroke-linejoin:miter;stroke-miterlimit:4;stroke-dasharray:none;stroke-dashoffset:0;stroke-opacity:1;marker:none;color-rendering:auto;image-rendering:auto;shape-rendering:auto;text-rendering:auto;enable-background:accumulate"
       id="rect957"
       width="1247.2441"
       height="997.79529"
       x="0"
       y="-3.18608e-05" />
  </g>
  <g
     inkscape:groupmode="layer"
     id="layer7"
     inkscape:label="Fond"
     style="display:inline;opacity:0.1"
     transform="translate(0,697.79528)">
    <text
       id="text9427"
       y="-102.45718"
       x="-142.07779"
       style="font-style:normal;font-variant:normal;font-weight:normal;font-stretch:normal;font-size:42.10989761px;line-height:0%;font-family:Lavi;-inkscape-font-specification:Lavi;letter-spacing:0px;word-spacing:0px;fill:#073789;fill-opacity:1;stroke:none;stroke-width:1.68935359"
       xml:space="preserve"><tspan
         style="font-size:230.82788086px;line-height:1;stroke-width:1.68935359"
         y="-102.45718"
         x="-142.07779"
         id="tspan9429"
         sodipodi:role="line">Table à dessins</tspan></text>
    <text
       id="text9431"
       y="-470.66971"
       x="2.25913"
       style="font-style:normal;font-variant:normal;font-weight:normal;font-stretch:normal;font-size:42.10989761px;line-height:0%;font-family:Lavi;-inkscape-font-specification:Lavi;letter-spacing:0px;word-spacing:0px;fill:#073789;fill-opacity:1;stroke:none;stroke-width:1.68935359"
       xml:space="preserve"><tspan
         style="font-size:112.55982971px;line-height:1;stroke-width:1.68935359"
         y="-470.66971"
         x="2.25913"
         id="tspan9433"
         sodipodi:role="line">crayons</tspan></text>
    <text
       xml:space="preserve"
       style="font-style:normal;font-variant:normal;font-weight:normal;font-stretch:normal;font-size:42.10989761px;line-height:0%;font-family:Lavi;-inkscape-font-specification:Lavi;letter-spacing:0px;word-spacing:0px;fill:#073789;fill-opacity:1;stroke:none;stroke-width:1.68935359"
       x="182.60869"
       y="195.74721"
       id="text9435"><tspan
         style="font-size:112.55982971px;line-height:1;stroke-width:1.68935359"
         sodipodi:role="line"
         id="tspan9437"
         x="182.60869"
         y="195.74721">dessins</tspan></text>
    <text
       id="text9439"
       y="-501.06119"
       x="507.50006"
       style="font-style:normal;font-variant:normal;font-weight:normal;font-stretch:normal;font-size:42.10989761px;line-height:0%;font-family:Lavi;-inkscape-font-specification:Lavi;letter-spacing:0px;word-spacing:0px;fill:#073789;fill-opacity:1;stroke:none;stroke-width:1.68935359"
       xml:space="preserve"><tspan
         style="font-size:112.55982971px;line-height:1;stroke-width:1.68935359"
         y="-501.06119"
         x="507.50006"
         id="tspan9441"
         sodipodi:role="line">à la main</tspan></text>
    <text
       xml:space="preserve"
       style="font-style:normal;font-variant:normal;font-weight:normal;font-stretch:normal;font-size:42.10989761px;line-height:0%;font-family:Lavi;-inkscape-font-specification:Lavi;letter-spacing:0px;word-spacing:0px;fill:#073789;fill-opacity:1;stroke:none;stroke-width:1.68935359"
       x="979.42822"
       y="-26.124519"
       id="text9443"><tspan
         style="font-size:112.55982971px;line-height:1;stroke-width:1.68935359"
         sodipodi:role="line"
         id="tspan9445"
         x="979.42822"
         y="-26.124519">papier</tspan></text>
    <text
       id="text9447"
       y="51.616581"
       x="-34.150867"
       style="font-style:normal;font-variant:normal;font-weight:normal;font-stretch:normal;font-size:42.10989761px;line-height:0%;font-family:Lavi;-inkscape-font-specification:Lavi;letter-spacing:0px;word-spacing:0px;fill:#073789;fill-opacity:1;stroke:none;stroke-width:1.68935359"
       xml:space="preserve"><tspan
         style="font-size:112.55982971px;line-height:1;stroke-width:1.68935359"
         y="51.616581"
         x="-34.150867"
         id="tspan9449"
         sodipodi:role="line">visuels</tspan></text>
    <text
       xml:space="preserve"
       style="font-style:normal;font-variant:normal;font-weight:normal;font-stretch:normal;font-size:42.10989761px;line-height:0%;font-family:Lavi;-inkscape-font-specification:Lavi;letter-spacing:0px;word-spacing:0px;fill:#073789;fill-opacity:1;stroke:none;stroke-width:1.68935359"
       x="636.9472"
       y="146.3577"
       id="text9451"><tspan
         style="font-size:112.55982971px;line-height:1;stroke-width:1.68935359"
         sodipodi:role="line"
         id="tspan9453"
         x="636.9472"
         y="146.3577">aquarelles</tspan></text>
    <text
       xml:space="preserve"
       style="font-style:normal;font-variant:normal;font-weight:normal;font-stretch:normal;font-size:42.10989761px;line-height:0%;font-family:Lavi;-inkscape-font-specification:Lavi;letter-spacing:0px;word-spacing:0px;fill:#073789;fill-opacity:1;stroke:none;stroke-width:1.68935359"
       x="18.993086"
       y="-303.99023"
       id="text9455"><tspan
         style="font-size:112.55982971px;line-height:1;stroke-width:1.68935359"
         sodipodi:role="line"
         id="tspan9457"
         x="18.993086"
         y="-303.99023">essais</tspan></text>
    <text
       id="text9459"
       y="-336.55753"
       x="723.71893"
       style="font-style:normal;font-variant:normal;font-weight:normal;font-stretch:normal;font-size:42.10989761px;line-height:0%;font-family:Lavi;-inkscape-font-specification:Lavi;letter-spacing:0px;word-spacing:0px;fill:#073789;fill-opacity:1;stroke:none;stroke-width:1.68935359"
       xml:space="preserve"><tspan
         style="font-size:112.55982971px;line-height:1;stroke-width:1.68935359"
         y="-336.55753"
         x="723.71893"
         id="tspan9461"
         sodipodi:role="line">graphismes</tspan></text>
  </g>
  <g
     inkscape:groupmode="layer"
     id="layer6"
     inkscape:label="Dessin"
     style="display:inline;opacity:0.3"
     transform="translate(0,697.79528)">
    <g
       id="g8880"
       transform="matrix(2.9265417,0,0,2.9265417,1574.0718,-2517.6749)"
       style="fill:#073789;fill-opacity:1;stroke-width:0.47443202">
      <path
         transform="translate(0,698.03176)"
         inkscape:connector-curvature="0"
         d="m -361.97792,156.97115 c -4.48856,0.41124 -8.74999,-1.24805 -11.83532,-4.56429 -0.85733,-0.92148 -1.5237,-2.00372 -2.28554,-3.00558 -0.5756,-1.22327 -1.27895,-2.39423 -1.72678,-3.66982 -1.46202,-4.16435 -1.65572,-8.76805 -0.51377,-13.03617 1.06504,-3.98066 1.97304,-4.82826 4.15544,-8.26692 1.1199,-1.14659 2.13143,-2.41012 3.35971,-3.43977 5.25147,-4.40226 12.03899,-6.37793 18.75491,-6.95162 1.74567,-0.14912 3.50228,-0.11136 5.25341,-0.16705 7.21167,0.39194 16.03684,1.07444 22.25632,5.19066 1.02228,0.67657 1.87892,1.57508 2.81839,2.36261 0.67391,1.00072 1.51735,1.90616 2.02174,3.00214 2.08997,4.54124 0.85246,9.681 -1.38267,13.88408 -0.50578,0.95112 -1.14677,1.82392 -1.72016,2.73587 -2.19023,2.76838 -4.8778,6.02756 -8.61471,6.6161 -0.4631,0.0729 -0.93743,0.0184 -1.40615,0.0276 -1.55393,-0.46105 -1.87416,-0.99712 -2.43284,-2.41992 0,0 0.0309,-0.11244 0.0309,-0.11244 v 0 c 0.57451,-0.57336 1.1688,-1.13404 1.62829,-1.80898 2.20205,-1.56465 4.40006,-3.11515 5.93602,-5.41441 1.89055,-2.88086 4.29699,-6.92414 3.13932,-10.55109 -0.20198,-0.6328 -0.60477,-1.18289 -0.90716,-1.77433 -0.58163,-0.5601 -1.09133,-1.20612 -1.74491,-1.68031 -5.16181,-3.74501 -13.3678,-4.39029 -19.49443,-4.87936 -1.5671,0.0263 -3.13787,-0.0314 -4.70131,0.0789 -5.62468,0.39698 -11.38936,1.89075 -15.90221,5.4243 -0.99665,0.78038 -1.83345,1.74576 -2.75017,2.61864 -0.70588,1.01227 -1.51862,1.95786 -2.11764,3.03681 -2.30884,4.15868 -2.85445,9.23037 -1.64462,13.81349 0.27615,1.04612 0.75296,2.02869 1.12944,3.04303 0.50214,0.84948 0.9183,1.75605 1.50642,2.54843 2.17414,2.92921 5.53209,4.51281 9.07384,4.96985 0,0 0.11625,2.38955 0.11625,2.38955 z"
         id="path8774"
         style="color:#000000;display:inline;overflow:visible;visibility:visible;fill:#073789;fill-opacity:1;fill-rule:nonzero;stroke:none;stroke-width:2.37832761;marker:none;enable-background:accumulate" />
      <path
         transform="translate(0,698.03176)"
         inkscape:connector-curvature="0"
         d="m -344.23817,135.56476 c 2.60317,0.41429 4.93245,1.72895 6.5498,3.83335 0.38909,0.50627 0.68531,1.07758 1.02796,1.61637 1.38955,2.74647 1.80974,5.77212 1.66849,8.81299 -0.11307,1.98778 -1.26704,3.29418 -2.82178,4.37637 -1.09905,0.8399 -1.89742,0.84957 -3.15063,0.33756 -0.74257,-0.99061 -0.61084,-0.46441 -0.5642,-1.52638 0,0 0.0958,-0.0665 0.0958,-0.0665 v 0 c 0.43531,-0.5532 0.34155,-0.21982 0.0299,-1.0385 -0.87617,-0.98733 -0.004,-1.28011 0.84001,-1.80157 0.18085,-0.11469 0.33945,-0.2971 0.551,-0.33033 0.10927,-0.0172 0.0406,0.70112 0.18558,-0.24977 0.17541,-2.07071 -0.10966,-4.14642 -0.92612,-6.06837 -1.02019,-1.91334 -2.25903,-3.03005 -4.38978,-3.60345 0,0 0.90401,-4.29178 0.90401,-4.29178 z"
         id="path8776"
         style="color:#000000;display:inline;overflow:visible;visibility:visible;fill:#073789;fill-opacity:1;fill-rule:nonzero;stroke:none;stroke-width:2.37832761;marker:none;enable-background:accumulate" />
      <path
         transform="translate(0,698.03176)"
         inkscape:connector-curvature="0"
         d="m -349.18495,115.02809 c -2.73219,-3.95031 -4.50493,-8.46787 -6.29379,-12.89725 -2.40532,-6.356728 -4.62395,-12.785313 -6.74284,-19.242907 -0.65882,-2.150129 -1.39334,-4.28201 -1.94634,-6.463614 -0.11955,-0.471613 -0.45133,-1.841486 -0.40177,-2.410459 0.044,-0.504943 0.21933,-0.989697 0.32899,-1.484546 0.64425,-0.504157 1.17979,-1.192661 1.93275,-1.51247 1.1869,-0.504115 2.95803,0.508709 4.09413,0.862724 0.52329,0.186706 0.89529,0.04527 1.36759,-0.186245 1.02606,-0.52251 2.01106,-1.098034 3.09389,-1.49626 3.57683,-0.599396 4.62189,2.85942 5.51036,5.57801 1.7413,5.93982 3.11519,11.98269 4.5845,17.994291 1.52739,6.489656 3.08317,12.972356 5.11153,19.326156 0.43306,1.29779 0.88439,2.58934 1.34435,3.8778 0.0889,0.24897 0.45895,0.94017 0.28715,0.73925 -0.10743,-0.12564 -0.19356,-0.26804 -0.29034,-0.40206 -0.73393,-0.18956 -1.4497,-0.66316 -2.20181,-0.56869 -0.49268,0.0619 -1.4951,1.21974 -1.01595,1.08945 0.33787,-0.0919 0.75212,-0.67676 1.001,-0.89378 0.10764,-0.15664 1.21748,-0.57851 0.63084,-0.71435 0,0 0.0348,-0.11129 0.0348,-0.11129 v 0 c 0.53416,0.19674 1.09232,0.45385 1.3966,0.96834 0.75274,1.11695 1.32994,3.47764 -0.73113,3.97009 -0.80744,0.19293 -1.62712,-0.33048 -2.44068,-0.49572 -1.41322,-1.70324 -1.8383,-3.96738 -2.60259,-6.00277 -2.04133,-6.46618 -3.62279,-13.05668 -5.15578,-19.659395 -1.42116,-5.909497 -2.79396,-11.836407 -4.45578,-17.683721 -0.14307,-0.464148 -0.27928,-0.930468 -0.42922,-1.392442 -0.0949,-0.292364 -0.20276,-0.580355 -0.30515,-0.870179 -0.044,-0.124431 -0.21076,-0.265327 -0.13387,-0.372581 0.006,-0.0077 1.18032,0.332273 1.31824,0.03829 -0.94273,0.113944 -1.67495,1.153637 -2.60123,1.375691 -1.51467,0.668319 -3.06181,0.992271 -4.69263,0.510075 -0.84271,-0.243201 -0.44332,-0.117296 -1.23665,-0.385985 -0.5559,-0.188278 -0.77006,-0.260099 -0.76212,-0.26562 0.16986,-0.118248 0.40405,-0.0899 0.60608,-0.134844 0.41631,-0.439763 0.83261,-0.879526 1.24892,-1.319289 0.008,-0.247669 2.9e-4,-0.496232 0.0226,-0.743008 0.0127,-0.140253 -0.0146,0.283173 0.006,0.422427 0.0542,0.35953 0.13207,0.715477 0.21825,1.068703 0.51523,2.111852 1.22686,4.170686 1.83772,6.254925 2.07015,6.374369 4.22587,12.722356 6.53621,19.013983 1.61541,4.20082 3.30863,8.37199 5.29462,12.41413 0,0 -3.36784,2.20514 -3.36784,2.20514 z"
         id="path8778"
         style="color:#000000;display:inline;overflow:visible;visibility:visible;fill:#073789;fill-opacity:1;fill-rule:nonzero;stroke:none;stroke-width:2.37832761;marker:none;enable-background:accumulate" />
      <path
         transform="translate(0,698.03176)"
         inkscape:connector-curvature="0"
         d="m -334.20728,147.7327 c 0.63051,2.89002 1.37011,5.75252 1.94266,8.65628 0.45329,2.4264 0.70428,4.88191 1.01978,7.32782 -0.72126,-1.32342 -1.53098,-0.98247 -2.7756,-0.48508 -0.17448,0.0697 -0.33857,0.66198 -0.10079,0.0648 0.29999,-0.90121 1.1854,-1.3988 1.47379,-2.26801 -0.008,-0.17751 -0.0167,-0.35501 -0.0251,-0.53252 0,0 0.11648,-0.005 0.11648,-0.005 v 0 c 0.008,0.17705 0.0167,0.35409 0.025,0.53114 0.47557,1.00922 1.58904,1.26768 1.61413,2.65796 0.0553,2.89132 -2.83249,3.78454 -4.0964,1.02522 -0.82777,-2.41859 -0.77445,-5.0363 -1.32203,-7.52078 -0.59218,-3.06257 -1.47362,-6.08482 -1.77706,-9.19105 0,0 3.90511,-0.26034 3.90511,-0.26034 z"
         id="path8780"
         style="color:#000000;display:inline;overflow:visible;visibility:visible;fill:#073789;fill-opacity:1;fill-rule:nonzero;stroke:none;stroke-width:2.37832761;marker:none;enable-background:accumulate" />
      <path
         transform="translate(0,698.03176)"
         inkscape:connector-curvature="0"
         d="m -329.13399,145.76317 c 1.16392,2.60442 1.5869,5.44872 2.09056,8.23416 0.31758,1.82583 0.81774,3.60246 1.6257,5.27044 0.47319,0.75212 1.10526,1.56567 0.88216,2.54461 -0.10909,0.47869 -0.46901,0.86266 -0.70351,1.29399 -0.9593,0.74607 -1.30679,0.49554 -2.20647,0.33135 -0.50148,-0.1454 -0.1264,-0.15958 0.51356,-0.2973 1.3222,-0.91215 -0.97355,0.99939 -1.06359,1.06302 -0.98641,0.62451 -1.91308,1.33499 -2.86204,2.01348 -0.39404,0.41164 0.1181,0.054 0.31916,0.12027 1.03989,0.97104 2.10574,1.90368 3.09922,2.92415 1.55519,1.68571 2.6774,3.70344 4.17244,5.43657 0.29103,0.30531 0.37873,0.43052 0.67522,0.65582 0.0392,0.0298 -0.0606,-0.0866 -0.10759,-0.10134 -0.35021,-0.11007 -0.75949,-0.46688 -1.06815,-0.26817 -2.24386,1.44459 -2.13495,1.38152 -1.76758,2.58999 -0.6738,-1.47115 -0.72246,-3.09517 -0.85589,-4.68054 -0.19105,-1.85933 -0.57308,-3.69012 -0.82136,-5.54481 -0.13544,-1.45772 -0.67499,-2.80983 -1.11703,-4.18831 -0.55729,-1.37546 -2.95011,-1.13381 3.91367,-0.89709 0.007,2.4e-4 0.71602,2.92756 0.74972,3.07136 0.34066,1.59998 0.7212,3.31508 0.42633,4.96151 -1.03552,5.78179 -0.23694,-1.6286 -0.68014,3.06051 0,0 -0.11396,0.0247 -0.11396,0.0247 v 0 c -2.00917,-3.49073 1.00464,1.53757 -1.89391,-2.46823 -0.97628,-1.34922 -1.41831,-3.04282 -1.80602,-4.6288 -0.17731,-0.76244 -0.36475,-1.52251 -0.53958,-2.28552 -0.43301,-1.88981 -0.12193,-0.79956 3.7122,-2.04573 0.16401,-0.0533 -0.25657,0.68284 0.005,0.51733 0.0998,1.52395 -0.0368,3.05297 0.0543,4.57839 0.1553,1.80351 0.4378,3.59747 0.97283,5.33117 0.33331,1.18908 0.65668,2.35098 1.5014,3.29068 0.68687,1.56313 1.07057,1.68013 -1.43352,3.43122 -0.93504,0.65387 -2.49968,-1.18396 -2.97963,-1.71553 -1.41011,-1.68841 -2.5654,-3.56524 -3.99549,-5.23625 -1.3974,-1.46819 -3.16628,-2.65121 -3.98681,-4.57168 -0.47365,-1.96441 -0.21984,-3.53427 1.66002,-4.59719 0.97916,-0.46903 1.94177,-0.95201 2.81715,-1.60649 0.56684,-0.37144 0.84893,-0.92653 1.41363,-1.32531 0.45152,-0.11986 0.91256,-0.27745 1.37776,-0.33724 0.61626,-0.0322 -0.27862,-0.44744 -0.95522,0.3385 -0.20325,0.40196 -0.52041,0.7644 -0.60973,1.20587 -0.16082,0.79475 0.48915,1.53817 -0.0986,0.69522 -0.14769,-0.21181 -0.2956,-0.42348 -0.4434,-0.63522 -1.15025,-2.02428 -1.82105,-4.22531 -2.19897,-6.52176 -0.43453,-2.40967 -0.79925,-4.85669 -1.66508,-7.15913 0,0 3.99175,-1.87267 3.99175,-1.87267 z"
         id="path8782"
         style="color:#000000;display:inline;overflow:visible;visibility:visible;fill:#073789;fill-opacity:1;fill-rule:nonzero;stroke:none;stroke-width:2.37832761;marker:none;enable-background:accumulate" />
      <path
         transform="translate(0,698.03176)"
         inkscape:connector-curvature="0"
         d="m -362.49377,151.58033 c -1.78672,2.64429 -2.81948,5.66856 -3.26983,8.80674 0.0831,3.6821 1.69556,3.92443 4.81418,5.00685 3.22357,1.07574 6.72239,0.97493 9.81288,2.43679 1.09035,1.06853 0.51224,1.02089 1.56,0.77119 0,0 0.0599,0.10005 0.0599,0.10005 v 0 c -0.94977,0.9417 -0.41796,0.34545 -1.48291,1.88309 -0.45941,0.20992 -0.89363,0.48735 -1.37824,0.62976 -3.36814,0.9898 -7.05396,-0.44977 -10.29453,-1.21929 -4.05566,-1.59834 -7.32613,-3.30955 -7.31587,-8.29026 0.002,-0.73222 0.18257,-1.45301 0.27386,-2.17951 1.01283,-3.61894 2.43921,-7.17294 5.17508,-9.85659 0,0 2.04549,1.91118 2.04549,1.91118 z"
         id="path8784"
         style="color:#000000;display:inline;overflow:visible;visibility:visible;fill:#073789;fill-opacity:1;fill-rule:nonzero;stroke:none;stroke-width:2.37832761;marker:none;enable-background:accumulate" />
      <path
         transform="translate(0,698.03176)"
         inkscape:connector-curvature="0"
         d="m -369.17051,105.26624 c -6.07823,1.79531 -11.6238,4.92636 -17.11478,8.01591 -11.06848,6.6975 -21.76836,14.15595 -31.25047,22.99502 -1.9715,1.83779 -3.82205,3.8012 -5.73307,5.70179 -4.49824,4.97037 -8.88661,10.22401 -11.57396,16.44301 -1.14012,2.63844 -1.95134,5.4337 -1.69747,8.34131 0.0877,1.00418 0.53831,1.9428 0.80746,2.9142 0.54173,0.73299 0.97614,1.55907 1.62519,2.19898 4.47438,4.41139 12.29534,4.56617 18.11698,4.82237 4.89191,-0.19601 9.74485,0.11878 14.6097,0.56926 0,0 0.0224,0.11443 0.0224,0.11443 v 0 c -1.57172,0.79989 -3.07872,1.74224 -4.71515,2.39968 -4.09181,1.64392 -5.68735,1.57591 -10.00136,2.13784 -1.69443,0.0145 -3.3911,0.13164 -5.08329,0.0434 -6.25699,-0.32615 -13.45723,-1.98889 -17.68499,-7.04528 -0.99461,-1.18955 -1.57428,-2.67185 -2.36142,-4.00777 -0.29784,-1.54498 -0.83823,-3.06249 -0.89353,-4.63495 -0.28161,-8.00762 5.08521,-16.14506 9.84307,-22.09939 1.65914,-2.07636 3.50803,-3.99371 5.26204,-5.99057 2.01406,-1.95293 3.96678,-3.97118 6.04218,-5.8588 9.85328,-8.96177 20.90561,-16.57067 32.55646,-22.99102 5.12243,-2.60137 12.12239,-6.56252 18.00166,-7.0205 0.40631,-0.0316 0.81488,0.0183 1.22232,0.0274 0,0 0,2.92366 0,2.92366 z"
         id="path8788"
         style="color:#000000;display:inline;overflow:visible;visibility:visible;fill:#073789;fill-opacity:1;fill-rule:nonzero;stroke:none;stroke-width:2.37832761;marker:none;enable-background:accumulate" />
      <path
         transform="translate(0,698.03176)"
         inkscape:connector-curvature="0"
         d="m -236.5832,5.5254791 c 0.86667,7.9231209 1.13724,15.9049669 1.30362,23.8700109 -0.0143,11.412644 -0.0427,22.911404 -1.75333,34.225658 -0.32686,2.161839 -0.79317,4.300282 -1.18976,6.450423 -1.81536,7.598134 -4.32215,15.253328 -9.0939,21.567159 -2.90397,3.842458 -3.72117,4.094394 -7.45218,7.008851 -1.49103,0.783809 -2.92485,1.687729 -4.47309,2.351429 -6.20819,2.66132 -13.20779,3.39507 -19.8989,3.33027 -1.58687,-0.0154 -3.17046,-0.1473 -4.7557,-0.22095 -6.48634,-0.60361 -13.0197,-1.78938 -19.03747,-4.355292 -1.39638,-0.690772 -2.11906,-1.64212 -2.71612,-3.013399 0,0 0.0461,-0.107093 0.0461,-0.107093 v 0 c 1.19751,-0.614678 2.32193,-1.092734 3.71742,-1.020157 6.13641,0.551384 12.09558,2.384404 18.26348,2.753793 8.79845,0.430147 17.56438,0.175052 25.48194,-4.168387 3.05162,-2.226581 3.86613,-2.520319 6.29344,-5.549553 4.51813,-5.638512 6.79738,-12.640207 8.53008,-19.539941 0.39588,-2.041325 0.85606,-4.071226 1.18765,-6.123976 1.78783,-11.067761 1.80466,-22.322781 1.82791,-33.501294 -0.1107,-7.945277 -0.39526,-15.892318 -0.39504,-23.835661 0,0 4.11381,-0.1218909 4.11381,-0.1218909 z"
         id="path8792"
         style="color:#000000;display:inline;overflow:visible;visibility:visible;fill:#073789;fill-opacity:1;fill-rule:nonzero;stroke:none;stroke-width:2.37832761;marker:none;enable-background:accumulate" />
      <path
         transform="translate(0,698.03176)"
         inkscape:connector-curvature="0"
         d="m -261.89302,97.938796 c 0.94385,4.547524 0.8296,9.268134 0.78439,13.891944 -0.0374,6.41574 -1.26224,12.15558 -3.68142,18.06617 -1.80343,3.97995 -4.63105,7.22624 -8.52112,9.26843 -0.78184,0.41044 -1.60948,0.727 -2.41422,1.09049 -5.93111,2.25494 -12.26135,2.39457 -18.51641,2.15948 -5.85177,-0.40809 -11.62889,-1.52613 -17.23215,-3.24226 -1.58101,-0.64237 -3.94719,-1.17549 -4.49491,-3.08702 -0.13014,-0.4542 -0.0827,-1.08045 -0.063,-1.56919 0,0 0.0777,-0.0869 0.0777,-0.0869 v 0 c 0.68817,-0.35017 1.19935,-0.9154 2.00133,-1.04175 1.30611,-0.20577 2.65873,0.46317 3.90438,0.67454 5.27278,1.31849 10.58891,2.5523 16.03064,2.9057 5.45912,0.24576 11.0017,0.23654 16.25967,-1.46239 4.13561,-1.64665 6.62431,-3.32719 8.64754,-7.45046 2.34839,-5.26558 3.47479,-10.56508 3.68826,-16.33745 0.19063,-4.42852 0.22146,-8.8523 0.14747,-13.283055 0,0 3.38178,-0.496279 3.38178,-0.496279 z"
         id="path8796"
         style="color:#000000;display:inline;overflow:visible;visibility:visible;fill:#073789;fill-opacity:1;fill-rule:nonzero;stroke:none;stroke-width:2.37832761;marker:none;enable-background:accumulate" />
      <path
         transform="translate(0,698.03176)"
         inkscape:connector-curvature="0"
         d="m -291.37508,85.837696 c -2.18711,0.03271 -4.72053,-0.758083 -5.55708,-3.032614 -0.20974,-0.570267 -0.18736,-1.200698 -0.28104,-1.801047 0.13895,-0.616279 0.19183,-1.258522 0.41685,-1.848837 0.92934,-2.438009 3.24174,-4.434701 5.6769,-5.270034 0.61428,-0.210714 1.26922,-0.275702 1.90383,-0.413553 0.64786,0.0425 1.31044,-0.0163 1.94356,0.127498 2.6952,0.612149 4.51575,2.922943 4.8886,5.598901 0.0928,0.665648 0.0127,1.344097 0.0191,2.016145 -0.60277,3.560747 -2.88765,6.439477 -6.32455,7.681538 -0.62604,0.226246 -1.29343,0.315449 -1.94014,0.473173 -0.64878,-0.0012 -1.3045,0.09098 -1.94635,-0.0036 -2.82107,-0.415739 -4.7814,-2.535998 -5.57334,-5.187783 -0.20087,-0.672596 -0.2555,-1.380456 -0.38324,-2.070684 -0.13999,-4.80197 2.17153,-8.15724 5.56213,-11.276632 2.22011,-1.699411 5.35939,-3.529583 8.23707,-2.214765 0.57863,0.264377 1.03993,0.733073 1.55989,1.09961 0.34567,0.557664 0.79522,1.063061 1.03701,1.672992 1.24845,3.149334 -0.37708,6.538053 -1.93999,9.20866 -1.5238,2.315884 -3.65248,3.961218 -6.1761,5.035788 -1.68083,0.665803 -4.10892,0.302135 -4.24473,-1.955119 -0.0249,-0.413719 0.18851,-0.807217 0.28276,-1.210825 0.61585,-0.705033 0.7901,-1.019907 1.6027,-1.502501 0.32284,-0.191728 0.70789,-0.265937 1.02527,-0.466566 0.28806,-0.182092 0.51493,-0.446532 0.7724,-0.669798 0,0 0.0784,0.0863 0.0784,0.0863 v 0 c -0.24278,0.23128 -0.55704,0.405585 -0.72833,0.693841 -0.35325,0.594458 -0.41014,1.56043 -0.0751,2.157864 1.18541,-0.852641 -2.24402,-1.014828 -0.46628,-1.367318 1.64464,-0.647719 3.01598,-1.727823 4.0466,-3.173692 1.05207,-1.6208 1.90616,-3.33433 1.97997,-5.303605 -0.15021,-1.69867 -3.90354,0.326585 -4.38456,0.853288 -2.388,2.010287 -4.36834,4.456336 -4.42727,7.724855 0.26754,2.115398 0.8556,4.176059 3.34986,4.206081 2.69915,-0.498704 4.62969,-1.816565 5.35233,-4.575502 0.15754,-1.907223 -0.25088,-3.787329 -2.45378,-4.052625 -2.36112,0.315929 -4.23539,1.527227 -5.29045,3.709064 -0.47866,1.632179 1.52698,2.118156 2.71841,2.554589 0,0 -0.26131,2.496922 -0.26131,2.496922 z"
         id="path8820"
         style="color:#000000;display:inline;overflow:visible;visibility:visible;fill:#073789;fill-opacity:1;fill-rule:nonzero;stroke:none;stroke-width:2.37832761;marker:none;enable-background:accumulate" />
      <path
         transform="translate(0,698.03176)"
         inkscape:connector-curvature="0"
         d="m -274.29947,85.638082 c -1.45151,1.048637 -3.53553,2.199319 -5.36755,1.318368 -0.46948,-0.225757 -0.8231,-0.638766 -1.23465,-0.95815 -0.20278,-0.525289 -0.50881,-1.021663 -0.60833,-1.575867 -0.46781,-2.605208 1.40603,-5.23256 2.8654,-7.169172 1.55488,-1.80489 4.04067,-3.193456 6.20999,-1.395551 0.38162,0.316282 0.61832,0.774816 0.92749,1.162225 1.48934,3.011652 0.35057,5.922758 -1.39241,8.518252 -1.17885,1.369116 -3.1468,3.144792 -5.09143,1.699883 -1.31122,-0.974272 -1.06594,-1.959842 -1.09188,-3.276373 0.39082,-1.889385 1.06234,-4.158234 2.9246,-5.070806 0.81566,-0.08813 0.44989,-0.135084 1.10468,0.06 0,0 0.0907,0.07334 0.0907,0.07334 v 0 c 0.41735,0.458117 0.20882,0.200428 0.61136,0.784357 0.36087,1.494972 -0.3544,2.96425 -0.69869,4.409132 -0.42831,0.358863 0.22475,-0.112231 -0.83977,-0.436637 -0.35186,-0.107227 -0.7395,-0.05193 -1.1035,0.001 -0.0722,0.0105 -0.19945,0.18972 -0.12741,0.178035 0.29712,-0.0482 0.81204,-0.628559 0.93701,-0.748484 0.90397,-1.173636 1.74226,-2.517038 1.4587,-4.06198 0.0572,-0.233923 0.45771,-0.291341 0.40202,-0.403927 -0.23612,-0.477365 -1.46932,0.912622 -1.43824,0.81588 -0.77195,0.89141 -1.44598,1.777312 -2.00101,2.82347 -0.22355,0.42135 -0.29451,0.919503 -0.55565,1.318647 -0.046,0.07032 -0.15368,0.06804 -0.23052,0.102063 -1.15058,0.796827 3.00652,0.0024 2.96055,-0.315362 0,0 1.28858,2.147634 1.28858,2.147634 z"
         id="path8824"
         style="color:#000000;display:inline;overflow:visible;visibility:visible;fill:#073789;fill-opacity:1;fill-rule:nonzero;stroke:none;stroke-width:2.37832761;marker:none;enable-background:accumulate" />
      <path
         transform="translate(0,698.03176)"
         inkscape:connector-curvature="0"
         d="m -312.08516,52.932005 c -2.24087,1.26347 -4.35961,2.792358 -5.84355,4.935522 -0.38982,0.562997 -0.69289,1.181359 -1.03934,1.772039 -1.6439,3.872657 -1.70828,8.211013 -0.43238,12.213709 0.27425,0.86038 0.67032,1.677064 1.00548,2.515596 2.06559,3.970837 5.07024,7.451063 8.93713,9.765311 0.74063,0.443251 1.53404,0.791671 2.30106,1.187507 2.99527,1.394204 6.19626,2.133149 9.40645,2.814172 0.74101,0.157199 1.46059,0.478354 2.21791,0.495104 0.67658,0.01497 1.3267,-0.268022 1.99005,-0.402034 0,0 0.0231,0.114301 0.0231,0.114301 v 0 c -7.59626,1.532415 4.36953,-1.018581 -4.25557,1.351064 -3.69323,1.01467 -7.55658,0.113843 -10.99541,-1.294153 -0.889,-0.47212 -1.80904,-0.889918 -2.66698,-1.41636 -4.43939,-2.724056 -7.81757,-6.758099 -10.01782,-11.448533 -0.36031,-0.98611 -0.78642,-1.950612 -1.08094,-2.958329 -1.41956,-4.857101 -1.28672,-10.009182 0.9165,-14.598406 0.46993,-0.712462 0.88127,-1.467239 1.4098,-2.137385 1.8453,-2.339745 4.47442,-4.029428 7.29574,-4.918315 0,0 0.82879,2.00919 0.82879,2.00919 z"
         id="path8826"
         style="color:#000000;display:inline;overflow:visible;visibility:visible;fill:#073789;fill-opacity:1;fill-rule:nonzero;stroke:none;stroke-width:2.37832761;marker:none;enable-background:accumulate" />
      <path
         transform="translate(0,698.03176)"
         inkscape:connector-curvature="0"
         d="m -273.13632,88.819169 c 3.07508,0.664508 6.21739,1.056779 9.34828,1.360623 4.8645,0.536883 8.07261,-0.78842 11.83982,-3.744351 1.28927,-0.96113 2.08364,-2.331581 3.05147,-3.56349 0.39105,-0.49776 1.03381,-0.783749 1.0529,-1.444715 0,0 0.11642,-0.0066 0.11642,-0.0066 v 0 c 0.0242,0.185202 0.15239,1.163796 0.1522,1.166628 -0.14158,2.070978 -2.29087,3.487592 -3.55521,4.872903 -4.05658,3.288757 -7.5229,5.06102 -12.87559,5.029748 -3.31485,-0.304325 -6.64867,-0.713027 -9.79332,-1.86579 0,0 0.66303,-1.804927 0.66303,-1.804927 z"
         id="path8828"
         style="color:#000000;display:inline;overflow:visible;visibility:visible;fill:#073789;fill-opacity:1;fill-rule:nonzero;stroke:none;stroke-width:2.37832761;marker:none;enable-background:accumulate" />
      <path
         transform="translate(0,698.03176)"
         inkscape:connector-curvature="0"
         d="m -245.90072,4.0109964 c 2.16677,2.9534089 3.03657,6.6049456 3.83118,10.1182166 0.27987,2.140462 0.89244,4.493256 0.35651,6.658224 -0.0789,0.318803 -0.0673,0.794911 -0.3744,0.911371 -0.77914,0.29548 -1.66242,0.117537 -2.49362,0.176305 -0.23667,-0.502215 -0.53629,-0.979335 -0.71001,-1.506646 -0.25665,-0.779095 -0.50902,-3.000711 -0.58189,-3.6984 -0.28897,-2.766533 -0.33627,-5.50639 -0.3303,-8.2853949 0.37672,-4.3317939 0.51506,-9.816976 2.93595,-13.6143149 0.40642,-0.6375082 0.97059,-1.1594599 1.45588,-1.7391899 0.76303,-0.3609929 1.45068,-0.9850714 2.28909,-1.0829787 6.13056,-0.7159023 8.34727,8.07289296 9.62631,12.3517232 1.65088,6.9915512 2.51036,14.1756392 2.18415,21.3574852 -0.27412,3.178627 0.48973,3.364792 -4.61698,1.077076 -0.20552,-0.09207 0.0956,-0.440155 0.1472,-0.659353 0.93197,-3.957235 -0.0704,0.424653 1.01777,-4.387204 0.70763,-3.133885 1.36459,-6.279071 1.95201,-9.437773 0.45735,-2.4593233 0.75261,-4.5258546 1.60671,-6.8738736 0.66392,-0.5465501 1.13214,-1.6635554 1.99175,-1.6396504 4.3818,0.1218543 4.79164,4.5474364 5.36125,7.676793 0.52059,2.860034 0.7989,5.664056 1.13824,8.552603 0.73107,8.531557 2.03474,17.114912 1.44978,25.700939 -0.10507,1.542243 -0.35061,3.071692 -0.52592,4.607537 -0.96345,4.55158 -3.12005,12.450705 -8.76985,13.29842 -0.65499,0.09828 -1.3165,-0.146656 -1.97475,-0.219984 -0.48914,-0.121117 -0.97829,-0.242234 -1.46743,-0.363352 0,0 0.0285,-0.113071 0.0285,-0.113071 v 0 c 0.47114,0.120879 0.94229,0.241758 1.41344,0.362637 0.3799,-0.305893 0.808,-0.56009 1.1397,-0.917679 0.76748,-0.827389 1.55258,-2.334564 1.99449,-3.303176 1.33907,-2.935077 2.21276,-6.047442 2.66186,-9.241106 0.11751,-1.39287 0.29635,-2.781921 0.35253,-4.17861 0.33633,-8.361131 -0.97297,-16.701956 -1.63946,-25.011829 -0.41622,-3.616412 -0.81756,-7.208309 -1.50978,-10.783367 -0.0833,-0.4300515 -0.64358,-1.060342 -0.26839,-1.2864179 4.89419,-2.9490605 0.69054,2.4911039 3.20838,-1.1973693 -0.95825,1.7730878 -1.26932,3.8726972 -1.68764,5.8243022 -0.68122,3.178193 -1.26349,6.377811 -2.00063,9.544238 -0.22851,1.025036 -0.73391,3.312306 -1.00262,4.452532 -0.12042,0.510989 0.14572,1.460147 -0.37463,1.529754 -5.2418,0.701181 -4.61566,-0.265636 -4.59885,-3.069434 -0.17365,-6.6532 -0.73906,-13.316007 -2.29825,-19.803733 -0.79286,-2.7434578 -0.88847,-3.48488 -2.01724,-5.9699502 -0.2688,-0.59176418 -0.61961,-1.1427494 -0.9241,-1.716962 -0.13347,-0.2517048 -0.37417,-0.4762042 -0.38973,-0.7606824 -0.0781,-1.4282455 0.71186,0.2414926 0.14818,-0.7894323 -0.24798,0.177655 -0.54804,0.2991294 -0.74394,0.5329651 -2.33055,2.78189265 -2.72398,8.042972 -3.31597,11.4661053 -0.23034,2.6181835 -0.44287,5.2051455 -0.39452,7.8359035 0.0115,0.625316 0.0376,1.250469 0.0754,1.874749 0.0254,0.419619 0.14244,0.836574 0.11399,1.255996 -0.006,0.09341 -0.14116,0.123046 -0.21173,0.184569 -0.66481,0.207737 -1.34323,0.376114 -1.99444,0.623211 -0.039,0.0148 0.0436,0.154334 0.0527,0.113588 0.40953,-1.850172 -0.31415,-3.826053 -0.4851,-5.650814 -0.69574,-3.187076 -1.60369,-6.3162677 -3.11001,-9.2270005 0,0 2.2793,-1.5584951 2.2793,-1.5584951 z"
         id="path8830"
         style="color:#000000;display:inline;overflow:visible;visibility:visible;fill:#073789;fill-opacity:1;fill-rule:nonzero;stroke:none;stroke-width:2.37832761;marker:none;enable-background:accumulate" />
      <path
         transform="translate(0,698.03176)"
         inkscape:connector-curvature="0"
         d="m -251.38015,6.6634575 c 0.88232,4.2306055 1.0789,8.5688535 1.11039,12.8784845 -0.12365,2.414252 -0.0464,5.011722 -1.05563,7.276688 -0.17664,0.396426 -0.29411,0.883244 -0.65397,1.125845 -0.73671,0.496649 -1.65123,0.656527 -2.47685,0.98479 -0.72168,-0.656888 -1.62117,-1.160395 -2.16503,-1.970664 -0.36305,-0.540875 -0.57677,-3.451522 -0.61222,-3.96907 -0.1871,-2.731863 -0.1903,-5.479288 -0.24562,-8.215743 -0.0861,-2.367715 -0.10475,-4.739413 -0.24927,-7.1049278 -0.0264,-0.4323708 -0.0614,-0.8643756 -0.10799,-1.2950362 -0.0145,-0.1339013 -0.2098,-0.4016123 -0.0752,-0.3969933 1.74893,0.060016 3.47899,0.382325 5.21848,0.5734875 -0.3027,6.5371698 -1.38854,12.9817398 -2.97347,19.3195788 -0.94777,3.291454 -2.10105,6.375528 -4.81435,8.612944 -0.58469,0.482143 -1.29034,0.795177 -1.93552,1.192766 0,0 -0.0934,-0.06976 -0.0934,-0.06976 v 0 c 0.96182,-4.769454 -0.19075,1.356123 0.57547,-4.451002 0.24417,-1.850506 0.90294,-4.640034 1.29267,-6.411891 1.25919,-6.239572 2.36262,-12.517141 2.66763,-18.8880173 1.77859,-0.1057818 3.55742,-0.4270286 5.33578,-0.3173455 0.21535,0.013282 0.0118,0.4314076 0.0118,0.6471651 6e-5,0.4545176 -0.0105,0.9089878 -0.0115,1.3635043 -0.006,2.4057599 0.007,4.8117814 -0.0624,7.2170044 -0.044,2.606989 -0.13015,5.22154 -0.005,7.827887 0.0272,0.563411 0.089,1.124618 0.13311,1.686951 0.0193,0.245228 0.30239,0.716567 0.0572,0.735733 -0.54764,0.0428 -1.01765,-0.413934 -1.52648,-0.620901 -0.58246,0.350519 -1.17304,0.687903 -1.7474,1.051557 -0.0233,0.01476 0.0728,0.02816 0.0827,0.0024 0.10022,-0.259062 0.17053,-0.529865 0.22658,-0.801926 0.34437,-1.671797 0.40439,-3.392002 0.4647,-5.091046 0.007,-4.050746 -0.25665,-8.085333 -0.71964,-12.1099015 0,0 4.35406,-0.782592 4.35406,-0.782592 z"
         id="path8832"
         style="color:#000000;display:inline;overflow:visible;visibility:visible;fill:#073789;fill-opacity:1;fill-rule:nonzero;stroke:none;stroke-width:2.37832761;marker:none;enable-background:accumulate" />
      <path
         transform="translate(0,698.03176)"
         inkscape:connector-curvature="0"
         d="m -277.46903,3.2434439 c -1.58592,3.894361 -3.36543,7.7001131 -5.29605,11.4349241 -1.84086,3.249181 -3.79719,6.513644 -6.34428,9.272927 -0.46774,0.506703 -1.84786,1.752103 -2.44624,2.298704 -3.53164,2.284258 -3.65775,-1.420176 -3.67561,-3.680501 -0.005,-0.638624 0.009,-4.10314 0.011,-4.593834 -0.0587,-3.300174 -0.16779,-6.598996 -0.25571,-9.8987642 -0.0364,-1.3646608 0.29268,-1.0450521 -0.15077,-1.4162002 1.20055,0.4310877 2.5193,0.6182225 3.60165,1.2932633 0.23945,0.1493409 -0.1252,0.5513347 -0.21519,0.8188077 -0.25486,0.7575348 -0.5476,1.5017994 -0.81851,2.2537414 -1.16772,3.24108 -2.36834,6.428269 -3.72731,9.595068 -1.16576,2.271848 -1.60003,3.523493 -3.32991,5.393433 -0.58003,0.626987 -1.30675,1.100259 -1.96013,1.650388 0,0 -0.10405,-0.05262 -0.10405,-0.05262 v 0 c 0.13851,-2.899662 0.5004,-5.715463 1.54879,-8.457413 1.34326,-4.020602 2.63444,-8.1105 4.22179,-12.0436614 0.27097,-0.6714214 0.20227,-1.7798314 0.89883,-1.9774227 1.36484,-0.3871641 2.81577,0.3495535 4.22366,0.5243302 0.59683,3.9715342 -0.59566,8.4161149 -0.62004,12.4210469 -0.0449,0.755472 -0.2191,3.604462 -0.25482,4.487673 -0.0191,0.472162 0.0526,0.952152 -0.0307,1.417314 -0.0891,0.497773 -2.66165,0.369677 -1.69661,0.178814 1.17745,-1.710614 0.1372,-0.114635 1.46068,-2.534504 1.69948,-3.107365 3.69021,-6.049458 5.34383,-9.183774 1.9996,-3.8672466 3.62423,-7.8807261 5.69147,-11.69327224 0,0 3.92417,2.49153514 3.92417,2.49153514 z"
         id="path8834"
         style="color:#000000;display:inline;overflow:visible;visibility:visible;fill:#073789;fill-opacity:1;fill-rule:nonzero;stroke:none;stroke-width:2.37832761;marker:none;enable-background:accumulate" />
      <path
         transform="translate(0,698.03176)"
         inkscape:connector-curvature="0"
         d="m -312.8217,2.8593648 c -3.10677,5.3085615 -5.90139,10.7799902 -8.57239,16.3179732 -1.28738,2.84329 -2.61896,5.662443 -4.16001,8.377767 -0.29022,0.511376 -0.55879,1.037661 -0.89486,1.520144 -0.19258,0.276469 -0.36683,0.86152 -0.68301,0.745112 -0.83922,-0.308976 -1.35776,-1.16427 -2.03664,-1.746404 1.55872,-5.413184 1.50738,-10.826981 1.12585,-16.386851 -0.21458,-1.261397 -0.7935,-7.3335229 -2.54228,-7.7299039 -0.23424,-0.053094 -0.2092,0.6045352 -0.22724,1.2040087 -3.5705,4.4306134 -6.04976,9.6366272 -8.49709,14.7376372 -2.42336,5.051048 -3.42208,7.422375 -5.69457,12.566626 -3.84883,8.42017 -6.63747,17.255153 -9.96973,25.876334 -0.63897,0.73371 -0.62078,1.856335 -1.18687,2.636245 -0.55854,0.769519 -1.39153,0.110395 -1.61023,-0.806465 -0.11782,-0.493923 0.3213,-0.963397 0.48195,-1.445095 0,0 0.11346,0.02692 0.11346,0.02692 v 0 c -0.19022,1.308858 0.13399,2.146752 -1.76755,2.132263 -0.6804,-0.0052 -0.0639,-3.508725 -0.0611,-3.713326 1.87891,-9.296526 5.71123,-18.049338 9.36911,-26.754617 2.75666,-6.228224 5.4898,-12.478742 8.6868,-18.498983 1.35147,-2.5449535 3.41671,-6.3030351 5.38487,-8.5613605 0.82009,-0.9410036 1.85403,-1.6717446 2.78105,-2.50761688 1.1069,-0.26951992 2.18533,-0.902281 3.32072,-0.80855977 4.72466,0.39000087 4.67564,8.45630745 4.66692,11.63507615 -0.33038,5.63094 -1.26371,11.188583 -2.47338,16.696635 -0.77839,0.05053 -1.5905,0.383745 -2.33519,0.151599 -0.26948,-0.08401 0.0683,-0.56269 0.14521,-0.834291 0.1549,-0.547087 0.36599,-1.076684 0.54835,-1.61524 1.01681,-3.002917 2.12541,-5.970812 3.54311,-8.813984 2.79857,-5.799873 5.47286,-11.8519594 9.54586,-16.88558352 0,0 2.99891,2.48394432 2.99891,2.48394432 z"
         id="path8836"
         style="color:#000000;display:inline;overflow:visible;visibility:visible;fill:#073789;fill-opacity:1;fill-rule:nonzero;stroke:none;stroke-width:2.37832761;marker:none;enable-background:accumulate" />
      <path
         transform="translate(0,698.03176)"
         inkscape:connector-curvature="0"
         d="m -352.02365,30.947042 c -1.42552,4.614003 -2.73935,9.260509 -4.03746,13.911597 -2.50273,8.853655 -4.15581,17.915258 -5.79584,26.959231 -0.73896,5.421932 -2.02576,10.962419 -1.4401,16.460738 0,0 -0.10839,0.043 -0.10839,0.043 v 0 c -0.36543,-0.51824 -0.83728,-0.975903 -1.09628,-1.554722 -2.08651,-4.663118 -1.06901,-10.548616 -1.06047,-15.446139 0.15091,-1.700083 0.25855,-3.404563 0.45271,-5.100251 0.87638,-7.65361 2.65581,-15.17594 4.67333,-22.598336 1.40724,-4.918436 2.61685,-10.192918 5.16004,-14.662734 0,0 3.25246,1.987615 3.25246,1.987615 z"
         id="path8838"
         style="color:#000000;display:inline;overflow:visible;visibility:visible;fill:#073789;fill-opacity:1;fill-rule:nonzero;stroke:none;stroke-width:2.37832761;marker:none;enable-background:accumulate" />
      <path
         transform="translate(0,698.03176)"
         inkscape:connector-curvature="0"
         d="m -331.59354,36.275477 c -1.60596,4.69035 -3.28365,9.355356 -4.82596,14.069764 -1.73764,6.030119 -3.61242,12.014437 -5.50759,17.995984 -0.006,1.170054 -1.4043,2.429018 -0.76926,3.560793 0,0 -0.0994,0.06103 -0.0994,0.06103 v 0 c -0.75114,-1.135644 -0.95814,-2.574117 -0.8752,-3.908428 0.0467,-1.880852 0.0313,-2.995356 0.28218,-4.921521 0.62129,-4.770262 2.07425,-9.378454 3.51781,-13.948368 1.66373,-4.819629 3.2778,-9.799257 6.05912,-14.110025 0,0 2.21826,1.20077 2.21826,1.20077 z"
         id="path8840"
         style="color:#000000;display:inline;overflow:visible;visibility:visible;fill:#073789;fill-opacity:1;fill-rule:nonzero;stroke:none;stroke-width:2.37832761;marker:none;enable-background:accumulate" />
      <path
         transform="translate(0,698.03176)"
         inkscape:connector-curvature="0"
         d="m -321.26331,108.74633 c -3.51477,3.10978 -6.5275,6.70371 -9.63158,10.20575 -1.37041,1.3855 -2.91294,2.85627 -3.21486,4.8643 0,0 -0.11525,-0.0177 -0.11525,-0.0177 v 0 c 0.31554,-2.01197 1.70882,-3.65348 2.52714,-5.47895 2.7302,-3.90591 5.96026,-7.43479 9.59691,-10.522 0,0 0.83764,0.94861 0.83764,0.94861 z"
         id="path8842"
         style="color:#000000;display:inline;overflow:visible;visibility:visible;fill:#073789;fill-opacity:1;fill-rule:nonzero;stroke:none;stroke-width:2.37832761;marker:none;enable-background:accumulate" />
      <path
         transform="translate(0,698.03176)"
         inkscape:connector-curvature="0"
         d="m -301.54405,102.95272 c -2.85332,3.62102 -5.97023,7.0234 -9.07053,10.43171 -0.67704,0.74945 -1.35634,1.49685 -2.03112,2.24834 -1.1905,1.32585 -2.48798,2.82594 -3.73656,4.10606 -1.05139,1.07795 -2.26296,1.99349 -3.29698,3.08811 -0.40486,0.42859 -0.72156,0.93261 -1.08235,1.39892 -0.25638,0.40353 -0.51276,0.80707 -0.76914,1.2106 0,0 -0.0984,-0.0625 -0.0984,-0.0625 v 0 c 0.25781,-0.40562 0.51562,-0.81125 0.77342,-1.21687 2.5848,-3.74598 -0.68429,1.10046 2.0337,-3.34011 1.92994,-3.15307 4.53172,-5.80847 6.98505,-8.546 3.09727,-3.3954 6.16111,-6.82149 9.27864,-10.19782 0,0 1.01429,0.8796 1.01429,0.8796 z"
         id="path8844"
         style="color:#000000;display:inline;overflow:visible;visibility:visible;fill:#073789;fill-opacity:1;fill-rule:nonzero;stroke:none;stroke-width:2.37832761;marker:none;enable-background:accumulate" />
      <path
         transform="translate(0,698.03176)"
         inkscape:connector-curvature="0"
         d="m -293.64007,111.0437 c 0.46512,-0.67289 2.20634,-3.11019 1.98004,0.0794 -0.0147,0.20735 -1.77083,1.9348 -2.04287,2.21049 -4.15897,3.80107 -8.14074,7.77924 -11.98551,11.89602 -2.20977,2.36936 -4.24345,4.89737 -6.44331,7.27536 -1.1265,1.21771 -2.42794,2.27321 -3.4914,3.54635 -0.32897,0.39383 -0.54766,0.86797 -0.82148,1.30195 -0.0691,0.25577 -0.13824,0.51154 -0.20736,0.76731 0,0 -0.11249,-0.0307 -0.11249,-0.0307 v 0 c 0.0731,-0.26526 0.14625,-0.53051 0.21937,-0.79577 0.6143,-1.11947 1.12009,-2.29649 1.7399,-3.41293 2.05034,-3.69325 4.96855,-6.78866 7.75783,-9.92248 3.87027,-4.1326 7.86815,-8.13841 12.07277,-11.93328 0.39106,-0.36365 0.78673,-0.72241 1.17318,-1.09096 0.24545,-0.23407 0.38476,-0.68343 0.7223,-0.71667 0.47641,-0.0469 0.92102,0.28413 1.34124,0.51345 0.1134,0.0619 -0.26215,-0.0242 -0.38752,0.007 -0.47618,0.11853 -0.89082,0.43296 -1.39087,0.48236 0,0 -0.12382,-0.17688 -0.12382,-0.17688 z"
         id="path8846"
         style="color:#000000;display:inline;overflow:visible;visibility:visible;fill:#073789;fill-opacity:1;fill-rule:nonzero;stroke:none;stroke-width:2.37832761;marker:none;enable-background:accumulate" />
      <path
         transform="translate(0,698.03176)"
         inkscape:connector-curvature="0"
         d="m -323.54674,103.97182 c 2.89009,3.43415 5.2499,7.27984 7.70551,11.02725 3.15815,4.8802 6.54585,9.60683 9.92329,14.33636 1.7141,2.0214 2.92429,4.4513 4.71715,6.40768 0.53734,-0.2393 0.2524,-0.0415 0.69613,-0.77347 0,0 0.10184,0.0568 0.10184,0.0568 v 0 c -0.48441,0.93946 -0.17328,0.54529 -0.90252,1.20623 -0.25282,0.009 -0.51599,0.0995 -0.75844,0.0273 -0.60328,-0.17962 -1.23061,-0.96144 -1.59497,-1.36441 -1.30083,-1.43873 -2.49928,-2.96522 -3.67745,-4.50469 -3.58501,-4.62631 -7.04154,-9.35402 -10.18525,-14.29431 -2.41279,-3.70577 -4.84041,-7.40116 -7.3747,-11.02521 0,0 1.34941,-1.09953 1.34941,-1.09953 z"
         id="path8848"
         style="color:#000000;display:inline;overflow:visible;visibility:visible;fill:#073789;fill-opacity:1;fill-rule:nonzero;stroke:none;stroke-width:2.37832761;marker:none;enable-background:accumulate" />
      <path
         transform="translate(0,698.03176)"
         inkscape:connector-curvature="0"
         d="m -297.80305,105.50435 c 2.11941,3.69608 3.88642,7.58824 5.75047,11.41804 1.16621,2.45544 2.32939,4.91607 3.26994,7.46927 0.27343,0.74225 0.42888,1.52996 0.76234,2.24725 0.28934,0.6224 0.72899,1.16317 1.09349,1.74476 0,0 -0.0983,0.0628 -0.0983,0.0628 v 0 c -2.68799,-4.12441 0.63545,0.79496 -2.71954,-3.54221 -1.68164,-2.17393 -2.87283,-4.65904 -4.15674,-7.07226 -1.88415,-3.78874 -3.74663,-7.58929 -5.48912,-11.44576 0,0 1.58741,-0.88189 1.58741,-0.88189 z"
         id="path8850"
         style="color:#000000;display:inline;overflow:visible;visibility:visible;fill:#073789;fill-opacity:1;fill-rule:nonzero;stroke:none;stroke-width:2.37832761;marker:none;enable-background:accumulate" />
      <path
         transform="translate(0,698.03176)"
         inkscape:connector-curvature="0"
         d="m -282.55486,113.0993 c 2.09881,3.21091 3.60759,6.76231 4.83527,10.38268 0.19147,0.76297 0.38295,1.52594 0.57443,2.28891 0,0 -0.10343,0.0539 -0.10343,0.0539 v 0 c -0.52038,-0.60417 -1.04076,-1.20833 -1.56113,-1.8125 -0.43413,-0.66674 -0.9004,-1.31362 -1.30239,-2.00021 -1.47744,-2.52347 -2.46958,-5.30831 -3.97104,-7.8211 0,0 1.52829,-1.09163 1.52829,-1.09163 z"
         id="path8852"
         style="color:#000000;display:inline;overflow:visible;visibility:visible;fill:#073789;fill-opacity:1;fill-rule:nonzero;stroke:none;stroke-width:2.37832761;marker:none;enable-background:accumulate" />
      <path
         transform="translate(0,698.03176)"
         inkscape:connector-curvature="0"
         d="m -379.48735,193.37744 c -0.79885,0.48799 -1.90377,0.36756 -2.64967,0.96083 -0.0629,0.05 0.004,0.3103 0.0389,0.23805 1.17711,-2.41111 1.10331,-1.69596 1.06891,-3.19195 10.48048,1.56528 21.11053,1.17465 31.66039,0.83504 22.01947,-1.36902 44.04746,-2.44917 66.10187,-3.03537 13.51865,-0.25849 27.0389,-0.44766 40.55914,-0.60367 2.19401,0.0344 4.40015,-0.083 6.58958,0.12593 0.54031,0.0515 1.10685,0.11604 1.0848,0.32474 -0.11566,1.09464 -0.40109,2.16462 -0.60164,3.24693 -0.22848,-0.34584 -0.45696,-0.69168 -0.68544,-1.03752 0,0 0.0143,-0.11573 0.0143,-0.11573 v 0 c 0.29294,-0.28143 0.58588,-0.56285 0.87883,-0.84428 0.19122,1.12304 0.52651,2.2309 0.57367,3.36913 0.007,0.17888 -0.70581,0.2967 -1.29631,0.34804 -2.16002,0.1878 -4.33595,0.0533 -6.49892,0.13412 -13.49355,0.13043 -26.98729,0.28115 -40.47937,0.51921 -22.04336,0.53203 -44.05946,1.63474 -66.08476,2.64257 -7.51083,0.21952 -14.99401,0.45438 -22.50077,-0.0324 -2.54164,-0.16483 -5.80436,-0.49224 -8.37247,-0.99636 -0.83893,-0.16468 -1.6564,-0.42435 -2.4846,-0.63652 -0.72552,-0.47971 -1.91475,-0.6097 -2.17655,-1.43913 -1.0391,-3.29207 0.92276,-3.34175 2.72988,-3.53037 1.72454,-0.17999 0.39943,-0.11898 2.02337,-0.15333 0,0 0.50684,2.87208 0.50684,2.87208 z"
         id="path8856"
         style="color:#000000;display:inline;overflow:visible;visibility:visible;fill:#073789;fill-opacity:1;fill-rule:nonzero;stroke:none;stroke-width:2.37832761;marker:none;enable-background:accumulate" />
      <path
         transform="translate(0,698.03176)"
         inkscape:connector-curvature="0"
         d="m -254.29907,152.72399 c -3.02215,-0.64296 -5.9129,-0.12551 -8.82222,0.7448 -5.0006,1.96366 -7.29867,5.02623 -9.70346,9.65334 -1.07096,2.81437 -3.10555,7.4303 -0.92129,10.19472 1.9131,0.84736 4.24986,0.2763 6.24367,0.009 1.4871,-0.26493 3.0265,-0.19537 4.42713,-0.84446 0.39889,-0.18485 0.74503,-0.46695 1.11755,-0.70043 0,0 0.0619,0.0988 0.0619,0.0988 v 0 c -1.76076,1.1034 -3.08025,2.61418 -4.70078,3.89998 -2.80056,1.69336 -6.24327,3.28002 -9.47115,1.55975 -0.65582,-0.34951 -1.16144,-0.9274 -1.74216,-1.3911 -0.38592,-0.63883 -0.87445,-1.22601 -1.15775,-1.91651 -1.76747,-4.30782 0.1663,-9.25769 1.80398,-13.24201 0.52014,-0.94182 0.97786,-1.92091 1.56041,-2.82545 2.72881,-4.23714 6.68559,-7.23421 11.60311,-8.41023 3.56861,-0.5886 7.32662,-0.83902 10.69451,0.7417 0,0 -0.99347,2.42848 -0.99347,2.42848 z"
         id="path8860"
         style="color:#000000;display:inline;overflow:visible;visibility:visible;fill:#073789;fill-opacity:1;fill-rule:nonzero;stroke:none;stroke-width:2.37832761;marker:none;enable-background:accumulate" />
      <path
         transform="translate(0,698.03176)"
         inkscape:connector-curvature="0"
         d="m -248.07516,157.10953 c -2.55315,0.84474 -4.51506,2.64288 -6.33289,4.54956 -2.15612,2.36699 -3.65667,5.14819 -4.62386,8.18036 -0.27448,1.3971 -0.89085,3.15127 -0.10712,4.49621 0.39607,0.3788 0.10449,-0.32585 -0.25522,-0.13975 -0.12843,0.85044 1.80969,0.56959 2.27192,0.36465 0.20028,-0.0888 0.34158,-0.27442 0.51237,-0.41164 0,0 0.0729,0.091 0.0729,0.091 v 0 c -0.16656,0.13327 -0.40693,0.20773 -0.49969,0.39983 -0.19398,0.40168 0.12357,1.12037 0.15617,1.47802 0.0924,1.0134 -0.28534,1.71002 -1.10841,2.28875 -2.52326,0.91036 -4.12063,-0.0854 -5.39783,-2.32095 -0.93745,-2.54154 -0.74392,-5.08932 0.0876,-7.65605 1.24723,-3.67404 3.09777,-7.06339 5.88868,-9.81074 2.52737,-2.37582 5.3456,-4.58236 8.9161,-4.96967 0,0 0.41925,3.46044 0.41925,3.46044 z"
         id="path8862"
         style="color:#000000;display:inline;overflow:visible;visibility:visible;fill:#073789;fill-opacity:1;fill-rule:nonzero;stroke:none;stroke-width:2.37832761;marker:none;enable-background:accumulate" />
      <path
         transform="translate(0,698.03176)"
         inkscape:connector-curvature="0"
         d="m -242.56055,161.2237 c -1.51011,1.99984 -2.18178,4.41622 -2.77538,6.80975 -0.33714,2.39517 -1.10222,5.25405 0.0664,7.56006 0.14035,0.27695 0.36498,0.50238 0.54747,0.75357 2.16099,1.69336 5.19541,1.18672 7.74761,0.99642 3.65522,-0.30741 6.70407,-1.00743 9.70848,-3.1562 2.30269,-1.97568 3.60002,-4.65094 4.07801,-7.60615 0.19586,-1.83161 -0.55323,-3.12302 -1.95009,-4.19961 -0.76869,-0.71344 -2.40823,-0.93688 -2.79799,-2.03107 -0.0807,-0.22663 -0.0576,-0.4777 -0.0864,-0.71655 0.23583,-1.18563 0.28616,-0.6931 0.10189,-1.48177 0,0 0.0253,-0.11383 0.0253,-0.11383 v 0 c 0.66974,-0.59773 0.25979,-0.2181 1.20229,-1.16793 0.21698,-0.12061 0.41187,-0.29494 0.65094,-0.36184 1.3009,-0.36407 3.29716,1.40459 4.27509,2.00529 2.87699,2.65117 3.75998,5.12122 3.20945,9.04024 -0.98756,4.04298 -2.76623,7.75606 -6.09905,10.39857 -0.58379,0.39565 -1.14221,0.8316 -1.75136,1.18695 -3.10375,1.81054 -6.69957,2.4572 -10.2229,2.83175 -3.55619,0.26321 -7.55847,0.60865 -10.58246,-1.71595 -0.55515,-0.42675 -0.98036,-1.00005 -1.47054,-1.50008 -0.3347,-0.5996 -0.7406,-1.16469 -1.0041,-1.79881 -1.33681,-3.21711 -0.66022,-6.85334 0.0316,-10.12239 0.94236,-3.11705 2.14557,-6.25097 4.75657,-8.36233 0,0 2.33913,2.75191 2.33913,2.75191 z"
         id="path8864"
         style="color:#000000;display:inline;overflow:visible;visibility:visible;fill:#073789;fill-opacity:1;fill-rule:nonzero;stroke:none;stroke-width:2.37832761;marker:none;enable-background:accumulate" />
      <path
         transform="translate(0,698.03176)"
         inkscape:connector-curvature="0"
         d="m -251.66199,102.95592 c 3.3181,3.02085 7.17789,5.30192 11.07101,7.48664 6.9592,3.55633 14.10571,6.6946 20.77177,10.7939 4.11456,2.82219 7.75163,6.5322 8.75966,11.59943 0.17712,0.89036 0.18335,1.80632 0.27502,2.70949 -0.0817,0.93207 -0.0848,1.87441 -0.24507,2.79622 -0.57717,3.31952 -2.29941,7.3946 -4.93822,9.60815 -0.54936,0.46084 -1.22244,0.74989 -1.83366,1.12483 -0.46626,0.21133 -0.93252,0.42267 -1.39877,0.634 0,0 -0.0879,-0.0766 -0.0879,-0.0766 v 0 c 0.11431,-0.45525 0.22862,-0.9105 0.34293,-1.36575 0.10358,-0.63648 0.15928,-1.28262 0.31073,-1.90943 0.85178,-3.52523 3.03752,-6.6902 3.11502,-10.41098 -0.0361,-0.60767 -0.0144,-1.22155 -0.10832,-1.82301 -0.61415,-3.93407 -3.55035,-6.70601 -6.65789,-8.88945 -6.59979,-4.08804 -13.72246,-7.14236 -20.60783,-10.70451 -4.35916,-2.46576 -8.92798,-4.97208 -12.24045,-8.8174 0,0 3.472,-2.75555 3.472,-2.75555 z"
         id="path8866"
         style="color:#000000;display:inline;overflow:visible;visibility:visible;fill:#073789;fill-opacity:1;fill-rule:nonzero;stroke:none;stroke-width:2.37832761;marker:none;enable-background:accumulate" />
      <path
         transform="translate(0,698.03176)"
         inkscape:connector-curvature="0"
         d="m -312.9331,162.67524 c 4.10246,-0.24397 8.22326,0.053 12.31756,0.32841 5.33203,0.39608 10.62795,1.15268 15.89698,2.04422 1.91867,0.3268 3.7889,0.60825 5.56904,1.41094 0,0 0.0367,0.11068 0.0367,0.11068 v 0 c -0.2559,0.34196 -0.4426,0.74889 -0.76772,1.02588 -1.42723,1.21593 -3.45923,1.22054 -5.19946,1.45986 -5.32306,-0.0894 -10.54655,-1.1482 -15.85206,-1.52245 -4.04872,-0.29371 -8.12232,-0.44997 -12.13733,-1.07216 0,0 0.13627,-3.78538 0.13627,-3.78538 z"
         id="path8870"
         style="color:#000000;display:inline;overflow:visible;visibility:visible;fill:#073789;fill-opacity:1;fill-rule:nonzero;stroke:none;stroke-width:2.37832761;marker:none;enable-background:accumulate" />
      <path
         transform="translate(0,698.03176)"
         inkscape:connector-curvature="0"
         d="m -359.00948,173.46592 c -2.82368,2.3899 -5.90635,4.47311 -8.90861,6.63442 -3.46654,2.45419 -6.92641,4.93125 -10.5514,7.14866 -0.21665,0.0162 -1.73974,1.16734 -2.10697,0.60703 -0.51722,-0.78914 0.2292,-0.84406 -0.63538,-0.59389 0,0 -0.0467,0.10684 -0.0467,0.10684 v 0 c -0.42297,-0.0769 -0.97014,0.0784 -1.26891,-0.23075 -1.08986,-1.12763 0.83697,-3.07522 1.61051,-3.6242 3.45673,-2.42169 7.0391,-4.66456 10.51966,-7.05243 3.10504,-2.00083 6.21017,-4.0315 9.46181,-5.78417 0,0 1.926,2.78849 1.926,2.78849 z"
         id="path8872"
         style="color:#000000;display:inline;overflow:visible;visibility:visible;fill:#073789;fill-opacity:1;fill-rule:nonzero;stroke:none;stroke-width:2.37832761;marker:none;enable-background:accumulate" />
      <path
         transform="translate(0,698.03176)"
         inkscape:connector-curvature="0"
         d="m -320.02471,177.53885 c 0.64622,-1.46259 1.82703,-2.80479 3.57259,-2.72 0.36644,0.0178 0.71663,0.1575 1.07495,0.23624 1.67505,0.71239 3.01241,1.96093 4.78418,2.44935 1.98577,0.28584 3.97876,-0.12946 5.96983,-0.17339 2.42378,0.12024 4.7588,0.79283 7.17323,1.02397 2.7234,0.14358 5.31392,-0.42879 7.97547,0.31917 1.24138,0.85418 0.59375,0.53751 1.92393,0.98786 0,0 -0.0106,0.11613 -0.0106,0.11613 v 0 c -1.38713,0.19633 -0.705,0.0155 -2.04238,0.5575 -2.66674,0.40617 -5.38229,0.53467 -8.07687,0.44506 -2.32994,-0.21974 -4.58073,-0.81432 -6.90609,-1.03189 -2.21991,0.0164 -4.46193,0.38021 -6.6628,-0.0453 -1.73717,-0.54564 -3.17498,-1.53696 -4.71749,-2.47604 -1.27807,-0.5241 -1.53325,0.20534 -2.3133,1.18829 0,0 -1.7447,-0.87696 -1.7447,-0.87696 z"
         id="path8874"
         style="color:#000000;display:inline;overflow:visible;visibility:visible;fill:#073789;fill-opacity:1;fill-rule:nonzero;stroke:none;stroke-width:2.37832761;marker:none;enable-background:accumulate" />
      <path
         transform="translate(0,698.03176)"
         inkscape:connector-curvature="0"
         d="m -383.16346,66.948809 c -1.78056,1.687558 -2.62569,3.910936 -3.41607,6.168665 -0.40757,1.304157 -1.02323,2.555741 -1.27275,3.898837 0,0 -0.11357,0.02643 -0.11357,0.02643 v 0 c -1.02641,-1.512978 -1.59022,-2.729414 -1.51739,-4.639777 0.0955,-0.566516 0.13628,-1.145053 0.28663,-1.699546 0.66304,-2.44527 2.1784,-4.722662 4.21582,-6.21558 0,0 1.81733,2.460973 1.81733,2.460973 z"
         id="path8876"
         style="color:#000000;display:inline;overflow:visible;visibility:visible;fill:#073789;fill-opacity:1;fill-rule:nonzero;stroke:none;stroke-width:2.37832761;marker:none;enable-background:accumulate" />
      <path
         transform="translate(0,698.03176)"
         inkscape:connector-curvature="0"
         d="m -393.59477,68.280465 c -2.06554,1.4008 -2.37701,3.071327 -2.47078,5.427486 0.28504,1.049828 -0.56826,2.165507 -0.29777,3.20315 0.14077,0.539998 0.6666,0.895156 0.99989,1.342735 0,0 -0.0928,0.07062 -0.0928,0.07062 v 0 c -0.34946,-0.449392 -0.64752,-0.943958 -1.04837,-1.348177 -2.51563,-2.536775 -0.95688,0.02868 -2.52036,-3.203172 -0.0421,-0.672106 -0.17648,-1.344779 -0.12618,-2.016319 0.20754,-2.770854 1.9539,-5.150674 4.52543,-6.128974 0,0 1.03092,2.652646 1.03092,2.652646 z"
         id="path8878"
         style="color:#000000;display:inline;overflow:visible;visibility:visible;fill:#073789;fill-opacity:1;fill-rule:nonzero;stroke:none;stroke-width:2.37832761;marker:none;enable-background:accumulate" />
    </g>
  </g>
  <g
     inkscape:label="Texte"
     inkscape:groupmode="layer"
     id="layer1"
     transform="translate(0,-54.567124)"
     style="display:inline">
    <text
       xml:space="preserve"
       style="font-style:normal;font-variant:normal;font-weight:normal;font-stretch:normal;font-size:25.19827461px;line-height:0%;font-family:Lavi;-inkscape-font-specification:Lavi;letter-spacing:0px;word-spacing:0px;fill:#073789;fill-opacity:1;stroke:none;stroke-width:1"
       x="131.44725"
       y="615.07666"
       id="text5327"><tspan
         style="font-size:147.22088623px;line-height:1;stroke-width:1"
         sodipodi:role="line"
         id="tspan5329"
         x="131.44725"
         y="615.07666">Table à dessins</tspan></text>
    <text
       xml:space="preserve"
       style="font-style:normal;font-variant:normal;font-weight:normal;font-stretch:normal;font-size:25.19827461px;line-height:0%;font-family:Lavi;-inkscape-font-specification:Lavi;letter-spacing:0px;word-spacing:0px;fill:#073789;fill-opacity:1;stroke:none;stroke-width:1"
       x="252.5692"
       y="300.96295"
       id="text5331"><tspan
         style="font-size:67.35503387px;line-height:1;stroke-width:1"
         sodipodi:role="line"
         id="tspan5333"
         x="252.5692"
         y="300.96295">crayons</tspan></text>
    <text
       id="text5335"
       y="913.90991"
       x="291.72827"
       style="font-style:normal;font-variant:normal;font-weight:normal;font-stretch:normal;font-size:25.19827461px;line-height:0%;font-family:Lavi;-inkscape-font-specification:Lavi;letter-spacing:0px;word-spacing:0px;fill:#073789;fill-opacity:1;stroke:none;stroke-width:1"
       xml:space="preserve"><tspan
         style="font-size:67.35503387px;line-height:1;stroke-width:1"
         y="913.90991"
         x="291.72827"
         id="tspan5337"
         sodipodi:role="line">dessins</tspan></text>
    <text
       xml:space="preserve"
       style="font-style:normal;font-variant:normal;font-weight:normal;font-stretch:normal;font-size:25.19827461px;line-height:0%;font-family:Lavi;-inkscape-font-specification:Lavi;letter-spacing:0px;word-spacing:0px;fill:#073789;fill-opacity:1;stroke:none;stroke-width:1"
       x="640.91016"
       y="250.40805"
       id="text5339"><tspan
         style="font-size:67.35503387px;line-height:1;stroke-width:1"
         sodipodi:role="line"
         id="tspan5341"
         x="640.91016"
         y="250.40805">à la main</tspan></text>
    <text
       id="text5343"
       y="688.18964"
       x="1041.0229"
       style="font-style:normal;font-variant:normal;font-weight:normal;font-stretch:normal;font-size:25.19827461px;line-height:0%;font-family:Lavi;-inkscape-font-specification:Lavi;letter-spacing:0px;word-spacing:0px;fill:#073789;fill-opacity:1;stroke:none;stroke-width:1"
       xml:space="preserve"><tspan
         style="font-size:67.35503387px;line-height:1;stroke-width:1"
         y="688.18964"
         x="1041.0229"
         id="tspan5345"
         sodipodi:role="line">papier</tspan></text>
    <text
       xml:space="preserve"
       style="font-style:normal;font-variant:normal;font-weight:normal;font-stretch:normal;font-size:25.19827461px;line-height:0%;font-family:Lavi;-inkscape-font-specification:Lavi;letter-spacing:0px;word-spacing:0px;fill:#073789;fill-opacity:1;stroke:none;stroke-width:1"
       x="48.674221"
       y="738.74585"
       id="text5347"><tspan
         style="font-size:67.35503387px;line-height:1;stroke-width:1"
         sodipodi:role="line"
         id="tspan5349"
         x="48.674221"
         y="738.74585">visuels</tspan></text>
    <text
       id="text5351"
       y="874.95642"
       x="704.90344"
       style="font-style:normal;font-variant:normal;font-weight:normal;font-stretch:normal;font-size:25.19827461px;line-height:0%;font-family:Lavi;-inkscape-font-specification:Lavi;letter-spacing:0px;word-spacing:0px;fill:#073789;fill-opacity:1;stroke:none;stroke-width:1"
       xml:space="preserve"><tspan
         style="font-size:67.35503387px;line-height:1;stroke-width:1"
         y="874.95642"
         x="704.90344"
         id="tspan5353"
         sodipodi:role="line">aquarelles</tspan></text>
    <text
       id="text5355"
       y="466.75119"
       x="23.435753"
       style="font-style:normal;font-variant:normal;font-weight:normal;font-stretch:normal;font-size:25.19827461px;line-height:0%;font-family:Lavi;-inkscape-font-specification:Lavi;letter-spacing:0px;word-spacing:0px;fill:#073789;fill-opacity:1;stroke:none;stroke-width:1"
       xml:space="preserve"><tspan
         style="font-size:67.35503387px;line-height:1;stroke-width:1"
         y="466.75119"
         x="23.435753"
         id="tspan5357"
         sodipodi:role="line">essais</tspan></text>
    <text
       xml:space="preserve"
       style="font-style:normal;font-variant:normal;font-weight:normal;font-stretch:normal;font-size:25.19827461px;line-height:0%;font-family:Lavi;-inkscape-font-specification:Lavi;letter-spacing:0px;word-spacing:0px;fill:#073789;fill-opacity:1;stroke:none;stroke-width:1"
       x="871.80377"
       y="443.32977"
       id="text5359"><tspan
         style="font-size:67.35503387px;line-height:1;stroke-width:1"
         sodipodi:role="line"
         id="tspan5361"
         x="871.80377"
         y="443.32977">graphismes</tspan></text>
  </g>
</svg>
