<?xml version="1.0" encoding="UTF-8" standalone="no"?>
<!-- Created with Inkscape (http://www.inkscape.org/) -->

<svg
   xmlns:dc="http://purl.org/dc/elements/1.1/"
   xmlns:cc="http://creativecommons.org/ns#"
   xmlns:rdf="http://www.w3.org/1999/02/22-rdf-syntax-ns#"
   xmlns:svg="http://www.w3.org/2000/svg"
   xmlns="http://www.w3.org/2000/svg"
   xmlns:xlink="http://www.w3.org/1999/xlink"
   xmlns:sodipodi="http://sodipodi.sourceforge.net/DTD/sodipodi-0.dtd"
   xmlns:inkscape="http://www.inkscape.org/namespaces/inkscape"
   width="33cm"
   height="18.424999cm"
   id="svg2"
   version="1.1"
   inkscape:version="0.92.5 (2060ec1f9f, 2020-04-08)"
   sodipodi:docname="dp_043_sutom_motus.svg"
   inkscape:export-filename="/home/gee/art/GriseBouille/png/bd_blog/dp_043_sutom_motus.png"
   inkscape:export-xdpi="92.363632"
   inkscape:export-ydpi="92.363632">
  <defs
     id="defs4">
    <linearGradient
       id="linearGradient7437">
      <stop
         id="stop7439"
         offset="0"
         style="stop-color:#ff0000;stop-opacity:0;" />
      <stop
         style="stop-color:#ff006c;stop-opacity:0;"
         offset="0.87982661"
         id="stop7441" />
      <stop
         style="stop-color:#ff00da;stop-opacity:1;"
         offset="0.90142465"
         id="stop7443" />
      <stop
         id="stop7445"
         offset="0.92167777"
         style="stop-color:#000dff;stop-opacity:1;" />
      <stop
         style="stop-color:#00ff20;stop-opacity:1;"
         offset="0.94746888"
         id="stop7447" />
      <stop
         style="stop-color:#fff600;stop-opacity:1;"
         offset="0.96267748"
         id="stop7449" />
      <stop
         id="stop7451"
         offset="1"
         style="stop-color:#ff2200;stop-opacity:1;" />
    </linearGradient>
    <linearGradient
       id="linearGradient13842">
      <stop
         style="stop-color:#ff0000;stop-opacity:0;"
         offset="0"
         id="stop13844" />
      <stop
         id="stop13858"
         offset="0.87982661"
         style="stop-color:#ff006c;stop-opacity:0;" />
      <stop
         id="stop13854"
         offset="0.90142465"
         style="stop-color:#ff1000;stop-opacity:1;" />
      <stop
         style="stop-color:#ffed00;stop-opacity:1;"
         offset="0.92167777"
         id="stop13856" />
      <stop
         id="stop13852"
         offset="0.94746888"
         style="stop-color:#00ff20;stop-opacity:1;" />
      <stop
         id="stop13850"
         offset="0.97215229"
         style="stop-color:#001dff;stop-opacity:1;" />
      <stop
         style="stop-color:#ff00d4;stop-opacity:1;"
         offset="1"
         id="stop13846" />
    </linearGradient>
    <linearGradient
       inkscape:collect="always"
       id="linearGradient4003">
      <stop
         style="stop-color:#1f4673;stop-opacity:1;"
         offset="0"
         id="stop4005" />
      <stop
         style="stop-color:#1f4673;stop-opacity:0;"
         offset="1"
         id="stop4007" />
    </linearGradient>
    <linearGradient
       inkscape:collect="always"
       xlink:href="#linearGradient4003"
       id="linearGradient4009"
       x1="28.0625"
       y1="304.21246"
       x2="1334.0938"
       y2="304.21246"
       gradientUnits="userSpaceOnUse" />
    <radialGradient
       inkscape:collect="always"
       xlink:href="#linearGradient7437"
       id="radialGradient14145"
       gradientUnits="userSpaceOnUse"
       gradientTransform="matrix(0.96409119,0,0,1.070162,2356.3061,-13414.58)"
       cx="-1185.7579"
       cy="9975.0508"
       fx="-1185.7579"
       fy="9975.0508"
       r="299.58325" />
    <radialGradient
       inkscape:collect="always"
       xlink:href="#linearGradient13842"
       id="radialGradient14147"
       gradientUnits="userSpaceOnUse"
       gradientTransform="matrix(1.2768052,0,0,1.4172813,2727.1092,-16877.112)"
       cx="-1185.7579"
       cy="9975.0508"
       fx="-1185.7579"
       fy="9975.0508"
       r="299.58325" />
  </defs>
  <sodipodi:namedview
     id="base"
     pagecolor="#ffffff"
     bordercolor="#666666"
     borderopacity="1.0"
     inkscape:pageopacity="0.0"
     inkscape:pageshadow="2"
     inkscape:zoom="0.76083688"
     inkscape:cx="531.70009"
     inkscape:cy="421.11761"
     inkscape:document-units="px"
     inkscape:current-layer="layer1"
     showgrid="false"
     units="cm"
     inkscape:window-width="1920"
     inkscape:window-height="1017"
     inkscape:window-x="0"
     inkscape:window-y="32"
     inkscape:window-maximized="1"
     showguides="true"
     inkscape:guide-bbox="true"
     inkscape:snap-global="false"
     inkscape:snap-page="true"
     fit-margin-top="0"
     fit-margin-left="0"
     fit-margin-right="0"
     fit-margin-bottom="0"
     borderlayer="true" />
  <metadata
     id="metadata7">
    <rdf:RDF>
      <cc:Work
         rdf:about="">
        <dc:format>image/svg+xml</dc:format>
        <dc:type
           rdf:resource="http://purl.org/dc/dcmitype/StillImage" />
        <dc:title></dc:title>
      </cc:Work>
    </rdf:RDF>
  </metadata>
  <g
     inkscape:groupmode="layer"
     id="layer2"
     inkscape:label="Fond"
     transform="translate(0,-5.196856)"
     style="display:inline"
     sodipodi:insensitive="true">
    <rect
       style="opacity:1;vector-effect:none;fill:#ffffff;fill-opacity:1;stroke:none;stroke-width:0.8525247;stroke-linecap:butt;stroke-linejoin:miter;stroke-miterlimit:4;stroke-dasharray:none;stroke-dashoffset:0;stroke-opacity:1;marker:none"
       id="rect3731"
       width="1247.2441"
       height="696.37793"
       x="0"
       y="5.196856" />
  </g>
  <g
     inkscape:label="Calque 1"
     inkscape:groupmode="layer"
     id="layer1"
     transform="translate(0,-355.98306)">
    <g
       id="g785"
       transform="matrix(0.74806896,0,0,0.79872768,479.44328,852.23437)"
       style="stroke-width:1.29368877">
      <path
         inkscape:connector-curvature="0"
         d="m 659.87149,181.59121 c -6.22556,-5.33431 -6.2046,-13.76742 -3.9216,-21.1129 0.61162,-1.96785 1.54423,-3.82119 2.31635,-5.73178 4.46638,-8.13612 11.19104,-15.69585 20.60683,-17.92473 1.40857,-0.33343 2.87647,-0.327 4.3147,-0.4905 1.36651,0.32565 2.87455,0.28933 4.09952,0.97695 10.72048,6.01782 0.003,19.804 -4.32381,25.99696 -4.71651,6.12621 -9.87989,11.88921 -15.27648,17.41993 -3.5589,3.64735 -7.26831,7.01183 -10.5189,10.93826 -0.33207,0.60837 -0.81942,1.15495 -0.99621,1.82513 -0.0455,0.17267 0.30936,0.44958 0.43072,0.31857 0.4817,-0.52004 0.47498,-1.91547 0.79024,-1.94943 0.54961,-0.0592 1.06422,0.30105 1.60256,0.42664 0.97498,0.22746 1.95747,0.42149 2.9362,0.63223 6.02677,0.7397 12.14785,1.2493 18.22705,0.98202 3.26847,-0.1437 6.52123,-0.53674 9.78299,-0.79058 1.59404,-0.2591 3.18808,-0.5182 4.78211,-0.77731 0,0 0.0986,0.18577 0.0986,0.18577 v 0 c -1.23431,1.24146 -2.46863,2.48292 -3.70294,3.72438 -1.53493,1.06302 -2.95782,2.30955 -4.60478,3.18905 -8.13875,4.34617 -18.02514,4.85253 -26.9477,3.48364 -2.86157,-0.71664 -6.06131,-1.2127 -8.53592,-3.02404 -5.94312,-4.35019 -5.0672,-9.73463 -0.79466,-14.70158 8.98059,-8.63614 18.31229,-16.96668 26.38674,-26.48367 3.24063,-4.27887 4.13648,-5.0277 6.44224,-9.51359 0.46212,-0.89906 0.74058,-1.88184 1.14926,-2.80642 0.2198,-0.49727 0.9519,-1.64123 0.82381,-1.83097 -0.257,-0.38065 -0.80288,-0.44627 -1.20432,-0.66941 -0.81575,0.0294 -1.64842,-0.0797 -2.44725,0.0881 -7.15347,1.50332 -12.11439,8.00764 -15.60937,13.88556 -2.20459,5.16166 -5.22422,12.13888 -1.60564,17.39185 0,0 -4.3003,6.34185 -4.3003,6.34185 z"
         id="path719"
         style="opacity:1;vector-effect:none;fill:#000000;fill-opacity:1;stroke:none;stroke-width:1.01146841;stroke-linecap:butt;stroke-linejoin:miter;stroke-miterlimit:4;stroke-dasharray:none;stroke-dashoffset:0;stroke-opacity:1;marker:none" />
      <path
         inkscape:connector-curvature="0"
         d="m 724.19015,141.70062 c -6.02718,6.95591 -12.11361,13.86134 -18.11124,20.8434 -4.27063,5.09365 -8.49521,10.29921 -11.56422,16.22358 -1.42018,2.36899 -0.46977,3.06352 -0.56765,1.54022 -0.0727,-1.13134 -0.37979,-1.63738 -0.80631,-2.535 6.08275,-0.57917 12.29284,-0.66942 18.42176,-0.82994 6.43857,0.006 13.5421,0.21773 19.24249,3.6724 0.73408,0.44488 1.35321,1.0564 2.02982,1.58461 1.56068,2.34558 1.13102,1.09056 1.40402,3.72369 0,0 -0.1406,0.15638 -0.1406,0.15638 v 0 c -1.95898,0.5643 -0.96101,0.33354 -2.99484,0.68821 -6.41296,0.34269 -12.85545,0.1834 -19.27481,0.29296 -9.41912,0.24873 0.37761,-0.0291 -8.87801,0.29053 -3.50608,0.1211 -7.19413,0.3914 -10.66624,-0.31613 -0.90239,-0.18388 -1.76391,-0.53019 -2.64586,-0.79529 -0.82435,-0.55706 -1.81836,-0.922 -2.47303,-1.67118 -2.68618,-3.07392 -1.20543,-6.43896 0.32978,-9.52745 3.47335,-6.41696 7.94044,-12.19643 12.81906,-17.61067 6.29542,-6.87984 12.85099,-13.51823 19.70649,-19.84245 0,0 4.16939,4.11213 4.16939,4.11213 z"
         id="path727"
         style="opacity:1;vector-effect:none;fill:#000000;fill-opacity:1;stroke:none;stroke-width:1.01146841;stroke-linecap:butt;stroke-linejoin:miter;stroke-miterlimit:4;stroke-dasharray:none;stroke-dashoffset:0;stroke-opacity:1;marker:none" />
      <path
         inkscape:connector-curvature="0"
         d="m 721.37421,168.00803 c -2.20105,6.26357 -3.85482,12.68487 -5.53793,19.10056 -1.7396,6.11403 -2.50868,12.43294 -3.42603,18.70518 -0.96647,2.19774 -0.44502,1.22039 -1.50167,2.96463 0,0 -0.20947,0.0186 -0.20947,0.0186 v 0 c -1.35372,-1.66274 -0.70778,-0.70433 -1.84099,-2.93818 -1.11618,-6.70098 -1.36587,-13.49229 -0.66895,-20.26074 0.99146,-7.11939 2.67936,-14.19251 5.736,-20.73313 0,0 7.44904,3.14305 7.44904,3.14305 z"
         id="path729"
         style="opacity:1;vector-effect:none;fill:#000000;fill-opacity:1;stroke:none;stroke-width:1.01146841;stroke-linecap:butt;stroke-linejoin:miter;stroke-miterlimit:4;stroke-dasharray:none;stroke-dashoffset:0;stroke-opacity:1;marker:none" />
      <path
         inkscape:connector-curvature="0"
         d="m 759.16263,124.96021 c -4.95725,12.05273 -10.25558,23.96201 -15.4246,35.92483 -5.26588,11.90202 -9.7503,24.1304 -14.95344,36.05715 -1.02984,2.27384 -2.09456,4.51703 -3.34693,6.6742 -0.25843,0.44515 -0.52668,1.4923 -0.97518,0.82338 -0.29194,-1.81531 -0.95981,-0.0455 -0.72076,-0.0204 0.39727,0.0416 0.78152,-0.16568 1.17228,-0.24852 0,0 0.13742,0.15918 0.13742,0.15918 v 0 c -0.9519,1.77263 -1.70065,3.02544 -3.79963,1.682 -2.09245,-3.9153 -0.16627,-7.66264 0.98952,-11.62884 4.30418,-12.38527 9.55002,-24.41591 14.71609,-36.45959 5.29405,-11.99382 10.59304,-24.01239 16.72904,-35.60479 0,0 5.47619,2.6414 5.47619,2.6414 z"
         id="path735"
         style="opacity:1;vector-effect:none;fill:#000000;fill-opacity:1;stroke:none;stroke-width:1.01146841;stroke-linecap:butt;stroke-linejoin:miter;stroke-miterlimit:4;stroke-dasharray:none;stroke-dashoffset:0;stroke-opacity:1;marker:none" />
      <path
         inkscape:connector-curvature="0"
         d="m 765.37314,153.17718 c -6.10378,3.82735 -10.14402,9.7881 -13.63119,15.92839 -1.6871,3.76834 -5.78512,12.82559 -2.66444,16.77844 0.24892,0.31529 0.71378,0.36875 1.07067,0.55312 7.09736,-0.61069 12.2338,-5.00476 17.02167,-9.86369 4.16446,-5.23752 6.88077,-11.76993 5.44162,-18.55162 -0.20183,-0.9511 -0.6195,-1.84323 -0.92926,-2.76485 -2.10075,-3.75437 -5.56765,-4.22537 -9.46546,-3.53674 -0.40355,0.35367 -5.06184,1.57495 -5.12767,1.63993 -0.39475,0.38959 -0.0792,1.10641 -0.11884,1.65962 0,0 -0.2097,-0.0158 -0.2097,-0.0158 v 0 c 0.0455,-0.57642 0.18926,-1.15347 0.13637,-1.72925 -0.0898,-0.97789 -0.69954,-1.91995 -0.56092,-2.89212 0.27163,-1.90495 2.35824,-3.46931 3.56542,-4.63044 1.01422,-0.51554 1.96521,-1.18119 3.04264,-1.54664 5.50131,-1.86598 11.26883,0.0278 14.81123,4.59837 0.93252,1.20317 1.50667,2.64553 2.26001,3.9683 0.42097,1.52902 1.01365,3.02085 1.26293,4.58705 1.47868,9.2902 -2.37376,18.19509 -8.16441,25.22889 -1.39936,1.35408 -2.70408,2.81336 -4.19809,4.06222 -5.20639,4.35207 -13.09121,9.06333 -20.24437,7.56428 -1.63492,-0.34263 -3.04525,-1.37402 -4.56787,-2.06102 -0.95616,-1.20406 -2.15544,-2.24998 -2.86846,-3.61218 -3.8083,-7.27554 0.37858,-16.96327 3.60711,-23.55666 4.64408,-7.45659 9.82601,-14.5066 18.44112,-17.54455 0,0 2.08989,5.73694 2.08989,5.73694 z"
         id="path739"
         style="opacity:1;vector-effect:none;fill:#000000;fill-opacity:1;stroke:none;stroke-width:1.01146841;stroke-linecap:butt;stroke-linejoin:miter;stroke-miterlimit:4;stroke-dasharray:none;stroke-dashoffset:0;stroke-opacity:1;marker:none" />
      <path
         inkscape:connector-curvature="0"
         d="m 786.08302,150.44082 c 5.14203,-6.57716 11.71856,-6.4054 19.26647,-5.01378 5.15204,1.52684 12.35941,4.71476 11.57297,11.39841 -0.15076,1.28123 -0.8829,2.42438 -1.32435,3.63656 -0.85916,0.98067 -1.61112,2.06679 -2.57748,2.942 -4.24503,3.84462 -10.22808,5.98239 -15.72099,7.18314 -0.61799,0.1329 -1.23989,0.24878 -1.85397,0.39871 -2.20709,0.53885 0.8425,0.27626 1.15855,-1.23247 0.29287,-1.39801 -0.87408,-2.79328 -0.76024,-4.2171 0.03,-0.37495 0.71411,0.23685 1.06836,0.36332 0.69405,0.24778 1.38423,0.50623 2.07634,0.75935 5.07823,1.92863 10.30611,3.67787 14.48837,7.23721 0.47868,0.92704 1.31654,1.74466 1.43606,2.78112 0.88076,7.63779 -9.27184,10.683 -14.68338,12.63169 -6.34144,1.58982 -13.4069,3.7289 -19.93864,1.78861 -0.81692,-0.24267 -1.56923,-0.66522 -2.35384,-0.99782 -2.71301,-1.63309 -4.10027,-5.04168 -0.0989,-6.42384 0.77256,-0.26686 1.63291,0.0765 2.44937,0.11472 0,0 0.0858,0.19197 0.0858,0.19197 v 0 c -0.28973,0.53291 -0.71379,1.01239 -0.86921,1.59872 -0.0444,0.16739 0.50077,0.002 0.49068,-0.17068 -0.1465,-2.50984 -0.99432,-1.12721 -0.48,-1.90218 6.00452,-0.48587 12.06195,-0.87234 17.86445,-2.62775 3.02805,-0.94627 3.97427,-1.16785 6.80967,-2.31687 0.70202,-0.28449 1.35419,-0.68989 2.07015,-0.9372 0.25365,-0.0876 0.60162,-0.23251 0.80316,-0.0553 2.35032,2.06639 -0.76694,0.79082 1.24793,1.4945 -2.05046,-3.20001 -8.29258,-4.40964 -11.61721,-5.91887 -0.0177,-0.006 -4.02054,-1.34592 -4.13105,-1.49909 -4.14042,-5.73897 -1.81019,-6.65944 2.93823,-7.87135 4.86083,-1.54459 10.07925,-2.65158 13.9238,-6.24726 0.0365,-0.0307 1.04645,-0.80779 1.05859,-1.0488 0.12035,-2.3899 -4.82751,-3.89931 -6.391,-4.44528 -4.02762,-0.79929 -8.82684,-1.4771 -12.07732,1.65807 0,0 -5.93141,-3.25243 -5.93141,-3.25243 z"
         id="path743"
         style="opacity:1;vector-effect:none;fill:#000000;fill-opacity:1;stroke:none;stroke-width:1.01146841;stroke-linecap:butt;stroke-linejoin:miter;stroke-miterlimit:4;stroke-dasharray:none;stroke-dashoffset:0;stroke-opacity:1;marker:none" />
      <path
         inkscape:connector-curvature="0"
         d="m 842.65348,130.08291 c -4.69411,7.433 -7.81897,15.73987 -11.11608,23.85248 -5.27563,12.97204 -9.67031,26.27316 -14.47254,39.42146 -1.46246,3.96951 -3.01306,7.86581 -5.04368,11.57556 -0.37213,0.67984 -0.9989,2.61422 -2.17851,1.72813 0,0 0.0601,0.20152 0.0601,0.20152 v 0 c -0.52815,0.046 -1.10651,0.36732 -1.58444,0.1379 -1.43906,-0.69079 -1.06083,-2.42757 -0.95971,-3.56135 0.38044,-4.26557 1.76873,-8.29678 2.9271,-12.3961 4.29016,-13.49141 9.04568,-26.83757 14.36742,-39.95836 3.65576,-8.66711 7.12897,-17.70677 13.04927,-25.1271 0,0 4.95103,4.12586 4.95103,4.12586 z"
         id="path747"
         style="opacity:1;vector-effect:none;fill:#000000;fill-opacity:1;stroke:none;stroke-width:1.01146841;stroke-linecap:butt;stroke-linejoin:miter;stroke-miterlimit:4;stroke-dasharray:none;stroke-dashoffset:0;stroke-opacity:1;marker:none" />
      <path
         inkscape:connector-curvature="0"
         d="m 834.65498,168.05381 c -1.74286,-7.82753 0.97349,-14.2145 5.03227,-20.76732 3.5052,-4.49864 9.16562,-9.69203 15.46829,-7.44891 1.13737,0.40479 2.06381,1.25321 3.09572,1.87982 0.67182,1.07915 1.59846,2.0366 2.01547,3.23744 2.71714,7.82445 -4.5181,15.24884 -9.24179,20.35811 -1.32894,1.23473 -2.62983,2.50036 -3.98683,3.70419 -3.16464,2.80744 -4.25875,3.65431 -7.64855,5.99099 -2.32932,1.60566 -4.78389,2.99009 -7.083,4.63591 -0.0997,0.24326 -0.93498,1.95487 0.6873,-0.009 0.28677,-0.34719 0.26852,-0.89606 0.58244,-1.21889 0.23942,-0.24621 0.66049,0.41823 1.54216,1.13859 0.53489,0.43703 1.10496,0.82913 1.65744,1.24369 6.04204,3.84251 13.0316,2.85168 19.75509,1.91731 2.18826,-0.44627 7.13251,-1.52063 9.40622,-1.72873 1.4305,-0.13093 2.87263,-0.0433 4.30894,-0.065 0,0 0.0895,0.19031 0.0895,0.19031 v 0 c -0.99811,1.1231 -1.85449,2.39035 -2.99432,3.36932 -2.87319,2.4677 -5.65144,3.47382 -9.04304,5.06403 -1.7493,0.64007 -3.45905,1.40082 -5.2479,1.9202 -7.80116,2.265 -15.70658,1.83726 -22.49846,-2.86675 -4.50294,-3.72327 -9.64879,-8.69341 -4.90305,-14.70732 0.49185,-0.62328 1.23306,-1.00057 1.84959,-1.50085 6.20514,-3.85482 12.80755,-7.18032 18.26503,-12.12033 3.58612,-3.58626 7.6165,-7.46714 8.16446,-12.79878 -0.98818,-3.46098 -7.18792,2.62555 -7.89928,3.80974 -2.86549,4.45022 -5.32216,9.4596 -4.95734,14.90519 0,0 -6.41635,1.86719 -6.41635,1.86719 z"
         id="path753"
         style="opacity:1;vector-effect:none;fill:#000000;fill-opacity:1;stroke:none;stroke-width:1.01146841;stroke-linecap:butt;stroke-linejoin:miter;stroke-miterlimit:4;stroke-dasharray:none;stroke-dashoffset:0;stroke-opacity:1;marker:none" />
      <path
         inkscape:connector-curvature="0"
         d="m 863.68717,169.21782 c -1.32679,-5.58858 0.8344,-11.05952 4.62325,-15.22184 0.83361,-0.91578 1.81844,-1.68152 2.72766,-2.52228 4.50898,-3.19017 10.45002,-5.57475 15.9303,-3.25709 1.01,0.42714 1.86782,1.14956 2.80173,1.72434 0.70409,0.94428 1.63256,1.75706 2.11229,2.83282 3.62973,8.13949 -4.65341,16.17295 -9.62726,21.37112 -5.28902,4.71333 -11.07125,8.89639 -17.28059,12.31725 -7.12619,3.92596 0.44911,-0.495 -4.5062,2.42848 -0.0188,0.12377 -0.0376,0.24755 -0.0565,0.37133 0.60148,-0.90525 1.49537,-1.67376 1.80444,-2.71574 0.24349,-0.82093 -0.57832,-1.77082 -0.24033,-2.55757 0.1639,-0.3815 0.70569,0.43786 1.05359,0.66451 4.04016,2.63214 0.71226,0.56347 5.46025,3.43458 6.31969,3.89788 13.28889,5.66834 20.64678,5.77488 3.32877,0.40907 6.51812,-1.63316 9.80168,-1.49035 5.00752,0.21779 1.31319,1.56971 4.69769,-0.0608 0,0 0.10842,0.18019 0.10842,0.18019 v 0 c -4.32866,3.16978 2.16672,-1.93737 -3.01195,4.06377 -2.43259,2.81895 -7.37005,3.89981 -10.58025,5.34023 -3.90744,0.90395 -5.54739,1.55779 -9.63277,1.3816 -6.3148,-0.27233 -12.04866,-3.24451 -17.45638,-6.2262 -3.8811,-2.35233 -11.20921,-5.8368 -11.32687,-11.24404 -0.0356,-1.63417 1.02522,-3.14679 1.93081,-4.50755 0.43737,-0.6572 1.30452,-0.88939 1.95678,-1.33408 7.18979,-3.61903 14.56865,-6.98172 21.02235,-11.8669 3.29879,-2.65009 10.31952,-7.47694 9.26721,-12.61914 -2.96611,-2.88718 -7.41827,-0.89863 -10.36945,1.03455 -3.26678,2.78012 -6.03783,6.2419 -5.87435,10.77163 0,0 -5.98235,1.93228 -5.98235,1.93228 z"
         id="path755"
         style="opacity:1;vector-effect:none;fill:#000000;fill-opacity:1;stroke:none;stroke-width:1.01146841;stroke-linecap:butt;stroke-linejoin:miter;stroke-miterlimit:4;stroke-dasharray:none;stroke-dashoffset:0;stroke-opacity:1;marker:none" />
      <path
         inkscape:connector-curvature="0"
         d="m 944.62935,152.11666 c -7.3133,3.37518 -13.8668,8.23906 -19.2559,14.23474 -1.3444,1.49578 -2.5181,3.13666 -3.7771,4.70498 -0.8674,1.17342 -7.0137,10.68121 -3.7783,12.13958 0.2467,0.11116 0.5022,-0.21155 0.7677,-0.26305 0.5865,-0.11372 1.1848,-0.15366 1.7772,-0.23049 6.8697,-1.68217 12.9291,-6.2442 16.1883,-12.59508 0.5597,-1.09064 0.8862,-2.28598 1.3293,-3.42896 0.3955,-2.08338 0.7312,-3.20449 0.716,-5.25796 0,-0.52533 -0.075,-1.05122 -0.1829,-1.56539 -0.029,-0.1387 -0.321,-0.46369 -0.2212,-0.36301 3.8097,3.84636 1.1852,3.22987 7.1876,0.70436 1.0951,9.49349 5.8679,18.01805 10.0326,26.44814 3.9435,8.23004 7.5413,17.39084 5.1252,26.66624 -1.6517,6.34071 -3.4688,7.57254 -7.4266,12.61987 -1.9904,1.58723 -3.8307,3.38352 -5.9711,4.7617 -7.5752,4.87744 -17.8701,7.66784 -26.7441,5.00318 -1.846,-0.5543 -3.4866,-1.64421 -5.2299,-2.46632 -1.2787,-1.34934 -2.8738,-2.45752 -3.8362,-4.04801 -4.882,-8.06784 0.3624,-17.09228 5.8657,-23.12849 1.7837,-1.95637 3.8473,-3.63786 5.7709,-5.45678 12.9114,-10.41039 27.8675,-17.76757 42.0091,-26.29789 4.0085,-2.72139 8.434,-5.30427 11.2751,-9.37299 1.1054,-1.583 1.1672,-2.6937 0.6056,-2.71023 -0.2967,-0.009 -0.3486,0.48063 -0.523,0.72094 -0.1129,0.18955 -0.1417,0.46926 -0.3386,0.56864 -0.8473,0.42747 -1.9081,0.22503 -2.7863,0.58468 -2.4104,0.98712 -3.6153,2.83342 -5.0125,4.90849 -2.3904,4.92353 -4.0662,11.31542 -1.3196,16.50323 0.4482,0.84654 1.1608,1.52399 1.7412,2.28599 0.8388,0.52528 1.5877,1.23346 2.5162,1.57585 6.1541,2.26932 14.6395,-1.31186 19.9415,-4.19231 2.0596,-1.11894 3.9717,-2.49023 5.9576,-3.73535 5.54855,-4.25213 15.42555,-12.70739 14.78765,-20.72172 -0.055,-0.69111 -0.4966,-1.29463 -0.7449,-1.94195 -0.379,-0.21435 -0.7138,-0.54097 -1.1371,-0.64305 -2.1001,-0.5064 -5.9201,2.3758 -7.1689,3.56853 -0.9607,0.91753 -1.7764,1.97573 -2.6647,2.96359 -4.36745,6.21088 -7.61105,13.89413 -6.57825,21.67094 0.1368,1.02944 0.5513,2.00247 0.8269,3.0037 2.4343,4.4173 6.68185,5.56938 11.25955,6.81853 0,0 0.011,0.21 0.011,0.21 v 0 c -1.6245,0.55531 -3.1851,1.35486 -4.8735,1.66592 -6.43735,1.18598 -9.90845,-1.06211 -14.04375,-5.72646 -0.7834,-1.72721 -1.8401,-3.35497 -2.3502,-5.18164 -2.2711,-8.13206 0.7398,-17.41925 4.9919,-24.36408 1.1212,-1.83115 2.5502,-3.45504 3.8253,-5.18256 3.6176,-3.25359 4.8942,-5.0578 9.53205,-6.74156 4.7793,-1.73506 10.5369,-1.46401 14.102,2.63863 1.0141,1.16706 1.401,2.75662 2.1016,4.13493 0.076,1.5316 0.3977,3.07088 0.2269,4.59482 -1.1503,10.26405 -11.4678,18.45618 -18.9505,24.29684 -2.20225,1.36293 -4.32755,2.8587 -6.60665,4.0888 -7.5862,4.09454 -17.2023,7.62885 -25.8104,4.49661 -1.7196,-0.62573 -3.1823,-1.80761 -4.7735,-2.71141 -1.1395,-1.34668 -2.5006,-2.53354 -3.4185,-4.04003 -3.6775,-6.0358 -3.1952,-13.9244 -0.6526,-20.25823 0.6322,-1.57493 1.5572,-3.01585 2.3359,-4.52378 1.054,-1.23301 1.9629,-2.60671 3.1622,-3.69904 3.8821,-3.536 10.5646,-5.89624 15.6118,-3.34488 1.2724,0.6432 2.2193,1.79048 3.3289,2.68572 0.4134,1.3439 1.1763,2.62712 1.2401,4.03172 0.3255,7.16025 -11.3654,13.54936 -16.2175,16.7944 -13.82,8.14334 -28.3015,15.36962 -40.9179,25.37121 -3.6833,3.4315 -14.2509,12.71382 -11.0043,19.03703 0.4268,0.83137 1.2385,1.39986 1.8577,2.0998 1.0924,0.51266 2.1187,1.20047 3.2773,1.53798 6.8462,1.99444 14.774,-0.0905 20.755,-3.60182 1.6837,-0.98844 3.1515,-2.30541 4.7273,-3.45812 2.9173,-3.37722 4.4138,-4.38526 5.7736,-8.70714 2.4342,-7.73673 -1.2865,-15.28125 -4.5516,-22.099 -4.9747,-9.84076 -10.7998,-20.03974 -10.9176,-31.3563 1.7027,-1.50145 2.8806,-4.06678 5.1081,-4.50436 4.8165,-0.94613 3.9421,9.62424 3.5534,11.39105 -0.306,1.39081 -0.864,2.71395 -1.2959,4.07092 -0.7369,1.4544 -1.362,2.9711 -2.2107,4.3632 -3.9281,6.44313 -9.9357,11.8965 -17.0844,14.5214 -1.7439,0.64033 -3.6052,0.89865 -5.4077,1.34797 -1.8248,-0.18068 -3.7708,0.13646 -5.4744,-0.54206 -10.7516,-4.28233 -3.9753,-17.67972 0.3135,-23.86849 1.4713,-1.80216 2.8455,-3.68818 4.4139,-5.40648 6.3059,-6.90852 14.1808,-12.77705 23.3797,-15.00352 0,0 1.9486,6.90514 1.9486,6.90514 z"
         id="path773"
         style="opacity:1;vector-effect:none;fill:#000000;fill-opacity:1;stroke:none;stroke-width:1.01146841;stroke-linecap:butt;stroke-linejoin:miter;stroke-miterlimit:4;stroke-dasharray:none;stroke-dashoffset:0;stroke-opacity:1;marker:none" />
    </g>
    <text
       xml:space="preserve"
       style="font-style:normal;font-variant:normal;font-weight:normal;font-stretch:normal;line-height:0%;font-family:sans-serif;-inkscape-font-specification:Sans;text-align:start;letter-spacing:0px;word-spacing:0px;text-anchor:start;fill:#000000;fill-opacity:1;stroke:none"
       x="386.62766"
       y="1040.3186"
       id="text5211"><tspan
         sodipodi:role="line"
         id="tspan5213"
         x="386.62766"
         y="1040.3186"
         style="font-size:24.93461227px;line-height:1;font-family:sans-serif"><tspan
   style="font-style:italic;font-family:sans-serif;-inkscape-font-specification:'Sans Italic'"
   id="tspan5855">Grise Bouille</tspan> - https://grisebouille.net/</tspan></text>
    <g
       id="g5849"
       transform="matrix(1.6417847,0,0,1.6417847,10,991.46573)">
      <path
         id="path5835"
         d="M 2.499,0.352 85.626,0.5 c 1.161,0 2.198,-0.173 2.198,2.333 L 87.722,30.385 H 0.401 V 2.73 c 0,-1.235 0.119,-2.378 2.098,-2.378 z"
         inkscape:connector-curvature="0"
         style="fill:#aab2ab" />
      <path
         id="path5837"
         d="M 25.316,14.449 C 25.319,20.006 20.845,24.514 15.323,24.518 9.801,24.521 5.322,20.018 5.318,14.461 V 14.449 C 5.315,8.891 9.789,4.383 15.312,4.38 c 5.522,-0.004 10.001,4.5 10.005,10.057 -0.001,0.003 -0.001,0.007 -0.001,0.012 z M 46.464,3.306 c 4.349,0 7.875,3.548 7.875,7.925 0,4.377 -3.526,7.926 -7.875,7.926 -4.35,0 -7.875,-3.548 -7.875,-7.926 -10e-4,-4.377 3.525,-7.925 7.875,-7.925 z m 28.632,7.751 c 0.003,4.314 -3.47,7.814 -7.757,7.818 -4.286,0.003 -7.765,-3.492 -7.769,-7.806 v -0.012 c -0.002,-4.314 3.471,-7.814 7.758,-7.817 4.287,-0.003 7.765,3.492 7.768,7.806 z"
         inkscape:connector-curvature="0"
         style="fill:#ffffff" />
      <path
         id="path5839"
         d="m 23.446,6.252 c 2.217,2.232 3.326,4.964 3.326,8.197 0,3.233 -1.089,5.936 -3.269,8.11 -2.313,2.289 -5.046,3.434 -8.2,3.434 -3.116,0 -5.802,-1.135 -8.057,-3.405 C 4.99,20.317 3.863,17.606 3.863,14.45 3.863,11.294 4.99,8.561 7.246,6.252 9.444,4.02 12.13,2.904 15.303,2.904 c 3.212,0 5.926,1.116 8.143,3.348 z M 8.739,7.753 c -1.875,1.905 -2.812,4.138 -2.812,6.698 0,2.561 0.928,4.773 2.783,6.64 1.855,1.867 4.064,2.801 6.627,2.801 2.563,0 4.791,-0.942 6.684,-2.829 1.797,-1.752 2.697,-3.955 2.697,-6.611 0,-2.636 -0.914,-4.874 -2.74,-6.712 -1.826,-1.838 -4.04,-2.757 -6.641,-2.757 -2.601,0 -4.801,0.923 -6.598,2.77 z m 4.933,5.572 c -0.287,-0.628 -0.715,-0.942 -1.287,-0.942 -1.011,0 -1.516,0.685 -1.516,2.054 0,1.37 0.505,2.055 1.516,2.055 0.667,0 1.145,-0.333 1.431,-1.002 l 1.401,0.751 c -0.668,1.194 -1.67,1.792 -3.006,1.792 -1.03,0 -1.856,-0.317 -2.476,-0.954 -0.621,-0.636 -0.931,-1.512 -0.931,-2.629 0,-1.099 0.32,-1.97 0.959,-2.616 0.639,-0.646 1.436,-0.968 2.39,-0.968 1.413,0 2.424,0.56 3.035,1.679 z m 6.593,0 c -0.287,-0.628 -0.707,-0.942 -1.261,-0.942 -1.031,0 -1.547,0.685 -1.547,2.054 0,1.37 0.516,2.055 1.547,2.055 0.669,0 1.137,-0.333 1.404,-1.002 l 1.433,0.751 c -0.667,1.194 -1.667,1.792 -3.001,1.792 -1.029,0 -1.853,-0.317 -2.473,-0.954 -0.619,-0.636 -0.928,-1.512 -0.928,-2.629 0,-1.099 0.314,-1.97 0.943,-2.616 0.628,-0.646 1.428,-0.968 2.4,-0.968 1.41,0 2.42,0.56 3.029,1.679 z M 86.353,0 H 1.647 C 0.739,0 0,0.744 0,1.658 V 30.625 C 0,30.832 0.167,31 0.372,31 H 87.628 C 87.833,31 88,30.832 88,30.625 V 1.658 C 88,0.744 87.261,0 86.353,0 Z M 1.647,0.749 h 84.705 c 0.498,0 0.903,0.408 0.903,0.909 V 21.767 H 26.714 c -2.219,4.038 -6.494,6.779 -11.401,6.779 -4.908,0 -9.183,-2.738 -11.4,-6.779 H 0.744 V 1.658 c 0,-0.501 0.405,-0.909 0.903,-0.909 z M 67.277,2.5 c -2.355,0 -4.349,0.827 -5.98,2.481 -1.675,1.712 -2.512,3.737 -2.512,6.077 0,2.34 0.837,4.351 2.512,6.034 1.674,1.683 3.668,2.524 5.98,2.524 2.342,0 4.371,-0.849 6.089,-2.546 1.616,-1.611 2.427,-3.616 2.427,-6.012 0,-2.396 -0.824,-4.422 -2.471,-6.077 C 71.677,3.327 69.662,2.5 67.277,2.5 Z m 0.022,1.54 c 1.93,0 3.569,0.685 4.918,2.054 1.361,1.355 2.043,3.01 2.043,4.964 0,1.968 -0.666,3.602 -2.001,4.9 -1.405,1.397 -3.058,2.096 -4.96,2.096 -1.901,0 -3.541,-0.691 -4.917,-2.074 -1.376,-1.384 -2.064,-3.024 -2.064,-4.921 0,-1.897 0.695,-3.552 2.086,-4.964 1.332,-1.371 2.965,-2.055 4.895,-2.055 z m -3.791,5.809 c 0.34,-2.153 1.846,-3.304 3.733,-3.304 2.716,0 4.369,1.982 4.369,4.626 0,2.58 -1.76,4.584 -4.411,4.584 -1.824,0 -3.457,-1.13 -3.755,-3.347 h 2.143 c 0.063,1.151 0.806,1.556 1.866,1.556 1.209,0 1.994,-1.13 1.994,-2.857 0,-1.812 -0.679,-2.771 -1.951,-2.771 -0.934,0 -1.739,0.341 -1.909,1.513 L 66.21,9.846 64.523,11.543 62.837,9.846 Z M 48.743,8.938 c 0,-0.306 -0.246,-0.553 -0.55,-0.553 h -3.478 c -0.303,0 -0.55,0.247 -0.55,0.553 v 3.5 h 0.971 v 4.145 h 2.636 v -4.145 h 0.971 z M 46.455,5.53 c 0.656,0 1.189,0.536 1.189,1.197 0,0.661 -0.533,1.197 -1.189,1.197 -0.657,0 -1.189,-0.536 -1.189,-1.197 0,-0.661 0.532,-1.197 1.189,-1.197 z M 46.443,2.5 c -2.355,0 -4.349,0.827 -5.981,2.481 -1.675,1.711 -2.512,3.737 -2.512,6.076 0,2.339 0.837,4.351 2.512,6.034 1.674,1.683 3.668,2.524 5.981,2.524 2.342,0 4.371,-0.849 6.088,-2.547 1.619,-1.611 2.428,-3.615 2.428,-6.012 0,-2.397 -0.823,-4.421 -2.47,-6.076 C 50.844,3.326 48.828,2.5 46.443,2.5 Z m 0.022,1.539 c 1.93,0 3.569,0.685 4.917,2.054 1.363,1.355 2.044,3.01 2.044,4.963 0,1.968 -0.666,3.602 -2.001,4.9 -1.405,1.398 -3.058,2.096 -4.96,2.096 -1.901,0 -3.541,-0.691 -4.917,-2.075 -1.377,-1.383 -2.065,-3.023 -2.065,-4.921 0,-1.896 0.695,-3.551 2.086,-4.963 1.334,-1.369 2.966,-2.054 4.896,-2.054 z"
         inkscape:connector-curvature="0" />
      <path
         id="path5841"
         d="m 69.277,24.171 1.816,4.888 H 69.984 L 69.617,27.97 h -1.816 l -0.381,1.089 h -1.074 l 1.836,-4.888 z m 0.062,2.997 -0.612,-1.793 H 68.713 L 68.08,27.168 Z M 63.26,27.85 c 0.059,0.115 0.137,0.207 0.234,0.277 0.098,0.071 0.211,0.124 0.342,0.158 0.133,0.034 0.268,0.051 0.408,0.051 0.095,0 0.197,-0.008 0.306,-0.023 0.109,-0.015 0.21,-0.047 0.306,-0.093 0.094,-0.046 0.174,-0.108 0.236,-0.188 0.064,-0.08 0.096,-0.181 0.096,-0.305 0,-0.132 -0.042,-0.238 -0.126,-0.321 -0.083,-0.083 -0.194,-0.15 -0.329,-0.206 -0.136,-0.055 -0.29,-0.102 -0.461,-0.143 -0.173,-0.042 -0.348,-0.088 -0.523,-0.138 -0.182,-0.046 -0.358,-0.102 -0.531,-0.167 -0.171,-0.066 -0.325,-0.152 -0.461,-0.258 -0.137,-0.104 -0.246,-0.235 -0.33,-0.393 -0.083,-0.158 -0.125,-0.349 -0.125,-0.572 0,-0.252 0.053,-0.469 0.16,-0.654 0.105,-0.184 0.246,-0.338 0.418,-0.462 0.172,-0.123 0.366,-0.214 0.584,-0.274 0.217,-0.059 0.436,-0.088 0.652,-0.088 0.254,0 0.497,0.028 0.73,0.086 0.232,0.057 0.44,0.149 0.621,0.277 0.182,0.127 0.326,0.291 0.432,0.49 0.107,0.198 0.16,0.439 0.16,0.723 h -1.036 c -0.009,-0.146 -0.04,-0.268 -0.091,-0.363 -0.053,-0.096 -0.121,-0.172 -0.207,-0.227 -0.086,-0.055 -0.184,-0.094 -0.295,-0.115 -0.11,-0.023 -0.23,-0.035 -0.361,-0.035 -0.086,0 -0.172,0.01 -0.258,0.027 -0.086,0.019 -0.163,0.051 -0.232,0.096 -0.07,0.047 -0.129,0.104 -0.174,0.172 -0.045,0.068 -0.067,0.155 -0.067,0.26 0,0.096 0.019,0.174 0.054,0.232 0.037,0.061 0.109,0.115 0.215,0.165 0.106,0.05 0.254,0.101 0.441,0.151 0.188,0.049 0.434,0.113 0.736,0.191 0.092,0.018 0.217,0.051 0.377,0.1 0.161,0.047 0.32,0.123 0.479,0.229 0.159,0.105 0.296,0.246 0.412,0.422 0.115,0.176 0.173,0.4 0.173,0.674 0,0.225 -0.044,0.432 -0.13,0.623 -0.086,0.192 -0.214,0.357 -0.384,0.496 -0.171,0.141 -0.381,0.248 -0.632,0.326 -0.252,0.078 -0.544,0.116 -0.874,0.116 -0.268,0 -0.527,-0.033 -0.779,-0.1 -0.251,-0.065 -0.474,-0.171 -0.667,-0.312 -0.192,-0.143 -0.346,-0.323 -0.459,-0.543 -0.113,-0.219 -0.168,-0.479 -0.163,-0.78 h 1.036 c -0.001,0.165 0.028,0.304 0.087,0.418 z M 45.973,24.171 h 1.198 l 1.138,1.931 1.13,-1.931 h 1.19 l -1.803,3.012 v 1.876 h -1.07 v -1.903 z m -1.975,0 c 0.231,0 0.442,0.021 0.633,0.062 0.191,0.041 0.354,0.108 0.491,0.201 0.136,0.094 0.241,0.219 0.316,0.373 0.075,0.155 0.112,0.348 0.112,0.575 0,0.247 -0.055,0.451 -0.167,0.616 -0.11,0.164 -0.276,0.298 -0.493,0.402 0.3,0.088 0.523,0.239 0.672,0.456 0.148,0.218 0.223,0.479 0.223,0.784 0,0.246 -0.049,0.46 -0.144,0.641 -0.095,0.18 -0.224,0.327 -0.386,0.441 -0.161,0.114 -0.346,0.199 -0.552,0.254 -0.207,0.055 -0.419,0.082 -0.638,0.082 H 41.707 V 24.17 h 2.291 z m -0.137,1.976 c 0.191,0 0.347,-0.046 0.47,-0.136 0.123,-0.092 0.185,-0.239 0.185,-0.444 0,-0.114 -0.021,-0.208 -0.062,-0.28 -0.041,-0.072 -0.095,-0.129 -0.164,-0.17 -0.069,-0.041 -0.146,-0.07 -0.235,-0.086 -0.089,-0.016 -0.181,-0.023 -0.276,-0.023 h -1 v 1.14 h 1.082 z m 0.062,2.075 c 0.105,0 0.205,-0.01 0.3,-0.03 0.095,-0.021 0.18,-0.055 0.252,-0.104 0.073,-0.047 0.13,-0.112 0.174,-0.194 0.044,-0.082 0.065,-0.187 0.065,-0.315 0,-0.25 -0.071,-0.43 -0.212,-0.536 -0.141,-0.107 -0.328,-0.161 -0.559,-0.161 h -1.166 v 1.341 h 1.146 z"
         inkscape:connector-curvature="0"
         style="fill:#ffffff" />
    </g>
    <flowRoot
       xml:space="preserve"
       id="flowRoot3838"
       style="font-style:normal;font-variant:normal;font-weight:normal;font-stretch:normal;line-height:0.01%;font-family:Lavi;-inkscape-font-specification:Lavi;text-align:justify;letter-spacing:0px;word-spacing:0px;text-anchor:start;fill:#000000;fill-opacity:1;stroke:none;stroke-width:1px;stroke-linecap:butt;stroke-linejoin:miter;stroke-opacity:1"
       transform="translate(-18.219917,-457.69715)"><flowRegion
         id="flowRegion3840"><rect
           id="rect3842"
           width="1219.046"
           height="302.28882"
           x="31.960228"
           y="824.57385"
           style="font-style:normal;font-variant:normal;font-weight:normal;font-stretch:normal;font-size:48px;font-family:Lavi;-inkscape-font-specification:Lavi;text-align:justify;text-anchor:start" /></flowRegion><flowPara
         id="flowPara3844"
         style="font-size:48px;line-height:1.19000006">Les avocats de France Télévision exigent le changement de nom du jeu en ligne SUTOM, clone de Motus, qui fermera donc vendredi.</flowPara></flowRoot>    <text
       xml:space="preserve"
       style="font-style:normal;font-variant:normal;font-weight:normal;font-stretch:normal;line-height:0%;font-family:'Domestic Manners';-inkscape-font-specification:'Domestic Manners';text-align:center;letter-spacing:0px;word-spacing:0px;text-anchor:middle;fill:#000000;fill-opacity:1;stroke:none"
       x="271.427"
       y="593.90924"
       id="text5528-6-7"><tspan
         sodipodi:role="line"
         x="271.427"
         y="593.90924"
         style="font-size:40px;line-height:1"
         id="tspan1010">De la publicité</tspan><tspan
         sodipodi:role="line"
         x="271.427"
         y="633.90924"
         style="font-size:40px;line-height:1"
         id="tspan416">gratuite qui déringardise</tspan><tspan
         sodipodi:role="line"
         x="271.427"
         y="673.90924"
         style="font-size:40px;line-height:1"
         id="tspan418">notre vieux jeu télé</tspan><tspan
         sodipodi:role="line"
         x="271.427"
         y="713.90924"
         style="font-size:40px;line-height:1"
         id="tspan420">poussiéreux financé par</tspan><tspan
         sodipodi:role="line"
         x="271.427"
         y="753.90924"
         style="font-size:40px;line-height:1"
         id="tspan422">de l'argent public ?</tspan></text>
    <rect
       style="opacity:1;vector-effect:none;fill:#000000;fill-opacity:1;stroke:none;stroke-width:4.41651344;stroke-linecap:butt;stroke-linejoin:miter;stroke-miterlimit:4;stroke-dasharray:none;stroke-dashoffset:0;stroke-opacity:1;marker:none"
       id="rect1690"
       width="143.60307"
       height="143.60307"
       x="-618.73627"
       y="405.82877" />
    <rect
       y="549.43207"
       x="-618.73627"
       height="143.60307"
       width="143.60307"
       id="rect1694"
       style="opacity:1;vector-effect:none;fill:#1f4673;fill-opacity:1;stroke:none;stroke-width:4.41651344;stroke-linecap:butt;stroke-linejoin:miter;stroke-miterlimit:4;stroke-dasharray:none;stroke-dashoffset:0;stroke-opacity:1;marker:none" />
    <rect
       style="opacity:1;vector-effect:none;fill:#36731f;fill-opacity:1;stroke:none;stroke-width:4.41651344;stroke-linecap:butt;stroke-linejoin:miter;stroke-miterlimit:4;stroke-dasharray:none;stroke-dashoffset:0;stroke-opacity:1;marker:none"
       id="rect1696"
       width="143.60307"
       height="143.60307"
       x="-618.73627"
       y="693.03534" />
    <rect
       y="836.63861"
       x="-618.73627"
       height="143.60307"
       width="143.60307"
       id="rect1698"
       style="opacity:1;vector-effect:none;fill:#732a1f;fill-opacity:1;stroke:none;stroke-width:4.41651344;stroke-linecap:butt;stroke-linejoin:miter;stroke-miterlimit:4;stroke-dasharray:none;stroke-dashoffset:0;stroke-opacity:1;marker:none" />
    <rect
       y="405.82877"
       x="-475.13321"
       height="143.60307"
       width="143.60307"
       id="rect1711"
       style="opacity:1;vector-effect:none;fill:#434242;fill-opacity:1;stroke:none;stroke-width:4.41651344;stroke-linecap:butt;stroke-linejoin:miter;stroke-miterlimit:4;stroke-dasharray:none;stroke-dashoffset:0;stroke-opacity:1;marker:none" />
    <rect
       style="opacity:1;vector-effect:none;fill:#567599;fill-opacity:1;stroke:none;stroke-width:4.41651344;stroke-linecap:butt;stroke-linejoin:miter;stroke-miterlimit:4;stroke-dasharray:none;stroke-dashoffset:0;stroke-opacity:1;marker:none"
       id="rect1713"
       width="143.60307"
       height="143.60307"
       x="-475.13321"
       y="549.43207" />
    <rect
       y="693.03534"
       x="-475.13321"
       height="143.60307"
       width="143.60307"
       id="rect1715"
       style="opacity:1;vector-effect:none;fill:#689754;fill-opacity:1;stroke:none;stroke-width:4.41651344;stroke-linecap:butt;stroke-linejoin:miter;stroke-miterlimit:4;stroke-dasharray:none;stroke-dashoffset:0;stroke-opacity:1;marker:none" />
    <rect
       style="opacity:1;vector-effect:none;fill:#996156;fill-opacity:1;stroke:none;stroke-width:4.41651344;stroke-linecap:butt;stroke-linejoin:miter;stroke-miterlimit:4;stroke-dasharray:none;stroke-dashoffset:0;stroke-opacity:1;marker:none"
       id="rect1717"
       width="143.60307"
       height="143.60307"
       x="-475.13321"
       y="836.63861" />
    <rect
       style="opacity:1;vector-effect:none;fill:#989898;fill-opacity:1;stroke:none;stroke-width:4.41651344;stroke-linecap:butt;stroke-linejoin:miter;stroke-miterlimit:4;stroke-dasharray:none;stroke-dashoffset:0;stroke-opacity:1;marker:none"
       id="rect1719"
       width="143.60307"
       height="143.60307"
       x="-331.53015"
       y="405.82877" />
    <rect
       y="549.43207"
       x="-331.53015"
       height="143.60307"
       width="143.60307"
       id="rect1721"
       style="opacity:1;vector-effect:none;fill:#bbcadb;fill-opacity:1;stroke:none;stroke-width:4.41651344;stroke-linecap:butt;stroke-linejoin:miter;stroke-miterlimit:4;stroke-dasharray:none;stroke-dashoffset:0;stroke-opacity:1;marker:none" />
    <rect
       style="opacity:1;vector-effect:none;fill:#c9dfbf;fill-opacity:1;stroke:none;stroke-width:4.41651344;stroke-linecap:butt;stroke-linejoin:miter;stroke-miterlimit:4;stroke-dasharray:none;stroke-dashoffset:0;stroke-opacity:1;marker:none"
       id="rect1723"
       width="143.60307"
       height="143.60307"
       x="-331.53015"
       y="693.03534" />
    <rect
       y="836.63861"
       x="-331.53015"
       height="143.60307"
       width="143.60307"
       id="rect1725"
       style="opacity:1;vector-effect:none;fill:#d9bbb3;fill-opacity:1;stroke:none;stroke-width:4.41651344;stroke-linecap:butt;stroke-linejoin:miter;stroke-miterlimit:4;stroke-dasharray:none;stroke-dashoffset:0;stroke-opacity:1;marker:none" />
    <text
       id="text434"
       y="657.12976"
       x="1105.7542"
       style="font-style:normal;font-variant:normal;font-weight:normal;font-stretch:normal;line-height:0%;font-family:'Domestic Manners';-inkscape-font-specification:'Domestic Manners';text-align:center;letter-spacing:0px;word-spacing:0px;text-anchor:middle;fill:#000000;fill-opacity:1;stroke:none"
       xml:space="preserve"><tspan
         id="tspan432"
         style="font-size:40px;line-height:1"
         y="657.12976"
         x="1105.7542"
         sodipodi:role="line">C'est</tspan><tspan
         style="font-size:40px;line-height:1"
         y="697.12976"
         x="1105.7542"
         sodipodi:role="line"
         id="tspan454">un scandale !</tspan><tspan
         style="font-size:40px;line-height:1"
         y="737.12976"
         x="1105.7542"
         sodipodi:role="line"
         id="tspan450">Envoyez les</tspan><tspan
         style="font-size:40px;line-height:1"
         y="777.12976"
         x="1105.7542"
         sodipodi:role="line"
         id="tspan452">avocats !</tspan></text>
    <g
       id="g675"
       transform="matrix(0.61680838,0,0,0.61680838,171.46811,956.85291)"
       style="stroke-width:1.62124908">
      <path
         inkscape:connector-curvature="0"
         d="m 998.82985,-547.15024 c 6.22855,18.5411 10.01535,37.74977 13.44865,56.96657 3.2173,21.04313 5.228,42.53085 2.9922,63.79566 -0.3501,3.32943 -0.9869,6.62243 -1.4804,9.93364 -2.4033,11.08926 -7.1056,21.17598 -17.43212,26.88946 -6.06031,3.35306 -10.10543,3.76586 -16.8095,5.30406 -21.59706,2.8946 -43.4833,1.84479 -65.17612,0.78953 -7.33121,-0.81783 -15.09658,-1.02729 -22.14348,-3.53623 -1.38767,-0.49405 -2.63246,-1.3225 -3.94869,-1.98375 0,0 -0.0314,-0.29574 -0.0314,-0.29574 v 0 c 1.29376,-0.93845 2.42723,-2.15184 3.88128,-2.81536 6.93335,-3.16384 15.25494,-2.34076 22.58066,-2.82198 20.74365,0.2138 41.61421,1.18318 62.25888,-1.3112 5.81724,-1.15035 12.06374,-1.95994 16.83778,-5.87994 4.98446,-4.09277 6.93421,-10.25299 8.54121,-16.23216 0.5473,-2.97804 1.2374,-5.93334 1.6418,-8.93412 2.7354,-20.29745 0.5989,-40.92346 -2.1954,-61.07778 -3.18935,-18.84528 -6.93172,-37.59853 -11.61412,-56.13265 0,0 8.64878,-2.65801 8.64878,-2.65801 z"
         id="path472"
         style="opacity:1;vector-effect:none;fill:#000000;fill-opacity:1;stroke:none;stroke-width:1.26757097;stroke-linecap:butt;stroke-linejoin:miter;stroke-miterlimit:4;stroke-dasharray:none;stroke-dashoffset:0;stroke-opacity:1;marker:none" />
      <path
         inkscape:connector-curvature="0"
         d="m 875.88113,-511.23971 c 15.36859,2.8999 28.61702,12.31506 41.84122,20.17388 13.21545,7.50866 26.77429,15.47713 41.88748,18.46407 2.35027,0.4645 4.75253,0.60956 7.12879,0.91434 8.1423,0.45947 15.68561,-1.72213 22.52575,-6.09451 2.82777,-1.80759 5.4228,-3.95588 8.15054,-5.91114 4.49579,-2.4673 2.25632,-1.59672 6.64219,-2.80021 0,0 0.2414,0.17361 0.2414,0.17361 v 0 c 0.035,4.95186 0.4144,2.33893 -1.5724,7.76336 -1.1264,1.5752 -2.0764,3.29295 -3.37927,4.7256 -8.80029,9.67659 -21.34747,13.27012 -34.08235,12.49745 -2.78293,-0.42974 -5.59673,-0.69301 -8.34881,-1.28923 -15.97301,-3.46039 -30.33439,-11.83703 -44.27892,-19.99209 -12.26275,-7.47177 -24.33906,-15.7902 -37.92635,-20.67577 0,0 1.17073,-7.94936 1.17073,-7.94936 z"
         id="path480"
         style="opacity:1;vector-effect:none;fill:#000000;fill-opacity:1;stroke:none;stroke-width:1.26757097;stroke-linecap:butt;stroke-linejoin:miter;stroke-miterlimit:4;stroke-dasharray:none;stroke-dashoffset:0;stroke-opacity:1;marker:none" />
      <path
         inkscape:connector-curvature="0"
         d="m 897.17165,-477.77268 c -3.72516,7.14801 -6.96718,14.80616 -6.64101,23.04146 0.0666,1.68238 0.43213,3.33957 0.6482,5.00935 2.30156,8.28849 7.64713,15.91771 15.88541,19.23851 1.76058,0.70968 3.66151,1.0033 5.49226,1.50495 9.94779,1.27995 19.5444,-1.77046 29.14159,-3.80785 11.82339,-2.50999 3.88504,0.1739 14.31018,-4.01648 0,0 0.12295,0.27079 0.12295,0.27079 v 0 c -8.68762,4.41302 -4.30244,1.89146 -13.0898,7.67786 -9.94349,5.38504 -21.11662,8.21915 -32.40004,7.05888 -2.40009,-0.62634 -4.88176,-0.9974 -7.20027,-1.87902 -11.09534,-4.21903 -18.00929,-13.91809 -20.60294,-25.17772 -0.18424,-2.16836 -0.56778,-4.32896 -0.55273,-6.50508 0.0652,-9.42916 3.95536,-18.39363 9.10414,-26.10497 0,0 5.78206,3.68932 5.78206,3.68932 z"
         id="path484"
         style="opacity:1;vector-effect:none;fill:#000000;fill-opacity:1;stroke:none;stroke-width:1.26757097;stroke-linecap:butt;stroke-linejoin:miter;stroke-miterlimit:4;stroke-dasharray:none;stroke-dashoffset:0;stroke-opacity:1;marker:none" />
      <path
         inkscape:connector-curvature="0"
         d="m 932.84014,-468.20666 c -2.89414,4.70841 -5.33994,10.1953 -4.6058,15.87478 0.13772,1.06543 0.53295,2.08144 0.79942,3.12216 3.92458,7.09535 9.48141,3.5513 14.62063,-0.11139 4.9243,-4.26091 8.29837,-9.73074 9.51442,-16.11706 0.58367,-1.56997 0.39013,-0.71696 0.49908,-2.5762 0,0 0.14716,-0.25844 0.14716,-0.25844 v 0 c 3.49862,-0.11156 1.85405,-0.5951 4.84404,1.72654 0.3827,1.03513 0.97242,2.01585 1.1481,3.10539 1.36547,8.46843 -5.98628,15.79037 -11.52195,20.95254 -3.92359,2.56709 -5.90603,4.43569 -10.66212,5.29264 -5.68358,1.02407 -11.06957,-0.93788 -14.51101,-5.61489 -1.00916,-1.37148 -1.5324,-3.04124 -2.2986,-4.56186 -0.34078,-1.67624 -0.87234,-3.32479 -1.02235,-5.02873 -0.67198,-7.63289 2.48586,-14.93939 7.59726,-20.44692 0,0 5.45172,4.64144 5.45172,4.64144 z"
         id="path486"
         style="opacity:1;vector-effect:none;fill:#000000;fill-opacity:1;stroke:none;stroke-width:1.26757097;stroke-linecap:butt;stroke-linejoin:miter;stroke-miterlimit:4;stroke-dasharray:none;stroke-dashoffset:0;stroke-opacity:1;marker:none" />
      <path
         inkscape:connector-curvature="0"
         d="m 976.13186,-452.35791 c -3.20917,3.35315 -9.08397,7.42777 -12.85976,2.05931 -0.70772,-1.00624 -0.6113,-2.38325 -0.91695,-3.57487 0.43534,-4.55984 2.41646,-10.088 7.24129,-11.74085 1.04413,-0.3577 2.18323,-0.32584 3.27485,-0.48876 7.5289,1.4614 10.22494,8.21456 11.06042,15.09778 -0.28202,6.6443 -5.10948,11.86836 -12.08889,11.25178 -1.25966,-0.11128 -2.45205,-0.61966 -3.67807,-0.92949 -1.06891,-0.67014 -2.27462,-1.16023 -3.20674,-2.01041 -4.32686,-3.94652 -4.55532,-10.17932 -1.49205,-14.94404 0.6805,-1.05847 1.65386,-1.89698 2.48078,-2.84547 4.9415,-2.92247 5.0411,-3.2237 8.74943,0.93535 0,0 -0.10942,0.27654 -0.10942,0.27654 v 0 c -1.09367,1.16407 -1.53471,2.22826 -2.37276,3.57256 -0.87989,1.57628 -2.54506,4.02688 -1.09367,5.66505 1.72972,1.07778 3.19933,1.41847 4.20762,-0.77549 0.52127,-2.97722 -0.26819,-5.16234 -2.07872,-7.51811 -0.84827,-1.53115 -3.33955,2.79248 -3.20092,3.71908 -0.402,-0.22555 -4.24315,-1.49505 -3.20749,-0.42249 0.36294,0.37587 3.50991,-2.17922 3.91188,-2.56872 0,0 5.37917,5.24125 5.37917,5.24125 z"
         id="path488"
         style="opacity:1;vector-effect:none;fill:#000000;fill-opacity:1;stroke:none;stroke-width:1.26757097;stroke-linecap:butt;stroke-linejoin:miter;stroke-miterlimit:4;stroke-dasharray:none;stroke-dashoffset:0;stroke-opacity:1;marker:none" />
      <path
         inkscape:connector-curvature="0"
         d="m 968.85247,-392.36476 c 5.03724,10.79677 7.05008,22.7142 9.51475,34.29129 1.35875,9.09702 4.78137,18.22346 4.37882,27.54427 -0.0603,1.39542 -0.35918,2.77027 -0.53877,4.1554 -0.63149,1.3661 -1.02371,2.87077 -1.89445,4.09829 -5.63836,7.94865 -19.62855,10.03088 -28.34449,11.99665 -20.87265,4.42493 -42.17967,5.01107 -63.41004,4.0474 -12.59498,-1.17765 -25.73133,-1.44105 -37.53609,-6.46671 -2.06033,-1.68609 -1.33803,-0.63221 -2.16739,-3.16131 0,0 -0.0488,-0.29337 -0.0488,-0.29337 v 0 c 1.25418,-2.86763 0.24097,-1.80727 3.02566,-3.19438 12.38894,-1.8413 24.85379,1.46469 37.24785,1.81343 20.23823,0.94854 40.56045,0.57621 60.47133,-3.62747 7.00353,-1.53032 16.72731,-2.96645 22.6952,-7.25654 0.24326,-0.67561 0.61811,-1.31749 0.7298,-2.02682 0.36116,-2.29389 -0.049,-5.44412 -0.3521,-7.6277 -0.84239,-6.0678 -2.23961,-12.04506 -3.39764,-18.0549 -2.35208,-11.04641 -4.71901,-22.10392 -8.00565,-32.91925 0,0 7.63205,-3.31828 7.63205,-3.31828 z"
         id="path498"
         style="opacity:1;vector-effect:none;fill:#000000;fill-opacity:1;stroke:none;stroke-width:1.26757097;stroke-linecap:butt;stroke-linejoin:miter;stroke-miterlimit:4;stroke-dasharray:none;stroke-dashoffset:0;stroke-opacity:1;marker:none" />
      <path
         inkscape:connector-curvature="0"
         d="m 807.4717,-334.14376 c -0.72458,-10.99725 1.6451,-22.07438 6.27833,-32.05903 1.10607,-2.3836 2.4925,-4.62678 3.73875,-6.94017 6.68309,-10.31698 16.20177,-18.09891 28.50517,-20.39063 2.22868,-0.41513 4.51091,-0.45716 6.76636,-0.68574 9.45803,0.069 18.66221,2.76422 25.01706,10.21317 4.35915,5.10965 4.7133,7.75521 7.01666,13.95056 2.43395,12.14905 2.16529,25.01714 -0.91378,37.04437 -2.08884,2.88398 -1.39521,1.49806 -2.37314,3.99815 0,0 -0.28681,-0.0787 -0.28681,-0.0787 v 0 c 0.3923,-2.49593 0.46764,-1.08603 -0.9389,-4.13037 -1.56741,-11.12601 -1.55508,-22.53052 -4.95221,-33.36028 -0.66454,-1.84375 -1.17596,-3.75012 -1.99362,-5.53127 -3.73572,-8.13774 -10.92027,-11.92055 -19.67096,-12.0917 -1.71773,0.13021 -3.45152,0.12257 -5.15319,0.39065 -9.66999,1.5234 -17.14062,7.45168 -22.55896,15.38124 -1.1344,1.96502 -2.37762,3.87111 -3.40321,5.89505 -4.42308,8.7287 -6.93312,18.36291 -7.8924,28.07014 0,0 -7.18515,0.32453 -7.18515,0.32453 z"
         id="path502"
         style="opacity:1;vector-effect:none;fill:#000000;fill-opacity:1;stroke:none;stroke-width:1.26757097;stroke-linecap:butt;stroke-linejoin:miter;stroke-miterlimit:4;stroke-dasharray:none;stroke-dashoffset:0;stroke-opacity:1;marker:none" />
      <path
         inkscape:connector-curvature="0"
         d="m 808.47378,-341.58947 c 11.57074,-1.87834 23.39139,-1.35255 35.0684,-1.16843 10.33743,0.63596 21.22267,-0.50209 31.13222,3.04648 1.91772,1.18285 4.86704,3.31383 3.86861,6.12219 -0.25701,0.72292 -1.05052,1.11851 -1.57578,1.67777 0,0 -1.73934,-0.15121 -1.73934,-0.15121 v 0 c -0.49724,0.23689 -1.04935,0.38253 -1.49171,0.71067 -1.03394,0.76697 -0.39413,1.47243 -1.95732,1.04495 -9.30597,-2.13141 -18.93356,-1.84879 -28.41779,-2.19217 -11.14826,-0.21803 -22.31113,-0.59847 -33.45821,-0.19819 0,0 -1.42908,-8.89206 -1.42908,-8.89206 z"
         id="path504"
         style="opacity:1;vector-effect:none;fill:#000000;fill-opacity:1;stroke:none;stroke-width:1.26757097;stroke-linecap:butt;stroke-linejoin:miter;stroke-miterlimit:4;stroke-dasharray:none;stroke-dashoffset:0;stroke-opacity:1;marker:none" />
      <path
         inkscape:connector-curvature="0"
         d="m 844.8683,-377.53049 c 1.33454,9.90705 2.34775,19.86318 2.69041,29.85527 0.21051,5.96487 -0.61609,11.89715 0.19369,17.83546 0,0 -0.27434,0.11481 -0.27434,0.11481 v 0 c -3.33372,-4.53547 -4.45065,-12.10452 -5.60128,-17.44823 -1.40544,-9.82856 -2.09812,-19.73613 -3.10292,-29.61129 0,0 6.09444,-0.74602 6.09444,-0.74602 z"
         id="path506"
         style="opacity:1;vector-effect:none;fill:#000000;fill-opacity:1;stroke:none;stroke-width:1.26757097;stroke-linecap:butt;stroke-linejoin:miter;stroke-miterlimit:4;stroke-dasharray:none;stroke-dashoffset:0;stroke-opacity:1;marker:none" />
      <path
         inkscape:connector-curvature="0"
         d="m 856.27174,-384.13253 c 0.17895,10.00598 -0.47938,19.99047 -1.74295,29.91066 -1.33635,6.03895 -0.68311,3.17428 -1.94924,8.59638 0,0 -0.29719,-0.0113 -0.29719,-0.0113 v 0 c -0.85223,-5.50715 -0.42133,-2.59761 -1.27932,-8.73057 -0.43664,-9.88397 0.0188,-19.74783 0.0552,-29.63504 0,0 5.21354,-0.13017 5.21354,-0.13017 z"
         id="path508"
         style="opacity:1;vector-effect:none;fill:#000000;fill-opacity:1;stroke:none;stroke-width:1.26757097;stroke-linecap:butt;stroke-linejoin:miter;stroke-miterlimit:4;stroke-dasharray:none;stroke-dashoffset:0;stroke-opacity:1;marker:none" />
      <path
         inkscape:connector-curvature="0"
         d="m 817.32483,-366.39052 c 8.76602,-3.64658 18.49094,-3.46252 27.82057,-3.82506 7.48918,-0.2596 15.02627,-0.88907 22.48416,0.21403 1.53647,0.22726 3.10877,0.39334 4.56522,0.93291 1.30582,0.48377 2.40882,1.39797 3.61323,2.09696 0.88754,0.39906 1.77508,0.79812 2.66262,1.19719 0,0 -0.098,0.2808 -0.098,0.2808 v 0 c -0.88892,-0.22061 -1.77784,-0.44123 -2.66675,-0.66184 -9.71468,3.27008 -20.11585,3.99941 -30.30165,4.31485 -8.65766,0.19814 -17.35927,0.19912 -25.95183,1.40099 0,0 -2.12762,-5.95083 -2.12762,-5.95083 z"
         id="path510"
         style="opacity:1;vector-effect:none;fill:#000000;fill-opacity:1;stroke:none;stroke-width:1.26757097;stroke-linecap:butt;stroke-linejoin:miter;stroke-miterlimit:4;stroke-dasharray:none;stroke-dashoffset:0;stroke-opacity:1;marker:none" />
      <path
         inkscape:connector-curvature="0"
         d="m 767.53517,-492.78726 c -0.25781,1.32549 -0.51563,2.65099 -0.77345,3.97648 -0.69452,1.61384 -1.69046,3.12913 -2.08355,4.84154 -0.39174,1.70656 -0.15497,3.49847 -0.23245,5.24771 0,0 -0.29711,-0.0132 -0.29711,-0.0132 v 0 c 0.0778,-1.75413 0.38277,-3.51289 0.23346,-5.26238 -1.0378,-12.16069 -1.55336,0.7771 -0.84484,-9.41002 0,0 3.99794,0.61984 3.99794,0.61984 z"
         id="path512"
         style="opacity:1;vector-effect:none;fill:#000000;fill-opacity:1;stroke:none;stroke-width:1.26757097;stroke-linecap:butt;stroke-linejoin:miter;stroke-miterlimit:4;stroke-dasharray:none;stroke-dashoffset:0;stroke-opacity:1;marker:none" />
      <path
         inkscape:connector-curvature="0"
         d="m 761.74887,-487.29649 c 0.0471,13.10781 -0.0192,26.23054 0.31289,39.33614 0,0 -0.28596,0.0817 -0.28596,0.0817 v 0 c -1.08591,-1.91394 -2.37646,-3.72544 -3.25771,-5.74181 -4.69148,-10.73445 -4.68444,-22.8127 -3.78795,-34.2636 0,0 7.01873,0.58756 7.01873,0.58756 z"
         id="path514"
         style="opacity:1;vector-effect:none;fill:#000000;fill-opacity:1;stroke:none;stroke-width:1.26757097;stroke-linecap:butt;stroke-linejoin:miter;stroke-miterlimit:4;stroke-dasharray:none;stroke-dashoffset:0;stroke-opacity:1;marker:none" />
      <path
         inkscape:connector-curvature="0"
         d="m 796.70645,-493.84978 c -1.3493,15.59813 -2.96319,31.17212 -5.75197,46.58262 -0.56154,2.7862 -1.12309,5.5724 -1.68463,8.3586 0,0 -0.29712,0.0128 -0.29712,0.0128 v 0 c -0.80287,-2.81646 -1.60574,-5.63292 -2.40861,-8.44937 -0.45065,-3.23864 -1.11807,-6.45444 -1.35196,-9.71591 -0.91064,-12.69824 1.04269,-25.56808 3.0956,-38.05408 0,0 8.39869,1.26534 8.39869,1.26534 z"
         id="path516"
         style="opacity:1;vector-effect:none;fill:#000000;fill-opacity:1;stroke:none;stroke-width:1.26757097;stroke-linecap:butt;stroke-linejoin:miter;stroke-miterlimit:4;stroke-dasharray:none;stroke-dashoffset:0;stroke-opacity:1;marker:none" />
      <path
         inkscape:connector-curvature="0"
         d="m 818.94413,-490.06998 c 0.0894,7.77429 0.45887,15.67555 -0.65067,23.40388 -0.72203,5.02915 -2.01072,9.96142 -2.9013,14.96347 0,0 -0.29737,0.004 -0.29737,0.004 v 0 c -1.03825,-4.99123 -2.44952,-9.91176 -3.22233,-14.95092 -1.18015,-7.69518 -0.79002,-15.58316 -0.85061,-23.33366 0,0 7.92228,-0.0872 7.92228,-0.0872 z"
         id="path518"
         style="opacity:1;vector-effect:none;fill:#000000;fill-opacity:1;stroke:none;stroke-width:1.26757097;stroke-linecap:butt;stroke-linejoin:miter;stroke-miterlimit:4;stroke-dasharray:none;stroke-dashoffset:0;stroke-opacity:1;marker:none" />
      <path
         inkscape:connector-curvature="0"
         d="m 830.93201,-519.05234 c 2.01087,5.20327 4.16044,10.57996 4.18059,16.26041 0.0109,3.07332 -0.5627,6.12329 -0.69508,9.19378 0,0 -0.28942,0.0685 -0.28942,0.0685 v 0 c -6.43923,-11.38458 3.03224,4.95192 -5.0171,-7.43244 -2.93524,-4.51604 -4.36395,-9.76562 -6.38134,-14.69906 0,0 8.20235,-3.39115 8.20235,-3.39115 z"
         id="path520"
         style="opacity:1;vector-effect:none;fill:#000000;fill-opacity:1;stroke:none;stroke-width:1.26757097;stroke-linecap:butt;stroke-linejoin:miter;stroke-miterlimit:4;stroke-dasharray:none;stroke-dashoffset:0;stroke-opacity:1;marker:none" />
      <path
         inkscape:connector-curvature="0"
         d="m 810.49288,-544.84548 c 4.76445,1.24947 5.93508,2.30157 9.44382,5.72993 0,0 -0.0555,0.29217 -0.0555,0.29217 v 0 c -5.04066,2.00729 -6.17441,2.4532 -11.50887,1.12773 0,0 2.12057,-7.14983 2.12057,-7.14983 z"
         id="path522"
         style="opacity:1;vector-effect:none;fill:#000000;fill-opacity:1;stroke:none;stroke-width:1.26757097;stroke-linecap:butt;stroke-linejoin:miter;stroke-miterlimit:4;stroke-dasharray:none;stroke-dashoffset:0;stroke-opacity:1;marker:none" />
      <path
         inkscape:connector-curvature="0"
         d="m 830.0053,-565.5597 c 3.94912,1.00972 8.00581,2.31039 11.41139,4.63604 1.62805,1.11178 2.81533,2.82998 4.53074,3.80156 1.57516,0.89215 3.44117,1.12542 5.16176,1.68813 0,0 -0.082,0.28587 -0.082,0.28587 v 0 c -1.75615,-0.43452 -3.4607,-1.23315 -5.26843,-1.30358 -1.98348,-0.0773 -3.90811,0.78283 -5.89122,0.86879 -3.95917,0.17161 -7.91652,-0.90882 -11.70984,-1.86793 0,0 1.84759,-8.10888 1.84759,-8.10888 z"
         id="path524"
         style="opacity:1;vector-effect:none;fill:#000000;fill-opacity:1;stroke:none;stroke-width:1.26757097;stroke-linecap:butt;stroke-linejoin:miter;stroke-miterlimit:4;stroke-dasharray:none;stroke-dashoffset:0;stroke-opacity:1;marker:none" />
      <path
         inkscape:connector-curvature="0"
         d="m 836.04818,-578.28425 c 7.31777,1.14011 -1.01283,-0.4931 7.40572,2.50196 1.34147,0.47725 2.77675,0.63156 4.16513,0.94734 0,0 -0.0192,0.29678 -0.0192,0.29678 v 0 c -1.37703,0.13705 -2.81089,-0.004 -4.13108,0.41117 -2.30077,0.72296 -4.00154,2.91812 -6.59137,2.98321 0,0 -0.82922,-7.14046 -0.82922,-7.14046 z"
         id="path526"
         style="opacity:1;vector-effect:none;fill:#000000;fill-opacity:1;stroke:none;stroke-width:1.26757097;stroke-linecap:butt;stroke-linejoin:miter;stroke-miterlimit:4;stroke-dasharray:none;stroke-dashoffset:0;stroke-opacity:1;marker:none" />
      <path
         inkscape:connector-curvature="0"
         d="m 818.29995,-576.03908 c 6.1074,-4.68766 13.62816,-5.79559 20.85037,-7.79191 0,0 0.0932,0.28243 0.0932,0.28243 v 0 c -2.11876,0.81762 -4.33894,1.40977 -6.35627,2.45286 -1.8649,0.96428 -3.44542,2.40205 -5.21571,3.53065 -2.41263,1.53809 -4.99318,2.80463 -7.33008,4.46638 0,0 -2.04148,-2.94041 -2.04148,-2.94041 z"
         id="path530"
         style="opacity:1;vector-effect:none;fill:#000000;fill-opacity:1;stroke:none;stroke-width:1.26757097;stroke-linecap:butt;stroke-linejoin:miter;stroke-miterlimit:4;stroke-dasharray:none;stroke-dashoffset:0;stroke-opacity:1;marker:none" />
      <path
         inkscape:connector-curvature="0"
         d="m 823.5075,-582.64673 c 4.72124,-2.08529 9.88945,-1.32203 14.87727,-1.07828 0,0 0.0485,0.29342 0.0485,0.29342 v 0 c -4.41168,1.78745 -8.61326,3.96473 -13.10931,5.49416 0,0 -1.81645,-4.7093 -1.81645,-4.7093 z"
         id="path532"
         style="opacity:1;vector-effect:none;fill:#000000;fill-opacity:1;stroke:none;stroke-width:1.26757097;stroke-linecap:butt;stroke-linejoin:miter;stroke-miterlimit:4;stroke-dasharray:none;stroke-dashoffset:0;stroke-opacity:1;marker:none" />
      <path
         inkscape:connector-curvature="0"
         d="m 792.86526,-530.06852 c 0.3567,-16.73745 12.92701,-28.03573 24.63188,-38.28939 9.00097,-6.38214 18.77789,-12.89128 29.71231,-15.49128 3.13435,-0.74528 6.42164,-0.55055 9.61799,-0.95422 2.43929,-0.30807 4.854,-0.78666 7.281,-1.17999 0,0 0.0529,0.29266 0.0529,0.29266 v 0 c -2.38205,0.47658 -4.91964,0.45822 -7.14617,1.42976 -2.78384,1.21472 -5.03971,3.39336 -7.61129,5.00961 -8.87719,5.57935 -17.98432,10.82413 -26.03187,17.6281 -9.57371,8.31296 -20.3292,17.66565 -22.68525,30.81687 0,0 -7.82153,0.73788 -7.82153,0.73788 z"
         id="path536"
         style="opacity:1;vector-effect:none;fill:#000000;fill-opacity:1;stroke:none;stroke-width:1.26757097;stroke-linecap:butt;stroke-linejoin:miter;stroke-miterlimit:4;stroke-dasharray:none;stroke-dashoffset:0;stroke-opacity:1;marker:none" />
      <path
         inkscape:connector-curvature="0"
         d="m 785.97771,-529.60774 c 2.47025,-11.91026 8.37642,-22.87348 15.76377,-32.45715 2.33989,-3.03556 4.94433,-5.85767 7.41649,-8.7865 16.35618,-17.25769 36.26034,-31.22125 59.07366,-38.48722 4.89414,-1.55877 9.96443,-2.49789 14.94664,-3.74683 20.00748,-3.26981 40.23136,-1.69654 59.07421,6.0545 11.13603,4.58082 13.46735,6.89718 23.18525,13.53957 14.64176,11.95471 24.72809,25.16144 30.71608,43.03064 0.6533,4.21905 1.6439,8.59518 1.2091,12.87968 0,0 -0.2876,0.0759 -0.2876,0.0759 v 0 c -2.3483,-3.32988 -3.48026,-7.43126 -6.08849,-10.6525 -8.13642,-14.0733 -18.10613,-27.15068 -31.21995,-36.97273 -8.433,-5.67041 -11.24713,-8.13732 -20.80545,-12.15586 -16.98111,-7.13925 -35.25469,-8.80412 -53.38162,-6.0321 -12.44184,2.9942 -15.20152,3.02792 -26.90916,8.36371 -15.90132,7.24706 -29.84101,18.08454 -41.93979,30.57691 -2.31607,2.67241 -4.74105,5.25417 -6.9482,8.01722 -6.83159,8.55224 -12.31462,18.15436 -15.85306,28.51984 0,0 -7.95188,-1.76709 -7.95188,-1.76709 z"
         id="path538"
         style="opacity:1;vector-effect:none;fill:#000000;fill-opacity:1;stroke:none;stroke-width:1.26757097;stroke-linecap:butt;stroke-linejoin:miter;stroke-miterlimit:4;stroke-dasharray:none;stroke-dashoffset:0;stroke-opacity:1;marker:none" />
      <path
         inkscape:connector-curvature="0"
         d="m 891.12446,-570.88591 c 6.98818,-1.48646 13.8303,0.40423 20.7165,1.4683 0,0 -0.0166,0.29694 -0.0166,0.29694 v 0 c -1.93598,0.0847 -3.88852,-0.0124 -5.80794,0.25402 -4.73283,0.65703 -9.3532,2.53466 -14.20516,2.60194 0,0 -0.68682,-4.6212 -0.68682,-4.6212 z"
         id="path540"
         style="opacity:1;vector-effect:none;fill:#000000;fill-opacity:1;stroke:none;stroke-width:1.26757097;stroke-linecap:butt;stroke-linejoin:miter;stroke-miterlimit:4;stroke-dasharray:none;stroke-dashoffset:0;stroke-opacity:1;marker:none" />
      <path
         inkscape:connector-curvature="0"
         d="m 865.48677,-555.41475 c 13.67602,-6.87484 29.28183,-8.72442 44.27824,-10.61658 16.69449,-1.54142 33.80315,-2.52443 50.43271,0.37658 2.22123,0.3875 4.38272,1.06197 6.57409,1.59295 5.97435,3.11395 3.1444,1.9238 8.3931,3.79226 0,0 -0.096,0.28148 -0.096,0.28148 v 0 c -5.15015,-1.67871 -2.28472,-1.30448 -8.65763,-0.44968 -18.53001,0.83491 -37.11795,0.85999 -55.58548,2.81577 -14.47172,1.82511 -28.78481,4.31886 -42.76829,8.55475 0,0 -2.57075,-6.34753 -2.57075,-6.34753 z"
         id="path542"
         style="opacity:1;vector-effect:none;fill:#000000;fill-opacity:1;stroke:none;stroke-width:1.26757097;stroke-linecap:butt;stroke-linejoin:miter;stroke-miterlimit:4;stroke-dasharray:none;stroke-dashoffset:0;stroke-opacity:1;marker:none" />
      <path
         inkscape:connector-curvature="0"
         d="m 751.57228,-297.93674 c -14.14819,9.27901 -27.25932,20.06536 -40.62279,30.4209 -24.17028,18.65163 -48.93172,36.51651 -73.37122,54.81112 -7.27034,5.77496 -15.04247,10.92527 -22.29352,16.72485 -1.49307,1.1942 -7.42472,5.77922 -4.1944,4.99555 0.23891,-1.00187 0.27973,-2.07295 0.71673,-3.00561 0.59177,-1.26298 2.7335,0.62636 4.01599,1.17457 6.65924,2.84655 13.49085,4.99738 20.40218,7.13772 12.61134,3.69236 25.54572,6.02574 38.40097,8.65513 2.95149,0.60369 5.92778,1.11106 8.83805,1.88958 2.74485,0.73426 5.40276,1.76171 8.10414,2.64256 0,0 0.0104,0.29722 0.0104,0.29722 v 0 c -2.79364,1.07376 -5.47133,2.52007 -8.38092,3.22126 -3.10901,0.74925 -6.33651,0.95217 -9.53133,1.09547 -13.89026,0.623 -27.72226,-2.27699 -41.12988,-5.51244 -7.6536,-2.22943 -15.3812,-4.38162 -22.62931,-7.77384 -2.77812,-1.3002 -7.71691,-3.77191 -9.24836,-6.74352 -1.03218,-2.00281 -0.84432,-4.42646 -1.26647,-6.6397 0.69512,-1.38309 1.17915,-2.89433 2.08538,-4.14929 1.20571,-1.66968 5.78566,-5.07024 7.11664,-6.102 7.37733,-5.71881 14.85882,-11.30202 22.34386,-16.87839 24.60021,-18.00324 49.42742,-35.695 73.90595,-53.86454 13.93383,-10.40722 27.53291,-21.44497 42.42536,-30.46382 0,0 4.30252,8.06722 4.30252,8.06722 z"
         id="path550"
         style="opacity:1;vector-effect:none;fill:#000000;fill-opacity:1;stroke:none;stroke-width:1.26757097;stroke-linecap:butt;stroke-linejoin:miter;stroke-miterlimit:4;stroke-dasharray:none;stroke-dashoffset:0;stroke-opacity:1;marker:none" />
      <path
         inkscape:connector-curvature="0"
         d="m 729.22869,-218.07657 c 5.57378,-3.53026 12.29501,-6.8738 19.13126,-5.7295 1.50049,0.25116 2.90293,0.91166 4.35439,1.36749 7.70081,4.54707 9.48873,12.61361 9.72039,20.93669 0.38322,2.14602 -0.78701,4.50681 -0.3267,6.64311 0.0472,0.21888 0.0267,-0.45003 -0.005,-0.67168 2.74461,2.46996 3.85185,6.29429 4.78925,9.82101 0.98887,5.28087 1.70423,11.05205 -0.36802,16.19404 -0.43485,1.07902 -1.09218,2.05442 -1.63826,3.08162 -3.95958,4.5236 -7.48366,5.52484 -12.80393,2.80845 0,0 -0.0605,-0.29119 -0.0605,-0.29119 v 0 c 1.49135,-2.41738 2.53868,-5.08157 4.35782,-7.30568 2.34881,-3.64346 1.82695,-8.06466 1.20206,-12.17212 -0.65622,-2.92272 -1.43542,-5.2494 -3.61646,-7.40367 -1.60828,-3.36623 -1.3044,-6.66066 -1.2447,-10.31216 -0.23673,-4.13629 -0.54515,-8.74175 -3.47532,-11.94684 -4.79543,-2.58882 -10.19163,0.53803 -14.40128,3.01703 0,0 -5.61505,-8.0366 -5.61505,-8.0366 z"
         id="path556"
         style="opacity:1;vector-effect:none;fill:#000000;fill-opacity:1;stroke:none;stroke-width:1.26757097;stroke-linecap:butt;stroke-linejoin:miter;stroke-miterlimit:4;stroke-dasharray:none;stroke-dashoffset:0;stroke-opacity:1;marker:none" />
      <path
         inkscape:connector-curvature="0"
         d="m 715.27709,-147.57292 c 4.91356,4.89597 8.91347,8.22058 16.13162,6.89246 4.98823,-1.54856 7.8222,-6.23578 12.22495,-8.69772 2.98012,-0.34282 1.39401,-0.43521 4.73202,0.57143 0,0 0.22883,0.18995 0.22883,0.18995 v 0 c 1.81194,2.89145 1.31124,1.40379 1.74057,4.37551 -2.71557,7.75173 -10.31802,12.41349 -17.92094,14.49623 -1.81749,0.089 -3.63936,0.42131 -5.45248,0.26699 -8.01545,-0.68223 -14.41599,-6.218 -19.07367,-12.33834 0,0 7.3891,-5.75651 7.3891,-5.75651 z"
         id="path558"
         style="opacity:1;vector-effect:none;fill:#000000;fill-opacity:1;stroke:none;stroke-width:1.26757097;stroke-linecap:butt;stroke-linejoin:miter;stroke-miterlimit:4;stroke-dasharray:none;stroke-dashoffset:0;stroke-opacity:1;marker:none" />
      <path
         inkscape:connector-curvature="0"
         d="m 853.33033,-278.9775 c 1.9264,6.78394 3.60106,13.63758 4.79497,20.58897 0.13782,0.87862 0.2668,1.75868 0.41346,2.63586 0.35948,2.14996 0.92172,3.77492 1.13319,3.39161 0.13893,-0.25183 -0.10773,-0.58152 -0.0431,-0.86177 4.73621,0.44753 9.49757,0.55843 14.24963,0.73895 5.30343,-0.003 3.83562,0.15072 4.75751,-3.81447 1.16424,-6.82772 0.87707,-13.79017 1.23759,-20.6844 0.14067,-1.99615 0.2553,-4.23401 1.38447,-5.9853 0.26989,-0.41858 0.52517,-1.26288 0.99941,-1.11071 1.55039,0.49747 2.70001,1.82061 4.05002,2.73092 0,0 -0.29587,0.0301 -0.29587,0.0301 v 0 c 5.73159,-0.18471 4.85548,-1.29489 4.77886,4.91473 -0.41498,7.69269 -0.8839,15.43342 -2.44013,22.99259 -2.85509,8.64627 -5.7461,10.99024 -14.84156,10.58309 -5.80556,-0.224 -11.71666,-0.063 -17.40822,-1.33166 -0.94615,-0.46858 -1.99298,-0.77331 -2.83844,-1.40573 -3.59038,-2.68568 -3.54947,-7.34592 -4.17655,-11.34388 -1.01806,-6.56015 -2.04514,-13.14447 -3.97169,-19.51272 0,0 8.21641,-2.55622 8.21641,-2.55622 z"
         id="path564"
         style="opacity:1;vector-effect:none;fill:#000000;fill-opacity:1;stroke:none;stroke-width:1.26757097;stroke-linecap:butt;stroke-linejoin:miter;stroke-miterlimit:4;stroke-dasharray:none;stroke-dashoffset:0;stroke-opacity:1;marker:none" />
      <path
         inkscape:connector-curvature="0"
         d="m 856.43865,-250.32668 c -1.26132,13.47292 -2.97143,26.89948 -4.39885,40.35593 -1.72804,18.15574 -3.4386,36.31195 -5.86142,54.39007 -1.23476,8.16395 -2.35576,16.38193 -4.54963,24.35696 -13.54054,3.46604 -3.5329,-3.6433 -2.86947,-4.48834 0.3405,-0.4337 0.41022,-1.02365 0.61533,-1.53547 0,0 0.27994,0.1004 0.27994,0.1004 v 0 c -0.72851,2.29578 -0.61271,0.93382 0.0607,3.52585 0.15633,0.60168 1.00867,1.60348 0.42447,1.81601 -5.45204,1.98346 -5.26254,1.81018 -6.54339,-0.47298 0.0628,-8.2394 1.4436,-16.41224 2.27911,-24.58993 2.09058,-18.05279 3.75539,-36.14283 5.42509,-54.23868 1.43813,-13.63053 2.68956,-27.33275 5.36289,-40.78867 0,0 9.77518,1.56885 9.77518,1.56885 z"
         id="path568"
         style="opacity:1;vector-effect:none;fill:#000000;fill-opacity:1;stroke:none;stroke-width:1.26757097;stroke-linecap:butt;stroke-linejoin:miter;stroke-miterlimit:4;stroke-dasharray:none;stroke-dashoffset:0;stroke-opacity:1;marker:none" />
      <path
         inkscape:connector-curvature="0"
         d="m 843.39542,-145.44234 c 8.58686,7.03903 14.7858,16.39351 20.67261,25.67907 5.4973,8.28315 9.04701,17.58941 13.62483,26.35461 1.87414,3.22452 1.63329,1.32225 -7.1766,4.00812 -0.2282,0.0696 0.14251,-0.45571 0.22806,-0.67841 0.39463,-1.0272 0.32431,-0.79142 0.99725,-1.7965 1.12042,-1.28849 1.24047,-0.7051 0.85452,-1.56924 0,0 0.22098,-0.19904 0.22098,-0.19904 v 0 c 0.88624,0.55347 0.24656,0.27873 2.08802,-0.0471 9.38248,1.42973 -3.0158,12.42672 -5.44915,4.55908 -4.40683,-8.53387 -9.15433,-16.89117 -13.94541,-25.21367 -5.33833,-8.44409 -10.98857,-16.77627 -18.20461,-23.75744 0,0 6.0895,-7.33951 6.0895,-7.33951 z"
         id="path570"
         style="opacity:1;vector-effect:none;fill:#000000;fill-opacity:1;stroke:none;stroke-width:1.26757097;stroke-linecap:butt;stroke-linejoin:miter;stroke-miterlimit:4;stroke-dasharray:none;stroke-dashoffset:0;stroke-opacity:1;marker:none" />
      <path
         inkscape:connector-curvature="0"
         d="m 864.93071,-90.91633 c 3.74246,-10.8748 8.85319,-21.23659 14.12415,-31.43834 3.4067,-6.17692 4.7384,-9.75182 11.43973,-12.39295 0,0 0.26688,0.13123 0.26688,0.13123 v 0 c 1.85318,6.67529 -0.18659,10.32323 -2.97005,16.50766 -4.64227,10.18613 -9.51125,20.26749 -14.17529,30.44418 0,0 -8.68542,-3.25178 -8.68542,-3.25178 z"
         id="path572"
         style="opacity:1;vector-effect:none;fill:#000000;fill-opacity:1;stroke:none;stroke-width:1.26757097;stroke-linecap:butt;stroke-linejoin:miter;stroke-miterlimit:4;stroke-dasharray:none;stroke-dashoffset:0;stroke-opacity:1;marker:none" />
      <path
         inkscape:connector-curvature="0"
         d="m 889.24372,-250.21629 c 0.2433,13.31433 1.18722,26.59114 2.4418,39.84363 1.5471,15.68624 4.36211,31.20002 8.45408,46.41461 1.24794,4.80881 3.03482,9.43989 4.67147,14.11956 0.0235,0.087 0.0621,0.17135 0.0705,0.26112 0.022,0.23644 -0.20836,-0.73742 -0.39614,-0.59207 -2.04873,1.58581 -3.83223,3.48748 -5.74185,5.23832 -0.11054,0.10134 0.33161,-0.14017 0.3443,-0.2896 0.01,-0.11298 -0.2049,-0.0972 -0.30735,-0.14578 -1.42964,0.81153 -1.89779,2.51051 -2.93516,3.65867 -0.43467,0.48108 -2.12044,1.67566 -2.64723,2.06139 0,0 -0.2748,-0.11372 -0.2748,-0.11372 v 0 c -0.56606,-4.52852 0.90165,-6.6166 4.60246,-9.13632 1.07977,-0.56394 3.96282,-2.22055 3.485,-1.10002 -3.55949,8.34727 -3.54785,7.26874 -5.40959,4.13432 -2.40814,-4.894 -3.64539,-10.29887 -5.32749,-15.45562 -4.20153,-15.77482 -7.16688,-31.84153 -8.73196,-48.10159 -1.26257,-13.53241 -2.24729,-27.1088 -2.03204,-40.71106 0,0 9.73401,-0.0858 9.73401,-0.0858 z"
         id="path576"
         style="opacity:1;vector-effect:none;fill:#000000;fill-opacity:1;stroke:none;stroke-width:1.26757097;stroke-linecap:butt;stroke-linejoin:miter;stroke-miterlimit:4;stroke-dasharray:none;stroke-dashoffset:0;stroke-opacity:1;marker:none" />
      <path
         inkscape:connector-curvature="0"
         d="m 920.17565,-265.78553 c 0.6722,14.62879 1.83358,29.19257 3.66468,43.72241 2.91412,20.13404 8.5033,39.71289 14.44621,59.12241 1.51364,5.04165 3.27572,10.02295 4.47381,15.15587 0.13771,0.58997 0.84634,3.61111 0.55986,4.55437 -0.16046,0.52832 -0.66463,0.8819 -0.99695,1.32285 -0.4614,0.3254 -0.92281,0.6508 -1.38421,0.97621 0,0 -0.0533,0.29259 -0.0533,0.29259 v 0 c -0.7228,0.27781 -1.4456,0.55563 -2.1684,0.83345 -0.695,-0.18116 -1.47473,-0.16478 -2.08501,-0.54346 -3.8146,-2.36699 -6.9415,-15.65266 -8.55834,-19.4392 -6.21825,-19.98234 -11.92674,-40.20506 -14.73315,-60.99228 -1.76823,-14.92441 -3.07178,-29.96874 -2.01783,-45.00522 0,0 8.8526,0 8.8526,0 z"
         id="path580"
         style="opacity:1;vector-effect:none;fill:#000000;fill-opacity:1;stroke:none;stroke-width:1.26757097;stroke-linecap:butt;stroke-linejoin:miter;stroke-miterlimit:4;stroke-dasharray:none;stroke-dashoffset:0;stroke-opacity:1;marker:none" />
      <path
         inkscape:connector-curvature="0"
         d="m 1093.2789,-408.70502 c -7.2582,3.0504 -14.1052,7.3598 -19.6911,12.94936 -1.48,1.48102 -2.7767,3.13456 -4.165,4.70183 -4.2765,6.03703 -9.2489,14.25432 -5.8167,21.8761 0.357,0.79268 0.962,1.44834 1.443,2.1725 5.3081,4.59254 12.4234,3.09828 18.766,2.11611 0,0 0.1547,0.25402 0.1547,0.25402 v 0 c -1.0942,1.3555 -1.9996,2.88796 -3.2824,4.06651 -5.3722,4.93575 -13.7861,6.58205 -20.3203,2.93471 -1.684,-0.94 -2.9745,-2.45565 -4.4617,-3.68347 -1.0259,-1.69828 -2.3352,-3.25492 -3.0777,-5.09482 -4.6186,-11.44448 1.5504,-23.48563 8.4977,-32.34858 1.8134,-1.79667 3.5133,-3.71569 5.4402,-5.39002 7.0766,-6.14892 15.729,-10.57808 24.9764,-12.19382 0,0 1.5369,7.63957 1.5369,7.63957 z"
         id="path584"
         style="opacity:1;vector-effect:none;fill:#000000;fill-opacity:1;stroke:none;stroke-width:1.26757097;stroke-linecap:butt;stroke-linejoin:miter;stroke-miterlimit:4;stroke-dasharray:none;stroke-dashoffset:0;stroke-opacity:1;marker:none" />
      <path
         inkscape:connector-curvature="0"
         d="m 1070.0007,-410.19991 c 8.0649,-6.65178 17.8311,-10.1498 27.9212,-12.28122 8.9622,-1.20351 18.3929,-0.33281 25.6675,5.56341 1.1847,0.96028 2.1669,2.14652 3.2503,3.21978 6.2646,7.84814 5.4831,16.9462 3.317,26.1323 -0.2306,3.09467 -3.4096,7.85901 -2.9715,10.97886 0.043,0.30621 0.3335,-0.54506 0.3654,-0.85263 6.224,2.46243 10.8741,7.98534 14.8485,13.11126 4.8933,7.74942 8.4,17.13502 6.2273,26.41706 -0.4049,1.72951 -1.2123,3.33928 -1.8184,5.00892 -4.8431,8.21548 -12.8878,12.72974 -22.2441,13.41556 -3.1472,9e-4 -4.6487,-1.42753 -6.338,-3.80459 0,0 0.1191,-0.27255 0.1191,-0.27255 v 0 c 1.7574,-0.65152 3.021,-1.83915 4.8334,-2.39468 5.5431,-2.3281 11.3135,-4.81183 14.3037,-10.36564 3.0019,-8.03157 1.2006,-14.67397 -3.1386,-21.86882 -2.2208,-2.98494 -4.3646,-5.59141 -7.3224,-7.87983 -9.4209,-7.28898 4.6664,3.87048 -4.7864,-3.25076 -0.8739,-0.65834 -1.665,-1.41985 -2.4975,-2.12978 -0.5974,-1.07641 -1.3988,-2.06267 -1.7921,-3.22922 -1.6697,-4.95346 1.9047,-10.28701 2.6277,-15.04901 1.2262,-5.73209 2.4744,-11.70061 -1.0759,-16.87426 -5.2965,-5.93429 -11.8567,-6.74749 -19.5339,-5.89932 -8.5943,1.68955 -16.8039,4.58374 -23.9544,9.78623 0,0 -6.0079,-7.48107 -6.0079,-7.48107 z"
         id="path586"
         style="opacity:1;vector-effect:none;fill:#000000;fill-opacity:1;stroke:none;stroke-width:1.26757097;stroke-linecap:butt;stroke-linejoin:miter;stroke-miterlimit:4;stroke-dasharray:none;stroke-dashoffset:0;stroke-opacity:1;marker:none" />
      <path
         inkscape:connector-curvature="0"
         d="m 1092.8438,-362.15165 c -2.139,6.02652 -2.8881,12.2837 -2.1843,18.61998 0.7737,4.4714 3.8509,6.88364 7.2626,9.42438 1.8882,1.33568 3.2572,2.81997 4.5677,4.70127 0,0 -0.012,0.29714 -0.012,0.29714 v 0 c -2.6138,2.61205 -3.6116,2.86421 -7.3913,3.06395 -10.1124,-1.67125 -13.7233,-6.63718 -15.8745,-16.41965 -0.7009,-8.66718 0.022,-17.52322 4.7913,-25.05708 0,0 8.8409,5.37001 8.8409,5.37001 z"
         id="path588"
         style="opacity:1;vector-effect:none;fill:#000000;fill-opacity:1;stroke:none;stroke-width:1.26757097;stroke-linecap:butt;stroke-linejoin:miter;stroke-miterlimit:4;stroke-dasharray:none;stroke-dashoffset:0;stroke-opacity:1;marker:none" />
      <path
         inkscape:connector-curvature="0"
         d="m 1100.5158,-329.8594 c -4.8589,4.11694 -7.3889,9.71672 -8.7229,15.80923 -0.372,4.01719 -0.325,9.89214 4.446,11.13542 4.2295,-0.0696 8.273,-1.62524 12.4032,-2.43087 0,0 0.2485,0.16337 0.2485,0.16337 v 0 c 0.052,1.43326 0.446,2.89499 0.157,4.29977 -1.1538,5.60727 -7.8725,8.98422 -13.0945,8.89133 -1.572,-0.028 -3.0987,-0.53436 -4.6481,-0.80154 -1.3865,-0.76286 -2.91,-1.31744 -4.1595,-2.28856 -6.6152,-5.14151 -7.4533,-14.13033 -6.2207,-21.75964 2.594,-9.17345 6.2194,-15.57419 14.2984,-20.96832 0,0 5.2926,7.94981 5.2926,7.94981 z"
         id="path590"
         style="opacity:1;vector-effect:none;fill:#000000;fill-opacity:1;stroke:none;stroke-width:1.26757097;stroke-linecap:butt;stroke-linejoin:miter;stroke-miterlimit:4;stroke-dasharray:none;stroke-dashoffset:0;stroke-opacity:1;marker:none" />
      <path
         inkscape:connector-curvature="0"
         d="m 1064.8713,-351.98707 c -5.0012,4.22797 -7.9132,9.68687 -8.9705,16.07895 0.049,6.49401 3.534,8.58998 8.9791,10.93241 4.0761,1.18734 7.9109,2.99877 11.748,4.78072 0,0 0.033,0.29557 0.033,0.29557 v 0 c -5.2475,3.65687 -8.0624,5.36458 -14.7667,4.9061 -1.8227,-0.42262 -3.7216,-0.59689 -5.4682,-1.26787 -9.3813,-3.60384 -13.2296,-12.87264 -11.9048,-22.33035 0.4698,-1.67907 0.7836,-3.40986 1.4095,-5.0372 2.6516,-6.89408 7.9195,-12.42713 14.3006,-15.9843 0,0 4.64,7.62597 4.64,7.62597 z"
         id="path592"
         style="opacity:1;vector-effect:none;fill:#000000;fill-opacity:1;stroke:none;stroke-width:1.26757097;stroke-linecap:butt;stroke-linejoin:miter;stroke-miterlimit:4;stroke-dasharray:none;stroke-dashoffset:0;stroke-opacity:1;marker:none" />
      <path
         inkscape:connector-curvature="0"
         d="m 982.99613,-250.13511 c 5.39303,3.96708 10.88761,8.29711 17.70577,9.35829 1.5157,0.23592 3.0633,0.16963 4.595,0.25444 13.2555,-1.86083 23.1963,-11.59314 32.3896,-20.55282 3.853,-3.97752 7.5364,-8.11228 11.3489,-12.12779 0.7228,-0.76125 1.3578,-1.62123 2.1842,-2.26856 1.1696,-0.91627 2.7903,-1.31414 4.1645,-1.7578 0,0 0.2974,0.005 0.2974,0.005 v 0 c 0.6709,0.72947 1.6039,1.28559 2.0127,2.1884 3.0268,6.68323 -7.6628,18.13999 -11.3904,22.5607 -9.6835,9.94988 -20.4947,20.50306 -34.5907,23.57624 -2.5371,0.55313 -5.1683,0.51015 -7.7524,0.76522 -2.3763,-0.33671 -4.80342,-0.41616 -7.12873,-1.01013 -8.40895,-2.14796 -15.81281,-7.83904 -20.87674,-14.73216 0,0 7.0409,-6.25857 7.0409,-6.25857 z"
         id="path596"
         style="opacity:1;vector-effect:none;fill:#000000;fill-opacity:1;stroke:none;stroke-width:1.26757097;stroke-linecap:butt;stroke-linejoin:miter;stroke-miterlimit:4;stroke-dasharray:none;stroke-dashoffset:0;stroke-opacity:1;marker:none" />
      <path
         inkscape:connector-curvature="0"
         d="m 719.49166,-99.251439 c -9.21923,5.991438 -18.5224,11.948424 -26.70112,19.353322 -2.04507,1.851586 -3.94075,3.861754 -5.91112,5.792632 -7.09891,7.719351 -12.58401,16.701698 -13.77469,27.314751 -0.82429,7.347018 0.007,9.245099 1.18087,16.586326 1.10961,2.94126 1.91188,6.017635 3.32885,8.823783 8.52093,16.8747433 25.52141,27.1893073 42.20373,34.639948 6.3988,2.857829 13.06365,5.078213 19.59548,7.617324 40.12555,12.902393 81.76671,21.499047 123.79378,25.035295 7.74525,0.651701 15.52129,0.862726 23.28193,1.294094 24.45948,-0.220876 55.41829,0.03064 75.89472,-15.887114 2.43388,-1.892019 4.36698,-4.352424 6.55038,-6.528646 1.4201,-2.35046 3.1224,-4.552083 4.2601,-7.051412 5.1149,-11.2354037 3.6562,-24.5798837 0.697,-36.150518 -0.9014,-3.524852 -2.1927,-6.938371 -3.2891,-10.407568 -4.6156,-12.025103 -11.23982,-23.140064 -21.16994,-31.514545 -4.13041,-3.483341 -6.92083,-4.931697 -11.45751,-7.660354 -1.72499,-0.923318 -3.44998,-1.846635 -5.17496,-2.769952 -1.51736,-0.961898 -2.9734,-2.028159 -4.55208,-2.885693 -1.36515,-0.741532 -2.8375,-1.265953 -4.25625,-1.898939 0,0 0.002,-0.297386 0.002,-0.297386 v 0 c 6.70644,-2.449153 11.35676,-3.654505 18.50903,-1.28199 2.50523,1.044887 5.12442,1.850224 7.5157,3.134653 16.18951,8.695805 25.65211,25.046097 32.13441,41.592121 1.1932,3.91379 2.6064,7.767183 3.5797,11.741362 3.5817,14.6242423 4.7013,31.177565 -2.5031,44.98432 -1.7104,3.277807 -4.2267,6.067391 -6.34,9.101093 -2.9408,2.544571 -5.6207,5.426417 -8.8224,7.633703 -23.34351,16.093223 -55.08283,15.981483 -82.14463,16.082907 -7.93638,-0.463849 -15.88836,-0.71143 -23.80913,-1.391547 -42.87302,-3.681322 -85.4291,-12.262335 -126.41076,-25.314245 -6.87763,-2.666577 -13.89779,-4.991262 -20.6329,-7.999719 -19.19929,-8.576015 -38.05968,-20.6073317 -47.40671,-40.22938 -1.64853,-3.46074 -2.51293,-7.24313 -3.76941,-10.86469 -1.27915,-9.146834 -2.27737,-11.359914 -0.92242,-20.473996 1.85034,-12.446353 8.50668,-23.084075 16.8881,-32.176837 10.56437,-10.245666 22.10749,-19.669834 35.6894,-25.652084 0,0 3.94308,7.708984 3.94308,7.708984 z"
         id="path622"
         style="opacity:1;vector-effect:none;fill:#000000;fill-opacity:1;stroke:none;stroke-width:1.26757097;stroke-linecap:butt;stroke-linejoin:miter;stroke-miterlimit:4;stroke-dasharray:none;stroke-dashoffset:0;stroke-opacity:1;marker:none" />
      <path
         inkscape:connector-curvature="0"
         d="m 986.57977,-6.7206317 c 7.9633,3.493526 15.33013,1.805767 23.18413,-1.011941 8.1787,-4.1088393 16.9853,-9.6832413 20.9472,-18.3757313 0.5364,-1.176905 0.7468,-2.476649 1.1201,-3.71498 -0.044,-1.089436 0.071,-2.197272 -0.1333,-3.268285 -1.4608,-7.655284 -11.028,-18.359502 -15.7828,-24.325607 -7.7621,-9.807759 -16.30403,-18.95916 -24.16943,-28.67825 -1.8194,-0.909036 -1.7649,-3.223433 -3.0541,-4.496476 -0.5039,-0.49758 -1.2691,-0.628711 -1.9037,-0.943077 0,0 -0.047,-0.293586 -0.047,-0.293586 v 0 c 4.0559,-2.48815 6.1798,-3.192234 10.8173,-1.112418 1.3835,0.845307 2.84123,1.579945 4.15073,2.535942 9.3866,6.85256 15.8801,17.029021 23.5637,25.547567 7.1876,9.059343 17.3356,20.166993 17.9649,32.346797 0.1132,2.191292 -0.4185,4.368425 -0.6277,6.552655 -0.7793,1.975887 -1.3511,4.04676 -2.3379,5.927662 -5.6076,10.6896243 -16.2961,17.8237843 -26.881,22.8247753 -2.2523,0.751531 -4.4563,1.667323 -6.7568,2.254604 -8.60983,2.197816 -17.58313,1.652723 -25.35693,-2.814595 0,0 5.3028,-8.95502 5.3028,-8.95502 z"
         id="path628"
         style="opacity:1;vector-effect:none;fill:#000000;fill-opacity:1;stroke:none;stroke-width:1.26757097;stroke-linecap:butt;stroke-linejoin:miter;stroke-miterlimit:4;stroke-dasharray:none;stroke-dashoffset:0;stroke-opacity:1;marker:none" />
      <path
         inkscape:connector-curvature="0"
         d="m 909.32284,-661.95844 c -6.86192,-0.072 -13.68231,-0.8338 -20.52181,-1.2621 -5.28961,-0.5861 -4.04439,-0.034 -0.1265,-13.1426 0.2749,-0.9198 1.91179,-0.1775 2.86703,-0.273 4.93474,-0.4933 9.86084,-1.062 14.78759,-1.6283 1.89348,-0.2265 3.78765,-0.4471 5.68043,-0.6794 4.316,-0.5295 8.55569,-1.0739 12.7982,-2.0197 0.5605,-0.125 2.04951,-0.8095 1.68318,-0.3673 -0.42703,0.5155 -1.2701,0.4235 -1.90514,0.6352 -0.0289,3.8266 0.24879,7.6679 -0.0866,11.4799 -0.0272,0.3097 -0.61911,0.085 -0.92978,0.073 -1.23452,-0.046 -2.46356,-0.1973 -3.69802,-0.2446 -5.4178,-0.2076 -10.84899,-0.2848 -16.26924,-0.4517 -9.54455,-0.4662 -17.20087,0.5654 -13.31489,-14.5441 0.41481,-1.6129 8.76129,-4.5659 10.03106,-5.066 1.93057,-0.6628 3.85232,-1.3517 5.7917,-1.9882 5.63235,-1.8484 11.41596,-3.2641 17.01419,-5.2089 0.78911,-0.2742 2.73781,-1.6953 2.30668,-0.9798 -0.61711,1.0242 -1.96527,1.3627 -2.94791,2.044 0.65303,3.4338 2.26602,6.8196 1.95908,10.3015 -0.0836,0.9484 -1.89832,-0.1491 -2.84729,-0.2259 -1.86805,-0.1511 -3.73484,-0.3184 -5.60379,-0.4581 -6.77725,-0.5066 -13.55893,-0.9459 -20.33543,-1.4655 -4.84896,-0.6233 -18.50217,0.2602 -18.87071,-8.0675 -0.36793,-8.314 4.84628,-9.5071 10.00248,-12.0313 12.64105,-5.0742 25.89677,-8.3004 38.96949,-12.0202 0.31961,-0.146 0.9374,-0.7888 0.95882,-0.438 0.28053,4.5935 0.27269,9.2223 -0.14247,13.8056 -0.036,0.3971 -0.74388,0.3209 -1.14066,0.3601 -6.33082,0.6266 -12.81076,0.5707 -19.1628,0.7302 -9.44165,-0.5311 -19.45775,1.1319 -28.6641,-1.5442 -0.0498,-4.596 -1.3414,-9.349 -0.14931,-13.788 0.39012,-1.4527 2.81645,-1.0633 4.25534,-1.5017 8.54406,-2.6028 17.3925,-4.474 26.0383,-6.7076 8.44517,-2.6704 17.45164,-3.6867 25.72938,-6.9126 0.33447,-0.1303 -1.01561,-0.1275 -1.05215,0.2296 -0.39798,3.8903 -0.11425,7.8204 -0.17138,11.7306 -15.00112,-0.5932 -30.02364,-1.2738 -45.01469,-2.2262 -9.78796,-1.3123 -20.41476,-0.602 -29.66498,-4.558 0.37962,-4.5617 -0.63096,-9.4636 1.13886,-13.685 0.65353,-1.5588 3.30912,-0.7111 4.98593,-0.9241 3.86547,-0.4909 7.77698,-0.503 11.66226,-0.7989 8.74112,-0.6657 9.13216,-0.7651 18.31812,-1.6888 17.59672,-2.3897 35.48375,-3.4967 52.83718,-7.4262 4.24081,-2.2066 -2.01066,0.8726 -2.60654,3.1474 -0.58381,2.2286 1.88608,4.58 1.25697,6.7963 -0.28013,0.9869 -2.01238,-0.4018 -3.0244,-0.5698 -8.37583,-1.3905 -6.26947,-0.9985 -15.98755,-1.8882 -26.31619,-1.574 -52.63124,0.9783 -78.75694,3.9293 -4.12623,0.3661 -20.33742,4.7385 -20.01928,-5.8382 0.30572,-10.1637 17.48791,-11.2564 23.80022,-12.0337 6.44934,-0.2531 13.26334,-0.8268 19.69819,0.1779 3.23992,0.5059 6.34453,1.6611 9.51679,2.4916 0,0 0.009,0.2973 0.009,0.2973 v 0 c -8.75685,3.0416 -17.58873,5.8907 -26.17567,9.3973 -2.54444,0.9817 -5.0521,2.0647 -7.63331,2.9452 -1.91951,0.6548 -4.49783,3.1632 -5.85469,1.6558 -1.50328,-1.67 2.4289,-4.5877 1.41198,-6.5913 -1.4974,-2.9504 -6.01502,-3.3251 -7.84413,-6.0822 -2.11957,-3.1949 20.38256,5.9054 11.45004,-1.0923 27.12452,-3.0037 54.43832,-5.6224 81.75276,-3.9699 6.15962,0.5702 12.44705,0.9078 18.50929,2.2948 2.24551,0.5138 4.91298,0.4736 6.60298,2.0389 8.98017,8.3177 7.05003,13.9342 -2.90002,17.3639 -17.95404,3.9029 -36.36573,5.2681 -54.55557,7.655 -8.48024,0.8631 -16.94633,1.6327 -25.44853,2.2352 -1.46982,0.1041 -2.93612,0.3198 -4.4096,0.3105 -0.16613,-10e-4 -0.3538,-0.1747 -0.36386,-0.3406 -0.26168,-4.3127 -0.29522,-8.6363 -0.44282,-12.9544 -0.27012,-0.058 -1.0754,-0.2507 -0.81034,-0.1731 1.76936,0.5185 3.40295,0.8188 5.26043,1.1108 3.76508,0.5919 7.59351,1.0071 11.38361,1.3607 2.613,0.2437 5.23061,0.4352 7.84591,0.6527 9.23647,0.593 18.46808,1.046 27.71465,1.4478 2.279,0.099 13.23897,0.5361 15.95148,0.8632 2.25239,0.2716 4.46456,0.8099 6.69684,1.2148 1.06266,4.4338 3.306,8.7435 3.18797,13.3013 -0.0367,1.4158 -2.30595,1.6757 -3.59121,2.2707 -1.40668,0.6512 -2.93273,1.0092 -4.42209,1.4389 -7.36156,2.1237 -14.88796,3.6454 -22.26452,5.7135 -7.13589,1.8512 -14.27386,3.6943 -21.41019,5.5438 -1.3526,0.3505 -2.69226,0.7539 -4.0555,1.0604 -0.30798,0.069 -0.87655,0.372 -0.94484,0.064 -0.9304,-4.1989 -1.24648,-8.5107 -1.86972,-12.766 -0.39771,-0.051 -1.59287,-0.1859 -1.19314,-0.1539 5.6797,0.455 11.34773,0.6849 17.05098,0.7124 2.28713,0.011 4.57425,-0.022 6.86137,-0.034 6.35819,-0.1621 12.73832,-0.6848 19.09303,-0.7644 1.86252,-0.023 4.75321,-1.5076 5.58575,0.1587 6.65459,13.3187 5.24599,12.9499 -0.79271,15.2179 -12.35466,3.4533 -24.85522,6.5232 -36.81655,11.2267 -6.16301,2.4401 0.42133,0.7451 -1.88203,-5.4969 -0.72329,-1.9601 -3.28247,-2.603 -4.74606,-4.094 -0.29486,-0.3004 0.76364,0.3774 1.17678,0.4579 2.4588,0.4791 7.06345,0.7949 9.27957,0.9882 6.79885,0.5265 13.60323,0.9598 20.40336,1.4654 0.29144,0.022 11.42475,0.7919 11.96013,1.3664 2.96896,3.1855 3.96062,7.7564 5.94094,11.6346 -1.35662,1.2819 -2.5333,2.7862 -4.06986,3.8459 -1.17906,0.8131 -7.64064,2.665 -8.43556,2.9037 -5.65738,1.6986 -11.35009,3.2962 -16.89593,5.3445 -1.25594,0.4813 -2.46452,1.1116 -3.76782,1.4439 -0.20031,0.051 -0.44814,-0.1559 -0.50974,-0.3532 -1.07171,-3.4331 -1.46593,-7.0867 -2.84911,-10.4066 -0.20588,-0.4942 -2.12053,-0.2925 -1.58757,-0.2423 0.84179,0.079 1.672,0.2648 2.51503,0.3296 1.51897,0.1167 3.04354,0.143 4.5653,0.2145 7.36813,0.231 14.81819,0.4569 22.08237,1.8537 1.50242,0.2889 3.8095,-0.2958 4.45861,1.0896 1.77954,3.7981 1.25412,8.2944 1.88118,12.4416 -1.07257,0.514 -2.09624,1.1459 -3.21771,1.5421 -1.78804,0.6316 -4.28395,0.5671 -6.06919,0.7065 -5.14159,0.4016 -10.25417,1.0958 -15.37667,1.6777 -1.04372,0.1209 -17.44981,1.9591 -17.47028,1.8805 -1.07238,-4.1233 -0.56644,-8.5021 -0.84966,-12.7531 0.0472,0.023 0.0944,0.046 0.14159,0.069 7.02011,0.475 14.07987,0.5795 21.01976,1.9018 0,0 -1.33957,12.2794 -1.33957,12.2794 z"
         id="path630"
         style="opacity:1;vector-effect:none;fill:#000000;fill-opacity:1;stroke:none;stroke-width:1.26757097;stroke-linecap:butt;stroke-linejoin:miter;stroke-miterlimit:4;stroke-dasharray:none;stroke-dashoffset:0;stroke-opacity:1;marker:none" />
    </g>
    <path
       style="opacity:1;vector-effect:none;fill:#000000;fill-opacity:1;stroke:none;stroke-width:0.78184837;stroke-linecap:butt;stroke-linejoin:miter;stroke-miterlimit:4;stroke-dasharray:none;stroke-dashoffset:0;stroke-opacity:1;marker:none"
       id="path697"
       d="m 28.562913,763.18252 c 14.022978,2.55282 28.202857,4.41757 42.350223,6.29551 30.760754,4.28993 61.584044,8.07611 92.494104,11.19272 40.81727,4.06489 81.75082,4.8689 122.59047,5.09348 33.844,-0.11096 67.77853,-0.49133 101.26364,-3.48463 5.77491,-0.51623 11.51083,-1.21091 17.26625,-1.81637 23.59091,-3.08865 47.36899,-7.27315 68.2893,-16.2613 3.49544,-1.50178 6.77353,-3.28548 10.16029,-4.92822 12.7435,-7.01925 22.82558,-16.2888 29.90559,-27.26244 4.79478,-7.43166 5.65612,-10.46636 9.03173,-18.44445 6.04032,-17.11092 8.08612,-35.07984 7.5662,-53.0594 -0.1066,-3.68677 -0.43176,-7.3764 -0.64765,-11.0646 -1.87458,-16.94965 -4.51259,-34.10193 -10.79524,-50.61631 -1.02815,-2.70253 -2.30334,-5.35143 -3.45501,-8.02715 -4.11438,-8.0565 -9.29846,-16.14822 -19.2845,-20.66523 -3.92273,-1.77437 -8.80357,-2.80026 -13.02676,-3.85772 -2.12108,-0.50428 -4.24215,-1.00855 -6.36321,-1.51282 0,0 0.0161,-0.17483 0.0161,-0.17483 v 0 c 2.26529,-0.0761 4.53058,-0.15216 6.79587,-0.22825 6.79046,0.86439 8.28261,0.63214 14.67563,3.19153 11.36395,4.54944 18.30107,12.812 23.13573,21.80856 1.26775,2.77855 2.66608,5.52664 3.80326,8.33565 6.82315,16.85417 9.97303,34.3758 11.76934,51.76684 0.23319,3.78161 0.5849,7.56461 0.69955,11.34484 0.56419,18.60259 -1.57634,37.18596 -7.88249,54.87452 -3.61069,8.43759 -4.5137,11.59801 -9.6464,19.46337 -7.66553,11.74667 -18.54228,21.64026 -32.26389,29.12188 -10.1962,4.8742 -11.48798,5.87889 -22.65554,9.62264 -18.55477,6.2202 -38.50406,9.67224 -58.53621,12.19615 -5.84546,0.60633 -11.67134,1.30327 -17.53639,1.81899 -33.72889,2.96583 -67.89807,3.28134 -101.97048,3.4961 -41.12716,-0.22516 -82.35884,-1.02493 -123.45543,-5.23833 -31.0048,-3.24934 -61.92132,-7.14892 -92.751896,-11.6821 -14.311139,-2.12851 -28.756101,-3.98802 -42.692346,-7.6741 0,0 1.150227,-3.62452 1.150227,-3.62452 z"
       inkscape:connector-curvature="0" />
    <path
       style="opacity:1;vector-effect:none;fill:#000000;fill-opacity:1;stroke:none;stroke-width:0.78184837;stroke-linecap:butt;stroke-linejoin:miter;stroke-miterlimit:4;stroke-dasharray:none;stroke-dashoffset:0;stroke-opacity:1;marker:none"
       id="path701"
       d="m 290.14732,789.92921 c -0.26053,7.65522 -1.28249,15.26949 -1.31112,22.92973 0.0176,0.10767 0.0333,3.18404 1.19375,3.42645 0.23888,0.0499 0.23506,-0.45491 0.44274,-0.58307 0.54635,-0.33714 1.1835,-0.4993 1.76209,-0.7775 1.18462,-0.56959 2.36888,-1.14197 3.52618,-1.76521 1.51668,-0.81677 2.99535,-1.70223 4.49302,-2.55334 6.06193,-3.08023 12.75943,-8.07097 20.02701,-6.99803 4.76867,0.70401 5.38413,2.19296 8.84204,5.28289 6.52412,8.77496 7.19042,20.1105 11.72035,29.79223 0.83055,1.77514 1.95323,3.39832 2.92985,5.09748 1.25586,1.23001 2.31387,2.70168 3.76758,3.69003 5.77506,3.92638 13.66834,3.19537 20.12124,2.2215 8.55223,-1.2907 14.99747,-3.35479 23.41949,-5.66219 30.73638,-9.62362 60.62851,-21.65454 90.1089,-34.56559 23.84787,-10.29294 46.55233,-22.90987 69.59824,-34.82211 0,0 0.11726,0.17457 0.11726,0.17457 v 0 c -5.22859,4.45028 -8.51418,7.42022 -14.34816,11.5158 -16.46902,11.5616 -34.41298,20.9137 -52.54499,29.53682 -29.73322,13.18106 -59.95317,25.38399 -91.14564,34.70822 -14.26741,3.87346 -36.49568,11.50578 -49.88655,1.29346 -1.82112,-1.38885 -3.10857,-3.36426 -4.66285,-5.0464 -1.08285,-1.99169 -2.3091,-3.91187 -3.24855,-5.97509 -4.09394,-8.99111 -5.00715,-19.20027 -10.07129,-27.77418 -1.53616,-1.78426 -2.25403,-3.22078 -4.68207,-3.8369 -6.19062,-1.57087 -12.38574,3.32682 -17.51712,5.84179 -3.41061,1.94124 -9.3986,6.10368 -13.58939,5.72784 -4.55155,-0.40819 -5.45549,-4.20041 -5.88343,-7.87737 -0.22231,-7.80513 0.40785,-15.56575 0.98948,-23.34589 0,0 5.83194,0.34406 5.83194,0.34406 z"
       inkscape:connector-curvature="0" />
    <path
       style="opacity:1;vector-effect:none;fill:#000000;fill-opacity:1;stroke:none;stroke-width:0.78184837;stroke-linecap:butt;stroke-linejoin:miter;stroke-miterlimit:4;stroke-dasharray:none;stroke-dashoffset:0;stroke-opacity:1;marker:none"
       id="path711"
       d="m 1006.7613,615.54994 c -7.54535,10.2466 -13.17217,21.56072 -18.66529,32.85044 -8.53507,19.01764 -15.56972,38.91026 -17.97459,59.51661 -0.4786,4.1009 -0.553,8.2344 -0.8295,12.35161 -0.002,15.36504 3.38101,30.45492 12.80228,43.28876 6.14028,8.36439 8.97187,9.84229 17.10648,16.53926 3.71272,2.2678 7.27442,4.76919 11.13822,6.80339 18.048,9.5017 38.6426,14.16236 59.0332,16.54262 5.7506,0.67127 11.5438,0.97011 17.3156,1.45518 28.1547,1.32695 56.5178,-0.044 84.3255,-4.47907 4.5192,-0.72077 8.9946,-1.66451 13.4918,-2.49676 12.8396,-2.92325 25.7664,-6.78444 36.0133,-14.92489 3.7811,-3.00376 5.0925,-4.81029 8.0925,-8.27246 0.6382,-1.1971 1.2764,-2.3942 1.9148,-3.5913 0,0 0.1843,0.0712 0.1843,0.0712 v 0 c -0.4673,1.31864 -0.9345,2.63729 -1.4017,3.95594 -0.9154,1.57127 -1.6331,3.25885 -2.7461,4.71382 -2.8816,3.76703 -6.946,7.07837 -10.9377,9.72459 -9.0907,6.02651 -19.3964,9.96423 -30.0041,12.96987 -4.5609,1.07622 -9.0814,2.31571 -13.6828,3.22866 -28.1458,5.58445 -57.1905,6.30234 -85.8303,5.09717 -5.9201,-0.50853 -11.8626,-0.8255 -17.7605,-1.52559 -21.2661,-2.52432 -42.7366,-7.46248 -61.5175,-17.45471 -4.1247,-2.19455 -7.91986,-4.89314 -11.87979,-7.33971 -8.6567,-7.29648 -11.84913,-9.05646 -18.33586,-18.1503 -9.87965,-13.8504 -13.25377,-30.09207 -13.15206,-46.51094 0.30638,-4.27809 0.40878,-8.57329 0.91912,-12.83425 2.5265,-21.09442 9.67067,-41.48263 18.55036,-60.91116 5.75689,-11.55695 11.58624,-23.38811 20.58133,-33.11009 0,0 3.249,2.49219 3.249,2.49219 z"
       inkscape:connector-curvature="0" />
    <path
       style="opacity:1;vector-effect:none;fill:#000000;fill-opacity:1;stroke:none;stroke-width:0.78184837;stroke-linecap:butt;stroke-linejoin:miter;stroke-miterlimit:4;stroke-dasharray:none;stroke-dashoffset:0;stroke-opacity:1;marker:none"
       id="path713"
       d="m 968.25775,712.22541 c -8.2299,3.91109 -16.58644,7.48594 -25.18516,10.50457 -5.05982,1.14667 -13.67953,3.84068 -17.27724,-1.98602 -2.35701,-3.8173 -1.06457,-6.61718 -0.37353,-10.60969 5.08161,-14.34546 14.3619,-26.62304 21.98997,-39.6556 2.10793,-4.37104 6.00927,-10.66007 2.73296,-15.5392 -1.38303,-2.05963 -2.82279,-2.44579 -4.97343,-3.59861 -1.46802,-0.36667 -2.90395,-0.90197 -4.40406,-1.1 -10.72171,-1.41539 -22.53008,2.02584 -32.93449,4.12849 -3.33382,0.67374 -6.68467,1.26028 -10.02701,1.89042 -2.9641,0.57724 -5.92819,1.15447 -8.89229,1.73171 0,0 -0.07,-0.19829 -0.07,-0.19829 v 0 c 2.70852,-1.42665 5.41705,-2.8533 8.12558,-4.27995 3.19813,-1.36247 6.32341,-2.9105 9.59438,-4.0874 10.1484,-3.65144 25.11213,-7.35994 35.95781,-5.52648 2.07924,0.35149 4.04399,1.19721 6.06598,1.79581 3.83635,2.49207 5.6941,2.94473 7.81811,7.1715 3.56213,7.08862 -0.2217,14.60715 -3.60785,20.84324 -7.53786,12.26734 -16.30234,24.02323 -21.35626,37.6115 -0.27141,1.14762 -0.54776,2.29409 -0.81422,3.44287 -0.0861,0.37122 -0.70762,2.01995 0.0154,2.48053 2.9753,1.89538 7.5529,-0.25682 10.50747,-0.6297 8.68718,-2.40303 17.01598,-5.71967 25.41731,-8.95899 0,0 1.69063,4.56929 1.69063,4.56929 z"
       inkscape:connector-curvature="0" />
  </g>
</svg>
