<?xml version="1.0" encoding="UTF-8" standalone="no"?>
<!-- Created with Inkscape (http://www.inkscape.org/) -->

<svg
   xmlns:dc="http://purl.org/dc/elements/1.1/"
   xmlns:cc="http://creativecommons.org/ns#"
   xmlns:rdf="http://www.w3.org/1999/02/22-rdf-syntax-ns#"
   xmlns:svg="http://www.w3.org/2000/svg"
   xmlns="http://www.w3.org/2000/svg"
   xmlns:xlink="http://www.w3.org/1999/xlink"
   xmlns:sodipodi="http://sodipodi.sourceforge.net/DTD/sodipodi-0.dtd"
   xmlns:inkscape="http://www.inkscape.org/namespaces/inkscape"
   width="33cm"
   height="18.424999cm"
   id="svg2"
   version="1.1"
   inkscape:version="0.92.2pre0 650254f, 2017-08-06"
   sodipodi:docname="dp_127_musk_retraites.svg"
   inkscape:export-filename="/home/gee/art/GriseBouille/png/bd_blog/dp_127_musk_retraites.png"
   inkscape:export-xdpi="92.363632"
   inkscape:export-ydpi="92.363632">
  <defs
     id="defs4">
    <inkscape:path-effect
       effect="envelope"
       id="path-effect1307"
       is_visible="true"
       yy="true"
       xx="true"
       bendpath1="m 827.18837,763.48861 c 82.15848,-14.70486 170.06576,-9.59721 259.27573,0"
       bendpath2="m 1086.4641,763.48861 v 42.75517"
       bendpath3="m 827.18837,806.24378 c 84.22702,-10.04987 169.36249,-15.94651 259.27573,0"
       bendpath4="m 827.18837,763.48861 v 42.75517"
       bendpath1-nodetypes="cc"
       bendpath3-nodetypes="cc" />
    <inkscape:path-effect
       effect="bend_path"
       id="path-effect1305"
       is_visible="true"
       bendpath="M 827.18837,784.8662 H 1086.4641"
       prop_scale="0.92326859"
       scale_y_rel="false"
       vertical="false" />
    <linearGradient
       id="linearGradient7437">
      <stop
         id="stop7439"
         offset="0"
         style="stop-color:#ff0000;stop-opacity:0;" />
      <stop
         style="stop-color:#ff006c;stop-opacity:0;"
         offset="0.87982661"
         id="stop7441" />
      <stop
         style="stop-color:#ff00da;stop-opacity:1;"
         offset="0.90142465"
         id="stop7443" />
      <stop
         id="stop7445"
         offset="0.92167777"
         style="stop-color:#000dff;stop-opacity:1;" />
      <stop
         style="stop-color:#00ff20;stop-opacity:1;"
         offset="0.94746888"
         id="stop7447" />
      <stop
         style="stop-color:#fff600;stop-opacity:1;"
         offset="0.96267748"
         id="stop7449" />
      <stop
         id="stop7451"
         offset="1"
         style="stop-color:#ff2200;stop-opacity:1;" />
    </linearGradient>
    <linearGradient
       id="linearGradient13842">
      <stop
         style="stop-color:#ff0000;stop-opacity:0;"
         offset="0"
         id="stop13844" />
      <stop
         id="stop13858"
         offset="0.87982661"
         style="stop-color:#ff006c;stop-opacity:0;" />
      <stop
         id="stop13854"
         offset="0.90142465"
         style="stop-color:#ff1000;stop-opacity:1;" />
      <stop
         style="stop-color:#ffed00;stop-opacity:1;"
         offset="0.92167777"
         id="stop13856" />
      <stop
         id="stop13852"
         offset="0.94746888"
         style="stop-color:#00ff20;stop-opacity:1;" />
      <stop
         id="stop13850"
         offset="0.97215229"
         style="stop-color:#001dff;stop-opacity:1;" />
      <stop
         style="stop-color:#ff00d4;stop-opacity:1;"
         offset="1"
         id="stop13846" />
    </linearGradient>
    <linearGradient
       inkscape:collect="always"
       id="linearGradient4003">
      <stop
         style="stop-color:#1f4673;stop-opacity:1;"
         offset="0"
         id="stop4005" />
      <stop
         style="stop-color:#1f4673;stop-opacity:0;"
         offset="1"
         id="stop4007" />
    </linearGradient>
    <linearGradient
       inkscape:collect="always"
       xlink:href="#linearGradient4003"
       id="linearGradient4009"
       x1="28.0625"
       y1="304.21246"
       x2="1334.0938"
       y2="304.21246"
       gradientUnits="userSpaceOnUse" />
    <radialGradient
       inkscape:collect="always"
       xlink:href="#linearGradient7437"
       id="radialGradient14145"
       gradientUnits="userSpaceOnUse"
       gradientTransform="matrix(0.96409119,0,0,1.070162,2356.3061,-13414.58)"
       cx="-1185.7579"
       cy="9975.0508"
       fx="-1185.7579"
       fy="9975.0508"
       r="299.58325" />
    <radialGradient
       inkscape:collect="always"
       xlink:href="#linearGradient13842"
       id="radialGradient14147"
       gradientUnits="userSpaceOnUse"
       gradientTransform="matrix(1.2768052,0,0,1.4172813,2727.1092,-16877.112)"
       cx="-1185.7579"
       cy="9975.0508"
       fx="-1185.7579"
       fy="9975.0508"
       r="299.58325" />
  </defs>
  <sodipodi:namedview
     id="base"
     pagecolor="#ffffff"
     bordercolor="#666666"
     borderopacity="1.0"
     inkscape:pageopacity="0.0"
     inkscape:pageshadow="2"
     inkscape:zoom="0.76083688"
     inkscape:cx="575.12748"
     inkscape:cy="518.36452"
     inkscape:document-units="px"
     inkscape:current-layer="layer1"
     showgrid="false"
     units="cm"
     inkscape:window-width="2560"
     inkscape:window-height="1388"
     inkscape:window-x="0"
     inkscape:window-y="24"
     inkscape:window-maximized="1"
     showguides="true"
     inkscape:guide-bbox="true"
     inkscape:snap-global="false"
     inkscape:snap-page="true"
     fit-margin-top="0"
     fit-margin-left="0"
     fit-margin-right="0"
     fit-margin-bottom="0"
     borderlayer="true" />
  <metadata
     id="metadata7">
    <rdf:RDF>
      <cc:Work
         rdf:about="">
        <dc:format>image/svg+xml</dc:format>
        <dc:type
           rdf:resource="http://purl.org/dc/dcmitype/StillImage" />
        <dc:title></dc:title>
      </cc:Work>
    </rdf:RDF>
  </metadata>
  <g
     inkscape:groupmode="layer"
     id="layer2"
     inkscape:label="Fond"
     transform="translate(0,-5.196856)"
     style="display:inline"
     sodipodi:insensitive="true">
    <rect
       style="opacity:1;vector-effect:none;fill:#ffffff;fill-opacity:1;stroke:none;stroke-width:0.8525247;stroke-linecap:butt;stroke-linejoin:miter;stroke-miterlimit:4;stroke-dasharray:none;stroke-dashoffset:0;stroke-opacity:1;marker:none"
       id="rect3731"
       width="1247.2441"
       height="696.37793"
       x="0"
       y="5.196856" />
  </g>
  <g
     inkscape:label="Calque 1"
     inkscape:groupmode="layer"
     id="layer1"
     transform="translate(0,-355.98306)">
    <g
       id="g1520"
       transform="matrix(0.8360056,0,0,0.8360056,463.19752,1028.6297)"
       style="stroke-width:1.19616425">
      <path
         inkscape:connector-curvature="0"
         d="m 583.85269,-30.43248 c 0.24729,-9.92614 2.99094,-19.83207 8.31447,-28.26956 1.14138,-1.80902 2.53974,-3.44252 3.8096,-5.16378 1.45441,-1.38217 2.77572,-2.9195 4.36322,-4.1465 5.40825,-4.18013 13.22439,-6.43818 19.33055,-2.16333 1.38335,0.96847 2.33162,2.44335 3.49743,3.66503 0.61362,1.68339 1.57085,3.2789 1.84087,5.05018 1.7846,11.70689 -8.89516,23.0135 -15.95318,30.91441 -4.9833,5.18697 -10.33084,10.00733 -15.86841,14.59223 -2.83986,2.3513 -5.79533,4.51471 -8.49596,7.02559 -0.68698,2.25501 1.33443,-2.0541 1.28672,-3.20403 -0.0483,-1.1633 -1.50928,-1.89916 -1.70915,-3.04617 -0.0699,-0.40127 0.80934,0.0985 1.20911,0.17653 2.12202,0.41409 4.23059,0.89464 6.34999,1.32192 8.64719,1.83153 17.57245,2.49675 26.29826,0.73908 1.89254,-0.38122 3.73438,-0.98113 5.60158,-1.4717 2.14956,-0.77286 7.87256,-2.75041 9.99189,-3.81834 1.37607,-0.6934 2.6157,-1.62958 3.92355,-2.44437 0,0 0.13913,0.15769 0.13913,0.15769 v 0 c -3.57406,4.33706 -7.00106,8.66154 -12.14641,11.2777 -1.9917,0.93296 -3.92705,1.99717 -5.97511,2.79888 -9.50584,3.72103 -19.77561,4.42546 -29.79286,2.75835 -1.45669,-0.27793 -8.43476,-1.33047 -9.62966,-2.18325 -4.54501,-3.2437 -6.12126,-6.48563 -1.21301,-10.34947 8.70257,-5.6822 16.81351,-12.28435 24.16044,-19.63581 5.34078,-5.83458 14.12573,-14.81817 14.33074,-23.37174 0.0183,-0.7632 -0.22902,-1.50957 -0.34353,-2.26435 -0.32859,-0.56179 -0.53844,-1.21264 -0.98577,-1.68536 -4.1196,-4.35346 -10.95959,1.16901 -13.85255,4.10558 -1.08742,1.40191 -2.27671,2.73043 -3.26225,4.20575 -4.81145,7.20259 -7.59296,15.754 -8.56186,24.31325 0,0 -6.65784,0.11559 -6.65784,0.11559 z"
         id="path1451"
         style="opacity:1;vector-effect:none;fill:#000000;fill-opacity:1;stroke:none;stroke-width:1.24003077;stroke-linecap:butt;stroke-linejoin:miter;stroke-miterlimit:4;stroke-dasharray:none;stroke-dashoffset:0;stroke-opacity:1;marker:none" />
      <path
         inkscape:connector-curvature="0"
         d="m 631.71605,-60.43698 c 7.3877,-2.66401 14.22212,-3.28877 21.93074,-1.90485 5.24002,1.80558 8.02843,5.38707 5.51082,10.99088 -1.06022,2.35988 -2.84768,3.81992 -4.62115,5.58506 -2.21879,2.0105 -4.79182,3.50444 -7.39861,4.93554 -0.47868,0.26278 -0.97155,0.50029 -1.4411,0.77907 -0.13225,0.0785 -0.36532,0.44345 -0.35909,0.28976 0.0722,-1.78319 0.37536,-3.54951 0.56304,-5.32427 5.63353,1.30124 10.62881,4.12526 15.26062,7.48802 4.24672,3.60883 8.47623,9.47088 5.16619,15.19932 -0.69195,1.19751 -1.84305,2.06263 -2.76458,3.09394 -1.28725,0.70675 -2.51442,1.53611 -3.86175,2.12024 -7.78498,3.37512 -17.83464,4.11947 -26.21724,4.95727 -2.3544,0.003 -10.68611,0.70602 -12.47697,-1.51762 -0.43808,-0.54393 -0.4505,-1.32217 -0.67575,-1.98326 0,0 0.0751,-1.06674 0.0751,-1.06674 v 0 c 0.20799,-0.63059 0.22865,-1.35825 0.62397,-1.89175 1.47973,-1.99699 9.38832,-2.27839 11.52079,-2.74798 8.49499,-0.87295 17.14853,-1.69011 25.30577,-4.33659 0.55433,-0.11184 1.23572,0.002 1.65367,-0.37877 1.83154,-1.66929 -1.58315,-4.95174 -2.48019,-5.94246 -4.26892,-3.33759 -9.04921,-5.49756 -14.26758,-6.93874 -0.44654,-2.10344 -1.25024,-4.16186 -1.33961,-6.31032 -0.0174,-0.41929 0.68707,-0.48354 1.0481,-0.69747 2.48383,-1.47173 5.16302,-2.64381 7.33637,-4.60242 3.95498,-3.69452 0.009,0.11589 2.96582,-3.04181 0.9106,-0.97234 2.45537,-0.38467 -0.35672,-1.81716 -6.05625,-1.0911 -12.16471,0.24914 -17.936,2.1769 0,0 -2.76467,-7.11379 -2.76467,-7.11379 z"
         id="path1455"
         style="opacity:1;vector-effect:none;fill:#000000;fill-opacity:1;stroke:none;stroke-width:1.24003077;stroke-linecap:butt;stroke-linejoin:miter;stroke-miterlimit:4;stroke-dasharray:none;stroke-dashoffset:0;stroke-opacity:1;marker:none" />
      <path
         inkscape:connector-curvature="0"
         d="m 693.76274,-79.32336 c -4.03952,12.18862 -9.04717,24.03361 -13.73783,35.98128 -5.29325,13.12953 -9.54316,26.6712 -15.07181,39.7049 -1.92113,2.78406 -0.8641,1.81475 -2.82665,3.24374 0,0 -0.20844,0.0279 -0.20844,0.0279 v 0 c -2.27286,-2.24657 -1.38927,-0.78521 -1.99124,-4.72036 2.36898,-14.20475 8.26827,-27.51699 13.21875,-40.95588 4.67755,-11.92418 9.35606,-23.85478 14.37635,-35.63921 0,0 6.24087,2.35766 6.24087,2.35766 z"
         id="path1459"
         style="opacity:1;vector-effect:none;fill:#000000;fill-opacity:1;stroke:none;stroke-width:1.24003077;stroke-linecap:butt;stroke-linejoin:miter;stroke-miterlimit:4;stroke-dasharray:none;stroke-dashoffset:0;stroke-opacity:1;marker:none" />
      <path
         inkscape:connector-curvature="0"
         d="m 705.6684,-54.93643 c -6.92973,3.43173 -12.59704,8.82484 -16.96574,15.17014 -1.14293,1.66005 -2.09712,3.44242 -3.14569,5.16363 -2.11138,4.46219 -6.80862,15.43007 -2.66682,20.03806 0.29228,0.32518 0.80062,0.35172 1.20093,0.52758 7.34912,-2.0718 11.96298,-8.76631 15.97229,-14.7678 3.91258,-7.21326 6.45139,-15.76445 3.00358,-23.69865 -0.3927,-0.90369 -1.00559,-1.69478 -1.50839,-2.54217 -1.66221,-1.96069 -3.47743,-2.671 -5.87583,-2.35228 -1.69124,1.49866 -1.03192,0.52176 -1.6565,3.12371 0,0 -0.20715,0.0362 -0.20715,0.0362 v 0 c -1.76706,-3.23778 -1.06735,-1.48438 -2.01495,-5.29304 0.33997,-1.0257 0.39067,-2.19864 1.01992,-3.0771 0.64788,-0.90448 1.63256,-1.57332 2.64369,-2.03749 3.65237,-1.67664 7.80199,-0.40728 10.72391,2.06822 1.15984,0.98262 2.01987,2.27226 3.0298,3.40839 2.08999,4.12554 3.00065,5.01859 3.47024,9.85104 0.84422,8.68772 -2.5592,17.13965 -6.59513,24.59702 -1.25479,1.83291 -2.39976,3.74606 -3.76438,5.49874 -4.02239,5.16628 -11.14028,12.33309 -18.34567,12.08095 -1.59828,-0.0559 -3.07981,-0.86329 -4.61972,-1.29493 -1.05749,-1.05379 -2.35247,-1.91384 -3.17246,-3.16138 -5.09383,-7.74978 -0.38048,-19.55668 3.16254,-26.83718 1.22418,-1.95594 2.32679,-3.99345 3.67255,-5.86782 5.18298,-7.21885 12.2441,-13.16807 20.59478,-16.31217 0,0 2.0442,5.67834 2.0442,5.67834 z"
         id="path1465"
         style="opacity:1;vector-effect:none;fill:#000000;fill-opacity:1;stroke:none;stroke-width:1.24003077;stroke-linecap:butt;stroke-linejoin:miter;stroke-miterlimit:4;stroke-dasharray:none;stroke-dashoffset:0;stroke-opacity:1;marker:none" />
      <path
         inkscape:connector-curvature="0"
         d="m 707.49759,-27.88909 c 7.59898,-6.56787 14.47283,-13.90505 21.19744,-21.34799 4.75243,-5.19664 8.93183,-10.86371 13.29032,-16.38322 2.0224,1.44806 4.50199,2.41102 6.06719,4.34418 0.49351,0.60954 -0.48361,1.49228 -0.74215,2.23271 -1.3335,3.81907 -2.49889,7.58164 -3.45011,11.51927 -1.72577,7.64684 -3.03156,15.38525 -3.7556,23.1913 -0.57403,2.97361 0.6151,4.56 1.31684,7.10487 -0.22767,1.86918 -0.33612,1.03572 0.11916,2.51865 0,0 -0.0391,0.20662 -0.0391,0.20662 v 0 c -2.04631,0.94129 -0.92302,0.55503 -3.39915,1.06985 -5.01004,-1.62102 -6.32032,-6.50669 -6.78321,-11.26198 -0.0153,-8.56834 1.54423,-17.05109 3.80093,-25.30214 1.33625,-4.16784 2.77102,-8.26225 4.83206,-12.13796 0.19186,-0.36079 0.2352,-1.12663 0.63618,-1.04791 2.28804,0.44921 4.36592,1.63903 6.54887,2.45854 -1.57999,1.25481 -2.83324,3.03553 -4.14497,4.54289 -3.2263,3.70748 -6.43888,7.4263 -9.6699,11.1298 -6.91343,7.6348 -13.97395,15.16496 -21.7516,21.93624 0,0 -4.07316,-4.77372 -4.07316,-4.77372 z"
         id="path1475"
         style="opacity:1;vector-effect:none;fill:#000000;fill-opacity:1;stroke:none;stroke-width:1.24003077;stroke-linecap:butt;stroke-linejoin:miter;stroke-miterlimit:4;stroke-dasharray:none;stroke-dashoffset:0;stroke-opacity:1;marker:none" />
      <path
         inkscape:connector-curvature="0"
         d="m 775.56681,-82.90038 c -4.43257,11.65244 -8.7666,23.34241 -13.18297,35.00158 -5.81452,14.95838 -11.24793,30.05787 -16.10573,45.35359 -1.04204,2.77936 -1.79798,5.6577 -2.80681,8.44846 -0.2603,0.7201 -0.42497,1.50472 -0.87591,2.12356 -0.26967,0.37007 -0.78787,0.46687 -1.18181,0.7003 0,0 -0.19259,0.0845 -0.19259,0.0845 v 0 c -0.65672,-0.36576 -1.57488,-0.45791 -1.97018,-1.09729 -1.44662,-2.33986 0.65757,-9.69174 0.87528,-12.00875 3.98138,-15.76995 9.42135,-31.08066 15.38499,-46.20576 4.45386,-11.77538 8.73826,-23.65934 14.36854,-34.9396 0,0 5.68719,2.53945 5.68719,2.53945 z"
         id="path1479"
         style="opacity:1;vector-effect:none;fill:#000000;fill-opacity:1;stroke:none;stroke-width:1.24003077;stroke-linecap:butt;stroke-linejoin:miter;stroke-miterlimit:4;stroke-dasharray:none;stroke-dashoffset:0;stroke-opacity:1;marker:none" />
      <path
         inkscape:connector-curvature="0"
         d="m 767.98655,-43.37625 c -0.36751,-7.51361 2.32149,-14.91213 7.16305,-20.67087 0.98351,-1.16981 2.1652,-2.15752 3.24781,-3.23629 4.41669,-3.38051 10.60853,-5.60433 15.11684,-0.8208 2.68425,2.84812 2.38724,4.95994 2.88481,8.57224 -0.2373,1.67391 -0.29426,3.38348 -0.71189,5.02173 -2.59498,10.1794 -10.25723,17.97339 -17.56244,25.02024 -3.24511,3.04561 -6.83106,5.671 -10.34684,8.38111 -0.60137,0.46357 -1.23978,0.89031 -1.77025,1.43359 -0.18737,0.19189 -0.47764,0.95955 -0.34108,0.72873 0.54233,-0.91667 1.03987,-1.85911 1.5598,-2.78866 -0.64349,-1.31956 -1.57783,-2.53357 -1.93047,-3.95869 -0.0748,-0.30221 0.6191,-0.0947 0.93022,-0.0836 0.85248,0.0306 1.69951,0.15057 2.55057,0.20852 3.9258,0.26731 7.85339,0.50218 11.77871,0.78153 2.9299,0.6516 6.03646,0.12276 8.96767,0.76142 1.5793,0.34411 2.96437,1.52461 4.57918,1.59513 1.3259,0.0579 2.52454,-0.81986 3.78681,-1.22979 0,0 0.0716,0.19773 0.0716,0.19773 v 0 c -11.77543,4.70926 5.62828,-2.7392 -7.72816,5.01281 -2.18898,1.27048 -7.18309,2.01359 -9.58984,2.4736 -4.29231,0.36438 -8.39839,0.53281 -12.69837,0.227 -0.80064,-0.0569 -5.4167,-0.35877 -6.14247,-0.91628 -1.64024,-1.25997 -2.65792,-3.16971 -3.98688,-4.75457 0.50648,-1.33179 0.78487,-2.77447 1.51943,-3.99538 0.11211,-0.18633 3.35393,-2.35002 3.52946,-2.47153 3.36736,-2.33108 6.6791,-4.74921 9.77264,-7.43937 7.00768,-6.40548 14.30648,-13.61651 15.867,-23.41063 -0.0562,-3.94134 0.46461,-5.54978 -4.42191,-2.5665 -5.07193,4.51295 -8.98978,10.04621 -9.51654,17.01387 0,0 -6.57847,0.91368 -6.57847,0.91368 z"
         id="path1483"
         style="opacity:1;vector-effect:none;fill:#000000;fill-opacity:1;stroke:none;stroke-width:1.24003077;stroke-linecap:butt;stroke-linejoin:miter;stroke-miterlimit:4;stroke-dasharray:none;stroke-dashoffset:0;stroke-opacity:1;marker:none" />
      <path
         inkscape:connector-curvature="0"
         d="m 796.23632,-50.83185 c 1.19616,-7.50271 5.72371,-13.87843 12.44979,-17.49287 1.45047,-0.77945 3.03994,-1.26664 4.55992,-1.89997 1.5285,-0.30945 3.03347,-0.77584 4.58552,-0.92835 5.14516,-0.50556 12.38475,1.05805 13.54476,7.17592 0.29773,1.57024 -0.2586,3.18597 -0.3879,4.77895 -0.81404,1.43833 -1.46335,2.98327 -2.44213,4.31497 -4.85819,6.60987 -13.11039,11.418 -20.36443,14.92129 -4.87795,2.21093 -12.16982,2.07901 -8.46587,-6.12492 0.7119,-1.57681 4.38405,-2.57027 5.68345,-3.03913 8.93227,-1.66131 15.69367,1.90492 22.62905,7.14269 4.54118,4.33026 7.12066,9.99002 3.97718,16.06742 -2.04544,3.95451 -4.59456,5.44999 -7.94586,8.21106 -8.76882,5.48264 -18.91613,8.76284 -29.3357,8.44403 -1.5205,-0.0465 -3.02652,-0.31057 -4.53979,-0.46586 -1.61457,-0.34856 -7.1332,-1.78151 -7.66869,-4.01197 -0.22978,-0.95708 0.30022,-1.94551 0.45033,-2.91827 0,0 0.14518,-0.15214 0.14518,-0.15214 v 0 c 0.54001,-0.60071 0.96171,-1.33406 1.62002,-1.80214 1.28434,-0.9132 4.85666,-0.0796 6.1816,-0.14712 10.17902,0.53265 18.91029,-1.2839 28.02686,-6.00535 1.99113,-1.19531 7.93488,-4.13658 7.5576,-7.37474 -0.22494,-1.93071 -1.51412,-2.96594 -2.6883,-4.35954 -4.98928,-3.93104 -9.5811,-5.99558 -16.04711,-5.35335 -3.90583,0.97333 -0.048,0.0628 -2.59109,-3.27498 -0.61849,-0.81176 -1.92885,-0.66849 -2.88207,-1.03301 -0.16192,-0.0619 0.33673,0.0827 0.50509,0.12402 0.71832,-0.22966 1.43664,-0.45932 2.15496,-0.68898 7.01252,-3.31302 13.95578,-7.5607 18.56777,-13.94661 0.37334,-0.32465 1.16412,-0.55778 1.05798,-1.04102 -0.552,-2.5133 -6.92531,-1.37177 -8.33773,-1.02436 -1.06511,0.39909 -2.17179,0.70118 -3.19534,1.19725 -4.76038,2.30714 -8.11549,6.39949 -9.51611,11.47112 0,0 -7.28894,-0.76404 -7.28894,-0.76404 z"
         id="path1485"
         style="opacity:1;vector-effect:none;fill:#000000;fill-opacity:1;stroke:none;stroke-width:1.24003077;stroke-linecap:butt;stroke-linejoin:miter;stroke-miterlimit:4;stroke-dasharray:none;stroke-dashoffset:0;stroke-opacity:1;marker:none" />
      <path
         inkscape:connector-curvature="0"
         d="m 878.34828,-51.84493 c -1.70546,-0.64604 -2.69306,-1.20448 -4.61033,-1.12462 -5.68742,0.23689 -9.96504,5.1013 -13.61349,8.80763 -4.00296,4.82256 -7.56937,10.08101 -9.7787,15.98965 -0.87125,2.33008 -1.82963,5.58774 -1.35627,8.21786 0.0845,0.46934 0.56432,0.7689 0.84647,1.15334 0.14707,-0.2688 0.21244,-0.60255 0.44119,-0.80639 1.43238,-1.27639 3.39919,-1.80524 4.95682,-2.92534 1.55696,-1.11961 3.04491,-2.3432 4.43726,-3.66193 4.28236,-4.05594 5.13215,-5.6312 8.66657,-10.37602 3.24934,-4.95923 5.75174,-10.30236 6.86569,-16.14988 0.30158,-1.58315 1.10938,-5.46148 -0.3135,-6.92166 0.60725,0.81292 1.21451,1.62584 1.82176,2.43876 0.97288,0.0651 2.15916,-0.41609 2.91864,0.1954 0.49431,0.39799 -0.24436,1.2456 -0.35211,1.87099 -0.59319,3.44265 -0.97135,5.26515 -0.90666,8.94415 0.0353,2.00987 0.31767,4.0078 0.47651,6.01169 0.99345,7.03489 3.45989,13.64283 6.73432,19.91671 3.22718,6.18334 3.97248,6.40181 7.31762,12.4043901 1.04428,1.87388 1.94687,3.82329 2.9203,5.73493 0.5623,1.8714 1.41489,3.67918 1.68689,5.61421 0.8956,6.37147 -1.85583,11.5591899 -7.11074,15.1046299 -4.10159,2.76731 -7.50001,3.2931 -12.17402,4.58932 -7.60237,1.12527 -22.75247,2.63336 -25.38414,-7.63492 -0.4874,-1.90172 0.0613,-3.92589 0.0919,-5.8888399 0.88874,-1.98987 1.59451,-4.07203 2.66623,-5.96963 6.95181,-12.30884 20.04529,-23.3757601 30.58902,-32.5949701 8.33896,-7.90234 19.30085,-14.12344 24.86565,-24.51695 0.055,-0.51102 0.2813,-1.03261 0.1643,-1.53308 -0.2473,-1.05847 -0.8396,0.42701 -0.9478,0.49959 -0.2156,0.14453 -0.5069,0.12191 -0.7656,0.14101 -3.1047,0.22908 0.103,-0.31572 -3.4982,0.43743 -5.576,2.34572 -7.0555,6.22902 -6.9991,11.99829 1.016,4.71428 4.8735,7.42463 9.6737,7.39829 1.0829,-0.006 2.1492,-0.2684 3.2237,-0.4026 6.0538,-1.82525 10.9215,-6.49308 12.6209,-12.68576 0.2798,-1.01969 0.3017,-2.09316 0.4525,-3.13974 -0.1163,-0.61707 -0.115,-2.91054 -1.3427,-3.22676 -1.0309,-0.26554 -0.3615,1.04693 -0.4895,1.56656 -0.1636,0.6644 -1.9043,2.6348 -2.007,2.76183 -3.0603,4.6172 -6.4521,10.81257 -4.4958,16.5519 0.2415,0.70866 0.7694,1.28458 1.1541,1.92688 2.3433,1.99283 5.7175,3.5831 8.7758,3.98985 1.8847,0.25067 3.8025,-0.0343 5.7037,-0.0515 0,0 0.05,0.20415 0.05,0.20415 v 0 c -5.5802,2.7252 -11.1386,6.21846 -17.5666,3.65079 -1.8251,-0.72904 -3.2248,-2.24735 -4.8372,-3.37103 -0.9079,-1.65921 -2.1336,-3.18068 -2.7237,-4.97762 -2.2859,-6.96074 0.6142,-15.32001 4.6491,-21.02369 0.977,-1.38107 2.209,-2.56279 3.3135,-3.84419 2.7419,-1.97639 4.5631,-3.9557 8.2272,-3.99813 4.58,-0.053 7.423,3.20775 7.6266,7.53586 0.059,1.24482 -0.2736,2.47732 -0.4104,3.71598 -0.4399,1.30955 -0.7745,2.65931 -1.3196,3.92865 -3.1944,7.43795 -8.9113,13.24875 -16.5457,16.02266 -3.8764,0.65551 -5.355,1.29241 -9.2972,0.41489 -4.6433,-1.03358 -8.64762,-4.03191 -10.78009,-8.31019 -0.70147,-1.40732 -0.96938,-2.99178 -1.45407,-4.48768 -0.0383,-1.56639 -0.29128,-3.14227 -0.11489,-4.69917 0.68132,-6.01369 4.58778,-11.52677 10.01965,-14.16497 1.2194,-0.59228 2.5684,-0.86883 3.8526,-1.30324 2.9732,-0.26711 4.701,-0.75267 7.6111,0.27517 3.9154,1.38294 6.4044,4.6169 5.6197,8.87307 -0.203,1.10104 -0.8664,2.06476 -1.2997,3.09714 -0.745,1.01314 -1.4158,2.0853 -2.2351,3.03943 -1.9197,2.23585 -5.1672,5.13191 -7.3048,7.00773 -5.7653,5.05929 -11.82446,9.76461 -17.64557,14.75803 -7.00529,6.03837 -14.00081,12.05812 -20.21256,18.9384401 -3.18176,3.52422 -6.49302,7.49297 -8.72485,11.7497 -0.68826,1.31269 -1.0327,2.77867 -1.54904,4.1680099 -0.11994,0.74122 -0.39729,1.47374 -0.3598,2.22366 0.26629,5.3267 14.38446,3.75516 17.34544,3.29112 3.82353,-0.93668 11.68496,-2.43584 13.39667,-6.8710899 1.07366,-2.78197 0.0333,-4.48586 -0.70881,-7.27818 -0.87588,-1.74636 -1.6787,-3.53132 -2.62764,-5.23908 -2.43422,-4.38076 -5.30907,-8.5057501 -7.76844,-12.8724401 -4.033,-7.16071 -7.39016,-14.57567 -8.56515,-22.79103 -0.16468,-2.40631 -0.48286,-4.80701 -0.49404,-7.21893 -0.0245,-5.28283 0.94443,-18.763 9.07766,-18.56226 1.63145,0.0403 2.62458,1.94024 3.93686,2.91037 0.2655,1.03046 0.68184,2.03345 0.79648,3.09137 0.9995,9.22373 -5.10089,19.22011 -9.5496,26.75538 -4.43001,5.88288 -8.87716,11.74338 -14.95339,16.07675 -3.06734,2.18752 -7.37605,4.79356 -11.49181,3.93085 -1.83447,-0.38452 -3.16122,-2.01474 -4.74182,-3.02212 -0.57422,-1.5534 -1.48517,-3.02118 -1.72266,-4.6602 -1.13874,-7.8589 4.66018,-18.0937 9.03262,-24.15 1.43896,-1.99311 3.12768,-3.79342 4.69152,-5.69014 1.72308,-1.54988 3.31544,-3.25875 5.16924,-4.64964 7.00215,-5.25362 14.77639,-7.18724 22.35882,-2.14943 0,0 -3.69696,5.02056 -3.69696,5.02056 z"
         id="path1509"
         style="opacity:1;vector-effect:none;fill:#000000;fill-opacity:1;stroke:none;stroke-width:1.24003077;stroke-linecap:butt;stroke-linejoin:miter;stroke-miterlimit:4;stroke-dasharray:none;stroke-dashoffset:0;stroke-opacity:1;marker:none" />
    </g>
    <text
       xml:space="preserve"
       style="font-style:normal;font-variant:normal;font-weight:normal;font-stretch:normal;line-height:0%;font-family:sans-serif;-inkscape-font-specification:Sans;text-align:start;letter-spacing:0px;word-spacing:0px;text-anchor:start;fill:#000000;fill-opacity:1;stroke:none"
       x="386.62766"
       y="1040.3186"
       id="text5211"><tspan
         sodipodi:role="line"
         id="tspan5213"
         x="386.62766"
         y="1040.3186"
         style="font-size:24.93461227px;line-height:1;font-family:sans-serif"><tspan
   style="font-style:italic;font-family:sans-serif;-inkscape-font-specification:'Sans Italic'"
   id="tspan5855">Grise Bouille</tspan> - https://grisebouille.net/</tspan></text>
    <g
       id="g5849"
       transform="matrix(1.6417847,0,0,1.6417847,10,991.46573)">
      <path
         id="path5835"
         d="M 2.499,0.352 85.626,0.5 c 1.161,0 2.198,-0.173 2.198,2.333 L 87.722,30.385 H 0.401 V 2.73 c 0,-1.235 0.119,-2.378 2.098,-2.378 z"
         inkscape:connector-curvature="0"
         style="fill:#aab2ab" />
      <path
         id="path5837"
         d="M 25.316,14.449 C 25.319,20.006 20.845,24.514 15.323,24.518 9.801,24.521 5.322,20.018 5.318,14.461 V 14.449 C 5.315,8.891 9.789,4.383 15.312,4.38 c 5.522,-0.004 10.001,4.5 10.005,10.057 -0.001,0.003 -0.001,0.007 -0.001,0.012 z M 46.464,3.306 c 4.349,0 7.875,3.548 7.875,7.925 0,4.377 -3.526,7.926 -7.875,7.926 -4.35,0 -7.875,-3.548 -7.875,-7.926 -10e-4,-4.377 3.525,-7.925 7.875,-7.925 z m 28.632,7.751 c 0.003,4.314 -3.47,7.814 -7.757,7.818 -4.286,0.003 -7.765,-3.492 -7.769,-7.806 v -0.012 c -0.002,-4.314 3.471,-7.814 7.758,-7.817 4.287,-0.003 7.765,3.492 7.768,7.806 z"
         inkscape:connector-curvature="0"
         style="fill:#ffffff" />
      <path
         id="path5839"
         d="m 23.446,6.252 c 2.217,2.232 3.326,4.964 3.326,8.197 0,3.233 -1.089,5.936 -3.269,8.11 -2.313,2.289 -5.046,3.434 -8.2,3.434 -3.116,0 -5.802,-1.135 -8.057,-3.405 C 4.99,20.317 3.863,17.606 3.863,14.45 3.863,11.294 4.99,8.561 7.246,6.252 9.444,4.02 12.13,2.904 15.303,2.904 c 3.212,0 5.926,1.116 8.143,3.348 z M 8.739,7.753 c -1.875,1.905 -2.812,4.138 -2.812,6.698 0,2.561 0.928,4.773 2.783,6.64 1.855,1.867 4.064,2.801 6.627,2.801 2.563,0 4.791,-0.942 6.684,-2.829 1.797,-1.752 2.697,-3.955 2.697,-6.611 0,-2.636 -0.914,-4.874 -2.74,-6.712 -1.826,-1.838 -4.04,-2.757 -6.641,-2.757 -2.601,0 -4.801,0.923 -6.598,2.77 z m 4.933,5.572 c -0.287,-0.628 -0.715,-0.942 -1.287,-0.942 -1.011,0 -1.516,0.685 -1.516,2.054 0,1.37 0.505,2.055 1.516,2.055 0.667,0 1.145,-0.333 1.431,-1.002 l 1.401,0.751 c -0.668,1.194 -1.67,1.792 -3.006,1.792 -1.03,0 -1.856,-0.317 -2.476,-0.954 -0.621,-0.636 -0.931,-1.512 -0.931,-2.629 0,-1.099 0.32,-1.97 0.959,-2.616 0.639,-0.646 1.436,-0.968 2.39,-0.968 1.413,0 2.424,0.56 3.035,1.679 z m 6.593,0 c -0.287,-0.628 -0.707,-0.942 -1.261,-0.942 -1.031,0 -1.547,0.685 -1.547,2.054 0,1.37 0.516,2.055 1.547,2.055 0.669,0 1.137,-0.333 1.404,-1.002 l 1.433,0.751 c -0.667,1.194 -1.667,1.792 -3.001,1.792 -1.029,0 -1.853,-0.317 -2.473,-0.954 -0.619,-0.636 -0.928,-1.512 -0.928,-2.629 0,-1.099 0.314,-1.97 0.943,-2.616 0.628,-0.646 1.428,-0.968 2.4,-0.968 1.41,0 2.42,0.56 3.029,1.679 z M 86.353,0 H 1.647 C 0.739,0 0,0.744 0,1.658 V 30.625 C 0,30.832 0.167,31 0.372,31 H 87.628 C 87.833,31 88,30.832 88,30.625 V 1.658 C 88,0.744 87.261,0 86.353,0 Z M 1.647,0.749 h 84.705 c 0.498,0 0.903,0.408 0.903,0.909 V 21.767 H 26.714 c -2.219,4.038 -6.494,6.779 -11.401,6.779 -4.908,0 -9.183,-2.738 -11.4,-6.779 H 0.744 V 1.658 c 0,-0.501 0.405,-0.909 0.903,-0.909 z M 67.277,2.5 c -2.355,0 -4.349,0.827 -5.98,2.481 -1.675,1.712 -2.512,3.737 -2.512,6.077 0,2.34 0.837,4.351 2.512,6.034 1.674,1.683 3.668,2.524 5.98,2.524 2.342,0 4.371,-0.849 6.089,-2.546 1.616,-1.611 2.427,-3.616 2.427,-6.012 0,-2.396 -0.824,-4.422 -2.471,-6.077 C 71.677,3.327 69.662,2.5 67.277,2.5 Z m 0.022,1.54 c 1.93,0 3.569,0.685 4.918,2.054 1.361,1.355 2.043,3.01 2.043,4.964 0,1.968 -0.666,3.602 -2.001,4.9 -1.405,1.397 -3.058,2.096 -4.96,2.096 -1.901,0 -3.541,-0.691 -4.917,-2.074 -1.376,-1.384 -2.064,-3.024 -2.064,-4.921 0,-1.897 0.695,-3.552 2.086,-4.964 1.332,-1.371 2.965,-2.055 4.895,-2.055 z m -3.791,5.809 c 0.34,-2.153 1.846,-3.304 3.733,-3.304 2.716,0 4.369,1.982 4.369,4.626 0,2.58 -1.76,4.584 -4.411,4.584 -1.824,0 -3.457,-1.13 -3.755,-3.347 h 2.143 c 0.063,1.151 0.806,1.556 1.866,1.556 1.209,0 1.994,-1.13 1.994,-2.857 0,-1.812 -0.679,-2.771 -1.951,-2.771 -0.934,0 -1.739,0.341 -1.909,1.513 L 66.21,9.846 64.523,11.543 62.837,9.846 Z M 48.743,8.938 c 0,-0.306 -0.246,-0.553 -0.55,-0.553 h -3.478 c -0.303,0 -0.55,0.247 -0.55,0.553 v 3.5 h 0.971 v 4.145 h 2.636 v -4.145 h 0.971 z M 46.455,5.53 c 0.656,0 1.189,0.536 1.189,1.197 0,0.661 -0.533,1.197 -1.189,1.197 -0.657,0 -1.189,-0.536 -1.189,-1.197 0,-0.661 0.532,-1.197 1.189,-1.197 z M 46.443,2.5 c -2.355,0 -4.349,0.827 -5.981,2.481 -1.675,1.711 -2.512,3.737 -2.512,6.076 0,2.339 0.837,4.351 2.512,6.034 1.674,1.683 3.668,2.524 5.981,2.524 2.342,0 4.371,-0.849 6.088,-2.547 1.619,-1.611 2.428,-3.615 2.428,-6.012 0,-2.397 -0.823,-4.421 -2.47,-6.076 C 50.844,3.326 48.828,2.5 46.443,2.5 Z m 0.022,1.539 c 1.93,0 3.569,0.685 4.917,2.054 1.363,1.355 2.044,3.01 2.044,4.963 0,1.968 -0.666,3.602 -2.001,4.9 -1.405,1.398 -3.058,2.096 -4.96,2.096 -1.901,0 -3.541,-0.691 -4.917,-2.075 -1.377,-1.383 -2.065,-3.023 -2.065,-4.921 0,-1.896 0.695,-3.551 2.086,-4.963 1.334,-1.369 2.966,-2.054 4.896,-2.054 z"
         inkscape:connector-curvature="0" />
      <path
         id="path5841"
         d="m 69.277,24.171 1.816,4.888 H 69.984 L 69.617,27.97 h -1.816 l -0.381,1.089 h -1.074 l 1.836,-4.888 z m 0.062,2.997 -0.612,-1.793 H 68.713 L 68.08,27.168 Z M 63.26,27.85 c 0.059,0.115 0.137,0.207 0.234,0.277 0.098,0.071 0.211,0.124 0.342,0.158 0.133,0.034 0.268,0.051 0.408,0.051 0.095,0 0.197,-0.008 0.306,-0.023 0.109,-0.015 0.21,-0.047 0.306,-0.093 0.094,-0.046 0.174,-0.108 0.236,-0.188 0.064,-0.08 0.096,-0.181 0.096,-0.305 0,-0.132 -0.042,-0.238 -0.126,-0.321 -0.083,-0.083 -0.194,-0.15 -0.329,-0.206 -0.136,-0.055 -0.29,-0.102 -0.461,-0.143 -0.173,-0.042 -0.348,-0.088 -0.523,-0.138 -0.182,-0.046 -0.358,-0.102 -0.531,-0.167 -0.171,-0.066 -0.325,-0.152 -0.461,-0.258 -0.137,-0.104 -0.246,-0.235 -0.33,-0.393 -0.083,-0.158 -0.125,-0.349 -0.125,-0.572 0,-0.252 0.053,-0.469 0.16,-0.654 0.105,-0.184 0.246,-0.338 0.418,-0.462 0.172,-0.123 0.366,-0.214 0.584,-0.274 0.217,-0.059 0.436,-0.088 0.652,-0.088 0.254,0 0.497,0.028 0.73,0.086 0.232,0.057 0.44,0.149 0.621,0.277 0.182,0.127 0.326,0.291 0.432,0.49 0.107,0.198 0.16,0.439 0.16,0.723 h -1.036 c -0.009,-0.146 -0.04,-0.268 -0.091,-0.363 -0.053,-0.096 -0.121,-0.172 -0.207,-0.227 -0.086,-0.055 -0.184,-0.094 -0.295,-0.115 -0.11,-0.023 -0.23,-0.035 -0.361,-0.035 -0.086,0 -0.172,0.01 -0.258,0.027 -0.086,0.019 -0.163,0.051 -0.232,0.096 -0.07,0.047 -0.129,0.104 -0.174,0.172 -0.045,0.068 -0.067,0.155 -0.067,0.26 0,0.096 0.019,0.174 0.054,0.232 0.037,0.061 0.109,0.115 0.215,0.165 0.106,0.05 0.254,0.101 0.441,0.151 0.188,0.049 0.434,0.113 0.736,0.191 0.092,0.018 0.217,0.051 0.377,0.1 0.161,0.047 0.32,0.123 0.479,0.229 0.159,0.105 0.296,0.246 0.412,0.422 0.115,0.176 0.173,0.4 0.173,0.674 0,0.225 -0.044,0.432 -0.13,0.623 -0.086,0.192 -0.214,0.357 -0.384,0.496 -0.171,0.141 -0.381,0.248 -0.632,0.326 -0.252,0.078 -0.544,0.116 -0.874,0.116 -0.268,0 -0.527,-0.033 -0.779,-0.1 -0.251,-0.065 -0.474,-0.171 -0.667,-0.312 -0.192,-0.143 -0.346,-0.323 -0.459,-0.543 -0.113,-0.219 -0.168,-0.479 -0.163,-0.78 h 1.036 c -0.001,0.165 0.028,0.304 0.087,0.418 z M 45.973,24.171 h 1.198 l 1.138,1.931 1.13,-1.931 h 1.19 l -1.803,3.012 v 1.876 h -1.07 v -1.903 z m -1.975,0 c 0.231,0 0.442,0.021 0.633,0.062 0.191,0.041 0.354,0.108 0.491,0.201 0.136,0.094 0.241,0.219 0.316,0.373 0.075,0.155 0.112,0.348 0.112,0.575 0,0.247 -0.055,0.451 -0.167,0.616 -0.11,0.164 -0.276,0.298 -0.493,0.402 0.3,0.088 0.523,0.239 0.672,0.456 0.148,0.218 0.223,0.479 0.223,0.784 0,0.246 -0.049,0.46 -0.144,0.641 -0.095,0.18 -0.224,0.327 -0.386,0.441 -0.161,0.114 -0.346,0.199 -0.552,0.254 -0.207,0.055 -0.419,0.082 -0.638,0.082 H 41.707 V 24.17 h 2.291 z m -0.137,1.976 c 0.191,0 0.347,-0.046 0.47,-0.136 0.123,-0.092 0.185,-0.239 0.185,-0.444 0,-0.114 -0.021,-0.208 -0.062,-0.28 -0.041,-0.072 -0.095,-0.129 -0.164,-0.17 -0.069,-0.041 -0.146,-0.07 -0.235,-0.086 -0.089,-0.016 -0.181,-0.023 -0.276,-0.023 h -1 v 1.14 h 1.082 z m 0.062,2.075 c 0.105,0 0.205,-0.01 0.3,-0.03 0.095,-0.021 0.18,-0.055 0.252,-0.104 0.073,-0.047 0.13,-0.112 0.174,-0.194 0.044,-0.082 0.065,-0.187 0.065,-0.315 0,-0.25 -0.071,-0.43 -0.212,-0.536 -0.141,-0.107 -0.328,-0.161 -0.559,-0.161 h -1.166 v 1.341 h 1.146 z"
         inkscape:connector-curvature="0"
         style="fill:#ffffff" />
    </g>
    <flowRoot
       xml:space="preserve"
       id="flowRoot3838"
       style="font-style:normal;font-variant:normal;font-weight:normal;font-stretch:normal;line-height:0.01%;font-family:Lavi;-inkscape-font-specification:Lavi;text-align:justify;letter-spacing:0px;word-spacing:0px;text-anchor:start;fill:#000000;fill-opacity:1;stroke:none;stroke-width:1px;stroke-linecap:butt;stroke-linejoin:miter;stroke-opacity:1"
       transform="translate(-18.219917,-457.69715)"><flowRegion
         id="flowRegion3840"><rect
           id="rect3842"
           width="1219.046"
           height="302.28882"
           x="31.960228"
           y="824.57385"
           style="font-style:normal;font-variant:normal;font-weight:normal;font-stretch:normal;font-size:48px;font-family:Lavi;-inkscape-font-specification:Lavi;text-align:justify;text-anchor:start" /></flowRegion><flowPara
         id="flowPara3844"
         style="font-size:48px;line-height:1.19000006">Elon Musk soutient la réforme des retraites en France.</flowPara></flowRoot>    <text
       xml:space="preserve"
       style="font-style:normal;font-variant:normal;font-weight:normal;font-stretch:normal;line-height:0%;font-family:'Domestic Manners';-inkscape-font-specification:'Domestic Manners';text-align:center;letter-spacing:0px;word-spacing:0px;text-anchor:middle;fill:#000000;fill-opacity:1;stroke:none"
       x="242.88251"
       y="466.86758"
       id="text5528-6-7"><tspan
         sodipodi:role="line"
         x="242.88251"
         y="466.86758"
         style="font-size:40px;line-height:1"
         id="tspan1250">Macron devrait</tspan><tspan
         sodipodi:role="line"
         x="242.88251"
         y="506.86758"
         style="font-size:40px;line-height:1"
         id="tspan1144">lui confier la réforme</tspan><tspan
         sodipodi:role="line"
         x="242.88251"
         y="546.86761"
         style="font-size:40px;line-height:1"
         id="tspan1146">en question...</tspan></text>
    <rect
       style="opacity:1;vector-effect:none;fill:#000000;fill-opacity:1;stroke:none;stroke-width:4.41651344;stroke-linecap:butt;stroke-linejoin:miter;stroke-miterlimit:4;stroke-dasharray:none;stroke-dashoffset:0;stroke-opacity:1;marker:none"
       id="rect1690"
       width="143.60307"
       height="143.60307"
       x="-618.73627"
       y="405.82877" />
    <rect
       y="549.43207"
       x="-618.73627"
       height="143.60307"
       width="143.60307"
       id="rect1694"
       style="opacity:1;vector-effect:none;fill:#1f4673;fill-opacity:1;stroke:none;stroke-width:4.41651344;stroke-linecap:butt;stroke-linejoin:miter;stroke-miterlimit:4;stroke-dasharray:none;stroke-dashoffset:0;stroke-opacity:1;marker:none" />
    <rect
       style="opacity:1;vector-effect:none;fill:#36731f;fill-opacity:1;stroke:none;stroke-width:4.41651344;stroke-linecap:butt;stroke-linejoin:miter;stroke-miterlimit:4;stroke-dasharray:none;stroke-dashoffset:0;stroke-opacity:1;marker:none"
       id="rect1696"
       width="143.60307"
       height="143.60307"
       x="-618.73627"
       y="693.03534" />
    <rect
       y="836.63861"
       x="-618.73627"
       height="143.60307"
       width="143.60307"
       id="rect1698"
       style="opacity:1;vector-effect:none;fill:#732a1f;fill-opacity:1;stroke:none;stroke-width:4.41651344;stroke-linecap:butt;stroke-linejoin:miter;stroke-miterlimit:4;stroke-dasharray:none;stroke-dashoffset:0;stroke-opacity:1;marker:none" />
    <rect
       y="405.82877"
       x="-475.13321"
       height="143.60307"
       width="143.60307"
       id="rect1711"
       style="opacity:1;vector-effect:none;fill:#434242;fill-opacity:1;stroke:none;stroke-width:4.41651344;stroke-linecap:butt;stroke-linejoin:miter;stroke-miterlimit:4;stroke-dasharray:none;stroke-dashoffset:0;stroke-opacity:1;marker:none" />
    <rect
       style="opacity:1;vector-effect:none;fill:#567599;fill-opacity:1;stroke:none;stroke-width:4.41651344;stroke-linecap:butt;stroke-linejoin:miter;stroke-miterlimit:4;stroke-dasharray:none;stroke-dashoffset:0;stroke-opacity:1;marker:none"
       id="rect1713"
       width="143.60307"
       height="143.60307"
       x="-475.13321"
       y="549.43207" />
    <rect
       y="693.03534"
       x="-475.13321"
       height="143.60307"
       width="143.60307"
       id="rect1715"
       style="opacity:1;vector-effect:none;fill:#689754;fill-opacity:1;stroke:none;stroke-width:4.41651344;stroke-linecap:butt;stroke-linejoin:miter;stroke-miterlimit:4;stroke-dasharray:none;stroke-dashoffset:0;stroke-opacity:1;marker:none" />
    <rect
       style="opacity:1;vector-effect:none;fill:#996156;fill-opacity:1;stroke:none;stroke-width:4.41651344;stroke-linecap:butt;stroke-linejoin:miter;stroke-miterlimit:4;stroke-dasharray:none;stroke-dashoffset:0;stroke-opacity:1;marker:none"
       id="rect1717"
       width="143.60307"
       height="143.60307"
       x="-475.13321"
       y="836.63861" />
    <rect
       style="opacity:1;vector-effect:none;fill:#989898;fill-opacity:1;stroke:none;stroke-width:4.41651344;stroke-linecap:butt;stroke-linejoin:miter;stroke-miterlimit:4;stroke-dasharray:none;stroke-dashoffset:0;stroke-opacity:1;marker:none"
       id="rect1719"
       width="143.60307"
       height="143.60307"
       x="-331.53015"
       y="405.82877" />
    <rect
       y="549.43207"
       x="-331.53015"
       height="143.60307"
       width="143.60307"
       id="rect1721"
       style="opacity:1;vector-effect:none;fill:#bbcadb;fill-opacity:1;stroke:none;stroke-width:4.41651344;stroke-linecap:butt;stroke-linejoin:miter;stroke-miterlimit:4;stroke-dasharray:none;stroke-dashoffset:0;stroke-opacity:1;marker:none" />
    <rect
       style="opacity:1;vector-effect:none;fill:#c9dfbf;fill-opacity:1;stroke:none;stroke-width:4.41651344;stroke-linecap:butt;stroke-linejoin:miter;stroke-miterlimit:4;stroke-dasharray:none;stroke-dashoffset:0;stroke-opacity:1;marker:none"
       id="rect1723"
       width="143.60307"
       height="143.60307"
       x="-331.53015"
       y="693.03534" />
    <rect
       y="836.63861"
       x="-331.53015"
       height="143.60307"
       width="143.60307"
       id="rect1725"
       style="opacity:1;vector-effect:none;fill:#d9bbb3;fill-opacity:1;stroke:none;stroke-width:4.41651344;stroke-linecap:butt;stroke-linejoin:miter;stroke-miterlimit:4;stroke-dasharray:none;stroke-dashoffset:0;stroke-opacity:1;marker:none" />
    <text
       id="text1154"
       y="518.12695"
       x="1028.8593"
       style="font-style:normal;font-variant:normal;font-weight:normal;font-stretch:normal;line-height:0%;font-family:'Domestic Manners';-inkscape-font-specification:'Domestic Manners';text-align:center;letter-spacing:0px;word-spacing:0px;text-anchor:middle;fill:#000000;fill-opacity:1;stroke:none"
       xml:space="preserve"><tspan
         id="tspan1152"
         style="font-size:40px;line-height:1"
         y="518.12695"
         x="1028.8593"
         sodipodi:role="line">... s'il la gère</tspan><tspan
         style="font-size:40px;line-height:1"
         y="558.12695"
         x="1028.8593"
         sodipodi:role="line"
         id="tspan1161">aussi bien que Twitter,</tspan><tspan
         style="font-size:40px;line-height:1"
         y="598.12695"
         x="1028.8593"
         sodipodi:role="line"
         id="tspan1163">on est tranquilles.</tspan></text>
    <text
       xml:space="preserve"
       style="font-style:normal;font-variant:normal;font-weight:normal;font-stretch:normal;font-size:32px;line-height:0%;font-family:'Domestic Manners';-inkscape-font-specification:'Domestic Manners';text-align:center;letter-spacing:0px;word-spacing:0px;text-anchor:middle;fill:#000000;fill-opacity:1;stroke:none"
       x="964.26172"
       y="818.05981"
       id="text1171"><tspan
         id="tspan1169"
         sodipodi:role="line"
         x="964.26172"
         y="818.05981"
         style="font-size:32px;line-height:1">Sur un malentendu,</tspan><tspan
         sodipodi:role="line"
         x="964.26172"
         y="850.05981"
         style="font-size:32px;line-height:1"
         id="tspan1178">on part tous à 60 ans</tspan><tspan
         sodipodi:role="line"
         x="964.26172"
         y="882.05981"
         style="font-size:32px;line-height:1"
         id="tspan1180">à taux plein.</tspan></text>
    <g
       id="g1399"
       transform="matrix(0.82860719,0,0,0.82860719,165.63177,1119.5727)"
       style="stroke-width:1.20684445">
      <path
         inkscape:connector-curvature="0"
         d="m 589.04525,-669.73522 c 7.0978,16.24116 10.34763,33.91111 14.03927,51.16083 3.70023,19.83588 7.97201,40.12917 5.79174,60.42447 -0.36025,3.3534 -1.12701,6.65057 -1.69051,9.97584 -3.24297,12.13994 -8.81436,22.01379 -19.82712,28.66477 -6.64317,4.01204 -10.46668,4.68019 -17.87014,6.96618 -20.35537,4.69501 -41.35637,4.61861 -62.11293,3.92344 -6.70255,-0.38101 -13.41892,-0.74425 -20.00649,-2.12076 -1.41814,-0.29632 -2.85834,-0.55063 -4.21596,-1.05638 -1.32178,-0.49239 -3.79883,-2.11394 -5.12785,-2.94987 0,0 0.017,-0.21627 0.017,-0.21627 v 0 c 1.21087,-0.52666 4.39659,-1.94914 5.41971,-2.19764 1.38496,-0.3364 2.82016,-0.42044 4.23756,-0.56961 6.58501,-0.69298 13.19883,-0.5984 19.81036,-0.69228 19.70119,-0.12772 39.60387,-0.0141 58.95843,-4.20745 6.00112,-1.73112 9.40691,-2.32489 14.82721,-5.29704 8.66898,-4.75352 13.49515,-12.71108 16.12811,-22.02521 0.57641,-2.93299 1.33966,-5.8354 1.72923,-8.79901 2.55002,-19.39866 -1.35113,-39.00767 -4.62346,-58.05015 -3.36253,-16.77934 -6.86917,-33.60344 -12.49888,-49.79828 0,0 7.01471,-3.13558 7.01471,-3.13558 z"
         id="path1212"
         style="opacity:1;vector-effect:none;fill:#000000;fill-opacity:1;stroke:none;stroke-width:1.25110269;stroke-linecap:butt;stroke-linejoin:miter;stroke-miterlimit:4;stroke-dasharray:none;stroke-dashoffset:0;stroke-opacity:1;marker:none" />
      <path
         inkscape:connector-curvature="0"
         d="m 467.82598,-556.47373 c 1.2218,-9.64819 6.80896,-17.67419 14.64913,-23.28418 1.96742,-1.40777 4.13835,-2.50686 6.20753,-3.76029 10.91215,-4.98789 23.97859,-8.73342 35.71116,-3.95578 2.16822,0.88295 4.06679,2.3204 6.1002,3.48059 1.65322,1.66008 3.56338,3.09891 4.95964,4.98023 3.92832,5.29306 5.91739,12.53839 5.04549,19.08415 -0.26176,1.96515 -1.09032,3.81216 -1.63549,5.71823 0,0 -0.21601,0.0199 -0.21601,0.0199 v 0 c -0.86903,-1.60658 -1.78258,-3.18988 -2.60709,-4.81977 -3.01872,-5.96748 -5.2463,-12.43541 -10.28209,-17.11467 -1.29679,-0.84414 -2.48864,-1.87716 -3.89038,-2.53242 -9.25994,-4.32866 -20.00346,-1.2188 -28.80453,2.57755 -1.74022,0.99027 -3.54759,1.87088 -5.22068,2.97077 -6.28691,4.13301 -10.98292,9.97504 -12.74265,17.35266 0,0 -7.27423,-0.71699 -7.27423,-0.71699 z"
         id="path1220"
         style="opacity:1;vector-effect:none;fill:#000000;fill-opacity:1;stroke:none;stroke-width:1.25110269;stroke-linecap:butt;stroke-linejoin:miter;stroke-miterlimit:4;stroke-dasharray:none;stroke-dashoffset:0;stroke-opacity:1;marker:none" />
      <path
         inkscape:connector-curvature="0"
         d="m 549.26382,-555.90807 c 3.08081,-7.98992 7.08508,-16.0023 13.28889,-22.06727 1.30304,-1.27389 2.80446,-2.32761 4.20668,-3.49141 1.57042,-0.81659 3.04123,-1.86326 4.71127,-2.44978 5.50367,-1.93294 11.05103,-0.9961 15.95224,2.04344 4.13558,2.56475 5.08805,4.33683 8.11063,8.01515 1.76934,3.32706 3.6519,6.12163 4.16667,9.96188 0.15204,1.13425 -0.40439,7.91131 -0.51224,9.35912 0,0 -0.21201,0.046 -0.21201,0.046 v 0 c -0.66346,-1.15193 -1.19858,-2.38799 -1.99037,-3.45577 -0.88948,-1.19954 -2.09908,-2.13308 -3.02352,-3.30588 -1.79599,-2.27852 -3.02322,-4.97228 -4.9922,-7.1297 -3.37583,-3.96372 -7.83733,-9.25551 -13.80299,-7.80533 -1.10877,0.26953 -2.10709,0.87655 -3.16063,1.31482 -1.09452,0.82288 -2.26902,1.54894 -3.28354,2.46861 -5.71043,5.17658 -9.22726,12.31026 -12.56622,19.11278 0,0 -6.89266,-2.61665 -6.89266,-2.61665 z"
         id="path1224"
         style="opacity:1;vector-effect:none;fill:#000000;fill-opacity:1;stroke:none;stroke-width:1.25110269;stroke-linecap:butt;stroke-linejoin:miter;stroke-miterlimit:4;stroke-dasharray:none;stroke-dashoffset:0;stroke-opacity:1;marker:none" />
      <path
         inkscape:connector-curvature="0"
         d="m 562.87013,-519.34671 c 2.73155,6.10405 6.90018,11.39347 10.1438,17.20738 0.86264,1.54621 1.62114,3.14827 2.43171,4.72239 3.49308,7.99241 5.6704,16.97245 4.41733,25.74496 -0.2127,1.4891 -0.66767,2.93338 -1.00152,4.40007 -0.65721,1.36198 -1.13039,2.82924 -1.97164,4.0859 -5.58988,8.35012 -16.69221,9.87959 -25.72055,11.67778 -20.78944,3.29481 -41.90678,3.22823 -62.89716,3.4968 -10.75406,0.002 -21.51337,0.38404 -32.2679,0.18323 -3.61001,-0.0673 -10.56712,-0.30689 -14.39865,-0.91743 -1.55187,-0.24729 -3.05138,-0.75297 -4.57707,-1.12945 -3.21643,-1.6642 -1.91312,-0.9016 -3.97578,-2.17142 0,0 -0.013,-0.21655 -0.013,-0.21655 v 0 c 2.01963,-1.48323 0.73973,-0.62985 3.97357,-2.34698 1.50362,-0.38618 2.98218,-0.88807 4.51086,-1.15854 3.93831,-0.69681 10.58299,-1.09692 14.34664,-1.2707 10.75376,-0.4965 21.52687,-0.4689 32.28794,-0.61881 20.46105,-0.21894 41.03477,0.0349 61.35455,-2.71462 5.20855,-0.9025 16.15948,-2.19279 19.84866,-6.72293 0.53081,-0.65182 0.85276,-1.44891 1.27915,-2.17337 0.26832,-1.01191 0.63157,-2.00333 0.80497,-3.03577 1.2285,-7.31497 -0.77511,-14.76259 -3.22632,-21.59074 -3.57915,-7.82606 -8.41717,-14.91481 -12.1187,-22.67162 0,0 6.76906,-2.77958 6.76906,-2.77958 z"
         id="path1248"
         style="opacity:1;vector-effect:none;fill:#000000;fill-opacity:1;stroke:none;stroke-width:1.25110269;stroke-linecap:butt;stroke-linejoin:miter;stroke-miterlimit:4;stroke-dasharray:none;stroke-dashoffset:0;stroke-opacity:1;marker:none" />
      <path
         inkscape:connector-curvature="0"
         d="m 421.22239,-514.25933 c 0.98105,7.37205 4.16384,14.2246 10.07987,18.9371 1.37838,1.09796 2.94983,1.92881 4.42474,2.89322 9.83068,4.87655 20.7033,4.3515 31.30555,3.27029 5.79235,-0.57679 3.02424,0.0422 8.32062,-1.78248 0,0 0.1193,0.18119 0.1193,0.18119 v 0 c -4.28221,4.5124 -1.93036,2.31419 -7.1163,6.52909 -1.70424,0.71895 -3.34492,1.61263 -5.11273,2.15689 -8.22712,2.53281 -17.6794,2.12238 -25.7658,-0.69966 -2.20656,-0.77006 -4.26572,-1.9108 -6.39859,-2.86621 -1.87807,-1.33111 -3.90097,-2.47845 -5.63422,-3.99331 -7.05211,-6.16357 -10.81322,-15.05973 -11.31794,-24.28335 0,0 7.0955,-0.34277 7.0955,-0.34277 z"
         id="path1252"
         style="opacity:1;vector-effect:none;fill:#000000;fill-opacity:1;stroke:none;stroke-width:1.25110269;stroke-linecap:butt;stroke-linejoin:miter;stroke-miterlimit:4;stroke-dasharray:none;stroke-dashoffset:0;stroke-opacity:1;marker:none" />
      <path
         inkscape:connector-curvature="0"
         d="m 424.32693,-507.13292 c -2.49118,7.74047 -1.60623,15.02761 0.85671,22.61087 0.89262,1.96134 4.45433,10.82938 7.86947,7.71095 3.94301,-3.10863 6.61061,-7.43557 9.91233,-11.15511 1.48638,-1.30763 3.1637,-1.63101 5.05335,-1.80226 0,0 0.15738,0.14932 0.15738,0.14932 v 0 c 0.37785,1.70212 1.06137,3.23188 0.64897,5.02825 -2.49708,7.00225 -7.01847,13.091 -13.92148,16.23261 -1.44991,0.17682 -2.89435,0.65426 -4.34974,0.53046 -7.18763,-0.61142 -10.59559,-8.75069 -13.00314,-14.35501 -0.46853,-1.60559 -1.04062,-3.18452 -1.4056,-4.81676 -1.72539,-7.716 -1.22268,-15.73227 2.06937,-22.95751 0,0 6.11238,2.82419 6.11238,2.82419 z"
         id="path1256"
         style="opacity:1;vector-effect:none;fill:#000000;fill-opacity:1;stroke:none;stroke-width:1.25110269;stroke-linecap:butt;stroke-linejoin:miter;stroke-miterlimit:4;stroke-dasharray:none;stroke-dashoffset:0;stroke-opacity:1;marker:none" />
      <path
         inkscape:connector-curvature="0"
         d="m 569.89423,-696.40235 c -2.56914,-4.96916 -4.20674,-10.45547 -4.34561,-16.07724 -0.0318,-1.29281 -0.11866,-2.62029 0.19591,-3.87462 0.32476,-1.29509 1.12453,-2.42191 1.68679,-3.63292 1.63088,-0.76246 3.09618,-2.16979 4.89263,-2.28729 3.95068,-0.25852 7.63063,2.94587 10.11401,5.41369 5.22824,5.19571 8.68797,11.69846 12.24011,18.05587 3.4892,7.22251 2.67593,5.2999 5.63055,12.28255 0.55863,1.32026 2.15259,5.5511 3.20471,7.16619 0.07,0.10739 0.27577,-0.3132 0.15375,-0.3526 -1.23704,-0.40006 -2.54066,-0.55336 -3.81099,-0.83004 0.0635,-0.56481 0.0768,-1.13756 0.19052,-1.69442 0.30243,-1.47975 0.74322,-2.92864 1.05631,-4.40611 1.57513,-7.43338 2.70397,-14.92833 4.44493,-22.33065 2.06681,-8.00716 7.34386,-12.99056 15.01851,-5.61702 3.03251,2.91347 5.26002,9.19206 6.80119,12.73389 5.34787,15.81212 7.99994,32.70958 6.67976,49.41703 -0.21683,2.74398 -0.74756,5.45413 -1.12134,8.18119 -1.25778,4.80297 -2.18313,11.02611 -6.84708,13.98468 -0.8395,0.53252 -1.90909,0.55563 -2.86362,0.83344 0,0 -0.12043,-0.18045 -0.12043,-0.18045 v 0 c 0.36817,-0.60493 0.85333,-1.15268 1.10451,-1.8148 1.57578,-4.15385 1.13117,-8.96537 1.61545,-13.26048 -0.35212,-17.96674 -2.11824,-36.01703 -7.97215,-53.12154 -0.80857,-1.96987 -1.54773,-3.96974 -2.4257,-5.90968 -0.52757,-1.16583 -1.51655,-2.147 -1.78649,-3.39772 -0.0618,-0.28638 2.2429,-2.31112 2.57789,-2.96248 0.14645,-0.28472 -0.72769,0.0444 -0.90987,0.30804 -0.59266,0.85655 -0.85108,1.90147 -1.27664,2.8522 -1.34823,5.43081 -2.35864,10.91464 -3.58481,16.37341 -0.38652,1.72073 -2.16028,9.34773 -2.86272,11.22475 -0.6086,1.62623 -1.51613,3.12434 -2.27418,4.68651 -2.09911,0.48805 -4.15136,1.66263 -6.2973,1.46416 -1.65704,-0.1532 -3.88305,-4.43005 -4.40434,-5.41875 -2.74291,-5.2023 -4.81482,-10.74453 -7.72231,-15.86657 -2.7612,-4.9766 -3.69033,-6.98845 -6.94482,-11.57385 -1.03927,-1.46427 -2.15477,-2.87664 -3.32873,-4.23527 -2.18194,-2.52528 -3.61051,-2.19909 -2.27878,-5.21893 -1.41582,0.28092 -1.2016,-0.0103 -1.40486,2.49155 -0.38664,4.75181 1.3042,9.52961 2.40634,14.0655 0,0 -5.4311,2.52878 -5.4311,2.52878 z"
         id="path1258"
         style="opacity:1;vector-effect:none;fill:#000000;fill-opacity:1;stroke:none;stroke-width:1.25110269;stroke-linecap:butt;stroke-linejoin:miter;stroke-miterlimit:4;stroke-dasharray:none;stroke-dashoffset:0;stroke-opacity:1;marker:none" />
      <path
         inkscape:connector-curvature="0"
         d="m 546.20707,-697.44614 c 2.01273,7.75957 2.55711,15.65769 0.70104,23.48122 -0.84805,2.01938 -2.17983,6.13426 -5.56045,4.9575 -3.00314,-1.04543 -3.47243,-7.08335 -3.99173,-9.46853 -0.90421,-4.35247 -1.27573,-8.7691 -1.47458,-13.19925 -0.0224,-0.49775 -0.57617,-1.49346 -0.0779,-1.49274 2.63188,0 5.16748,1.00221 7.75121,1.50327 0.0535,4.66442 -0.36448,9.41179 -1.66073,13.91466 -0.59039,2.05084 -1.51986,3.98955 -2.20659,6.01016 -0.67187,1.97688 -1.24529,3.98583 -1.86794,5.9788 0,0 -0.21497,-0.0289 -0.21497,-0.0289 v 0 c -0.0716,-2.05703 -0.008,-4.12324 -0.21489,-6.17119 -0.20962,-2.07643 -0.78364,-4.10334 -1.03152,-6.17554 -0.51842,-4.3342 -0.45028,-8.72927 -0.50599,-13.08452 2.52048,-0.59866 4.97989,-1.57941 7.5614,-1.79594 0.39188,-0.033 -0.11707,0.77949 -0.13062,1.17253 -0.0267,0.77165 0.008,1.54422 0.0104,2.31638 0.008,3.43825 -0.0795,6.87321 -0.11364,10.31115 0.0292,1.07896 0.026,2.15916 0.0875,3.23668 0.0408,0.71377 0.45394,1.45849 0.2188,2.13378 -0.10977,0.31516 -0.69208,-0.0372 -0.99647,0.099 -2.71327,1.22154 -1.67906,2.14555 -1.59734,-1.01881 0.0699,-6.97224 -0.25993,-13.96069 -1.82216,-20.78489 0,0 7.13723,-1.89486 7.13723,-1.89486 z"
         id="path1260"
         style="opacity:1;vector-effect:none;fill:#000000;fill-opacity:1;stroke:none;stroke-width:1.25110269;stroke-linecap:butt;stroke-linejoin:miter;stroke-miterlimit:4;stroke-dasharray:none;stroke-dashoffset:0;stroke-opacity:1;marker:none" />
      <path
         inkscape:connector-curvature="0"
         d="m 468.50389,-662.1438 c -1.07454,0.57233 -2.14909,1.14467 -3.22364,1.71701 0,0 -0.17808,-0.1239 -0.17808,-0.1239 v 0 c 0.17416,-1.22245 0.34833,-2.44491 0.52249,-3.66727 0,0 2.87923,2.07416 2.87923,2.07416 z"
         id="path1262"
         style="opacity:1;vector-effect:none;fill:#000000;fill-opacity:1;stroke:none;stroke-width:1.25110269;stroke-linecap:butt;stroke-linejoin:miter;stroke-miterlimit:4;stroke-dasharray:none;stroke-dashoffset:0;stroke-opacity:1;marker:none" />
      <path
         inkscape:connector-curvature="0"
         d="m 457.48767,-665.39163 c -4.99548,7.02868 -9.83837,14.24923 -15.47935,20.79046 -1.58922,1.84287 -3.34707,3.53327 -5.0206,5.2998 0,0 -0.18465,-0.11389 -0.18465,-0.11389 v 0 c 3.80162,-10.53842 8.39827,-20.81614 14.34604,-30.33915 0,0 6.33856,4.36278 6.33856,4.36278 z"
         id="path1264"
         style="opacity:1;vector-effect:none;fill:#000000;fill-opacity:1;stroke:none;stroke-width:1.25110269;stroke-linecap:butt;stroke-linejoin:miter;stroke-miterlimit:4;stroke-dasharray:none;stroke-dashoffset:0;stroke-opacity:1;marker:none" />
      <path
         inkscape:connector-curvature="0"
         d="m 433.03926,-658.28734 c -7.8143,14.5059 -13.67957,29.95127 -19.77221,45.22955 -2.64464,6.48258 -4.65354,13.19037 -6.94381,19.79782 -0.47958,1.38362 -1.06347,3.14438 -1.26915,3.01492 -0.66871,-0.4209 -1.17013,-1.06215 -1.75521,-1.59322 3.27668,-9.49164 2.5783,-19.41303 1.37523,-29.19051 -1.36055,0.30736 0.019,-5.12568 -1.87839,-5.47411 -0.58922,-0.1082 0.18019,1.33265 0.67936,1.66391 0.81446,0.54048 2.36609,-0.16796 2.85253,0.67989 0.52534,0.91565 -0.49742,2.053 -0.68894,3.09115 -0.34173,1.85234 -0.6068,3.71801 -0.91022,5.57702 -2.3463,17.77783 -3.33632,35.69587 -5.16489,53.52921 -0.73694,5.21425 -0.80966,6.80859 -1.98609,11.61134 -0.40596,1.65734 -1.12388,4.21783 -1.71113,4.18093 -2.99355,-0.1881 -1.50369,-2.97726 -1.24509,-4.41747 0,0 0.21669,0.0103 0.21669,0.0103 v 0 c 0.11053,1.30686 1.36975,4.37248 -1.59475,4.04857 -0.40699,-0.0445 -0.40966,-0.72665 -0.48238,-1.12954 -0.18781,-1.0407 -0.23622,-2.10303 -0.29156,-3.15909 -0.25143,-4.79915 -0.10047,-6.59234 0.0139,-11.69606 0.96793,-18.17524 2.3047,-36.36983 4.85706,-54.39683 0.28343,-1.30358 1.78705,-9.64625 3.16959,-11.16473 3.2254,-3.54253 5.73105,-4.27539 8.11738,-0.4699 0.73131,1.16623 0.82907,6.52601 0.87454,7.31942 -0.21689,5.78647 -0.92597,11.29433 -1.76428,17.01807 -0.6492,4.43254 -1.06287,8.91841 -2.32038,13.24049 -0.94358,0.33981 -1.82908,1.06913 -2.83075,1.01944 -0.42105,-0.0209 -0.40913,-0.76253 -0.44942,-1.18217 -0.10027,-1.04445 -0.0771,-2.10419 0.0337,-3.14759 0.76032,-7.16486 3.17208,-14.04806 5.05337,-20.95445 5.19316,-16.1211 11.12403,-32.17341 20.11188,-46.62091 0,0 5.7034,3.56463 5.7034,3.56463 z"
         id="path1266"
         style="opacity:1;vector-effect:none;fill:#000000;fill-opacity:1;stroke:none;stroke-width:1.25110269;stroke-linecap:butt;stroke-linejoin:miter;stroke-miterlimit:4;stroke-dasharray:none;stroke-dashoffset:0;stroke-opacity:1;marker:none" />
      <path
         inkscape:connector-curvature="0"
         d="m 392.7252,-596.92332 c -4.11887,19.98126 -7.20302,40.14775 -9.99576,60.35023 -1.64914,16.09045 -4.21437,32.83659 -1.93798,49.02346 0.20743,1.47501 0.62881,2.91192 0.94322,4.36787 0.25474,0.84666 0.50949,1.69331 0.76423,2.53996 0.0983,0.18058 0.49579,0.58609 0.29502,0.54174 -0.36686,-0.0811 -0.86416,-0.30203 -0.90202,-0.67582 -0.0751,-0.74155 0.45599,-1.42158 0.61579,-2.14959 0.31219,-1.42212 0.59132,-2.85316 0.79879,-4.29428 0.29166,-2.02591 0.46514,-4.06708 0.6977,-6.10063 0.99583,-17.711 1.71202,-35.4583 4.5665,-53.00085 0.73543,-4.51967 1.7084,-8.99746 2.56261,-13.49621 5.56539,-17.6567 2.58314,-8.9554 8.93129,-26.1092 0,0 0.20691,0.0652 0.20691,0.0652 v 0 c -4.58599,17.53721 -2.62254,8.65614 -5.87284,26.64712 -0.79887,4.45134 -1.69409,8.88647 -2.39662,13.35404 -2.75309,17.50782 -3.52728,35.23188 -5.579,52.82079 -0.25491,2.16329 -1.04758,12.29785 -2.81287,14.1774 -1.73953,1.85207 -3.48998,1.41293 -4.78953,-0.25532 -0.68773,-0.88285 -1.0183,-1.99315 -1.52743,-2.98973 -1.13666,-4.27659 -1.91446,-6.76366 -2.54181,-11.35857 -1.99737,-14.62971 -0.50319,-29.45989 0.99036,-44.05209 2.70563,-20.46765 5.4608,-41.05009 10.66879,-61.05642 0,0 6.31465,1.6509 6.31465,1.6509 z"
         id="path1268"
         style="opacity:1;vector-effect:none;fill:#000000;fill-opacity:1;stroke:none;stroke-width:1.25110269;stroke-linecap:butt;stroke-linejoin:miter;stroke-miterlimit:4;stroke-dasharray:none;stroke-dashoffset:0;stroke-opacity:1;marker:none" />
      <path
         inkscape:connector-curvature="0"
         d="m 463.22131,-662.78856 c -1.62712,8.59961 -4.10972,17.07924 -4.85009,25.81853 -0.23241,2.42077 -0.56407,1.51282 0.24145,2.88984 0,0 -0.0931,0.19591 -0.0931,0.19591 v 0 c -3.01631,-0.62912 -1.67175,0.15499 -3.67951,-2.87491 -1.77346,-9.4451 -1.0789,-18.46395 1.30459,-27.75381 0,0 7.07673,1.72444 7.07673,1.72444 z"
         id="path1270"
         style="opacity:1;vector-effect:none;fill:#000000;fill-opacity:1;stroke:none;stroke-width:1.25110269;stroke-linecap:butt;stroke-linejoin:miter;stroke-miterlimit:4;stroke-dasharray:none;stroke-dashoffset:0;stroke-opacity:1;marker:none" />
      <path
         inkscape:connector-curvature="0"
         d="m 490.00108,-682.71628 c 1.13679,7.02815 0.5984,14.16493 1.1075,21.22848 0.073,0.44679 0.28926,0.89306 0.21923,1.34037 -0.0256,0.1633 -0.24599,-0.22159 -0.37904,-0.3197 -0.28734,-0.21189 -0.89733,-0.25263 -0.88087,-0.60927 0.0299,-0.64826 0.69211,-1.10031 0.98645,-1.67873 1.76071,-3.46044 1.65872,-3.65273 3.046,-7.63918 2.86763,-9.7935 5.62019,-19.62578 10.14664,-28.80545 0.68997,-0.86254 1.18508,-1.92653 2.06993,-2.5877 5.49918,-4.10891 9.32712,-0.17424 11.28164,5.0549 1.15474,3.08936 1.57718,8.17385 1.96912,11.31284 0.87286,11.02761 0.45466,22.09389 0.74661,33.14234 0.0184,0.33156 0.37712,1.07638 0.0552,0.99478 -1.4948,-0.37891 -2.80318,-1.29229 -4.15507,-2.03412 -0.18839,-0.10348 -0.45148,-0.26771 -0.4288,-0.48146 0.1254,-1.18109 0.58643,-2.30234 0.84733,-3.46116 0.47872,-2.12614 1.98272,-9.48812 2.34554,-11.25022 1.38646,-6.8304 2.77584,-13.66265 4.4776,-20.42331 0.65232,-2.59141 1.95569,-7.60225 3.0031,-10.24554 0.46737,-1.17954 1.11854,-2.2777 1.67781,-3.41649 0.83877,-0.84107 1.39025,-2.14503 2.51628,-2.52322 1.78528,-0.59947 3.89766,-0.91865 5.64558,-0.21767 5.84235,2.3431 7.16913,15.1721 8.0263,20.33398 0.64478,5.73564 1.47667,11.48233 1.48767,17.26864 0.005,2.58212 -0.12182,6.66296 -1.12739,9.17534 -0.49246,1.23031 -1.42363,2.23571 -2.13543,3.35357 0,0 -0.21649,-0.0144 -0.21649,-0.0144 v 0 c -0.56901,-1.08505 -1.25905,-2.11469 -1.707,-3.25504 -0.7126,-1.81398 -1.70913,-6.62686 -2.08067,-8.37018 -1.16534,-5.46794 -2.20197,-10.96271 -3.40574,-16.42262 -0.93183,-4.35431 -1.22687,-5.91803 -2.26351,-10.10163 -0.24086,-0.97208 -0.83271,-1.90301 -0.77458,-2.90275 0.0136,-0.23396 2.97279,-1.5243 3.54199,-2.00256 0.17725,-0.14885 -0.44241,-0.13648 -0.66362,-0.20477 -0.54268,0.69294 -1.17665,1.32315 -1.62805,2.07859 -5.03252,8.4231 -6.35348,19.68891 -8.82401,29.03395 -0.4582,2.2192 -1.83437,8.92148 -2.37369,11.40405 -0.28531,1.31345 -0.44684,2.66392 -0.89082,3.9325 -0.44721,1.27775 -0.47986,3.23348 -1.76554,3.65737 -4.66893,1.53926 -4.9562,-0.87584 -5.81534,-3.26371 -1.7567,-10.79363 -2.18109,-21.78029 -3.47725,-32.63273 -0.21579,-1.78376 -0.3989,-3.57185 -0.64737,-5.35127 -0.1738,-1.24474 -0.49838,-2.46823 -0.61912,-3.71927 -0.0436,-0.45215 -0.24524,-1.09959 0.12924,-1.35677 0.68324,-0.46928 1.71173,-0.0423 2.45165,-0.41595 0.33504,-0.16918 0.80237,-0.98116 0.43169,-1.03996 -0.54652,-0.0867 -0.93612,0.59028 -1.40419,0.88543 -0.66333,0.81734 -1.40706,1.57547 -1.99001,2.45193 -4.84378,7.28255 -6.73186,16.14729 -10.20239,24.06902 -1.18115,2.77482 -3.41226,9.48463 -6.11369,11.27736 -3.64599,2.41964 -5.98599,0.28307 -7.47617,-2.90326 -1.87569,-7.06622 -2.39331,-14.29689 -2.67007,-21.58553 0,0 7.90584,-0.76019 7.90584,-0.76019 z"
         id="path1272"
         style="opacity:1;vector-effect:none;fill:#000000;fill-opacity:1;stroke:none;stroke-width:1.25110269;stroke-linecap:butt;stroke-linejoin:miter;stroke-miterlimit:4;stroke-dasharray:none;stroke-dashoffset:0;stroke-opacity:1;marker:none" />
      <path
         inkscape:connector-curvature="0"
         d="m 485.32569,-657.50434 c -1.67198,6.93242 -3.62735,13.88372 -6.67289,20.35945 -1.66725,3.5451 -3.68914,6.91331 -5.4416,10.41706 0,0 -0.20828,-0.0607 -0.20828,-0.0607 v 0 c 0.40249,-3.88567 0.50452,-7.79973 0.94651,-11.68112 0.79785,-7.0064 2.70006,-13.82709 4.31422,-20.66936 0,0 7.06204,1.63469 7.06204,1.63469 z"
         id="path1274"
         style="opacity:1;vector-effect:none;fill:#000000;fill-opacity:1;stroke:none;stroke-width:1.25110269;stroke-linecap:butt;stroke-linejoin:miter;stroke-miterlimit:4;stroke-dasharray:none;stroke-dashoffset:0;stroke-opacity:1;marker:none" />
      <path
         inkscape:connector-curvature="0"
         d="m 471.58966,-669.45968 c -2.96872,13.42455 -7.21409,26.53199 -11.58627,39.55354 -2.33395,5.81585 -3.70606,12.19492 -6.91322,17.65327 -0.92001,1.56578 -2.21667,2.87727 -3.32338,4.31717 0,0 -0.20403,-0.0738 -0.20403,-0.0738 v 0 c 0.0435,-1.7775 -0.31775,-3.55084 -0.25777,-5.32785 0.21495,-6.36751 2.35396,-12.54886 3.7209,-18.70168 3.63924,-13.18306 7.52753,-26.30679 11.7843,-39.30395 0,0 6.77947,1.8832 6.77947,1.8832 z"
         id="path1276"
         style="opacity:1;vector-effect:none;fill:#000000;fill-opacity:1;stroke:none;stroke-width:1.25110269;stroke-linecap:butt;stroke-linejoin:miter;stroke-miterlimit:4;stroke-dasharray:none;stroke-dashoffset:0;stroke-opacity:1;marker:none" />
      <path
         inkscape:connector-curvature="0"
         d="m 450.95313,-657.07035 c -8.26798,17.01817 -14.34736,34.98447 -20.31816,52.90295 -5.12093,16.08167 -10.2406,32.21669 -14.01068,48.68125 -0.67075,2.15429 -1.06518,5.42165 -4.89758,-0.85616 -0.5704,-0.93435 0.57571,-2.11308 0.81714,-3.18083 1.35232,-5.98071 1.7008,-11.8423 1.9941,-17.95633 0.13342,-13.58618 -1.45922,-27.1046 -3.55017,-40.50506 -0.19505,-0.75475 -0.27723,-1.54809 -0.58515,-2.26423 -0.089,-0.20697 -0.30635,0.57549 -0.10109,0.66825 1.46895,0.66374 3.32421,0.44155 4.63467,1.38019 0.46929,0.33612 -0.18755,1.14095 -0.33601,1.69877 -3.17982,11.94867 0.95605,-5.11249 -2.72965,10.53716 -3.76321,19.46202 -5.71559,39.23006 -7.14713,58.98394 -0.77617,11.05116 -0.76836,5.79956 -0.23004,15.75317 0,0 -0.21476,0.0308 -0.21476,0.0308 v 0 c -2.30487,-9.89157 -1.17829,-4.64078 -3.31188,-15.76681 -0.27081,-3.3874 -0.65137,-6.76782 -0.81244,-10.16222 -0.80557,-16.9766 0.4991,-34.07508 3.90644,-50.72032 0.87107,-3.54228 1.86609,-8.34818 3.34036,-11.82327 0.59212,-1.39568 0.82365,-3.30047 2.17019,-3.99714 6.79499,-3.51562 7.71175,0.33548 8.41586,4.96039 0.73472,13.77839 -0.44684,27.57764 -0.92815,41.34648 -0.29031,6.14109 -0.56928,12.29001 -0.97155,18.42514 -0.0773,1.17903 0.62633,2.79657 -0.29836,3.53214 -1.35652,1.07907 -3.45633,1.20856 -5.13921,0.79331 -0.66214,-0.16339 0.0446,-1.36327 0.0669,-2.04492 2.84612,-16.96317 7.17838,-33.62183 12.35656,-50.02083 6.08427,-18.44095 12.09245,-37.15897 21.41923,-54.26585 0,0 6.46057,3.87008 6.46057,3.87008 z"
         id="path1278"
         style="opacity:1;vector-effect:none;fill:#000000;fill-opacity:1;stroke:none;stroke-width:1.25110269;stroke-linecap:butt;stroke-linejoin:miter;stroke-miterlimit:4;stroke-dasharray:none;stroke-dashoffset:0;stroke-opacity:1;marker:none" />
      <path
         inkscape:connector-curvature="0"
         d="m 480.01896,-504.14308 c 5.83217,10.68454 12.0114,21.16833 18.77739,31.28746 4.12138,6.26096 9.16167,11.73791 14.60156,16.84033 0.14098,0.15484 0.28196,0.30968 0.42295,0.46452 0,0 -0.01,0.21674 -0.01,0.21674 v 0 c -0.33715,0.13368 -0.67431,0.26736 -1.01146,0.40105 -0.49042,-0.1566 -1.02116,-0.2199 -1.47126,-0.4698 -1.2661,-0.70295 -3.34093,-2.70876 -4.2171,-3.60224 -3.78136,-3.85615 -7.11575,-8.12778 -10.34795,-12.4435 -7.1538,-9.99239 -13.8856,-20.28619 -19.50108,-31.23606 0,0 2.75656,-1.4585 2.75656,-1.4585 z"
         id="path1282"
         style="opacity:1;vector-effect:none;fill:#000000;fill-opacity:1;stroke:none;stroke-width:1.25110269;stroke-linecap:butt;stroke-linejoin:miter;stroke-miterlimit:4;stroke-dasharray:none;stroke-dashoffset:0;stroke-opacity:1;marker:none" />
      <path
         inkscape:connector-curvature="0"
         d="m 503.79369,-504.75599 c 7.60484,8.10659 14.41901,16.94995 21.31496,25.66327 5.72446,7.74694 12.11402,15.13136 16.6035,23.70574 0,0 -0.15767,0.149 -0.15767,0.149 v 0 c -8.30838,-5.08271 -13.16216,-14.32846 -19.64487,-21.32267 -6.87846,-8.68942 -13.98345,-17.21748 -20.56162,-26.13382 0,0 2.4457,-2.06152 2.4457,-2.06152 z"
         id="path1285"
         style="opacity:1;vector-effect:none;fill:#000000;fill-opacity:1;stroke:none;stroke-width:1.25110269;stroke-linecap:butt;stroke-linejoin:miter;stroke-miterlimit:4;stroke-dasharray:none;stroke-dashoffset:0;stroke-opacity:1;marker:none" />
      <path
         inkscape:connector-curvature="0"
         d="m 528.53724,-504.21216 c 7.21159,7.37073 13.44183,15.60539 19.70777,23.77141 5.54365,6.86949 9.84179,14.59698 14.86346,21.82051 0,0 -0.16238,0.1439 -0.16238,0.1439 v 0 c -6.60139,-5.90308 -12.35948,-12.60315 -17.65538,-19.69556 -6.19167,-8.05524 -12.47924,-16.05284 -19.35891,-23.53847 0,0 2.60544,-2.50179 2.60544,-2.50179 z"
         id="path1287"
         style="opacity:1;vector-effect:none;fill:#000000;fill-opacity:1;stroke:none;stroke-width:1.25110269;stroke-linecap:butt;stroke-linejoin:miter;stroke-miterlimit:4;stroke-dasharray:none;stroke-dashoffset:0;stroke-opacity:1;marker:none" />
      <path
         inkscape:connector-curvature="0"
         d="m 549.11365,-511.13775 c 6.64811,8.07203 12.67242,16.61287 18.33543,25.39605 0.20564,0.3387 4.19736,6.85159 4.54119,7.63168 0.43227,0.98075 0.58547,2.06208 0.8782,3.09311 0,0 -0.18171,0.11851 -0.18171,0.11851 v 0 c -0.81574,-0.66849 -1.7125,-1.24882 -2.4472,-2.00546 -2.05618,-2.11753 -3.48387,-4.79358 -5.54172,-6.90617 -6.28192,-8.23124 -12.4354,-16.56188 -18.88501,-24.66391 0,0 3.30082,-2.66381 3.30082,-2.66381 z"
         id="path1289"
         style="opacity:1;vector-effect:none;fill:#000000;fill-opacity:1;stroke:none;stroke-width:1.25110269;stroke-linecap:butt;stroke-linejoin:miter;stroke-miterlimit:4;stroke-dasharray:none;stroke-dashoffset:0;stroke-opacity:1;marker:none" />
      <path
         inkscape:connector-curvature="0"
         d="m 462.8544,-455.78085 c 9.64665,-11.24175 19.56054,-22.25246 29.96359,-32.7986 6.04945,-6.44886 13.01068,-11.90187 19.30281,-18.07775 0,0 0.15874,0.14787 0.15874,0.14787 v 0 c -5.70769,6.7057 -10.86576,13.85714 -16.80699,20.37879 -9.63185,11.16903 -19.76428,21.89076 -29.42223,33.03783 0,0 -3.19592,-2.68814 -3.19592,-2.68814 z"
         id="path1291"
         style="opacity:1;vector-effect:none;fill:#000000;fill-opacity:1;stroke:none;stroke-width:1.25110269;stroke-linecap:butt;stroke-linejoin:miter;stroke-miterlimit:4;stroke-dasharray:none;stroke-dashoffset:0;stroke-opacity:1;marker:none" />
      <path
         inkscape:connector-curvature="0"
         d="m 534.44527,-508.7983 c -4.18668,10.19249 -9.78937,19.72295 -15.30024,29.23791 -3.94506,7.29173 -8.48485,14.16897 -13.89111,20.44523 0,0 -0.18724,-0.10956 -0.18724,-0.10956 v 0 c 2.82278,-7.78758 6.64205,-15.07081 11.06375,-22.08104 5.41864,-9.36233 10.90451,-18.74071 15.07761,-28.74365 0,0 3.23723,1.25111 3.23723,1.25111 z"
         id="path1293"
         style="opacity:1;vector-effect:none;fill:#000000;fill-opacity:1;stroke:none;stroke-width:1.25110269;stroke-linecap:butt;stroke-linejoin:miter;stroke-miterlimit:4;stroke-dasharray:none;stroke-dashoffset:0;stroke-opacity:1;marker:none" />
      <path
         inkscape:connector-curvature="0"
         d="m 564.52206,-512.49127 c -7.46322,9.96647 -13.28859,21.01067 -20.00678,31.47049 -1.56935,1.87485 -3.13869,3.7497 -4.70804,5.62454 0,0 -0.18919,-0.10616 -0.18919,-0.10616 v 0 c 0.78488,-2.32068 1.56979,-4.64136 2.35467,-6.96203 5.62953,-11.30298 11.88477,-22.35159 19.48256,-32.46591 0,0 3.06678,2.43907 3.06678,2.43907 z"
         id="path1295"
         style="opacity:1;vector-effect:none;fill:#000000;fill-opacity:1;stroke:none;stroke-width:1.25110269;stroke-linecap:butt;stroke-linejoin:miter;stroke-miterlimit:4;stroke-dasharray:none;stroke-dashoffset:0;stroke-opacity:1;marker:none" />
      <path
         inkscape:connector-curvature="0"
         d="m 405.8344,-441.57773 c -0.61322,13.04912 -5.94241,25.18334 -11.28025,36.89537 -7.80102,16.49004 -18.57919,31.25381 -29.35746,45.87666 -9.43596,13.13786 -19.98065,25.45044 -29.44744,38.55917 1.17759,0.36819 -2.56207,2.69033 -1.77136,3.86726 0.62845,0.9354 0.42744,-1.72975 0.53459,-1.77561 0.40514,-0.17342 0.83611,0.27923 1.25018,0.43008 0.90045,0.32804 1.79539,0.671 2.69309,1.00651 5.73067,2.22353 11.54581,4.68315 16.46671,8.45188 1.39512,1.06847 2.62982,2.33153 3.94473,3.49729 0,0 -0.0623,0.20087 -0.0623,0.20087 v 0 c -1.80677,0.19834 -3.6027,0.59073 -5.42032,0.59504 -6.24557,0.0148 -12.36161,-2.30983 -18.25551,-4.0476 -1.87855,-0.73092 -5.40221,-1.90712 -6.95618,-3.30096 -5.22747,-4.68882 -3.19694,-9.42676 0.0599,-14.36946 9.52131,-13.10656 19.73281,-25.69854 29.33952,-38.74282 10.41051,-14.08071 20.81593,-28.30521 28.38011,-44.17758 4.85558,-10.60385 9.61963,-21.51186 10.86263,-33.23215 0,0 9.01934,0.26605 9.01934,0.26605 z"
         id="path1315"
         style="opacity:1;vector-effect:none;fill:#000000;fill-opacity:1;stroke:none;stroke-width:1.25110269;stroke-linecap:butt;stroke-linejoin:miter;stroke-miterlimit:4;stroke-dasharray:none;stroke-dashoffset:0;stroke-opacity:1;marker:none" />
      <path
         inkscape:connector-curvature="0"
         d="m 401.04418,-333.21154 c -4.17657,6.92533 -7.42211,14.40953 -11.90676,21.15234 -0.93063,1.39924 -1.98987,2.70853 -2.9848,4.06279 -3.65677,3.6211 -2.13438,1.84285 -4.70795,5.21095 0,0 -0.19034,-0.0894 -0.19034,-0.0894 v 0 c 0.96747,-4.17035 0.52076,-1.84649 1.21312,-6.99479 0.51628,-1.61869 0.94239,-3.26896 1.54886,-4.85606 2.9507,-7.72189 7.39414,-14.81875 11.55031,-21.92272 0,0 5.47756,3.4369 5.47756,3.4369 z"
         id="path1317"
         style="opacity:1;vector-effect:none;fill:#000000;fill-opacity:1;stroke:none;stroke-width:1.25110269;stroke-linecap:butt;stroke-linejoin:miter;stroke-miterlimit:4;stroke-dasharray:none;stroke-dashoffset:0;stroke-opacity:1;marker:none" />
      <path
         inkscape:connector-curvature="0"
         d="m 410.47734,-335.55112 c 6.68786,-0.4668 13.52444,1.91826 16.43723,8.4673 0.64986,1.46113 0.83904,3.08623 1.25856,4.62935 -0.01,1.66697 0.17002,3.34593 -0.0298,5.00091 -1.03589,8.57895 -6.51446,15.64891 -12.25137,21.6918 -1.23151,0.88496 -4.47713,3.70328 -6.46833,3.40434 -1.3039,-0.19576 -2.24825,-1.37812 -3.37238,-2.06718 0,0 -0.047,-0.20499 -0.047,-0.20499 v 0 c 0.0564,-0.95951 -0.12059,-1.96211 0.16927,-2.87853 0.21278,-0.67273 3.21461,-3.96649 3.35149,-4.12292 4.92155,-5.5312 9.85247,-11.56525 10.71191,-19.18648 -0.0645,-0.8036 -0.0218,-1.62313 -0.19357,-2.41079 -0.9224,-4.22878 -5.07837,-5.72575 -8.9533,-5.85505 0,0 -0.61273,-6.46776 -0.61273,-6.46776 z"
         id="path1319"
         style="opacity:1;vector-effect:none;fill:#000000;fill-opacity:1;stroke:none;stroke-width:1.25110269;stroke-linecap:butt;stroke-linejoin:miter;stroke-miterlimit:4;stroke-dasharray:none;stroke-dashoffset:0;stroke-opacity:1;marker:none" />
      <path
         inkscape:connector-curvature="0"
         d="m 507.61097,-419.23311 c 4.08173,15.08257 6.81936,30.46167 9.41195,45.85505 3.26017,21.60426 6.65553,43.2564 7.34385,65.12371 0.53932,4.16942 -0.0431,7.59503 -1.84756,11.2623 0,0 -0.20541,0.045 -0.20541,0.045 v 0 c -3.66484,-3.35129 -4.02429,-5.49155 -4.9326,-10.51255 -4.21608,-21.29971 -5.89469,-42.98208 -9.4932,-64.38709 -2.56177,-15.353 -5.49735,-30.63783 -8.07766,-45.98568 0,0 7.80063,-1.40079 7.80063,-1.40079 z"
         id="path1324"
         style="opacity:1;vector-effect:none;fill:#000000;fill-opacity:1;stroke:none;stroke-width:1.25110269;stroke-linecap:butt;stroke-linejoin:miter;stroke-miterlimit:4;stroke-dasharray:none;stroke-dashoffset:0;stroke-opacity:1;marker:none" />
      <path
         inkscape:connector-curvature="0"
         d="m 586.85169,-398.49529 c -0.49741,-1.18068 -1.1088,-2.31959 -1.49223,-3.54205 -3.60366,-11.48924 -2.03235,-24.0715 -0.54338,-35.74994 2.04436,-10.09201 3.95762,-22.20377 10.43769,-30.62834 0.85977,-1.11777 1.94384,-2.0435 2.91576,-3.06525 1.18837,-0.67239 2.2667,-1.59468 3.5651,-2.01716 4.39965,-1.43159 8.75869,0.19741 11.61118,3.72078 2.36804,2.92498 2.39406,4.72261 3.26726,8.25677 0.38449,4.72765 -10e-4,9.52866 -2.1236,13.86063 -0.67491,1.37756 -1.6726,2.57199 -2.5089,3.85799 0,0 -0.20659,-0.0393 -0.20659,-0.0393 v 0 c -1.16841,-5.11784 -1.66689,-10.31692 -2.87891,-15.42109 -0.16963,-0.45606 -2.37053,-6.17462 -3.21577,-6.21152 -0.41606,-0.0182 -0.80369,0.21871 -1.20554,0.32807 -0.58204,0.52462 -1.24766,0.96928 -1.74612,1.57388 -5.61613,6.81187 -7.3712,18.68768 -9.31875,26.97878 -1.69402,11.19871 -3.76281,23.17366 -0.0599,34.19094 0,0 -6.49725,3.90684 -6.49725,3.90684 z"
         id="path1330"
         style="opacity:1;vector-effect:none;fill:#000000;fill-opacity:1;stroke:none;stroke-width:1.25110269;stroke-linecap:butt;stroke-linejoin:miter;stroke-miterlimit:4;stroke-dasharray:none;stroke-dashoffset:0;stroke-opacity:1;marker:none" />
      <path
         inkscape:connector-curvature="0"
         d="m 610.87314,-436.79362 c 3.69568,-5.42284 8.31182,-10.47054 14.21976,-13.52097 1.23473,-0.63752 2.56103,-1.0794 3.84155,-1.6191 5.7997,-1.57947 13.37971,-1.57672 16.94469,4.29411 0.69797,1.14943 0.95328,2.5149 1.42992,3.77235 0.0427,1.40232 0.25145,2.80942 0.128,4.20694 -0.63711,7.21298 -4.81628,12.92008 -9.94188,17.6402 -3.23995,2.0141 -1.6319,1.22012 -4.77346,2.48196 0,0 -0.14216,-0.15497 -0.14216,-0.15497 v 0 c 1.26163,-2.77163 0.65089,-1.27921 1.7878,-4.49518 2.13701,-5.71245 4.79329,-11.41785 5.55532,-17.5089 -0.17572,-4.75438 -4.76691,-4.16554 -8.29457,-3.52719 -6.70641,2.51544 -11.36347,6.35013 -15.89192,11.86349 0,0 -4.86305,-3.43274 -4.86305,-3.43274 z"
         id="path1332"
         style="opacity:1;vector-effect:none;fill:#000000;fill-opacity:1;stroke:none;stroke-width:1.25110269;stroke-linecap:butt;stroke-linejoin:miter;stroke-miterlimit:4;stroke-dasharray:none;stroke-dashoffset:0;stroke-opacity:1;marker:none" />
      <path
         inkscape:connector-curvature="0"
         d="m 593.97757,-401.44829 c 0.77563,-6.43672 2.67926,-12.87236 6.5352,-18.17401 0.73491,-1.01045 1.61532,-1.9066 2.42298,-2.8599 4.60166,-4.19537 10.35685,-5.58125 15.04584,-0.49969 0.76515,0.82922 1.27107,1.86459 1.90661,2.79688 2.46236,5.23848 2.92007,11.17053 0.52952,16.54992 -0.44054,0.99132 -1.07399,1.88514 -1.61098,2.82771 -2.51761,3.02789 -1.11009,1.7323 -4.18069,3.93175 0,0 -0.19159,-0.0867 -0.19159,-0.0867 v 0 c -0.42491,-3.54271 -0.35735,-1.76835 -0.20515,-5.32299 0.27113,-4.65929 0.94376,-9.4733 -0.73332,-13.95781 -1.3895,-2.93793 -2.01804,-3.76155 -5.11396,-1.4332 -4.41939,4.72836 -6.70009,10.5916 -7.92168,16.89499 0,0 -6.48278,-0.66695 -6.48278,-0.66695 z"
         id="path1338"
         style="opacity:1;vector-effect:none;fill:#000000;fill-opacity:1;stroke:none;stroke-width:1.25110269;stroke-linecap:butt;stroke-linejoin:miter;stroke-miterlimit:4;stroke-dasharray:none;stroke-dashoffset:0;stroke-opacity:1;marker:none" />
      <path
         inkscape:connector-curvature="0"
         d="m 634.29526,-409.96268 c 3.37763,1.14614 10.57465,2.80976 12.5875,5.98002 0.62652,0.98676 0.80282,2.19554 1.20423,3.29331 -0.35113,1.3036 -0.41999,2.71855 -1.05339,3.91081 -1.99143,3.74852 -7.97709,6.59803 -11.98048,7.27477 -0.92553,0.15646 -1.87339,0.12146 -2.81008,0.18219 -2.83272,-0.18049 -1.47397,0.1296 -4.0795,-0.91589 0,0 -0.11661,-0.17501 -0.11661,-0.17501 v 0 c 0.69226,-3.20834 -0.017,-1.79742 2.0975,-4.24781 2.18554,-1.84007 4.29838,-3.09212 6.82783,-4.40189 0.0666,-0.0345 2.60851,-1.49415 2.92305,-1.43304 0.30842,0.0599 0.40516,0.4803 0.60773,0.72045 0.28142,0.10277 0.6219,0.50909 0.84426,0.3083 0.42161,-0.38071 -0.54394,-1.49578 -1.49978,-2.17135 -2.03302,-1.43691 -4.52308,-2.03841 -6.8623,-2.74506 0,0 1.31004,-5.5798 1.31004,-5.5798 z"
         id="path1340"
         style="opacity:1;vector-effect:none;fill:#000000;fill-opacity:1;stroke:none;stroke-width:1.25110269;stroke-linecap:butt;stroke-linejoin:miter;stroke-miterlimit:4;stroke-dasharray:none;stroke-dashoffset:0;stroke-opacity:1;marker:none" />
      <path
         inkscape:connector-curvature="0"
         d="m 528.61065,-360.13631 c 5.55145,2.98553 10.89775,6.99208 17.23038,8.17681 1.2899,0.24132 2.61665,0.20364 3.92497,0.30547 9.96532,-1.15961 17.34279,-8.4117 25.30178,-13.8012 4.32646,-1.29554 2.35914,-0.83885 5.86769,-1.51018 0,0 0.12734,0.16735 0.12734,0.16735 v 0 c -1.36512,3.09372 -0.602,1.29479 -2.2319,5.42081 -6.15615,7.58019 -14.08523,15.18004 -23.84576,17.68738 -1.98617,0.51022 -4.06865,0.51666 -6.10297,0.77499 -1.89298,-0.22194 -3.81671,-0.25989 -5.67893,-0.66582 -7.15623,-1.55992 -13.46054,-5.98221 -19.03779,-10.50947 0,0 4.44519,-6.04614 4.44519,-6.04614 z"
         id="path1344"
         style="opacity:1;vector-effect:none;fill:#000000;fill-opacity:1;stroke:none;stroke-width:1.25110269;stroke-linecap:butt;stroke-linejoin:miter;stroke-miterlimit:4;stroke-dasharray:none;stroke-dashoffset:0;stroke-opacity:1;marker:none" />
      <path
         inkscape:connector-curvature="0"
         d="m 359.03715,-280.21247 c -8.83066,6.96295 -15.50522,14.94482 -21.86795,24.29774 -5.46754,9.48039 -10.86622,20.35494 -9.54038,31.80599 0.25282,2.18364 0.99389,4.27666 1.49084,6.41499 1.07994,2.13163 1.9148,4.41671 3.23981,6.3949 8.61172,12.85695 24.05485,19.77237 37.89266,24.42881 5.38688,1.81268 10.92578,3.10057 16.38867,4.65085 31.19028,6.79689 63.16872,9.92382 95.0402,9.9581 5.14469,0.005 10.2867,-0.24257 15.43005,-0.36385 12.531,-1.18489 26.9581,-1.41919 37.25303,-10.15842 4.25402,-3.61117 5.05178,-5.98011 7.81015,-10.79498 4.93474,-12.05233 5.99385,-25.48834 1.7789,-37.97728 -0.79277,-2.34898 -1.95275,-4.54758 -2.92912,-6.82138 -5.79144,-11.01867 -15.61404,-17.8652 -25.53189,-24.44393 -1.98507,-1.75388 -5.04359,-2.79013 -6.60247,-5.10012 -1.55088,-2.29815 0.32433,-1.53171 -1.87546,-2.02858 0,0 -0.0779,-0.21169 -0.0779,-0.21169 v 0 c 0.96147,-0.87802 2.48067,-2.40179 3.68014,-2.75898 2.66521,-0.79368 6.70786,1.50331 9.07563,2.2435 13.06134,6.47254 23.04804,15.03328 30.18951,28.3337 3.08851,7.54125 4.25264,9.14499 5.54905,17.3524 1.98271,12.55233 0.0573,25.15007 -5.08685,36.63814 -4.04604,6.55598 -4.87761,9.15713 -10.95771,14.00384 -11.92507,9.50601 -27.71532,10.42752 -42.07236,11.53894 -5.28331,0.10904 -10.5656,0.34573 -15.84993,0.32712 -32.64034,-0.11499 -65.38028,-3.3703 -97.31222,-10.39014 -5.77031,-1.65085 -11.62672,-3.00819 -17.31093,-4.95256 -16.07219,-5.49772 -33.28273,-13.9329 -42.72545,-29.25817 -1.65321,-2.68312 -2.62701,-5.75411 -3.94052,-8.63116 -0.53428,-2.84888 -1.36729,-5.65488 -1.60286,-8.54661 -1.08949,-13.37407 4.93845,-25.92058 11.79459,-36.75351 6.9328,-9.63214 14.48757,-18.52056 24.07327,-25.44246 0,0 4.59751,6.2448 4.59751,6.2448 z"
         id="path1356"
         style="opacity:1;vector-effect:none;fill:#000000;fill-opacity:1;stroke:none;stroke-width:1.25110269;stroke-linecap:butt;stroke-linejoin:miter;stroke-miterlimit:4;stroke-dasharray:none;stroke-dashoffset:0;stroke-opacity:1;marker:none" />
      <path
         inkscape:connector-curvature="0"
         d="m 559.26688,-211.03231 c 9.36177,-0.89986 16.13097,-4.60289 23.71798,-10.09161 6.14444,-5.17903 11.92309,-11.66007 13.03984,-20.13108 0.18308,-1.38865 0.0867,-2.80156 0.13016,-4.20235 -1.06261,-10.18388 -6.99464,-16.66538 -14.25384,-22.94786 -7.21646,-5.77303 -15.50772,-9.82302 -22.90604,-15.30901 -1.61773,-1.55563 -4.0116,-2.97267 -4.61092,-5.37736 -0.14431,-0.57903 0.1635,-1.26599 -0.11507,-1.78996 -0.12257,-0.23054 -0.49631,0.1155 -0.74447,0.17324 0,0 -0.12793,-0.18382 -0.12793,-0.18382 v 0 c 3.82708,-4.3386 5.60007,-2.85752 10.25088,-0.83165 8.64544,4.40354 16.98495,9.55199 24.69097,15.54219 1.52585,1.37759 3.12777,2.66991 4.57755,4.13277 7.32387,7.39002 12.07298,16.58033 12.34468,27.29132 -0.20026,1.99102 -0.21797,4.01084 -0.60077,5.97306 -2.03209,10.41661 -9.00153,18.53956 -16.81957,24.93744 -1.71865,1.21311 -3.37943,2.51895 -5.15594,3.63932 -7.00679,4.41887 -14.93394,7.36347 -23.17809,7.61383 0,0 -0.23942,-8.43847 -0.23942,-8.43847 z"
         id="path1362"
         style="opacity:1;vector-effect:none;fill:#000000;fill-opacity:1;stroke:none;stroke-width:1.25110269;stroke-linecap:butt;stroke-linejoin:miter;stroke-miterlimit:4;stroke-dasharray:none;stroke-dashoffset:0;stroke-opacity:1;marker:none" />
    </g>
    <path
       style="opacity:1;vector-effect:none;fill:#000000;fill-opacity:1;stroke:none;stroke-width:1.03667271;stroke-linecap:butt;stroke-linejoin:miter;stroke-miterlimit:4;stroke-dasharray:none;stroke-dashoffset:0;stroke-opacity:1;marker:none"
       id="path1411"
       d="m 30.89915,485.031 c -3.365325,8.45943 -3.392416,17.93668 -0.621021,26.60315 0.872819,2.72941 2.186138,5.29781 3.279207,7.94671 1.815547,2.7929 3.351978,5.78855 5.446639,8.37871 13.345044,16.50183 34.033761,25.83497 53.811791,31.96369 7.345254,2.27611 14.892634,3.83975 22.338944,5.75961 8.47144,1.46058 16.89902,3.20343 25.41431,4.38175 18.62862,2.57778 38.75446,3.9681 57.50112,4.85497 29.93045,1.41595 59.81616,1.23129 89.7626,0.79852 38.37853,-1.57899 77.54912,-2.99439 114.94619,-12.66777 5.21216,-1.34821 10.30031,-3.13698 15.45045,-4.70547 15.91206,-5.95049 29.6737,-14.16492 39.01574,-28.75843 5.4508,-8.51485 6.08356,-12.17546 9.3928,-21.69981 3.98828,-15.33237 3.91477,-30.98899 -1.30005,-46.01664 -2.76051,-7.95496 -4.26513,-9.71503 -8.43437,-16.71307 -6.01264,-8.20268 -2.81899,-4.47643 -9.47337,-11.27008 0,0 0.13,-0.16531 0.13,-0.16531 v 0 c 8.57072,5.16507 4.31537,2.16593 12.64708,9.16389 5.49433,7.05364 7.5002,8.65694 10.94567,17.31185 4.63554,11.64433 5.85586,24.54402 4.52738,36.94148 -0.47161,4.40111 -1.58925,8.7088 -2.38388,13.06319 -3.69633,10.62233 -4.24044,14.28862 -10.41502,23.76061 -10.45109,16.03229 -24.99835,24.65512 -42.55343,31.26963 -5.33216,1.62543 -10.6011,3.47496 -15.99649,4.87631 -37.9196,9.84893 -77.47986,11.20718 -116.4012,12.76801 -30.12741,0.38546 -60.20705,0.59028 -90.31527,-0.9079 -18.98747,-0.94481 -39.37357,-2.45479 -58.2272,-5.16591 -8.69305,-1.25004 -17.29265,-3.0807 -25.93897,-4.62105 -7.64873,-2.04257 -15.406654,-3.71301 -22.946171,-6.12767 -21.001392,-6.72609 -42.795681,-16.97762 -56.791044,-34.70119 -2.310706,-2.92625 -3.989606,-6.30017 -5.984408,-9.45027 -1.161505,-3.01281 -2.578906,-5.93907 -3.484518,-9.03842 -2.920154,-9.99388 -2.45411,-20.89009 1.935384,-30.33851 0,0 4.721107,2.50542 4.721107,2.50542 z"
       inkscape:connector-curvature="0" />
    <path
       style="opacity:1;vector-effect:none;fill:#000000;fill-opacity:1;stroke:none;stroke-width:1.03667271;stroke-linecap:butt;stroke-linejoin:miter;stroke-miterlimit:4;stroke-dasharray:none;stroke-dashoffset:0;stroke-opacity:1;marker:none"
       id="path1435"
       d="m 830.28045,491.97328 c -6.30027,6.40771 -12.27821,13.20657 -16.86589,21.0154 -1.35923,2.3136 -2.51827,4.74489 -3.77741,7.11734 -6.30482,14.32036 -9.14744,30.46012 -4.9924,46.13211 0.84302,3.17972 2.23981,6.19657 3.35971,9.29486 1.73325,2.87088 3.1735,5.94005 5.19973,8.61263 10.40456,13.72347 26.73479,20.96015 42.58704,25.61928 5.66938,1.66628 11.45802,2.83667 17.18703,4.25499 6.67711,1.17959 13.33065,2.53508 20.03134,3.53878 15.90587,2.38254 31.50293,3.8354 47.51109,5.07185 27.72809,2.14167 55.42237,3.07345 83.17631,3.7804 38.025,0.66673 75.995,-0.86381 113.781,-4.07834 18.0923,-1.53913 28.3449,-2.77029 46.031,-4.7181 13.8067,-1.67188 27.6438,-3.22633 41.337,-5.59992 3.9637,-0.68708 8.1364,-1.27793 11.791,-3.0216 2.4916,-0.8814 1.6397,0.008 1.8169,-3.23504 0,0 0.1981,-0.0182 0.1981,-0.0182 v 0 c 1.1491,4.25113 0.6335,1.94734 1.4484,6.93053 -0.8174,1.01707 -1.4152,2.26397 -2.4522,3.05123 -2.9048,2.20485 -8.1735,3.27041 -11.4231,3.89948 -13.7546,2.66252 -27.8492,3.54201 -41.7198,5.47753 -53.3297,5.74581 -106.9261,10.02709 -160.8009,8.68812 -50.81016,-1.36591 -101.91643,-3.39609 -152.14701,-13.35326 -5.9268,-1.51397 -11.92536,-2.74214 -17.78042,-4.54192 -17.26397,-5.30679 -34.63137,-13.58186 -45.70774,-28.72212 -2.21968,-3.03407 -3.80521,-6.48303 -5.70781,-9.72454 -1.21002,-3.4517 -2.72866,-6.81602 -3.63006,-10.35507 -3.474,-13.63943 -2.04019,-28.21425 2.36125,-41.23115 0.99482,-2.9421 2.35511,-5.73641 3.53267,-8.60461 1.37011,-2.49982 2.63447,-5.06367 4.11033,-7.49943 4.91479,-8.11134 11.14789,-15.45315 18.37088,-21.529 0,0 3.17396,3.74781 3.17396,3.74781 z"
       inkscape:connector-curvature="0" />
    <path
       style="opacity:1;vector-effect:none;fill:#000000;fill-opacity:1;stroke:none;stroke-width:1.03667271;stroke-linecap:butt;stroke-linejoin:miter;stroke-miterlimit:4;stroke-dasharray:none;stroke-dashoffset:0;stroke-opacity:1;marker:none"
       id="path1439"
       d="m 237.43853,580.95356 c -3.80019,7.19206 -6.60452,14.85491 -9.8225,22.31536 -5.05142,11.69777 -11.888,22.49078 -17.37895,33.96577 -0.30787,0.98109 -1.88358,4.27751 -0.97565,5.84038 0.16042,0.27615 0.63716,-0.0452 0.95522,-0.074 0.71279,-0.0646 1.42571,-0.12872 2.13719,-0.20642 6.94245,-0.75819 3.98438,-0.37227 12.10439,-1.99162 8.58982,-1.85118 17.09987,-4.24005 25.8358,-5.35824 4.47545,-0.57285 10.16776,-1.08517 14.67622,0.0902 2.01152,0.52442 3.79294,1.70251 5.68941,2.55376 1.37923,1.65196 3.17138,3.03299 4.13767,4.95589 3.76574,7.49375 1.68933,17.22774 0.31065,24.95096 -0.83767,4.69256 -3.6199,17.1679 -4.60636,21.67142 -2.08876,11.70843 -6.47479,28.10815 0.15121,39.22876 3.58533,6.01737 6.55426,6.03264 12.71343,8.6106 3.62318,0.36488 7.22808,1.112 10.86954,1.09462 9.75352,-0.0466 20.42728,-2.1859 29.80348,-4.42251 15.55441,-3.71037 30.67673,-8.99392 45.79822,-14.127 4.96856,-1.68738 14.52612,-5.20108 20.13365,-6.22246 2.17277,-0.39576 4.40775,-0.28642 6.61162,-0.42963 0,0 0.0817,0.19375 0.0817,0.19375 v 0 c -1.67176,1.49189 -3.15278,3.23003 -5.01528,4.47566 -5.50445,3.68134 -13.46214,6.51727 -19.36678,8.94144 -15.36965,5.58154 -30.77617,11.02951 -46.72332,14.78148 -9.94609,2.34007 -21.87291,4.67632 -32.22992,4.45029 -4.44824,-0.0971 -8.82049,-1.17653 -13.23074,-1.76479 -3.40288,-1.72327 -7.2171,-2.80339 -10.20864,-5.1698 -15.09414,-11.93999 -9.54321,-35.43242 -6.42104,-51.25931 0.439,-1.81813 4.57435,-18.86788 5.05175,-21.13257 1.21684,-5.77243 3.15782,-14.15455 1.20706,-20.10221 -0.3729,-1.13692 -1.22554,-2.05539 -1.83831,-3.08308 -1.21638,-0.67737 -2.31594,-1.63088 -3.64914,-2.03211 -3.92363,-1.18082 -9.05232,-0.78225 -12.94044,-0.32632 -8.6952,1.01961 -17.14191,3.46085 -25.67691,5.29394 -5.26407,1.04183 -14.66897,3.94723 -19.79238,0.6561 -4.74792,-3.04994 -2.95037,-8.70866 -1.61959,-12.84414 5.10024,-11.64136 11.78906,-22.468 17.06368,-34.03118 3.49933,-7.62212 6.75164,-15.40624 11.24661,-22.51548 0,0 4.9174,3.02251 4.9174,3.02251 z"
       inkscape:connector-curvature="0" />
    <path
       style="opacity:1;vector-effect:none;fill:#000000;fill-opacity:1;stroke:none;stroke-width:1.03667271;stroke-linecap:butt;stroke-linejoin:miter;stroke-miterlimit:4;stroke-dasharray:none;stroke-dashoffset:0;stroke-opacity:1;marker:none"
       id="path1441"
       d="m 1087.346,627.6774 c 4.6555,4.95485 8.7022,11.08059 8.4795,18.1884 -0.059,1.88714 -0.5979,3.72851 -0.8968,5.59276 -0.8958,1.93541 -1.5595,3.9962 -2.6873,5.80624 -7.7243,12.39673 -22.3683,18.61044 -35.0393,24.45454 -7.4951,3.43122 -15.4496,5.66982 -23.0667,8.78513 -2.5081,1.02578 -5.8997,2.40362 -8.0148,4.34939 -0.5544,0.51001 -0.8392,1.25118 -1.2589,1.87676 0.01,0.49774 -0.068,1.00465 0.028,1.49321 0.8617,4.40608 6.0505,9.65254 8.8327,13.03253 3.4401,4.4499 6.0448,10.13024 1.5566,15.06416 -3.0638,3.36806 -6.9575,4.10116 -11.0497,5.56022 -2.8242,0.54925 -5.6248,1.23794 -8.4726,1.64776 -7.4931,1.07833 -16.44392,1.5476 -23.90868,1.77369 -17.24153,0.52223 -34.46002,-0.0542 -51.6912,-0.60399 -34.7392,-1.33624 -69.43117,-4.0322 -104.20454,-4.458 -6.27512,-0.0768 -12.55116,0.0254 -18.82675,0.038 -5.64383,0.15336 -11.28766,0.30672 -16.93149,0.46007 0,0 -0.0232,-0.20901 -0.0232,-0.20901 v 0 c 5.60126,-1.09539 11.20251,-2.19079 16.80377,-3.28618 6.31629,-0.61351 12.61662,-1.42281 18.94888,-1.84052 34.81462,-2.29655 69.68198,0.72538 104.46682,1.98671 17.03082,0.54464 34.05203,1.11162 51.09323,0.59729 7.23634,-0.21841 15.67476,-0.69304 22.94306,-1.64513 2.5272,-0.33105 5.0217,-0.87627 7.5326,-1.3144 0.7897,-0.23571 7.713,-2.05614 8.7833,-3.36291 1.5737,-1.92154 -1.4028,-4.84281 -2.1732,-6.18417 -4.0753,-4.99323 -10.7142,-11.61888 -10.2462,-18.61242 0.099,-1.47756 0.8123,-2.84818 1.2184,-4.27227 0.9358,-1.11836 1.7124,-2.39201 2.8074,-3.35509 2.5579,-2.24976 6.3469,-3.83544 9.4008,-5.08368 7.497,-3.06439 15.2777,-5.40149 22.7715,-8.47642 11.4557,-4.88195 24.8336,-10.47331 32.2222,-21.12158 0.9101,-1.31168 1.5008,-2.81834 2.2512,-4.22751 0.3046,-1.31226 0.7906,-2.59527 0.9138,-3.93677 0.5245,-5.7075 -3.0239,-10.59748 -6.6683,-14.5568 0,0 4.1063,-4.16004 4.1063,-4.16004 z"
       inkscape:connector-curvature="0" />
  </g>
</svg>
