<?xml version="1.0" encoding="UTF-8" standalone="no"?>
<!-- Created with Inkscape (http://www.inkscape.org/) -->

<svg
   xmlns:dc="http://purl.org/dc/elements/1.1/"
   xmlns:cc="http://creativecommons.org/ns#"
   xmlns:rdf="http://www.w3.org/1999/02/22-rdf-syntax-ns#"
   xmlns:svg="http://www.w3.org/2000/svg"
   xmlns="http://www.w3.org/2000/svg"
   xmlns:sodipodi="http://sodipodi.sourceforge.net/DTD/sodipodi-0.dtd"
   xmlns:inkscape="http://www.inkscape.org/namespaces/inkscape"
   width="39cm"
   height="4.4824409cm"
   viewBox="0 0 1381.8898 158.82664"
   id="svg2"
   version="1.1"
   inkscape:version="0.92.3 (2405546, 2018-03-11)"
   sodipodi:docname="annonce.svg"
   inkscape:export-filename="/home/gee/mnt/art/GriseBouille/png/boutique/article_gb04.png"
   inkscape:export-xdpi="52.102566"
   inkscape:export-ydpi="52.102566">
  <defs
     id="defs4" />
  <sodipodi:namedview
     id="base"
     pagecolor="#ffffff"
     bordercolor="#666666"
     borderopacity="1.0"
     inkscape:pageopacity="0.0"
     inkscape:pageshadow="2"
     inkscape:zoom="0.7"
     inkscape:cx="745.29171"
     inkscape:cy="2.5472516"
     inkscape:document-units="px"
     inkscape:current-layer="g4668"
     showgrid="false"
     units="cm"
     inkscape:window-width="1918"
     inkscape:window-height="686"
     inkscape:window-x="0"
     inkscape:window-y="27"
     inkscape:window-maximized="0"
     fit-margin-top="0"
     fit-margin-left="0"
     fit-margin-right="0"
     fit-margin-bottom="0" />
  <metadata
     id="metadata7">
    <rdf:RDF>
      <cc:Work
         rdf:about="">
        <dc:format>image/svg+xml</dc:format>
        <dc:type
           rdf:resource="http://purl.org/dc/dcmitype/StillImage" />
        <dc:title></dc:title>
      </cc:Work>
    </rdf:RDF>
  </metadata>
  <g
     inkscape:label="Calque 1"
     inkscape:groupmode="layer"
     id="layer1"
     transform="translate(0,-308.26776)">
    <rect
       style="color:#000000;clip-rule:nonzero;display:inline;overflow:visible;visibility:visible;opacity:1;isolation:auto;mix-blend-mode:normal;color-interpolation:sRGB;color-interpolation-filters:linearRGB;solid-color:#000000;solid-opacity:1;fill:#ffffff;fill-opacity:1;fill-rule:nonzero;stroke:none;stroke-width:0.99999994px;stroke-linecap:butt;stroke-linejoin:miter;stroke-miterlimit:4;stroke-dasharray:none;stroke-dashoffset:0;stroke-opacity:1;color-rendering:auto;image-rendering:auto;shape-rendering:auto;text-rendering:auto;enable-background:accumulate"
       id="rect4178"
       width="1381.8898"
       height="158.82664"
       x="0"
       y="308.26776"
       rx="0"
       ry="0" />
    <g
       id="g4668"
       transform="translate(0,-78.571419)">
      <rect
         rx="23.126085"
         y="436.84698"
         x="35.523117"
         height="83.176506"
         width="1306.1356"
         id="rect4016-1"
         style="color:#000000;display:inline;overflow:visible;visibility:visible;fill:#fbfbea;fill-opacity:1;fill-rule:nonzero;stroke:#a1582c;stroke-width:5.01300001;stroke-linecap:round;stroke-linejoin:round;stroke-miterlimit:4;stroke-dasharray:none;stroke-opacity:1;marker:none;enable-background:accumulate"
         ry="23.126087" />
      <flowRoot
         transform="translate(89.544056,239.53035)"
         style="font-style:normal;font-variant:normal;font-weight:normal;font-stretch:normal;line-height:0.01%;font-family:Lavi;-inkscape-font-specification:Lavi;text-align:justify;letter-spacing:0px;word-spacing:0px;text-anchor:start;fill:#a1582c;fill-opacity:1;stroke:none"
         id="flowRoot2989-5"
         xml:space="preserve"><flowRegion
           id="flowRegion2991-4"><rect
             style="font-size:48px;text-align:justify;text-anchor:start;fill:#a1582c;fill-opacity:1"
             y="216.75438"
             x="28.048466"
             height="274.44659"
             width="1353.9215"
             id="rect2993-3" /></flowRegion><flowPara
           id="flowPara2995-3"
           style="font-size:48px;line-height:1">Article inclus dans le recueil <flowSpan
   style="font-style:normal;font-variant:normal;font-weight:bold;font-stretch:normal;font-family:Lavi;-inkscape-font-specification:'Lavi Bold'"
   id="flowSpan47">GRISE BOUILLE, TOME IV</flowSpan>.</flowPara></flowRoot>      <g
         transform="translate(158.16263,2348.4356)"
         id="g4936-5">
        <rect
           inkscape:transform-center-y="14.898944"
           inkscape:transform-center-x="-10.225911"
           style="color:#000000;display:inline;overflow:visible;visibility:visible;fill:#fbfbea;fill-opacity:1;fill-rule:nonzero;stroke:none;stroke-width:5.01300001;marker:none;enable-background:accumulate"
           id="rect4932-3"
           width="76.08149"
           height="68.000603"
           x="1231.5548"
           y="-1439.8151"
           transform="rotate(-45)"
           rx="3.6618128"
           ry="23.126087" />
        <g
           transform="matrix(3.0269484,0,0,3.0269484,-153.41007,-3220.0167)"
           id="g4822-6"
           style="fill:#1f4673;fill-opacity:1">
          <path
             inkscape:transform-center-y="40.283957"
             inkscape:transform-center-x="17.943753"
             inkscape:connector-curvature="0"
             d="m 2.0924903,438.27359 c 2.3379448,1.98999 4.4812442,4.20178 6.6164601,6.40164 2.7697986,2.91827 5.5987726,5.78337 8.3573266,8.7116 0.234664,0.26167 0.477752,0.51673 0.703987,0.78501 0.180521,0.21407 0.564212,0.62814 0.56469,0.94943 4.81e-4,0.33782 -0.45094,0.44812 -0.739192,0.34692 -0.181767,-0.0639 -0.273717,-0.29269 -0.410579,-0.43904 0,0 0.03149,-0.0343 0.03149,-0.0343 v 0 c 0.155775,0.12562 0.403664,0.19757 0.467325,0.37684 0.0062,0.0175 -0.167693,0.69427 -0.324669,0.71894 -0.278389,0.0437 -0.854356,-0.46645 -0.981992,-0.57324 -0.273006,-0.2284 -0.530035,-0.47596 -0.795057,-0.71395 -2.919278,-2.79512 -5.670275,-5.74971 -8.4697159,-8.65883 -2.1034362,-2.17574 -4.2392543,-4.3219 -6.33990424,-6.49921 0,0 1.31964424,-1.37197 1.31964424,-1.37197 z"
             id="path4627-89"
             style="color:#000000;display:inline;overflow:visible;visibility:visible;fill:#a1582c;fill-opacity:1;fill-rule:nonzero;stroke:none;stroke-width:3.27900004;marker:none;enable-background:accumulate" />
          <path
             inkscape:transform-center-y="-9.4518406"
             inkscape:transform-center-x="14.433672"
             inkscape:connector-curvature="0"
             d="m 1.0880075,438.7296 c 2.0881056,-1.33351 3.9062471,-3.05151 5.694622,-4.78353 2.9342583,-2.98786 5.7186905,-6.11494 8.5382935,-9.20682 1.1618,-1.0744 2.157124,-2.63881 3.464507,-3.5454 0.117385,-0.056 0.230307,-0.15154 0.352183,-0.168 0.317725,-0.043 0.675778,-0.13244 0.937626,-0.006 0.308522,0.14845 0.399009,0.89893 -0.01911,1.05408 -0.204391,0.0758 -0.414783,0.0637 -0.622182,0.0956 -0.09757,-0.25529 -0.01326,-0.16319 -0.246525,-0.28226 0,0 0.03043,-0.0473 0.03043,-0.0473 v 0 c 0.223029,0.11386 0.102241,0.11016 0.357508,0.0305 -0.381536,0.12996 -0.732812,0.2648 -0.714172,0.3388 0.165701,0.65786 0.598793,0.56869 1.268505,0.38407 -0.198894,0.35905 -0.498407,0.66629 -0.775,0.97442 -0.787915,0.87772 -1.596697,1.73741 -2.38868,2.61159 -2.875774,3.13611 -5.701394,6.32113 -8.6993892,9.34557 -1.9918003,1.89422 -4.0527376,3.85462 -6.5078528,5.02495 0,0 -0.6707269,-1.81986 -0.6707269,-1.81986 z"
             id="path4631-0"
             style="color:#000000;display:inline;overflow:visible;visibility:visible;fill:#a1582c;fill-opacity:1;fill-rule:nonzero;stroke:none;stroke-width:3.27900004;marker:none;enable-background:accumulate" />
          <path
             inkscape:transform-center-y="-14.016618"
             inkscape:transform-center-x="-34.696874"
             inkscape:connector-curvature="0"
             d="m 20.075511,420.94822 c 1.675101,1.71535 3.306891,3.47051 4.973759,5.1941 2.316546,2.40974 4.740416,4.71414 7.217674,6.95898 0.870081,0.79559 1.753193,1.57719 2.621127,2.37519 0.09943,0.0914 0.369988,0.20714 0.292453,0.28043 -0.101774,0.0961 -0.321283,-0.0675 -0.481931,-0.10132 -0.19933,0.30172 -0.398659,0.60344 -0.59801,0.90514 -0.02038,-0.6512 0.05115,-0.28717 -0.312244,-1.09144 0,0 0.03001,-0.0357 0.03001,-0.0357 v 0 c 1.001316,0.37506 0.507543,0.15802 1.481268,0.65123 -0.104053,0.4641 -0.02274,1.04529 -0.312168,1.39229 -0.139341,0.1672 -0.499454,-0.0374 -0.74758,-0.12175 -0.951864,-0.32357 -2.525732,-2.08235 -3.351441,-2.69865 -2.530425,-2.30272 -5.013371,-4.6587 -7.35414,-7.15292 -1.682751,-1.78177 -3.388185,-3.55604 -4.944974,-5.43942 0,0 1.485622,-1.11671 1.485622,-1.11671 z"
             id="path4633-8"
             style="color:#000000;display:inline;overflow:visible;visibility:visible;fill:#a1582c;fill-opacity:1;fill-rule:nonzero;stroke:none;stroke-width:3.27900004;marker:none;enable-background:accumulate" />
          <path
             inkscape:transform-center-y="37.488284"
             inkscape:transform-center-x="-32.120877"
             sodipodi:nodetypes="cccccccc"
             style="color:#000000;display:inline;overflow:visible;visibility:visible;fill:#a1582c;fill-opacity:1;fill-rule:nonzero;stroke:none;stroke-width:3.27900004;marker:none;enable-background:accumulate"
             id="path4669-0"
             d="m 34.37802,436.3732 c -1.33351,2.08811 -3.051511,3.90625 -4.78353,5.69462 -2.987857,2.93426 -6.114939,5.71869 -9.206821,8.5383 -7.694211,6.4791 -4.04499,7.59394 1.439721,1.64509 3.136116,-2.87578 6.321131,-5.7014 9.345571,-8.69939 1.89422,-1.9918 3.854621,-4.05274 5.024951,-6.50786 l -1.819858,-0.67072 z"
             inkscape:connector-curvature="0" />
        </g>
      </g>
    </g>
    <g
       id="g1041"
       transform="matrix(1.0516358,0,0,1.0516358,-4.8989924,-18.718902)"
       style="stroke-width:0.95089954">
      <path
         inkscape:connector-curvature="0"
         id="path3100"
         d="m 76.945312,357.3457 c -0.778039,-0.0121 -1.668042,0.65735 -1.295492,1.50465 1.239541,6.60458 2.741863,13.33258 2.068927,20.07649 -0.371969,2.37084 -0.748922,5.15164 -2.903815,6.6069 -2.117948,1.40092 -4.873437,1.58593 -7.380947,1.65922 -2.585065,0.0804 -5.238162,-0.30773 -7.775782,0.27188 -0.602592,0.14466 -1.52494,0.93206 -0.644531,1.42578 1.990748,1.70417 4.800559,1.2258 7.214771,1.4167 3.97732,0.0725 8.417076,-0.32987 11.462963,-3.17255 2.861835,-3.10379 3.052448,-7.61279 3.051899,-11.60933 -0.104544,-6.11148 -1.410628,-12.14586 -2.772602,-18.0645 -0.264906,-0.25062 -0.702971,-0.10182 -1.025391,-0.11524 z"
         style="color:#000000;display:inline;overflow:visible;visibility:visible;vector-effect:none;fill:#a1582c;fill-opacity:1;fill-rule:nonzero;stroke:none;stroke-width:9.43802357;stroke-linecap:butt;stroke-linejoin:miter;stroke-miterlimit:4;stroke-dasharray:none;stroke-dashoffset:0;stroke-opacity:1;marker:none;enable-background:accumulate" />
      <path
         inkscape:connector-curvature="0"
         id="path3110"
         d="m 72.527344,387.6875 c -1.160501,0.0536 -2.264439,1.3563 -1.578313,2.46856 0.502121,1.9159 1.3004,3.97041 0.640132,5.92738 -1.206063,1.75796 -3.604999,1.56004 -5.463494,1.95032 -4.992119,0.65358 -10.04988,0.0558 -15.05731,0.0463 -0.788128,0.11331 -1.831889,0.78482 -1.697265,1.625 2.074307,1.77514 5.002759,1.31181 7.502525,1.6231 5.06611,0.13873 10.357364,0.27761 15.138052,-1.64129 2.228541,-1.22186 3.052097,-4.06866 2.392697,-6.42887 -0.317493,-1.88658 -0.778253,-3.83783 -1.628977,-5.52364 -0.07731,-0.0367 -0.162017,-0.0571 -0.248047,-0.0469 z"
         style="color:#000000;display:inline;overflow:visible;visibility:visible;vector-effect:none;fill:#a1582c;fill-opacity:1;fill-rule:nonzero;stroke:none;stroke-width:9.43802357;stroke-linecap:butt;stroke-linejoin:miter;stroke-miterlimit:4;stroke-dasharray:none;stroke-dashoffset:0;stroke-opacity:1;marker:none;enable-background:accumulate" />
      <path
         inkscape:connector-curvature="0"
         id="path3114"
         d="m 48.251953,388.09375 c -1.114196,0.29794 -0.529689,1.68639 -0.283363,2.4163 1.343286,3.2859 5.038397,4.73134 8.326258,5.16048 2.480076,0.34517 5.239288,0.83423 7.558668,-0.36975 0.454568,-0.50949 -0.272796,-1.06643 -0.78967,-0.96952 -2.763806,-0.9 -5.683478,-0.99875 -8.467073,-1.75397 -1.979102,-0.55672 -4.142514,-1.85435 -4.534273,-4.02456 -0.241198,-0.62131 -1.08991,-0.26506 -1.623047,-0.46289 l -0.149967,0.003 z"
         style="color:#000000;display:inline;overflow:visible;visibility:visible;vector-effect:none;fill:#a1582c;fill-opacity:1;fill-rule:nonzero;stroke:none;stroke-width:9.43802357;stroke-linecap:butt;stroke-linejoin:miter;stroke-miterlimit:4;stroke-dasharray:none;stroke-dashoffset:0;stroke-opacity:1;marker:none;enable-background:accumulate" />
      <path
         inkscape:connector-curvature="0"
         id="path3118"
         d="m 50.544922,390.45508 c -3.682957,0.95332 -6.636572,4.74296 -6.15236,8.5935 0.574955,2.14298 3.303727,2.9092 5.171891,1.99634 2.211465,-0.81898 4.084205,-2.71749 4.712891,-5 0.121136,-0.66303 -0.504557,-1.73143 -1.234375,-1.14062 -1.93696,1.16632 -3.11982,3.77919 -5.628907,3.79882 -1.003369,-0.47751 -0.254932,-1.75034 0.04211,-2.48209 0.856569,-1.83776 2.498808,-3.25733 4.39539,-3.94564 -0.575445,-0.50529 -0.223057,-1.89589 -1.30664,-1.82031 z"
         style="color:#000000;display:inline;overflow:visible;visibility:visible;vector-effect:none;fill:#a1582c;fill-opacity:1;fill-rule:nonzero;stroke:none;stroke-width:9.43802357;stroke-linecap:butt;stroke-linejoin:miter;stroke-miterlimit:4;stroke-dasharray:none;stroke-dashoffset:0;stroke-opacity:1;marker:none;enable-background:accumulate" />
      <path
         inkscape:connector-curvature="0"
         id="path3120"
         d="m 51.580078,391.8418 c -2.032268,1.08471 -4.273002,2.72434 -4.410156,5.24023 1.387544,0.62236 2.469056,-0.84159 3.491871,-1.51657 0.84322,-0.69954 1.686447,-1.37869 2.672191,-1.84866 -0.803979,-0.4157 -0.618453,-1.9943 -1.753906,-1.875 z"
         style="color:#000000;display:inline;overflow:visible;visibility:visible;vector-effect:none;fill:#a1582c;fill-opacity:1;fill-rule:nonzero;stroke:none;stroke-width:9.43802357;stroke-linecap:butt;stroke-linejoin:miter;stroke-miterlimit:4;stroke-dasharray:none;stroke-dashoffset:0;stroke-opacity:1;marker:none;enable-background:accumulate" />
      <path
         inkscape:connector-curvature="0"
         id="path3122"
         d="m 65.529297,371.7168 c -1.760233,0.25527 -2.010087,2.34654 -2.257813,3.7539 -0.507159,2.63106 -0.433303,5.79553 1.658204,7.75196 1.433021,0.87297 3.120518,-0.75767 2.93708,-2.24644 0.321641,-2.75626 1.114285,-5.94891 -0.628711,-8.40599 -0.407972,-0.51047 -1.031594,-0.91456 -1.70876,-0.85343 z"
         style="color:#000000;display:inline;overflow:visible;visibility:visible;vector-effect:none;fill:#a1582c;fill-opacity:1;fill-rule:nonzero;stroke:none;stroke-width:9.43802357;stroke-linecap:butt;stroke-linejoin:miter;stroke-miterlimit:4;stroke-dasharray:none;stroke-dashoffset:0;stroke-opacity:1;marker:none;enable-background:accumulate" />
      <path
         inkscape:connector-curvature="0"
         id="path3124"
         d="m 70.294922,372.26172 c -1.702493,0.21747 -2.009544,2.2262 -2.128906,3.61328 -0.136399,1.26905 -0.311785,2.76756 0.615234,3.80078 -0.358044,1.36092 1.413936,3.00293 2.619141,1.93164 1.32397,-1.53203 1.413121,-3.70084 1.574218,-5.62109 -0.02581,-1.58867 -0.765905,-3.74275 -2.679687,-3.72461 z m -0.410156,7.72656 c -0.250581,-0.008 0.222879,-0.18926 0,0 z"
         style="color:#000000;display:inline;overflow:visible;visibility:visible;vector-effect:none;fill:#a1582c;fill-opacity:1;fill-rule:nonzero;stroke:none;stroke-width:9.43802357;stroke-linecap:butt;stroke-linejoin:miter;stroke-miterlimit:4;stroke-dasharray:none;stroke-dashoffset:0;stroke-opacity:1;marker:none;enable-background:accumulate" />
      <path
         inkscape:connector-curvature="0"
         id="path3126"
         d="m 65.664062,375.58984 c -0.948381,0.0565 -2.040179,0.94643 -1.548748,1.97198 0.291826,1.3352 -0.33728,2.67576 -0.09774,4.0163 0.891262,0.0422 1.750023,0.63102 2.652344,0.31641 -0.292821,-0.53301 0.882315,0.0647 0.863281,-0.59375 -0.0483,-1.65579 0.0892,-3.37764 -0.189453,-4.99219 -0.447501,-0.44662 -1.001031,-0.88428 -1.679688,-0.71875 z"
         style="color:#000000;display:inline;overflow:visible;visibility:visible;vector-effect:none;fill:#a1582c;fill-opacity:1;fill-rule:nonzero;stroke:none;stroke-width:9.43802357;stroke-linecap:butt;stroke-linejoin:miter;stroke-miterlimit:4;stroke-dasharray:none;stroke-dashoffset:0;stroke-opacity:1;marker:none;enable-background:accumulate" />
      <path
         inkscape:connector-curvature="0"
         id="path3128"
         d="m 70.177734,373.38477 c -0.623427,0.0332 -0.343682,0.97899 -1.003906,0.92187 -0.808218,0.58666 -0.101362,1.66725 -0.33789,2.4707 -0.04509,1.15062 1.211707,2.08707 2.27539,1.52735 1.052258,-0.58444 1.094225,-1.99246 1.209188,-3.04638 0.0104,-1.1718 -1.014872,-1.9593 -2.142782,-1.87354 z"
         style="color:#000000;display:inline;overflow:visible;visibility:visible;vector-effect:none;fill:#a1582c;fill-opacity:1;fill-rule:nonzero;stroke:none;stroke-width:9.43802357;stroke-linecap:butt;stroke-linejoin:miter;stroke-miterlimit:4;stroke-dasharray:none;stroke-dashoffset:0;stroke-opacity:1;marker:none;enable-background:accumulate" />
      <path
         inkscape:connector-curvature="0"
         id="path3130"
         d="m 55.099609,387.10547 c -0.851462,0.39606 -1.407179,1.34613 -2.120093,1.97575 -0.857134,0.90605 -1.640242,1.90439 -2.143578,3.05355 0.767836,0.85418 1.809925,-0.0135 2.342969,-0.66647 1.158677,-1.1327 2.218963,-2.36031 3.270312,-3.5933 -0.556362,-0.0867 -0.772228,-0.78226 -1.34961,-0.76953 z"
         style="color:#000000;display:inline;overflow:visible;visibility:visible;vector-effect:none;fill:#a1582c;fill-opacity:1;fill-rule:nonzero;stroke:none;stroke-width:9.43802357;stroke-linecap:butt;stroke-linejoin:miter;stroke-miterlimit:4;stroke-dasharray:none;stroke-dashoffset:0;stroke-opacity:1;marker:none;enable-background:accumulate" />
      <path
         inkscape:connector-curvature="0"
         id="path3132"
         d="m 58.564453,388.09375 c -1.192252,0.89116 -1.885637,2.28042 -2.919922,3.33789 -0.899728,1.12607 -1.763259,2.28211 -2.513672,3.51367 0.716251,0.78144 1.777305,0.0442 2.16211,-0.70117 1.801548,-1.63043 3.360482,-3.51151 4.697265,-5.53711 -0.568992,-7.5e-4 -0.858837,-0.74236 -1.425781,-0.61328 z"
         style="color:#000000;display:inline;overflow:visible;visibility:visible;vector-effect:none;fill:#a1582c;fill-opacity:1;fill-rule:nonzero;stroke:none;stroke-width:9.43802357;stroke-linecap:butt;stroke-linejoin:miter;stroke-miterlimit:4;stroke-dasharray:none;stroke-dashoffset:0;stroke-opacity:1;marker:none;enable-background:accumulate" />
      <path
         inkscape:connector-curvature="0"
         id="path3134"
         d="m 62.179688,388.55078 c -1.193019,0.82159 -1.909017,2.11185 -2.970704,3.08008 -2.158403,2.36479 -4.502569,4.62611 -6.167968,7.37695 -0.401212,0.85458 0.774758,2.04874 1.455078,1.28711 0.08386,-1.5581 1.709879,-2.2964 2.458354,-3.51414 2.22192,-2.48802 4.492148,-4.93372 6.608052,-7.51125 -0.566986,-0.0468 -0.797191,-0.83039 -1.382812,-0.71875 z"
         style="color:#000000;display:inline;overflow:visible;visibility:visible;vector-effect:none;fill:#a1582c;fill-opacity:1;fill-rule:nonzero;stroke:none;stroke-width:9.43802357;stroke-linecap:butt;stroke-linejoin:miter;stroke-miterlimit:4;stroke-dasharray:none;stroke-dashoffset:0;stroke-opacity:1;marker:none;enable-background:accumulate" />
      <path
         inkscape:connector-curvature="0"
         id="path3136"
         d="m 65.667969,389.11328 c -1.027943,0.55552 -1.306924,1.84149 -2.184776,2.57566 -1.836431,2.31079 -4.264952,4.37366 -5.190224,7.24661 0.107102,0.81275 1.261165,0.55179 1.370525,-0.12884 2.292204,-3.0517 5.380581,-5.52266 7.223225,-8.88874 -0.151861,-0.42977 -0.815059,-0.71123 -1.21875,-0.80469 z"
         style="color:#000000;display:inline;overflow:visible;visibility:visible;vector-effect:none;fill:#a1582c;fill-opacity:1;fill-rule:nonzero;stroke:none;stroke-width:9.43802357;stroke-linecap:butt;stroke-linejoin:miter;stroke-miterlimit:4;stroke-dasharray:none;stroke-dashoffset:0;stroke-opacity:1;marker:none;enable-background:accumulate" />
      <path
         inkscape:connector-curvature="0"
         id="path3138"
         d="m 68.337891,390.16016 c -1.056933,0.73372 -1.85637,1.91167 -2.761041,2.86248 -1.62175,1.95133 -3.284518,3.8998 -4.637397,6.04181 -0.440579,0.84203 0.729774,1.57394 1.357422,0.92188 2.4961,-2.98844 5.243446,-5.7992 7.599609,-8.92383 -0.642025,-0.0951 -0.877865,-0.94432 -1.558593,-0.90234 z"
         style="color:#000000;display:inline;overflow:visible;visibility:visible;vector-effect:none;fill:#a1582c;fill-opacity:1;fill-rule:nonzero;stroke:none;stroke-width:9.43802357;stroke-linecap:butt;stroke-linejoin:miter;stroke-miterlimit:4;stroke-dasharray:none;stroke-dashoffset:0;stroke-opacity:1;marker:none;enable-background:accumulate" />
      <path
         inkscape:connector-curvature="0"
         id="path3144"
         d="m 71.492188,389.88672 c -1.066531,0.71381 -1.904597,1.8852 -2.808594,2.8457 -1.410517,1.74488 -2.845087,3.59544 -3.566892,5.73349 -0.13063,0.69345 0.822662,1.11901 1.168742,0.4403 2.241355,-2.43607 3.884201,-5.34355 6.146197,-7.74801 0.482411,-0.5657 -0.471897,-1.17728 -0.939453,-1.27148 z"
         style="color:#000000;display:inline;overflow:visible;visibility:visible;vector-effect:none;fill:#a1582c;fill-opacity:1;fill-rule:nonzero;stroke:none;stroke-width:9.43802357;stroke-linecap:butt;stroke-linejoin:miter;stroke-miterlimit:4;stroke-dasharray:none;stroke-dashoffset:0;stroke-opacity:1;marker:none;enable-background:accumulate" />
      <path
         inkscape:connector-curvature="0"
         id="path3146"
         d="m 55.125,388.76367 c -0.889742,-0.12038 -1.716748,0.95636 -1.038274,1.70525 1.193448,2.74142 2.706803,5.33569 4.432805,7.77522 0.921131,-0.0868 0.940404,-1.293 0.351563,-1.79492 -1.012643,-2.66343 -2.680527,-5.02761 -3.607422,-7.73047 z"
         style="color:#000000;display:inline;overflow:visible;visibility:visible;vector-effect:none;fill:#a1582c;fill-opacity:1;fill-rule:nonzero;stroke:none;stroke-width:9.43802357;stroke-linecap:butt;stroke-linejoin:miter;stroke-miterlimit:4;stroke-dasharray:none;stroke-dashoffset:0;stroke-opacity:1;marker:none;enable-background:accumulate" />
      <path
         inkscape:connector-curvature="0"
         id="path3148"
         d="m 59.820312,389.61133 c -0.899714,-0.10102 -1.549947,1.07781 -0.892578,1.74609 1.34173,3.10969 3.041987,6.1695 5.638672,8.41016 0.91063,-0.62515 0.267539,-1.79369 -0.427734,-2.29492 -1.535263,-2.56453 -3.022252,-5.15963 -4.1875,-7.90821 z"
         style="color:#000000;display:inline;overflow:visible;visibility:visible;vector-effect:none;fill:#a1582c;fill-opacity:1;fill-rule:nonzero;stroke:none;stroke-width:9.43802357;stroke-linecap:butt;stroke-linejoin:miter;stroke-miterlimit:4;stroke-dasharray:none;stroke-dashoffset:0;stroke-opacity:1;marker:none;enable-background:accumulate" />
      <path
         inkscape:connector-curvature="0"
         id="path3150"
         d="m 64.736328,389.28125 c -0.869564,-0.0453 -1.654959,1.0572 -0.978516,1.76953 1.482705,3.0042 2.915522,6.44474 6.060547,8.07031 0.708127,-0.66117 0.08473,-1.68147 -0.654297,-1.99023 -1.991529,-2.29754 -2.848405,-5.27318 -4.300781,-7.90234 z"
         style="color:#000000;display:inline;overflow:visible;visibility:visible;vector-effect:none;fill:#a1582c;fill-opacity:1;fill-rule:nonzero;stroke:none;stroke-width:9.43802357;stroke-linecap:butt;stroke-linejoin:miter;stroke-miterlimit:4;stroke-dasharray:none;stroke-dashoffset:0;stroke-opacity:1;marker:none;enable-background:accumulate" />
      <path
         inkscape:connector-curvature="0"
         id="path3154"
         d="m 78.734375,349.55469 c -0.761259,0.0414 -0.749138,1.1093 -1.476011,1.20874 -0.549158,0.38431 -0.81403,1.15959 -1.54938,1.26587 1.35164,1.70203 2.765938,3.55593 2.895098,5.81282 0.47557,1.97502 0.559614,4.22456 1.852949,5.86882 0.822153,0.71766 2.354903,0.55483 2.644531,-0.62696 0.598619,-1.71988 -0.19399,-3.54537 -0.731499,-5.17641 -1.151725,-2.47996 -0.533435,-5.52722 -2.206001,-7.79234 -0.308436,-0.44412 -0.915313,-0.59849 -1.429687,-0.56054 z"
         style="color:#000000;display:inline;overflow:visible;visibility:visible;vector-effect:none;fill:#a1582c;fill-opacity:1;fill-rule:nonzero;stroke:none;stroke-width:9.43802357;stroke-linecap:butt;stroke-linejoin:miter;stroke-miterlimit:4;stroke-dasharray:none;stroke-dashoffset:0;stroke-opacity:1;marker:none;enable-background:accumulate" />
      <path
         inkscape:connector-curvature="0"
         id="path3156"
         d="m 74.755859,350.34375 c -0.799972,0.0314 -1.364824,0.84932 -1.511718,1.47852 -1.214948,-0.30042 -2.392569,1.11485 -1.779463,2.24193 0.221649,1.56312 0.55849,3.11021 0.701338,4.68385 -0.607613,-1.57516 -0.847624,-3.34946 -1.666134,-4.80717 -0.936405,-0.84566 -2.736504,-0.0945 -2.644413,1.14115 -0.384563,-1.3689 -2.557943,-1.61864 -3.076659,-0.20867 -0.652481,1.3601 -0.766283,2.97402 -0.612794,4.45281 0.121393,0.7593 1.041138,1.85563 1.751953,1.01367 0.360982,-0.15043 0.580353,-1.21554 0.748047,-0.84765 0.550152,1.38628 0.892287,2.88449 1.660156,4.16406 0.77683,0.53977 1.702828,-0.3436 1.611405,-1.16379 0.202074,-0.68857 0.312114,-1.45863 0.451095,-2.11551 0.470685,1.29814 0.909008,3.08836 2.435547,3.47461 1.574903,0.0905 2.310407,-1.70276 2.264927,-3.03085 -0.07623,-0.55636 0.03552,-0.65525 0.469448,-0.3168 1.011598,0.46676 2.241965,-0.2771 2.287109,-1.39844 0.43842,-1.80128 -0.944163,-3.40805 -0.935547,-5.14453 0.217418,-1.1706 -0.202823,-2.53212 -1.057851,-3.35125 -0.314399,-0.22373 -0.714651,-0.31718 -1.096446,-0.26594 z m -2.460937,3.22852 c -0.05871,0.10562 -0.06977,-0.0962 0,0 z"
         style="color:#000000;display:inline;overflow:visible;visibility:visible;vector-effect:none;fill:#a1582c;fill-opacity:1;fill-rule:nonzero;stroke:none;stroke-width:9.43802357;stroke-linecap:butt;stroke-linejoin:miter;stroke-miterlimit:4;stroke-dasharray:none;stroke-dashoffset:0;stroke-opacity:1;marker:none;enable-background:accumulate" />
      <path
         inkscape:connector-curvature="0"
         id="path3158"
         d="m 61.882812,354.21094 c -0.996557,0.68201 -0.718488,2.12134 -1.120607,3.13611 -0.221658,0.45466 -0.107111,1.75961 -0.510822,1.7781 -1.285384,-0.91579 -3.04613,-0.0566 -3.671305,1.25376 -0.343483,0.34914 -0.659351,1.63561 -0.816733,0.58701 -0.300244,-1.04079 -1.621236,-1.75775 -2.536783,-0.96787 -1.172679,0.94919 -1.383499,2.59484 -1.980468,3.86523 -0.492066,-1.86562 -3.108908,-2.60873 -4.530019,-1.30108 -2.567179,1.79834 -3.143424,5.12119 -3.980821,7.92623 -1.308936,5.1496 -2.389894,10.40366 -2.688289,15.71858 0.03061,1.20673 -0.01079,2.73507 1.021394,3.55471 0.864178,0.50846 1.97801,-0.20229 1.970703,-1.17969 0.257731,-0.59249 0.254308,-1.5188 -0.419921,-1.74219 0.672702,-3.7788 1.111658,-7.61168 1.967061,-11.36047 0.731777,-3.14654 1.367326,-6.36095 2.720439,-9.31335 0.345398,-0.62553 0.792832,-1.27751 1.490234,-1.53711 0.964251,1.35991 0.370809,3.1187 0.195313,4.60351 -0.296372,0.98322 0.567429,2.06349 1.603515,1.80078 1.208745,-0.3557 1.292856,-1.85513 1.872991,-2.78654 0.57717,-1.33445 1.067245,-2.69964 1.611384,-4.04549 0.148031,0.93056 -0.174354,2.56233 1.101563,2.78711 0.869162,0.22831 1.644693,-0.4604 1.802989,-1.28152 0.744607,-1.39862 1.273341,-2.92017 2.210682,-4.21262 0.665509,0.7806 0.747926,1.91334 1.382813,2.67383 1.187272,0.36969 1.653889,-1.13108 1.880859,-1.99024 0.73138,-2.41066 1.084447,-4.91387 1.726563,-7.34765 -0.823003,-0.01 -1.466423,-0.72654 -2.302735,-0.61914 z"
         style="color:#000000;display:inline;overflow:visible;visibility:visible;vector-effect:none;fill:#a1582c;fill-opacity:1;fill-rule:nonzero;stroke:none;stroke-width:9.43802357;stroke-linecap:butt;stroke-linejoin:miter;stroke-miterlimit:4;stroke-dasharray:none;stroke-dashoffset:0;stroke-opacity:1;marker:none;enable-background:accumulate" />
      <path
         inkscape:connector-curvature="0"
         id="path3160"
         d="m 42.898438,365.125 c -2.290675,0.66222 -2.908354,3.28135 -3.454408,5.29719 -0.81977,3.39196 -1.594897,6.92108 -1.141296,10.41961 0.219765,0.89742 1.549423,1.42354 2.060547,0.4707 0.520428,-0.57332 -0.157669,-1.20197 0.146884,-1.822 0.591476,-3.92704 0.947662,-7.96092 2.591397,-11.62722 0.726569,0.48485 2.053348,-0.14782 1.626796,-1.10477 -0.177775,-0.84292 -0.868931,-1.76484 -1.82992,-1.63351 z"
         style="color:#000000;display:inline;overflow:visible;visibility:visible;vector-effect:none;fill:#a1582c;fill-opacity:1;fill-rule:nonzero;stroke:none;stroke-width:9.43802357;stroke-linecap:butt;stroke-linejoin:miter;stroke-miterlimit:4;stroke-dasharray:none;stroke-dashoffset:0;stroke-opacity:1;marker:none;enable-background:accumulate" />
      <path
         inkscape:connector-curvature="0"
         id="path3162"
         d="m 39.646484,371.00781 c -1.003772,0.52384 -1.4044,1.85826 -1.664109,2.92835 -0.939284,5.43658 -0.958295,10.98123 -1.422267,16.4717 -0.0032,1.57387 -0.353823,3.60026 1.006996,4.74486 1.128776,0.84031 2.669854,-0.13037 2.993133,-1.33763 0.290415,-0.80695 1.154015,-1.65441 0.847966,-2.55142 -0.373619,-0.60755 -1.156676,-0.18315 -1.219074,0.41625 -0.146584,0.29249 -0.943783,1.63571 -0.963682,0.9518 -0.0069,-4.46341 0.765372,-8.87883 0.797104,-13.34325 0.138109,-2.41526 0.413495,-4.84407 1.297761,-7.11659 -0.677091,-0.20528 -0.902863,-1.16365 -1.673828,-1.16407 z"
         style="color:#000000;display:inline;overflow:visible;visibility:visible;vector-effect:none;fill:#a1582c;fill-opacity:1;fill-rule:nonzero;stroke:none;stroke-width:9.43802357;stroke-linecap:butt;stroke-linejoin:miter;stroke-miterlimit:4;stroke-dasharray:none;stroke-dashoffset:0;stroke-opacity:1;marker:none;enable-background:accumulate" />
      <path
         inkscape:connector-curvature="0"
         id="path3164"
         d="m 50.742188,364.16797 c -1.646006,0.77373 -1.658454,2.85877 -2.288837,4.3355 -1.037424,3.17692 -1.887214,6.41414 -2.541242,9.69184 0.573842,-3.3793 1.246569,-6.80662 1.072266,-10.24219 -0.405679,-0.88818 -1.830967,-0.62813 -2.373047,-0.0117 -0.441554,0.89424 -0.03598,1.95697 -0.327741,2.90623 -0.699416,6.13167 -2.687478,12.19822 -2.110841,18.41906 0.202518,1.03837 1.541949,1.95745 2.437488,1.0808 1.141525,-0.79533 1.122863,-2.47734 1.63586,-3.50961 1.132079,0.53332 2.516028,-1.19689 1.423828,-2.03516 0.321142,-2.18335 0.542894,-4.38983 1.097612,-6.53841 0.954491,-4.2161 2.490929,-8.28324 3.682572,-12.43527 0.156837,-1.05124 -0.652207,-1.85674 -1.707918,-1.66108 z m -5.582032,18.48828 c -0.127937,0.76266 -0.151094,1.54716 -0.3125,2.30078 0.111603,-1.05573 0.266044,-2.10647 0.435547,-3.1543 -0.04102,0.28451 -0.08203,0.56901 -0.123047,0.85352 z"
         style="color:#000000;display:inline;overflow:visible;visibility:visible;vector-effect:none;fill:#a1582c;fill-opacity:1;fill-rule:nonzero;stroke:none;stroke-width:9.43802357;stroke-linecap:butt;stroke-linejoin:miter;stroke-miterlimit:4;stroke-dasharray:none;stroke-dashoffset:0;stroke-opacity:1;marker:none;enable-background:accumulate" />
      <path
         inkscape:connector-curvature="0"
         id="path3166"
         d="m 55.707031,360.53516 c -1.65204,2.98527 -1.99731,6.4722 -2.638568,9.77136 -0.559727,3.6542 -1.426984,7.30124 -1.443426,11.01124 0.1128,0.85568 0.03491,2.30869 1.140588,2.48302 0.930583,0.086 1.51708,-0.89712 1.390051,-1.73058 0.924274,-6.80588 1.995525,-13.58682 3.580652,-20.26122 -0.07872,-0.97184 -1.269776,-1.04496 -1.96289,-1.37734 z"
         style="color:#000000;display:inline;overflow:visible;visibility:visible;vector-effect:none;fill:#a1582c;fill-opacity:1;fill-rule:nonzero;stroke:none;stroke-width:9.43802357;stroke-linecap:butt;stroke-linejoin:miter;stroke-miterlimit:4;stroke-dasharray:none;stroke-dashoffset:0;stroke-opacity:1;marker:none;enable-background:accumulate" />
      <path
         inkscape:connector-curvature="0"
         id="path3168"
         d="m 48.738281,365.87305 c -1.002754,0.33908 -1.134383,1.71876 -1.473926,2.59974 -1.373768,4.2199 -2.610377,8.62715 -2.415578,13.10649 0.07725,0.87673 0.220039,2.39843 1.391457,2.3797 1.18336,-0.32349 0.718858,-1.83566 0.903322,-2.71353 0.497159,-4.5145 1.629193,-8.95088 2.959281,-13.27498 0.33105,-0.52497 0.53036,-1.46267 -0.288254,-1.63919 -0.338354,-0.19279 -0.667054,-0.45784 -1.076302,-0.45823 z"
         style="color:#000000;display:inline;overflow:visible;visibility:visible;vector-effect:none;fill:#a1582c;fill-opacity:1;fill-rule:nonzero;stroke:none;stroke-width:9.43802357;stroke-linecap:butt;stroke-linejoin:miter;stroke-miterlimit:4;stroke-dasharray:none;stroke-dashoffset:0;stroke-opacity:1;marker:none;enable-background:accumulate" />
      <path
         inkscape:connector-curvature="0"
         id="path3170"
         d="m 45.125,369.62305 c -0.805277,0.50846 -1.154255,1.63109 -1.491108,2.52361 -0.985199,3.59286 -0.926011,7.37698 -0.946392,11.076 0.174041,1.82094 0.06867,3.96963 1.402344,5.39453 1.011585,0.94201 3.011303,-0.58234 2.195312,-1.75196 -0.260798,-0.39618 -0.817276,0.41063 -0.646166,-0.29755 -0.267059,-4.68989 -0.269937,-9.45928 0.780932,-14.05401 0.05024,-0.60255 0.82111,-1.4804 0.560547,-1.88281 -0.676036,-0.19961 -1.072211,-1.08722 -1.855469,-1.00781 z"
         style="color:#000000;display:inline;overflow:visible;visibility:visible;vector-effect:none;fill:#a1582c;fill-opacity:1;fill-rule:nonzero;stroke:none;stroke-width:9.43802357;stroke-linecap:butt;stroke-linejoin:miter;stroke-miterlimit:4;stroke-dasharray:none;stroke-dashoffset:0;stroke-opacity:1;marker:none;enable-background:accumulate" />
      <path
         inkscape:connector-curvature="0"
         id="path3172"
         d="m 54.400391,363.89648 c -0.852232,-0.0816 -1.970543,0.67259 -1.611329,1.62305 -0.479789,0.67885 -0.867974,1.38726 -0.991505,2.21992 -1.787207,5.40364 -3.735203,10.99972 -3.242869,16.77813 0.370997,1.28193 2.6143,1.41774 2.847656,-0.0215 1.42699,-4.01084 2.07753,-8.24313 3.040195,-12.38082 0.463742,-2.49652 0.971315,-5.04299 0.91293,-7.58402 -0.129151,-0.39053 -0.52982,-0.70924 -0.955078,-0.63477 z"
         style="color:#000000;display:inline;overflow:visible;visibility:visible;vector-effect:none;fill:#a1582c;fill-opacity:1;fill-rule:nonzero;stroke:none;stroke-width:9.43802357;stroke-linecap:butt;stroke-linejoin:miter;stroke-miterlimit:4;stroke-dasharray:none;stroke-dashoffset:0;stroke-opacity:1;marker:none;enable-background:accumulate" />
      <path
         inkscape:connector-curvature="0"
         id="path3174"
         d="m 55.101562,359.3418 c -2.150747,0.40057 -3.037509,2.67522 -4.382583,4.12661 -0.792436,1.07423 -1.667609,2.31451 -1.646713,3.68589 0.546353,0.79359 -0.6519,1.43 -0.658204,2.25781 -0.459824,1.29757 1.376043,2.30278 2.323743,1.43116 2.033618,-2.49501 3.303369,-5.5541 5.098133,-8.20655 -0.02542,-1.0135 0.951604,-2.2782 -0.103516,-3.08789 -0.180162,-0.13487 -0.405232,-0.21422 -0.63086,-0.20703 z"
         style="color:#000000;display:inline;overflow:visible;visibility:visible;vector-effect:none;fill:#a1582c;fill-opacity:1;fill-rule:nonzero;stroke:none;stroke-width:9.43802357;stroke-linecap:butt;stroke-linejoin:miter;stroke-miterlimit:4;stroke-dasharray:none;stroke-dashoffset:0;stroke-opacity:1;marker:none;enable-background:accumulate" />
      <path
         inkscape:connector-curvature="0"
         id="path3176"
         d="m 62.960938,356.67383 c -1.71145,1.13947 -1.921923,3.41961 -2.525391,5.21875 -0.15822,0.58145 -0.51893,2.02723 -0.580843,2.11875 0.34829,-1.86091 0.904308,-3.79482 0.756624,-5.67149 -0.558315,-0.62307 -1.556116,-0.0282 -2.113281,-0.64062 -0.575776,0.60231 -0.604027,1.49039 -0.898438,2.2168 -0.785223,-0.41491 -2.086924,0.0163 -1.898473,1.06385 -0.06356,2.28154 -0.76655,4.74412 0.191442,6.94786 0.650777,0.6609 0.05159,1.72347 0.595703,2.47071 0.655978,1.4269 2.848248,1.15531 3.466635,-0.17786 1.547868,-2.12444 2.031965,-4.88614 2.781412,-7.2655 1.108064,-0.0385 1.006289,-1.54127 1.29984,-2.2896 0.201382,-0.94786 0.525219,-1.94526 0.469691,-2.8979 -0.408298,-0.44876 -0.817991,-1.26213 -1.544921,-1.09375 z"
         style="color:#000000;display:inline;overflow:visible;visibility:visible;vector-effect:none;fill:#a1582c;fill-opacity:1;fill-rule:nonzero;stroke:none;stroke-width:9.43802357;stroke-linecap:butt;stroke-linejoin:miter;stroke-miterlimit:4;stroke-dasharray:none;stroke-dashoffset:0;stroke-opacity:1;marker:none;enable-background:accumulate" />
      <path
         inkscape:connector-curvature="0"
         id="path3178"
         d="m 65.462891,356.62695 c -0.906145,-0.0989 -2.122817,0.67569 -1.638672,1.69141 0.524193,2.3079 -0.134626,5.00173 1.347656,7.04297 0.940621,0.52246 1.523778,-0.78524 1.474609,-1.55274 0.308137,-2.3019 0.264688,-4.72444 -0.429687,-6.9414 -0.171127,-0.23569 -0.48649,-0.26886 -0.753906,-0.24024 z"
         style="color:#000000;display:inline;overflow:visible;visibility:visible;vector-effect:none;fill:#a1582c;fill-opacity:1;fill-rule:nonzero;stroke:none;stroke-width:9.43802357;stroke-linecap:butt;stroke-linejoin:miter;stroke-miterlimit:4;stroke-dasharray:none;stroke-dashoffset:0;stroke-opacity:1;marker:none;enable-background:accumulate" />
      <path
         inkscape:connector-curvature="0"
         id="path3180"
         d="m 66.037109,356.66211 c -1.116309,0.23248 -0.910184,1.99295 -0.107421,2.41797 0.885205,-0.10288 0.834966,-1.32295 0.748046,-1.96485 -0.104677,-0.25331 -0.351808,-0.48145 -0.640625,-0.45312 z"
         style="color:#000000;display:inline;overflow:visible;visibility:visible;vector-effect:none;fill:#a1582c;fill-opacity:1;fill-rule:nonzero;stroke:none;stroke-width:9.43802357;stroke-linecap:butt;stroke-linejoin:miter;stroke-miterlimit:4;stroke-dasharray:none;stroke-dashoffset:0;stroke-opacity:1;marker:none;enable-background:accumulate" />
    </g>
  </g>
</svg>
