<?xml version="1.0" encoding="UTF-8" standalone="no"?>
<!-- Created with Inkscape (http://www.inkscape.org/) -->

<svg
   xmlns:dc="http://purl.org/dc/elements/1.1/"
   xmlns:cc="http://creativecommons.org/ns#"
   xmlns:rdf="http://www.w3.org/1999/02/22-rdf-syntax-ns#"
   xmlns:svg="http://www.w3.org/2000/svg"
   xmlns="http://www.w3.org/2000/svg"
   xmlns:sodipodi="http://sodipodi.sourceforge.net/DTD/sodipodi-0.dtd"
   xmlns:inkscape="http://www.inkscape.org/namespaces/inkscape"
   width="4125"
   height="2956"
   viewBox="0 0 4125 2956.0001"
   id="svg3571"
   version="1.1"
   inkscape:version="0.91 r13725"
   sodipodi:docname="laptop_accolade.svg"
   inkscape:export-filename="/media/simon/GeeKey/Projets/GriseBouille/Communication/produits_derives/laptop_accolade.png"
   inkscape:export-xdpi="90"
   inkscape:export-ydpi="90">
  <defs
     id="defs3573" />
  <sodipodi:namedview
     id="base"
     pagecolor="#ffffff"
     bordercolor="#666666"
     borderopacity="1.0"
     inkscape:pageopacity="0.0"
     inkscape:pageshadow="2"
     inkscape:zoom="0.180625"
     inkscape:cx="1575.61"
     inkscape:cy="1346.0978"
     inkscape:document-units="px"
     inkscape:current-layer="layer1"
     showgrid="false"
     units="px"
     inkscape:window-width="1684"
     inkscape:window-height="774"
     inkscape:window-x="437"
     inkscape:window-y="478"
     inkscape:window-maximized="0" />
  <metadata
     id="metadata3576">
    <rdf:RDF>
      <cc:Work
         rdf:about="">
        <dc:format>image/svg+xml</dc:format>
        <dc:type
           rdf:resource="http://purl.org/dc/dcmitype/StillImage" />
        <dc:title></dc:title>
      </cc:Work>
    </rdf:RDF>
  </metadata>
  <g
     inkscape:label="Calque 1"
     inkscape:groupmode="layer"
     id="layer1"
     transform="translate(0,1903.6378)">
    <text
       xml:space="preserve"
       style="font-style:normal;font-variant:normal;font-weight:normal;font-stretch:normal;font-size:213.36256409px;font-family:Purisa;-inkscape-font-specification:Purisa;fill:#000000;fill-opacity:1;stroke:none"
       x="5.9068117"
       y="-1627.0587"
       id="text2537"
       inkscape:transform-center-x="34.616479"
       inkscape:transform-center-y="-48.463037"><tspan
         sodipodi:role="line"
         id="tspan2539"
         x="5.9068117"
         y="-1627.0587"
         style="font-weight:normal;font-size:298.70758057px;-inkscape-font-specification:Purisa">ACCOLADE</tspan></text>
    <text
       xml:space="preserve"
       style="font-style:normal;font-variant:normal;font-weight:300;font-stretch:normal;font-size:149.35379028px;font-family:Purisa;-inkscape-font-specification:'Purisa Light';text-align:start;text-anchor:start;fill:#000000;fill-opacity:1;stroke:none"
       x="30.206694"
       y="-1442.4678"
       id="text2541"><tspan
         sodipodi:role="line"
         x="30.206694"
         y="-1442.4678"
         id="tspan3576">Symbole de typographie proche du crochet (mais</tspan><tspan
         sodipodi:role="line"
         x="30.206694"
         y="-1255.7755"
         id="tspan3578">il ne faut surtout pas les confondre).</tspan></text>
    <g
       id="g4026"
       transform="translate(-245.73489,-262.41156)">
      <path
         inkscape:connector-curvature="0"
         d="m 1709.4359,418.1292 c 30.2998,-7.09707 62.5092,-3.90613 93.1967,-1.9723 45.1161,3.68206 90.994,10.04614 130.6673,29.13612 8.6161,4.1459 16.4743,9.30853 24.7114,13.96276 30.3276,21.05863 53.1481,48.24526 62.0099,81.1432 5.2906,19.63974 3.4292,24.11146 2.1594,43.80876 -2.0104,6.60312 -3.2651,13.39192 -6.0311,19.80919 -10.0177,23.24187 -30.3768,41.42182 -54.4566,54.90468 -5.131,2.87283 -10.6119,5.26072 -15.918,7.89102 -14.5686,5.32902 -37.4015,15.52924 -53.2895,8.33522 -1.2942,-0.58571 -9.15,-7.62318 -11.2511,-9.48114 0,0 0.3481,-0.44898 0.3481,-0.44898 l 0,0 c 1.4813,0.34689 2.9558,1.42539 4.4438,1.04311 2.3592,-0.60601 3.8781,-2.62451 5.9853,-3.72195 2.2616,-1.17786 4.6463,-2.18849 7.0781,-3.08172 11.1484,-4.0951 23.0474,-6.76774 33.54,-12.20178 32.7095,-16.01482 54.1941,-31.64795 63.1013,-64.06819 1.5689,-16.07184 3.1963,-19.60863 -0.6751,-35.8753 -6.761,-28.40717 -25.8775,-52.16053 -51.1055,-70.9758 -7.1597,-4.26502 -13.9491,-9.00379 -21.479,-12.79494 -36.7452,-18.50022 -79.9858,-24.41011 -122.1298,-28.16077 -28.3624,-2.03343 -56.9089,-4.02059 -85.4621,-1.87932 0,0 -5.4432,-15.37253 -5.4432,-15.37253 z"
         id="path3001"
         style="fill:#000000;stroke:none" />
      <path
         inkscape:connector-curvature="0"
         d="m 1752.5853,645.68229 c -8.5601,14.59844 -13.4793,30.70903 -17.0279,47.14227 -2.3279,16.20684 -4.185,33.45648 1.2893,49.22364 -2.2767,3.16764 2.5738,2.331 2.4445,1.4008 -0.1451,-1.04143 -2.083,-1.81771 -1.5703,-2.73586 0.4137,-0.74123 1.3498,-1.03069 2.0117,-1.56236 1.1643,-0.93539 2.311,-1.89258 3.4664,-2.83885 8.4918,-8.63177 17.8149,-14.31025 29.9008,-15.58375 1.5563,-0.15703 3.1123,-0.31644 4.6685,-0.47465 0,0 0.4472,0.44539 0.4472,0.44539 l 0,0 c -0.2394,1.63902 -0.4782,3.27804 -0.717,4.91706 -2.7999,12.42757 -9.6307,21.97265 -19.6081,29.94696 -12.8241,9.41774 -28.2694,16.4918 -39.8614,0.24001 -1.5163,-2.12573 -2.2811,-4.69763 -3.4215,-7.0466 -5.5413,-20.21047 -4.955,-41.11728 0.2669,-61.41091 5.6882,-18.48637 13.3523,-36.01489 27.1055,-50.04005 0,0 10.6058,8.37582 10.6058,8.37582 z"
         id="path3009"
         style="fill:#000000;stroke:none" />
      <path
         inkscape:connector-curvature="0"
         d="m 1785.2087,681.25428 c -0.7208,13.69249 -0.8618,27.41034 -0.3296,41.11041 0.3959,2.6608 0.2562,19.3088 4.8267,18.77236 3.8191,0.89993 7.5162,0.0119 11.3007,-0.34151 9.4352,-1.1064 14.3917,-11.43182 17.6861,-19.15931 2.1544,-7.33141 5.0756,-15.11376 2.9865,-22.74984 -1.5854,-3.46043 -3.7227,-6.6725 -7.4951,-7.82825 -5.2323,-1.14581 -12.4478,-3.61711 11.5219,-0.17853 0.018,0.003 0.3236,2.33082 0.5917,4.36556 1.735,12.72742 4.9402,25.12507 8.7122,37.37945 4.3561,13.16289 9.6253,26.41452 20.5433,35.42429 8.4409,5.01049 17.0725,1.55753 25.115,-2.50152 9.2715,-5.11062 15.5555,-12.1638 18.2704,-22.33709 1.0838,-6.80505 0.5141,-13.84736 -4.7063,-18.74263 -1.4501,-1.21624 -4.6045,-0.005 -5.3354,-1.86602 -0.9201,-3.52311 -4.02,-4.86611 -7.1925,-5.86169 0,0 -0.526,-0.34928 -0.526,-0.34928 l 0,0 c -2.8029,-5.88625 -2.6331,-10.40908 3.0933,-14.39605 10.5696,-4.12936 20.5042,-1.15504 28.6172,6.75699 10.0709,12.85745 11.8765,25.46109 8.1153,41.31955 -5.8512,17.44176 -14.439,27.13772 -30.6366,35.96731 -17.5563,7.9682 -32.9293,10.21132 -49.4578,-1.78608 -14.1843,-13.51503 -20.696,-27.22812 -26.0742,-45.9394 -3.6439,-14.0728 -6.8207,-28.46944 -6.2873,-43.10162 0.1898,-2.17486 0.5612,-7.77029 1.1023,-8.01664 16.8745,-7.67876 16.3462,-7.24542 13.9404,-1.05254 -1.292,4.0785 0.6505,7.9136 2.055,11.72522 2.1067,8.64192 1.1726,17.08998 -1.2787,25.62486 -2.9918,12.43222 -5.4566,25.63197 -14.6702,35.14224 -1.6622,1.00477 -3.2036,2.24394 -4.9868,3.01384 -8.9248,3.85318 -19.5599,1.16127 -27.771,-2.93807 -1.7743,-1.49477 -3.781,-2.75073 -5.3228,-4.48414 -7.5894,-8.53255 -7.4845,-20.90728 -7.9842,-31.57272 0.1391,-15.09036 0.8993,-30.36239 5.0346,-44.96186 0,0 16.5418,3.56373 16.5418,3.56373 z"
         id="path3011"
         style="fill:#000000;stroke:none" />
      <path
         inkscape:connector-curvature="0"
         d="m 1465.0542,342.87518 c 21.9654,18.94633 46.7504,35.04857 75.0874,42.60637 8.354,2.22818 16.9962,3.18633 25.4943,4.77943 9.3342,0.18509 18.6847,1.15058 28.0021,0.56242 45.9609,-2.8979 89.4463,-22.67903 126.4079,-49.33588 10.5369,-7.5993 20.1382,-16.41826 30.2073,-24.62744 36.1586,-34.06349 65.8278,-74.57852 82.7186,-121.61326 9.823,-27.3535 9.4863,-34.56914 13.6237,-62.76018 2.6174,-34.674927 -2.2955,-69.094617 -15.4427,-101.316757 -5.453,-13.36458 -9.184,-19.02359 -16.1323,-31.14124037 -4.863,-9.79912003 -12.6236,-17.85742963 -17.1172,-27.85841963 -4.0149,-8.93531 0.4788,-5.332 -5.9822,-8.97842 0,0 0.3099,-0.6312 0.3099,-0.6312 l 0,0 c 11.8312,5.02231 -7.0948,-2.49106 11.9181,2.24562 12.6819,3.15952 21.9939,13.26457 30.9076,22.0148 3.7614,5.1008996 7.9197,9.9317996 11.2844,15.3027796 25.1946,40.2180004 31.6722,88.0659304 28.7054,134.6467274 -4.8094,31.23509 -4.5803,39.80711 -15.6482,70.02196 -18.77,51.24107 -51.4506,95.35827 -91.0709,132.39383 -11.0249,8.86736 -21.5324,18.41972 -33.0748,26.60216 -41.7088,29.56772 -91.0078,50.65859 -142.6548,52.44603 -10.8106,0.37376 -21.6033,-1.15408 -32.405,-1.73007 -9.7905,-2.20011 -19.7815,-3.6473 -29.3718,-6.60031 -31.6267,-9.7381 -61.1771,-28.77292 -79.9865,-56.23848 0,0 14.2198,-10.79076 14.2198,-10.79076 z"
         id="path3031"
         style="fill:#000000;stroke:none" />
      <path
         inkscape:connector-curvature="0"
         d="m 1675.521,203.69112 c -4.0759,8.25444 -7.6351,23.817 -16.336,28.64104 -2.2792,1.26335 -4.9784,1.54223 -7.4676,2.31338 -2.932,-1.56164 -6.4516,-2.33147 -8.796,-4.68516 -8.2182,-8.25092 -4.9825,-32.16231 -3.7507,-42.50463 2.1458,-11.00248 4.1605,-24.95862 13.7241,-32.43976 1.7966,-1.40546 3.9903,-2.21141 5.9854,-3.31709 2.6266,-0.0758 5.3352,-0.88405 7.8799,-0.22807 16.3619,4.21779 17.2276,25.21427 16.7789,38.43497 -2.6169,18.61921 -9.7222,36.4176 -22.048,50.66539 -2.018,1.46845 -3.7667,3.407 -6.054,4.40509 -20.6308,9.00254 -26.2915,-13.57003 -28.6237,-28.14077 -1.8071,-18.93541 2.2611,-37.29985 9.7938,-54.56412 5.4915,-9.50084 13.6144,-22.59466 25.9147,-24.00424 2.7747,-0.31882 5.5712,0.40301 8.3568,0.60404 2.6413,1.83198 5.7303,3.14615 7.9239,5.49583 10.2843,11.01591 8.5492,33.53063 7.498,47.15911 -2.4618,11.39187 -2.946,26.25266 -9.3348,36.47593 -1.0792,1.72696 -2.5445,3.17994 -3.8167,4.76976 -3.5921,1.13201 -7.0407,3.87533 -10.7763,3.39626 -15.5979,-2.00071 -16.7007,-24.813 -17.7356,-36.15562 -0.3272,-14.44255 1.5102,-29.26584 8.5785,-42.03356 2.6409,-1.77359 4.7809,-5.81919 7.9228,-5.32078 24.2179,3.84279 14.6748,28.56342 10.1709,43.35197 -5.1594,10.67869 -2.3461,5.64611 -8.3477,15.14886 0,0 -0.7009,-0.0537 -0.7009,-0.0537 l 0,0 c -4.4579,-10.33611 -2.4646,-4.91443 -5.8769,-16.30248 -0.2,-1.44116 -3.4798,-25.1489 -1.6968,-24.74213 16.3804,3.73598 8.5865,8.04942 17.7517,-0.11642 -4.4831,3.74415 -5.0438,22.41489 -5.1569,28.05491 0.4538,5.27851 0.418,6.80499 1.4519,11.82695 0.5397,2.61788 1.6256,5.24083 1.0044,5.18137 -11.2021,-1.07242 -0.731,-4.36312 -13.1093,1.92207 -0.091,0.35823 -0.5093,1.36092 -0.274,1.07565 1.215,-1.46922 2.4217,-5.71274 2.7944,-6.85627 1.3259,-4.06728 2.9153,-9.29379 3.8567,-13.40023 0.6253,-2.72618 1.0699,-5.49052 1.6049,-8.23593 0.8962,-7.98147 1.5093,-15.45796 0.4203,-23.45698 -0.078,-0.54749 -1.3366,-6.34376 -1.0746,-6.61477 0.5081,-0.5248 1.4569,-0.10687 2.1858,-0.15284 0.5009,-0.32838 1.3588,-0.4048 1.5016,-0.98632 0.3015,-1.22593 -2.6544,0.0949 -3.7012,0.8004 -4.0751,2.74565 -6.8039,6.95084 -9.1578,11.14362 -6.0753,13.76365 -9.4433,28.46688 -8.2871,43.59914 0.5624,3.99832 2.8461,11.91579 1.829,12.59875 -5.4237,3.64128 -1.753,-1.73461 -3.9248,1.88017 0.8204,0.1188 1.4906,-0.72476 2.236,-1.08729 10.0185,-10.49839 15.649,-24.22371 18.0878,-38.42082 0.5463,-5.81024 0.9804,-6.92266 0.3093,-12.56913 -0.28,-2.34772 -1.6519,-4.60086 -1.4057,-6.95222 0.097,-0.92202 1.7489,-1.18496 1.692,-2.20663 -5.4537,-2.47125 -9.9382,19.2082 -10.252,22.29458 -0.9178,7.44604 -1.715,14.73869 -1.2434,22.25709 0.1743,2.78912 1.0566,6.75131 0.4597,7.01754 -1.2399,0.55585 -2.7171,0.0418 -4.0755,0.0597 -0.5899,0.59168 -1.9062,0.95122 -1.7682,1.77479 0.1247,0.74887 1.3422,-0.76924 1.8409,-1.34145 1.1192,-1.28503 2.0196,-2.7472 2.9588,-4.1692 3.7642,-5.69931 7.2523,-11.58836 11.218,-17.15847 0,0 11.0602,5.87097 11.0602,5.87097 z"
         id="path3047"
         style="fill:#000000;stroke:none" />
      <path
         inkscape:connector-curvature="0"
         d="m 1746.8953,203.97126 c -3.7193,8.05843 -8.0646,18.93964 -16.7879,22.99922 -2.0321,0.94566 -4.3227,1.18699 -6.4841,1.78052 -2.7008,-0.94125 -5.743,-1.20706 -8.1023,-2.82398 -10.1711,-6.97043 -10.5291,-27.10483 -10.6487,-37.899 1.0039,-6.55852 0.1696,-23.80416 6.1928,-28.42807 2.312,-1.77479 5.3094,-2.40664 7.9639,-3.60994 2.8683,1.11696 6.0479,1.63675 8.6045,3.35082 8.1661,5.4747 11.3816,22.70601 12.5566,31.56353 0.2131,14.97668 -4.5535,29.47613 -13.8675,41.16838 -2.1674,1.28443 -3.9851,3.7475 -6.5022,3.85329 -4.1072,0.17255 -8.5239,-0.79497 -11.9418,-3.0785 -7.8951,-5.27529 -9.2393,-27.84374 -10.1132,-36.27049 -0.1349,-12.33664 -2.5449,-28.17623 5.5343,-38.89762 1.4849,-1.97056 3.5597,-3.41774 5.3396,-5.12662 2.5658,-0.87933 4.9992,-2.36407 7.6978,-2.6386 11.4667,-1.16705 20.4277,8.19385 23.8045,18.15895 0.8904,2.62803 1.2171,5.41446 1.8257,8.1216 0.3893,5.11575 1.218,11.50752 0.2818,16.65325 -0.5021,2.76368 -2.1966,5.23623 -2.5979,8.01651 -0.3177,2.19947 0.3176,4.43327 0.48,6.64975 0,0 -0.7015,0.0537 -0.7015,0.0537 l 0,0 c -0.1612,-2.20186 0.3165,-4.54533 -0.4776,-6.60593 -0.9501,-2.47112 -3.1862,-4.23958 -4.5625,-6.50102 -2.4834,-4.08024 -4.0247,-8.69119 -6.8282,-12.59798 -0.5821,-0.8533 -8.0997,-10.24607 -8.0662,-11.2958 0.03,-0.87964 1.8462,-1.11386 1.5058,-2.16861 -1.1263,-1.40867 -2.578,2.77628 -2.938,4.54361 -1.4444,7.08744 -0.8474,14.42804 -0.4407,21.57245 0.7367,7.05551 0.8448,9.62801 2.1411,16.43144 0.3362,1.76637 1.1661,3.45387 1.2372,5.25051 0.08,1.94477 -8.8447,-1.43644 -10.0487,2.93742 6.5561,-6.79549 9.5793,-16.90209 10.1448,-26.10745 -0.4012,-5.05767 -1.0982,-9.84886 -2.7193,-14.68532 -0.5576,-1.6635 -2.0135,-4.43285 -1.573,-4.55972 1.3607,-0.39107 2.8313,0.0537 4.2468,0.0848 1.3268,-1.05302 2.8193,-1.92566 3.9803,-3.15893 0.1911,-0.20359 -0.06,-0.99599 -0.2561,-0.7967 -4.0394,4.12352 -2.052,13.06672 -3.5413,18.00915 0.012,6.45786 0.1433,12.67021 1.714,18.97785 0.4203,1.68828 2.6202,4.14842 1.1571,5.08961 -0.7576,0.48719 -1.7661,0.35524 -2.6493,0.53376 -3.2434,5.284 7.4,-6.96762 10.0603,-10.71912 0.9288,-1.30974 1.7927,-2.66409 2.6892,-3.99611 0,0 12.6879,6.17038 12.6879,6.17038 z"
         id="path3049"
         style="fill:#000000;stroke:none" />
      <path
         inkscape:connector-curvature="0"
         d="m 1690.3887,232.73331 c 14.1829,3.89832 28.3879,7.69525 42.387,12.21849 7.1412,2.5611 18.2352,4.25851 20.2753,13.37527 0.6982,3.12078 -0.3636,6.3855 -0.5445,9.57828 -7.6778,12.33342 -21.6744,16.67695 -34.7741,21.10628 -8.6648,1.86721 -20.1989,8.23373 -29.0272,3.33786 -1.1461,-0.6352 -1.9299,-1.77336 -2.8949,-2.66009 -0.6385,-1.44343 -1.2768,-2.88662 -1.9153,-4.3301 0,0 -0.2603,-0.65311 -0.2603,-0.65311 l 0,0 c -0.1541,-1.63675 -0.3057,-3.27368 -0.4586,-4.91067 5.3361,-11.22918 16.0406,-10.91483 26.7579,-14.32589 5.4961,-1.77652 10.9219,-3.64552 16.2646,-5.84857 3.2491,-1.33984 5.2295,-2.37877 5.2822,-2.29787 0.4961,0.7619 -0.4472,1.76309 -0.6695,2.64439 0.2543,2.00059 0.01,4.13302 0.7639,6.0016 0.5684,1.40133 1.9228,2.34831 3.0397,3.36807 0.1492,0.13673 0.7467,0.10329 0.6047,-0.0478 -2.3485,-2.38282 -6.311,-3.19773 -9.1696,-4.5276 -13.505,-4.82248 -27.2532,-8.90176 -41.1008,-12.62155 0,0 5.4407,-19.41418 5.4407,-19.41418 z"
         id="path3059"
         style="fill:#000000;stroke:none" />
      <path
         inkscape:connector-curvature="0"
         d="m 1482.3534,-78.761627 c -17.6958,49.43636 -22.1302,102.22755 -26.9484,154.11618 -3.6943,50.133897 -4.7599,100.441367 -4.2107,150.698257 0.3004,27.46891 1.0384,58.0872 3.8183,85.58489 1.119,11.07138 3.0982,22.03893 4.6474,33.05848 4.8398,21.26496 11.6777,42.22653 24.6653,60.02951 2.5472,3.49178 5.7365,6.46646 8.6049,9.69983 0,0 -0.452,0.53915 -0.452,0.53915 l 0,0 c -3.9817,-2.4937 -8.4641,-4.32575 -11.9449,-7.48116 -17.4203,-15.79289 -23.8288,-39.48594 -30.7368,-60.92866 -2.636,-11.18422 -5.8401,-22.2495 -7.9082,-33.55253 -14.4299,-78.86767 -9.4857,-159.90137 -5.2282,-239.413297 5.0877,-53.29343 8.123,-110.3297 34.3079,-158.33303 0,0 11.3845,5.98202 11.3845,5.98202 z"
         id="path3075"
         style="fill:#000000;stroke:none" />
      <path
         inkscape:connector-curvature="0"
         d="m 1818.1451,-40.223087 c -28.8418,23.18891 -54.1645,50.1782596 -78.7011,77.76068 -50.6092,59.768 -93.5142,125.460467 -133.6786,192.533417 -39.4659,66.98633 -70.3981,138.35052 -94.7934,212.05078 -8.9452,32.24267 -5.5796,16.73917 -10.605,46.39728 0,0 -0.7007,-0.0596 -0.7007,-0.0596 l 0,0 c 0.1737,-30.74158 -0.6645,-14.52495 3.0639,-48.61823 2.3377,-10.37462 4.21,-20.86519 7.0133,-31.12381 18.0005,-65.87373 50.3237,-126.93249 83.3547,-186.25121 40.7833,-67.74303 84.2729,-134.216788 137.6593,-192.868368 25.695,-27.3649104 51.8891,-54.59124 81.6144,-77.65899 0,0 5.7731,7.83895 5.7731,7.83895 z"
         id="path3081"
         style="fill:#000000;stroke:none" />
      <path
         inkscape:connector-curvature="0"
         d="m 1836.6599,219.40951 c 6.5838,20.77474 7.8933,42.62022 8.8152,64.23942 0.1199,14.48303 0.4077,29.01396 -1.14,43.44409 -1.0685,9.96093 -3.1581,19.78889 -4.3226,29.74313 -0.5755,2.57173 -0.01,7.28913 -3.2584,8.19104 0,0 -0.6059,0.35643 -0.6059,0.35643 l 0,0 c -3.9947,-1.67991 -3.0088,-5.28627 -2.7501,-9.19957 1.91,-23.92953 -0.4586,-48.13432 0.7045,-72.11641 -0.6531,-21.09815 -2.0275,-42.15207 -4.8972,-63.07661 0,0 7.4543,-1.58224 7.4543,-1.58224 z"
         id="path3083"
         style="fill:#000000;stroke:none" />
      <path
         inkscape:connector-curvature="0"
         d="m 1903.3458,-106.73607 c 18.5609,27.979263 25.9515,61.552413 33.0859,93.847623 10.8168,60.27621 9.9682,122.080687 1.5256,182.613577 -1.9212,13.77463 -4.6922,27.41732 -7.0382,41.1258 -11.8791,51.63101 -26.8996,104.11161 -55.8351,149.13734 -3.2581,5.06984 -7.1035,9.73716 -10.6553,14.60573 -23.802,24.7755 3.3441,-2.28962 -17.7831,15.80652 -1.7256,1.47805 -3.0393,3.37816 -4.5589,5.06745 0,0 -0.5511,-0.43763 -0.5511,-0.43763 l 0,0 c 1.2896,-1.84931 2.9201,-3.50277 3.8686,-5.54808 3.2269,-6.95724 3.3507,-15.17997 8.555,-21.35764 10.0101,-19.56458 20.2864,-38.96861 28.8043,-59.25621 13.6851,-32.59399 24.3228,-66.33907 31.6232,-100.94487 2.4443,-13.34631 5.3112,-26.62211 7.3328,-40.039 8.859,-58.79595 9.7036,-118.867847 -0.2269,-177.5729774 -6.6785,-32.2129396 -14.976,-62.0406796 -27.2782,-92.5187826 0,0 9.131,-4.52915 9.131,-4.52915 z"
         id="path3087"
         style="fill:#000000;stroke:none" />
      <path
         inkscape:connector-curvature="0"
         d="m 1282.6527,110.674 c -3.2397,23.88166 -13.1324,45.56863 -24.8038,66.36844 -16.8745,27.78976 -36.9569,44.44205 -65.765,58.60698 -12.8848,4.60438 -28.9675,12.55057 -42.8714,6.61274 -1.5796,-0.67485 -2.8646,-1.89623 -4.297,-2.84446 -3.8406,-4.83049 -3.1625,-2.12102 -2.1746,-8.09205 0,0 0.7001,-0.0597 0.7001,-0.0597 l 0,0 c 1.4331,-2.04621 0.7382,-0.90429 2.0162,-3.467 10.3171,-8.25719 24.3644,-8.39869 36.0638,-13.95459 23.5109,-11.18123 42.3648,-26.32455 57.002,-48.1637 11.4663,-18.51903 20.3435,-38.07972 25.5937,-59.30344 0,0 18.5359,4.29815 18.5359,4.29815 z"
         id="path3093"
         style="fill:#000000;stroke:none" />
      <path
         inkscape:connector-curvature="0"
         d="m 1294.9733,212.38374 c -1.1565,20.91116 -10.9628,39.81707 -23.0552,56.45301 -5.7123,5.20519 -14.1644,14.94222 -23.2714,12.05227 -1.5235,-0.48361 -2.6423,-1.79933 -3.9635,-2.69908 0,0 -0.2215,-0.66715 -0.2215,-0.66715 l 0,0 c -0.2824,-9.4194 4.7947,-13.9356 10.0678,-21.29936 9.5389,-13.18475 17.1912,-27.81472 20.2829,-43.93689 0,0 20.1609,0.0973 20.1609,0.0973 z"
         id="path3095"
         style="fill:#000000;stroke:none" />
      <path
         inkscape:connector-curvature="0"
         d="m 1340.6716,268.59984 c -9.0369,15.72776 -19.549,30.58442 -31.702,44.04686 -5.3769,5.40527 -11.6003,7.86983 -19.0735,7.88315 0,0 -0.4699,-0.52302 -0.4699,-0.52302 l 0,0 c 0.06,-6.93885 1.3804,-13.2681 5.7317,-18.93476 10.4272,-13.49073 21.0096,-26.89604 29.5797,-41.69258 0,0 15.9342,9.22011 15.9342,9.22011 z"
         id="path3097"
         style="fill:#000000;stroke:none" />
      <path
         inkscape:connector-curvature="0"
         d="m 1387.349,322.90317 c -5.738,18.44619 -14.9,35.34185 -26.5387,50.67322 -9.3896,10.48454 -15.5393,13.91769 -29.2871,15.13603 0,0 -0.4012,-0.57676 -0.4012,-0.57676 l 0,0 c 3.5212,-9.24208 6.2219,-18.63568 12.4032,-26.64336 9.1826,-14.4785 17.9385,-29.17569 23.7839,-45.38491 0,0 20.0402,6.79626 20.0402,6.79626 z"
         id="path3099"
         style="fill:#000000;stroke:none" />
      <path
         inkscape:connector-curvature="0"
         d="m 1757.9246,352.81999 c -1.8899,13.0774 1.1508,24.78445 9.8393,34.68125 5.3018,3.99648 15.0916,11.34877 21.5846,12.49785 2.1105,0.37436 4.2649,-0.43285 6.3973,-0.64911 0,0 0.206,0.67245 0.206,0.67245 l 0,0 c -18.2322,9.35128 -24.0014,13.38686 -43.0441,0.52481 -2.3587,-2.68565 -5.0809,-5.09133 -7.0761,-8.05711 -8.9685,-13.3311 -10.3689,-30.64659 -5.6151,-45.63878 0,0 17.7082,5.96881 17.7082,5.96881 z"
         id="path3101"
         style="fill:#000000;stroke:none" />
      <path
         inkscape:connector-curvature="0"
         d="m 1405.4051,529.18264 c 3.9454,14.29621 14.0856,24.78266 25.6122,33.45276 14.127,8.96762 26.3278,9.21575 41.9471,5.18956 12.719,-4.06848 23.3337,-12.25605 33.8591,-20.18975 7.2325,-4.02268 3.9886,-1.74835 9.8349,-6.67328 0,0 0.5398,0.45197 0.5398,0.45197 l 0,0 c -3.7965,6.6159 -2.1589,3.01766 -4.7342,10.87423 -7.8648,15.74316 -16.2617,28.98296 -32.9103,36.78222 -3.2136,1.10764 -6.329,2.55728 -9.6409,3.32251 -18.7128,4.3233 -37.4978,-1.52325 -53.1201,-11.80085 -16.6233,-13.67153 -30.3994,-29.18381 -29.6894,-52.02559 0,0 18.302,0.61722 18.302,0.61722 z"
         id="path3121"
         style="fill:#000000;stroke:none" />
      <path
         inkscape:connector-curvature="0"
         d="m 1539.3225,556.52312 c 11.9194,9.11926 21.9957,16.12718 37.317,17.49992 17.8759,-2.47906 28.0078,-18.22067 36.9132,-32.33139 6.3774,-8.99126 9.752,-22.05111 19.4534,-28.43542 1.9437,-1.27917 4.3085,-1.75879 6.4628,-2.63812 0,0 0.6259,0.32062 0.6259,0.32062 l 0,0 c 0.5667,2.22789 1.5462,4.38973 1.7014,6.68337 0.8166,12.06277 -7.4302,23.56862 -11.9203,34.03179 -12.6979,21.40749 -28.9306,41.0492 -55.823,41.61837 -3.5848,-0.58511 -7.2439,-0.82381 -10.7546,-1.75545 -14.0446,-3.72814 -26.3374,-12.97805 -35.5974,-23.89957 0,0 11.6213,-11.09335 11.6213,-11.09335 z"
         id="path3127"
         style="fill:#000000;stroke:none" />
      <path
         inkscape:connector-curvature="0"
         d="m 1313.7419,454.02659 c -17.3433,2.40049 -32.2642,11.70664 -46.6633,21.0474 -31.3096,21.75641 -57.4703,49.64695 -82.2514,78.36328 -23.7385,27.94786 -41.63,59.88669 -55.3533,93.73991 -1.2028,8.02273 -10.9316,22.35865 -7.7096,30.70803 0.5039,1.04674 1.0079,2.09349 1.5118,3.14023 0,0 -0.1146,0.69347 -0.1146,0.69347 l 0,0 c -1.847,0.65776 -3.694,1.31524 -5.5409,1.97271 -1.8322,-0.80793 -3.8358,-1.30532 -5.4967,-2.4239 -14.5163,-9.77537 -10.376,-29.56539 -5.4155,-43.28198 14.6648,-36.45773 34.0735,-70.78345 59.976,-100.54258 26.8281,-29.82014 55.0648,-58.80561 88.7969,-80.92013 17.591,-10.63983 36.0052,-20.48887 57.0911,-20.91039 0,0 1.1698,18.41365 1.1698,18.41365 z"
         id="path3137"
         style="fill:#000000;stroke:none" />
      <path
         inkscape:connector-curvature="0"
         d="m 1076.1412,711.25928 c -15.4991,-0.21493 -30.4481,2.65137 -45.001,7.78176 -11.6505,4.48181 -21.4105,12.00038 -29.6294,21.25554 -2.96797,6.01079 -0.4753,0.37853 -0.3022,0.20897 0.2514,-0.2436 1.2734,0.72989 2.8995,2.0816 7.5848,6.38604 16.5648,10.52753 25.8341,13.80647 9.3367,3.23868 18.7549,2.63561 28.1783,0.34867 8.0455,-1.83276 16.7595,-2.74828 23.7787,-7.29994 1.4486,-0.68619 2.8972,-1.37262 4.3458,-2.0588 0,0 0.612,0.34629 0.612,0.34629 l 0,0 c 0.054,1.77688 0.1087,3.55394 0.163,5.33086 -4.7008,13.96976 -9.7845,19.31245 -23.5298,25.25911 -13.7759,3.48582 -27.5663,3.89713 -41.1658,-0.88977 -12.1227,-4.47077 -23.88241,-10.04481 -33.53031,-18.84024 -10.42615,-10.62574 -13.55498,-20.61527 -3.40228,-32.9703 10.90355,-11.76138 23.87069,-21.06018 39.07609,-26.52617 17.3602,-5.55644 35.3855,-8.59433 53.5699,-5.35534 0,0 -1.8965,17.52063 -1.8965,17.52063 z"
         id="path3143"
         style="fill:#000000;stroke:none" />
      <path
         inkscape:connector-curvature="0"
         d="m 1058.8117,764.57253 c -7.5865,9.90808 -14.7195,20.43215 -16.9019,32.90044 -0.2597,6.95102 3.2254,9.23133 9.4618,10.12947 9.8779,0.25315 18.7291,-4.27283 26.8977,-9.34961 9.5436,-7.23372 15.3532,-17.80525 21.3289,-27.91896 3.4343,-6.2354 6.4564,-13.08522 13.7697,-15.09621 0,0 0.5947,0.37555 0.5947,0.37555 l 0,0 c 2.9549,6.95837 1.4869,13.79172 -0.8896,20.82084 -5.0266,14.76806 -11.6091,28.96635 -25.0507,37.88795 -12.7769,7.61541 -26.461,13.71946 -41.6719,10.69809 -15.4293,-5.43087 -22.2875,-14.14815 -20.1285,-31.02009 3.7747,-14.92646 11.0597,-28.27935 22.5281,-38.76842 0,0 10.0616,9.34148 10.0616,9.34148 z"
         id="path3145"
         style="fill:#000000;stroke:none" />
      <path
         inkscape:connector-curvature="0"
         d="m 1109.3743,801.87221 c 5.7179,11.38405 12.9002,21.99826 24.3925,27.98708 8.6524,2.73323 13.4373,-3.35863 17.9529,-9.8501 7.9078,-12.40239 10.6601,-26.68715 12.1503,-41.07107 1.5617,-9.81393 -1.8954,-21.95904 4.7091,-30.29349 1.7157,-1.78625 4.0671,-2.33625 6.1517,-3.52407 0,0 0.685,0.15941 0.685,0.15941 l 0,0 c 1.922,1.24162 4.1889,1.72003 5.7008,3.58455 6.4895,9.0548 2.1364,21.93691 2.3759,32.2034 -2.0219,17.92312 -5.8215,35.54298 -16.1685,50.711 -11.9055,15.04326 -24.2241,22.57454 -43.1645,13.95555 -13.7706,-9.0844 -23.449,-21.94542 -29.6797,-37.24386 0,0 14.8951,-6.61864 14.8951,-6.61864 z"
         id="path3147"
         style="fill:#000000;stroke:none" />
      <path
         inkscape:connector-curvature="0"
         d="m 1969.2365,199.78487 c 36.6864,2.32527 73.0302,10.60651 107.5298,22.94453 10.6705,3.8161 21.0413,8.38705 31.5621,12.58042 10.6199,5.3889 21.5975,10.15419 31.8596,16.16659 41.7125,24.43823 81.2999,59.24028 100.4752,103.85511 4.8714,11.33426 7.0784,23.58614 10.6177,35.37916 0.6041,12.62944 2.7379,25.27966 1.8114,37.88849 -3.1288,42.58016 -22.7362,81.56285 -49.2891,114.76958 -25.2918,31.62939 -38.8281,40.17274 -70.094,66.17208 -50.7307,35.77344 -107.6205,65.34319 -169.2122,78.78586 -12.0345,2.6266 -51.725,6.93347 -65.9107,8.56598 0,0 -0.092,-0.76936 -0.092,-0.76936 l 0,0 c 9.7411,-1.11959 19.6567,-1.25189 29.2231,-3.35851 11.8216,-2.6007 23.1979,-6.85771 34.6583,-10.69411 58.2938,-19.51341 113.7352,-45.61615 163.0107,-82.08557 30.1134,-24.79634 43.5417,-33.35456 68.1567,-63.33698 25.5017,-31.06291 44.6774,-67.45184 48.3312,-107.64823 1.071,-11.78503 -0.6997,-23.65633 -1.0496,-35.48454 -7.7918,-29.2853 -7.6703,-38.74101 -25.0408,-64.47531 -26.6176,-39.43383 -69.2215,-63.57389 -111.7959,-83.35126 -10.2523,-4.08799 -20.3618,-8.53452 -30.7565,-12.26351 -33.4169,-11.98755 -68.6058,-20.19977 -104.1518,-22.58319 0,0 0.159,-11.05771 0.159,-11.05771 z"
         id="path3155"
         style="fill:#000000;stroke:none" />
      <path
         inkscape:connector-curvature="0"
         d="m 2073.1753,181.67775 c 38.9136,13.19048 71.7795,39.26534 104.325,63.12915 42.7786,33.85488 87.1863,71.32986 109.7636,121.73829 4.5516,10.16218 7.2288,21.0259 10.8434,31.53881 1.4284,11.28225 3.9896,22.48408 4.2857,33.84688 1.3844,53.08762 -20.3576,104.3318 -50.3271,147.62502 -8.7102,12.58232 -18.9257,24.10882 -28.3886,36.16331 -52.2275,57.72263 -117.7187,102.63206 -191.8526,129.5755 -12.7501,4.634 -25.9706,7.93515 -38.9561,11.90266 -30.3084,5.755 -36.6813,8.44394 -66.4557,8.83852 -8.2558,0.10923 -16.4892,-0.89347 -24.7339,-1.33995 0,0 -0.036,-0.77419 -0.036,-0.77419 l 0,0 c 29.6988,-3.47173 58.9213,-8.74379 87.366,-18.14337 32.0017,-10.66759 46.0474,-14.33652 77.0478,-28.98135 56.0831,-26.49398 106.1044,-63.16808 147.2297,-108.84591 9.1722,-11.62711 19.0549,-22.75234 27.5167,-34.88103 28.5073,-40.8597 50.2148,-89.59764 49.8811,-139.85998 -0.07,-10.63613 -2.2363,-21.16359 -3.3544,-31.74538 -9.0021,-28.22675 -8.2015,-32.49189 -24.8907,-57.61989 -23.8887,-35.96719 -59.2327,-62.12623 -93.0486,-88.53854 -31.1517,-22.86154 -62.4333,-47.50127 -99.1443,-61.33537 0,0 2.9186,-12.29348 2.9186,-12.29348 z"
         id="path3167"
         style="fill:#000000;stroke:none" />
      <path
         inkscape:connector-curvature="0"
         d="m 2095.801,267.89174 c 19.8606,15.37084 39.9323,31.12679 55.6229,50.74809 4.0388,5.05055 7.514,10.50633 11.2709,15.75952 22.2816,38.0863 22.7516,78.04695 8.2491,119.14584 -3.7476,10.61995 -8.9782,20.68452 -13.4672,31.02678 -6.3502,10.6858 -12.1411,21.70685 -19.0506,32.05741 -29.5414,44.25494 -69.4754,86.72404 -112.958,118.29342 -10.1256,7.35136 -21.1357,13.46926 -31.7035,20.20384 -9.9003,4.86417 -19.8006,9.72826 -29.7007,14.59242 0,0 -0.4036,-0.66719 -0.4036,-0.66719 l 0,0 c 9.0095,-6.02829 18.0191,-12.05657 27.0286,-18.08498 23.9149,-18.48703 36.7638,-27.6922 59.394,-48.27343 39.0021,-35.47086 73.6988,-75.54509 98.4834,-121.81615 4.3254,-9.91417 9.3486,-19.56488 12.9755,-29.74253 13.6649,-38.34392 13.77,-75.58371 -6.932,-111.28419 -3.5157,-4.98751 -6.7524,-10.17295 -10.547,-14.96247 -15.1737,-19.15105 -34.4548,-34.95572 -53.8104,-49.88708 0,0 5.5501,-7.10972 5.5501,-7.10972 z"
         id="path3171"
         style="fill:#000000;stroke:none" />
      <path
         inkscape:connector-curvature="0"
         d="m 2213.3572,307.0471 c 32.9132,-7.37068 51.5474,-35.84365 68.5968,-61.73277 25.6564,-46.41853 42.634,-97.30549 49.7231,-149.630677 1.0873,-8.02673 1.4916,-16.12838 2.2373,-24.19272 -0.3462,-9.43517 1.8836,-39.02587 -6.0659,-47.38802 -0.8868,-0.93277 -2.4504,-0.87193 -3.6754,-1.3079 0,0 0.2549,-0.73304 0.2549,-0.73304 l 0,0 c 1.4522,0.45076 3.0792,0.54211 4.3569,1.35278 14.307,9.08482 10.1604,35.1318 10.9237,48.59609 -5.7791,61.714677 -20.1269,122.957457 -49.9976,178.083637 -18.475,28.98333 -38.2013,59.97202 -75.1855,67.05248 0,0 -1.168,-10.09991 -1.168,-10.09991 z"
         id="path3175"
         style="fill:#000000;stroke:none" />
      <path
         inkscape:connector-curvature="0"
         d="m 2326.8743,75.017943 c 12.1927,23.29929 26.7866,45.645757 45.1153,64.868407 5.3517,5.6125 11.2531,10.70198 16.8795,16.05315 34.8286,29.89007 72.3257,42.02079 117.3238,48.16693 12.9409,1.9142 26.0264,1.44772 39.0407,2.19045 2.9804,0.17076 8.6791,0.29375 11.6605,2.0886 1.008,0.60738 1.5341,1.76183 2.3011,2.6429 0.2614,4.09187 -2.2029,5.55769 -5.1979,7.85203 0,0 -0.5398,-0.57019 -0.5398,-0.57019 l 0,0 c 1.4462,-1.54355 2.8889,-2.80529 3.6879,-4.74833 -17.3847,0.76088 -34.7996,1.45388 -52.1761,-0.16359 -48.851,-5.69268 -86.4835,-17.04169 -125.0498,-48.53763 -5.9247,-5.6602 -12.1498,-11.03627 -17.7742,-16.98025 -19.0615,-20.14497 -35.2414,-43.72417 -44.3366,-69.751437 0,0 9.0649,-3.11134 9.0649,-3.11134 z"
         id="path3177"
         style="fill:#000000;stroke:none" />
      <path
         inkscape:connector-curvature="0"
         d="m 2517.0701,237.86937 c -15.1785,22.27607 -17.0707,49.58026 -18.2155,75.51422 -0.1325,39.119 9.7961,75.02308 29.9716,108.65521 6.3957,11.08708 16.1665,18.88364 25.9061,26.87012 1.3295,2.62852 -0.1929,0.94477 -1.7558,2.60797 -0.7158,0.76243 -0.8971,1.87355 -1.3456,2.81043 -5.1012,-3.14609 -11.177,-4.50145 -17.0401,-5.53494 -18.6177,-1.72553 -37.1494,0.77336 -55.3398,4.43184 -29.2202,7.49086 -57.658,19.86645 -78.6299,41.741 -4.8151,5.02238 -8.7594,10.77607 -13.1392,16.1642 -12.0817,20.23638 -10.648,16.69534 -20.6563,38.02343 -2.9582,6.30412 -6.3961,12.45115 -8.5107,19.07082 -1.894,5.92964 -2.2912,12.22033 -3.4368,18.33059 0,0 -0.7864,-0.10445 -0.7864,-0.10445 l 0,0 c 0.6484,-7.14416 2.94,-34.56089 4.3769,-40.62004 4.6672,-19.68304 9.3916,-24.79348 19.5355,-42.09536 4.8461,-5.85532 9.2232,-12.11119 14.5383,-17.56577 22.5983,-23.19075 53.1844,-36.64168 84.8056,-43.37304 19.4884,-2.82565 39.3878,-5.17474 58.9199,-1.17661 7.1263,1.88716 14.0999,4.36019 19.2263,9.81567 3.907,6.43004 -0.6857,9.85226 -7.3049,9.07275 -14.2874,-5.61834 -24.1085,-19.01929 -33.3811,-30.27413 -2.8531,-4.52468 -5.999,-8.88594 -8.5588,-13.5738 -17.4685,-31.98833 -24.0251,-68.34288 -24.2844,-104.24469 2.2399,-30.82677 5.7634,-57.2469 28.0741,-80.77475 0,0 7.0318,6.22943 7.0318,6.22943 z"
         id="path3179"
         style="fill:#000000;stroke:none" />
      <path
         inkscape:connector-curvature="0"
         d="m 3083.5698,21.795973 c 7.7685,33.54072 12.6764,67.58505 17.2975,101.640187 6.7015,48.46515 10.1123,97.26399 6.9926,146.08498 -2.5982,35.21072 -16.0325,67.17029 -33.2914,97.67596 -13.1273,21.23298 -29.527,41.05786 -52.5119,52.66981 -4.2191,2.13134 -8.7334,3.65592 -13.1002,5.48377 -29.7275,9.48801 -61.086,6.63011 -91.6135,3.23291 -23.7476,-4.40981 -49.4251,-5.13552 -71.3275,-15.95173 -6.819,-8.11848 -4.45,-3.38735 -6.5916,-14.4272 0,0 0.3085,-0.71305 0.3085,-0.71305 l 0,0 c 6.8362,-7.34419 2.9577,-4.50946 11.4263,-8.76988 23.5986,-1.27953 46.3531,7.87066 69.7766,9.66533 25.3997,2.98907 51.5857,6.26096 76.6727,-0.35167 23.7721,-8.53051 39.7992,-23.15039 53.4414,-43.949 16.2193,-26.65568 28.0031,-55.01449 30.5026,-86.28248 3.3524,-47.20615 0.036,-94.4024 -5.4473,-141.38143 -4.1066,-34.017047 -9.3659,-67.885837 -13.1468,-101.933687 0,0 20.6113,-2.69258 20.6113,-2.69258 z"
         id="path3187"
         style="fill:#000000;stroke:none" />
      <path
         inkscape:connector-curvature="0"
         d="m 2921.7624,204.87764 c -20.4821,12.10863 -34.7155,30.44484 -46.47,50.35182 -9.101,20.35824 -16.5685,44.49878 -8.2947,66.47048 1.1869,3.15194 3.2647,5.91413 4.8971,8.87131 13.887,16.6342 35.2214,18.40463 55.7192,16.58167 3.7721,-0.53854 7.5441,-1.0769 11.3161,-1.61496 0,0 0.3087,0.71317 0.3087,0.71317 l 0,0 c -3.2941,2.36205 -6.5882,4.72397 -9.8824,7.08596 -22.9362,10.02511 -46.006,15.8603 -67.6022,-1.6358 -3.9592,-3.20764 -6.8643,-7.48114 -10.2965,-11.22171 -2.2821,-4.6989 -5.1763,-9.16004 -6.8466,-14.09674 -9.3872,-27.74332 -0.978,-57.64288 12.3224,-82.49868 3.2078,-4.56671 6.1245,-9.34155 9.6235,-13.70024 12.9044,-16.0737 29.9555,-28.84989 48.5089,-38.10719 0,0 6.6964,12.79953 6.6964,12.79953 z"
         id="path3191"
         style="fill:#000000;stroke:none" />
      <path
         inkscape:connector-curvature="0"
         d="m 2943.2835,326.97941 c -14.3164,-2.37148 -29.3127,-8.10727 -35.8304,-21.89152 -1.4981,-3.16849 -1.9877,-6.70211 -2.9818,-10.05311 -1.3889,-24.10866 12.0321,-43.86555 28.4798,-60.52112 13.3545,-11.14989 31.5343,-16.3167 46.3736,-4.09946 2.7434,2.25875 4.7184,5.27821 7.0775,7.91728 13.5874,22.36098 7.9412,45.99845 -3.206,67.90047 -8.3207,12.62288 -22.9749,28.05414 -40.3175,20.86938 -2.4117,-0.99911 -4.2295,-3.01802 -6.3443,-4.52707 -0.8308,-2.36413 -1.6617,-4.72845 -2.4925,-7.09259 0,0 0.4961,-0.60403 0.4961,-0.60403 l 0,0 c 1.8721,-0.25315 3.7441,-0.5057 5.6162,-0.75908 11.5417,-1.0944 19.9431,-6.49046 26.1225,-16.3453 8.4324,-15.44434 14.4976,-32.53272 7.3159,-49.66988 -8.7564,-13.27568 -18.0357,-13.55074 -31.0552,-4.30782 -13.6983,12.95787 -25.2073,28.83328 -25.653,48.1317 3.5663,16.50249 12.0806,19.85754 27.8922,24.0382 0,0 -1.4932,11.01388 -1.4932,11.01388 z"
         id="path3193"
         style="fill:#000000;stroke:none" />
      <path
         inkscape:connector-curvature="0"
         d="m 2996.8202,308.13075 c -6.9887,-11.83679 -7.8881,-24.35853 -1.9009,-36.61093 6.4864,-8.98355 17.5416,-7.64742 22.6165,2.10663 2.1549,4.14173 2.2425,8.48741 2.7652,12.95931 -0.1047,12.94015 -4.5577,24.64821 -15.0445,32.67261 -2.7578,0.55824 -5.4789,2.02488 -8.2736,1.67335 -14.9092,-1.87492 -17.9948,-19.14348 -18.8955,-30.69841 1.8586,-18.30564 13.434,-25.34927 31.1364,-26.14334 23.6579,3.40974 25.0418,22.3242 23.3705,41.60154 -1.113,11.90157 -7.4884,18.02712 -18.4183,21.98233 0,0 -0.6492,-0.44839 -0.6492,-0.44839 l 0,0 c -1.7086,-8.02715 -5.7664,-15.13877 -2.9092,-23.61394 0.5421,-4.73674 3.1102,-15.75207 -1.5477,-19.06479 -4.4322,-0.80244 -9.1923,-0.0872 -10.4167,4.68964 0.019,4.08948 -0.2102,3.60211 0.7761,7.74384 0.5987,2.50982 1.4483,3.84416 0.9108,4.00954 -10.9768,3.37972 4.0457,-4.10458 -6.5067,1.60929 4.2718,-2.70076 6.8395,-9.84199 8.0032,-15.22553 0.8125,-9.6744 -1.7153,-4.5027 5.2063,-6.78325 4.5204,-1.48928 2.7978,-1.76911 1.672,-2.06322 -4.3929,6.78534 -2.5548,14.55982 1.0457,21.35185 0,0 -12.941,8.25139 -12.941,8.25139 z"
         id="path3195"
         style="fill:#000000;stroke:none" />
      <path
         inkscape:connector-curvature="0"
         d="m 2943.5002,421.70486 c 2.6344,15.50066 1.8141,31.23056 -0.06,46.74577 -2.2316,16.68347 -7.4027,32.54795 -16.0158,47.08961 -8.3688,13.76957 -22.2955,18.03244 -37.5325,20.74906 -22.4287,2.75056 -45.0974,1.06043 -67.533,-0.75592 -22.7925,-1.7838 -45.1618,-6.47398 -67.1742,-12.35378 -14.8729,-4.52945 -29.9116,-9.1352 -43.882,-15.95626 -5.701,-4.89704 -8.7639,-11.18069 -3.393,-17.49866 0,0 0.5493,0.55884 0.5493,0.55884 l 0,0 c 2.9989,-6.10745 3.2901,-8.97472 11.0906,-9.52675 15.2517,2.30556 29.0481,9.13723 43.8511,13.15998 20.2422,5.44645 40.7578,10.03053 61.6801,12.12928 20.0503,1.9576 40.2385,3.61717 60.3931,2.38086 6.9593,-0.76136 14.6694,-0.74739 19.4495,-6.39512 7.7232,-11.17269 12.1516,-23.9595 15.0113,-37.09106 2.7331,-13.90235 4.3164,-27.86351 4.138,-42.04592 0,0 19.4265,-1.19017 19.4265,-1.19017 z"
         id="path3203"
         style="fill:#000000;stroke:none" />
      <path
         inkscape:connector-curvature="0"
         d="m 2730.9489,441.33673 c 23.5607,-14.10618 45.3242,-5.86355 68.1959,4.84034 19.1142,8.49815 36.236,20.74393 54.9643,29.83215 2.3345,0.25971 4.6689,0.51883 7.0035,0.777 0,0 0.1167,0.76607 0.1167,0.76607 l 0,0 c -2.4719,0.95366 -4.9435,1.90709 -7.4153,2.8607 -7.9454,2.02705 -11.3439,3.58922 -19.9095,2.73902 -16.1978,-1.60803 -29.9327,-11.44758 -44.0477,-18.31203 -15.5804,-7.49099 -32.3427,-15.43842 -49.7654,-8.87376 0,0 -9.1433,-14.62949 -9.1433,-14.62949 z"
         id="path3221"
         style="fill:#000000;stroke:none" />
      <path
         inkscape:connector-curvature="0"
         d="m 2755.5392,268.51738 c -18.2094,23.8231 -37.389,46.93796 -56.6021,69.99516 -21.1499,25.84649 -42.116,51.85735 -64.8223,76.42996 -1.2128,0.74477 -2.4254,1.48834 -3.638,2.23249 0,0 -0.7197,-0.32897 -0.7197,-0.32897 l 0,0 c -0.089,-1.59806 -0.1786,-3.19624 -0.2753,-4.79389 13.7942,-30.85632 36.609,-56.66149 58.1352,-82.57886 19.5027,-23.02531 38.3592,-46.81138 60.2835,-67.72015 0,0 7.635,6.76385 7.635,6.76385 z"
         id="path3227"
         style="fill:#000000;stroke:none" />
      <path
         inkscape:connector-curvature="0"
         d="m 2763.674,299.7741 c -14.6163,21.94173 -33.1664,41.07661 -50.918,60.59503 -20.1574,20.91958 -37.7099,43.96292 -58.5165,64.28187 0,0 -0.6492,-0.44837 -0.6492,-0.44837 l 0,0 c 12.939,-26.21655 30.7,-49.47448 49.0377,-72.33869 16.9485,-19.74932 34.7842,-38.76706 51.3276,-58.84898 0,0 9.7176,6.75871 9.7176,6.75871 z"
         id="path3229"
         style="fill:#000000;stroke:none" />
      <path
         inkscape:connector-curvature="0"
         d="m 2646.114,350.29292 c 13.6105,18.30707 26.0178,37.45491 38.8321,56.29963 9.6599,15.25538 20.4629,29.67051 32.2036,43.44797 0,0 -0.5338,0.57196 -0.5338,0.57196 l 0,0 c -15.399,-10.31856 -27.0835,-25.30388 -38.8666,-39.22504 -13.3955,-18.49806 -26.1998,-37.45557 -37.9208,-57.00594 0,0 6.2855,-4.08966 6.2855,-4.08966 z"
         id="path3231"
         style="fill:#000000;stroke:none" />
      <path
         inkscape:connector-curvature="0"
         d="m 2661.6719,304.98341 c 13.2854,17.76847 25.7213,36.13466 38.0751,54.52584 11.9111,17.80944 22.5718,36.38346 32.4199,55.34234 -1.2243,2.26944 4.3872,6.90086 4.2961,9.11191 -0.013,0.323 -0.6625,-0.1827 -0.9883,-0.12235 -0.5086,0.0944 -1.1615,1.00596 -1.4362,0.57793 -0.5607,-0.87383 -0.1114,-2.05701 -0.1708,-3.08524 0,0 0.7829,-0.12778 0.7829,-0.12778 l 0,0 c 4.4457,15.56006 -8.4489,0.93426 -9.2545,-2.74279 -10.9799,-18.08975 -22.1533,-36.06653 -33.6312,-53.86211 -12.3342,-18.34833 -25.067,-36.46352 -36.7941,-55.18708 0,0 6.7013,-4.42993 6.7013,-4.42993 z"
         id="path3233"
         style="fill:#000000;stroke:none" />
      <path
         inkscape:connector-curvature="0"
         d="m 2693.825,273.93626 c 13.418,19.57144 25.4127,40.02509 37.7748,60.2343 8.9772,13.53911 17.1522,27.40354 22.5454,42.65025 0,0 -0.6617,0.4275 -0.6617,0.4275 l 0,0 c -12.4375,-10.94027 -22.0969,-23.94555 -30.2456,-38.23699 -12.2832,-20.19208 -24.1773,-40.59486 -35.7692,-61.17066 0,0 6.3566,-3.90386 6.3566,-3.90386 z"
         id="path3235"
         style="fill:#000000;stroke:none" />
      <path
         inkscape:connector-curvature="0"
         d="m 2606.669,180.71106 c -15.9569,-24.28938 -29.7443,-50.20817 -44.9651,-75.0752 -8.3467,-16.108617 -23.6431,-31.307577 -25.0039,-50.753517 -1.3117,-4.84225 5.0748,-11.26978 9.2637,-8.05085 -5.0948,-5.13635 -12.831,-4.26096 -3.5347,-8.27235 7.3332,-3.16406 14.8935,-2.19738 22.5927,-1.64553 25.8909,4.16657 51.4726,10.86194 76.7245,18.63199 17.6191,6.02094 35.8013,12.37814 49.7826,26.42813 3.5829,4.4642 6.7891,10.85388 1.7131,15.23281 0,0 -0.6647,0.48779 -0.6647,0.48779 l 0,0 c -3.8036,1.79437 -7.0222,2.700627 -11.014,0.55526 -14.7699,-7.37983 -29.905,-13.98372 -45.3251,-19.37317 -23.9183,-7.55595 -48.1861,-13.74054 -72.6709,-18.27614 -3.2999,-0.42092 -25.7533,-2.8053 -26.4158,-7.03019 -2.7292,-10.34256 5.8581,-11.61147 11.0158,-7.02781 15.6576,9.1161 22.2055,30.74289 32.1902,45.70523 14.1489,25.024707 27.9922,50.243697 41.8777,75.439947 0,0 -15.5656,13.02163 -15.5656,13.02163 z"
         id="path3245"
         style="fill:#000000;stroke:none" />
      <path
         inkscape:connector-curvature="0"
         d="m 2701.5509,108.49817 c 2.2413,-25.730777 -5.9832,-50.182677 -14.5749,-73.767787 -10.0999,-26.6165504 -24.0974,-50.84779 -41.8296,-71.96971 -4.8433,-4.85478 -9.0709,-10.35706 -13.4847,-15.65935 17.1602,0.33614 11.6695,-9.8602 9.266,-13.23531 9.5156,-1.07158 23.7099,5.4433 32.7669,8.71495 27.4421,10.1094 53.1041,24.92971 77.7385,41.74064 21.9079,15.87307963 42.3122,31.3431 54.1126,58.02904 2.1997,10.18506 0.9109,5.64235 3.5805,13.71899 0,0 -0.5886,0.59741 -0.5886,0.59741 l 0,0 c -7.0338,-3.85646 -3.1703,-1.87408 -11.641,-5.82069 -19.8763,-13.8218 -35.8149,-33.6224 -56.1563,-46.8164604 -23.2801,-16.0385296 -47.6348,-29.7909496 -73.3714,-40.1270096 -10.6907,-4.40819 -21.424,-8.69076 -32.1349,-12.99471 -6.2166,-5.94804 -18.2167,-24.52062 4.597,-19.86167 7.6763,3.90984 14.4456,9.30955 20.1727,16.33055 19.4905,23.33463 34.9495,50.0485796 45.4932,79.68191 9.1285,27.3698 17.3428,55.8928 12.6828,85.156017 0,0 -16.6291,-3.71687 -16.6291,-3.71687 z"
         id="path3247"
         style="fill:#000000;stroke:none" />
      <path
         inkscape:connector-curvature="0"
         d="m 2834.2165,94.722043 c -16.1942,-24.24293 -24.2944,-53.70234 -32.8662,-81.90365 -6.6538,-23.05648 -13.9534,-45.91606 -18.6452,-69.55854 1.5519,-1.17456 -2.1838,-5.66204 -0.907,-7.15951 0.088,-0.10273 1.7896,0.25673 2.3694,-0.28896 -0.7058,-2.81193 -0.1073,-1.62464 -1.654,-3.64439 0,0 -0.4878,-0.72088 -0.4878,-0.72088 l 0,0 c -0.443,-3.05349 -0.4441,-1.41107 0.2754,-4.91217 7.2256,-3.10333 12.7182,4.45053 16.1448,10.73149 9.5303,22.07176 10.9624,47.12155 18.9128,69.8600396 7.7135,25.8012304 14.9406,52.5979804 28.8596,75.3498504 0,0 -12.0022,12.24583 -12.0022,12.24583 z"
         id="path3249"
         style="fill:#000000;stroke:none" />
      <path
         inkscape:connector-curvature="0"
         d="m 2793.1845,-55.768737 c 28.3568,-2.34378 55.6957,7.18859 81.4383,20.04209 24.6089,14.64919 42.568,33.0689996 55.7543,60.34094 5.9991,6.19784 2.3768,17.98007 7.1642,24.4116 2.6192,0.65377 5.2632,0.7527 7.935,1.29082 1.9859,-0.52959 -2.1733,-2.12084 -0.9673,-5.61047 6.7131,-10.89459 8.5206,-24.4091 10.4489,-37.2241504 4.0941,-27.4017996 4.4072,-55.1721596 1.8825,-82.8777496 -1.162,-16.18037 -6.1064,-31.633203 -8.6899,-47.525283 -0.4509,-4.10196 1.1139,-7.35032 2.3784,-10.98856 0,0 0.2649,-0.83903 0.2649,-0.83903 l 0,0 c 6.442,-3.12274 8.1011,-0.44062 13.1443,4.61746 9.5027,15.72566 12.7196,34.367873 14.6941,52.805883 2.5347,29.91114 2.2591,59.97786 -2.6856,89.45817 -3.171,18.25369 -6.0965,38.42368 -19.87,50.56736 -3.8283,2.21606 -15.3996,7.2662 -17.615,-0.68273 -1.3922,-3.03826 -3.2257,-5.7611 -5.1122,-8.44949 -5.7912,-5.98518 -12.7525,-10.52455 -17.5133,-17.74072 -15.1573,-18.26085 -29.993,-37.4223104 -50.1178,-49.06674 -21.8761,-11.30518 -45.2019,-19.50075 -69.4293,-18.72728 0,0 -3.1043,-23.80207 -3.1043,-23.80207 z"
         id="path3251"
         style="fill:#000000;stroke:none" />
      <path
         inkscape:connector-curvature="0"
         d="m 2948.4293,-141.5408 c 25.1284,11.08117 45.5937,31.5667 64.9227,52.108523 30.2526,32.69178 47.6742,72.64444 62.0036,115.86512 4.1087,18.77307 15.3032,41.2845 9.5019,61.127 -0.8107,2.77324 -2.7114,4.97205 -4.0674,7.4581 0,0 -0.7827,0.18568 -0.7827,0.18568 l 0,0 c -2.2098,-1.62343 -4.778,-2.75974 -6.6291,-4.87007 -12.6529,-14.42512 -12.4813,-38.2094 -19.3746,-55.56334 -12.7797,-39.0899904 -28.5713,-76.8946 -55.8349,-106.52799 -17.3089,-18.54195 -35.5205,-36.366663 -57.0723,-48.533873 0,0 7.3327,-21.2498 7.3327,-21.2498 z"
         id="path3253"
         style="fill:#000000;stroke:none" />
      <path
         inkscape:connector-curvature="0"
         d="m 2521.8689,829.98145 c -25.1916,-15.0245 -31.118,-35.40608 -34.4434,-62.53586 -0.4615,-32.01263 8.9927,-59.12343 27.236,-85.35149 11.1265,-12.38675 27.035,-23.35082 44.2925,-13.74306 9.9003,5.51172 11.8088,12.29289 16.7104,21.46273 7.2163,22.45328 9.6687,46.77102 2.1715,69.36335 -2.1557,7.04852 -6.9393,11.92713 -12.0576,16.99703 0,0 -0.7916,-0.0598 -0.7916,-0.0598 l 0,0 c -4.2345,-5.90099 -7.956,-11.58907 -8.5783,-19.0197 -2.653,-18.67928 0.9052,-37.88545 -5.0652,-56.19234 -0.7657,-2.03923 -1.6135,-4.05099 -2.2964,-6.11785 -0.3206,-0.96871 -0.616,-1.96041 -0.7082,-2.97377 -0.054,-0.64583 0.655,-1.4048 0.2615,-1.92824 -3.2985,-4.38754 -12.0565,5.51435 -13.2394,6.34424 -15.1031,20.19035 -22.7948,44.19171 -23.9956,69.15296 0.9348,17.80209 4.7905,35.05967 19.8314,46.78709 0,0 -9.3271,17.81546 -9.3271,17.81546 z"
         id="path3265"
         style="fill:#000000;stroke:none" />
      <path
         inkscape:connector-curvature="0"
         d="m 2577.3116,804.72556 c -0.8602,-23.38217 6.7543,-45.3667 16.8841,-66.18067 8.7887,-14.4075 21.6756,-34.67445 41.9537,-33.07932 4.1222,0.3242 7.9226,2.32235 11.8838,3.48355 3.2185,2.71574 6.917,4.97049 9.6556,8.14744 13.6208,15.80133 15.456,39.41498 13.8314,58.8999 -3.2301,13.90516 -9.197,21.68834 -21.2285,29.17158 0,0 -0.7088,-0.34988 -0.7088,-0.34988 l 0,0 c -1.2443,-9.81542 -2.1796,-19.65037 -2.6263,-29.53385 -0.6318,-14.85691 -1.4282,-29.90087 -9.0726,-43.20939 -4.1551,-10.9454 -22.5043,11.76502 -23.2571,16.12963 -8.8744,17.47066 -15.9201,35.91322 -16.8497,55.61536 0,0 -20.4658,0.90608 -20.4658,0.90608 z"
         id="path3267"
         style="fill:#000000;stroke:none" />
      <path
         inkscape:connector-curvature="0"
         d="m 2659.0168,806.95585 c 12.5593,-1.7933 27.3915,-5.15338 38.7932,2.44926 2.7527,1.83545 4.8314,4.48331 7.2469,6.72504 11.1257,19.31519 1.9033,37.81667 -11.2019,53.35953 -10.9038,10.93023 -29.0839,19.2227 -42.4362,6.3575 -2.0733,-1.99779 -3.1633,-4.77396 -4.7449,-7.16089 -0.9015,-2.31554 -1.8031,-4.63108 -2.7048,-6.94654 0,0 0.5195,-0.58572 0.5195,-0.58572 l 0,0 c 2.1142,0.23226 4.2285,0.46332 6.3428,0.69539 7.9608,-1.76995 15.2611,-5.06232 21.4858,-10.32178 5.3252,-5.67143 9.2187,-12.10296 12.3971,-18.94168 2.5593,-6.79311 -18.2979,-7.26532 -21.8459,-6.0416 0,0 -3.8517,-19.58846 -3.8517,-19.58846 z"
         id="path3269"
         style="fill:#000000;stroke:none" />
      <path
         inkscape:connector-curvature="0"
         d="m 2558.1079,853.60543 c -11.1118,7.7448 -20.9345,16.83062 -26.8692,28.94111 -2.1467,-1.47477 -2.6002,14.57175 -0.1061,11.4188 0.5732,-0.72428 0.2926,-1.8388 0.7157,-2.65514 11.3984,-1.22837 23.0731,1.03206 34.4146,2.23363 0,0 0.2783,0.726 0.2783,0.726 l 0,0 c -11.268,11.35426 -21.754,22.51203 -39.2943,21.73002 -3.6291,-1.04753 -7.5871,-1.33488 -10.8877,-3.14245 -16.4635,-9.01657 -13.6709,-29.03383 -6.9633,-42.85498 9.8734,-14.55217 22.8171,-26.23355 40.0425,-32.03878 0,0 8.6685,15.64202 8.6685,15.64202 z"
         id="path3271"
         style="fill:#000000;stroke:none" />
      <path
         inkscape:connector-curvature="0"
         d="m 2664.5615,772.32861 c 23.406,-36.9144 38.8229,-78.04247 54.2888,-118.55225 8.6864,-21.47471 15.0067,-43.90351 24.3421,-65.14024 2.5375,-5.77281 7.3113,-15.77536 12.4759,-20.60643 1.5965,-1.49299 3.8637,-2.10281 5.7954,-3.1544 0.8884,-0.0596 1.7765,-0.12473 2.6646,-0.18746 0,0 0.3116,0.71257 0.3116,0.71257 l 0,0 c -0.013,0.31405 -0.036,0.6266 -0.06,0.93928 2.4571,9.62478 0.6931,18.83432 -1.5492,28.4892 -5.3142,22.88221 -13.7306,44.98818 -21.5536,67.11314 -16.2438,42.53281 -32.2444,85.99732 -57.6732,124.27968 0,0 -19.0479,-13.89213 -19.0479,-13.89213 z"
         id="path3273"
         style="fill:#000000;stroke:none" />
      <path
         inkscape:connector-curvature="0"
         d="m 2196.2906,390.11428 c 35.4148,9.45446 72.1169,11.10052 108.5943,12.28375 58.962,0.0596 117.5979,-6.73901 176.2951,-11.29437 16.814,0.44002 34.1801,-3.23512 50.9676,-0.42629 3.3064,0.55346 6.3926,1.99068 9.589,2.98589 0,0 0.1074,0.76739 0.1074,0.76739 l 0,0 c -2.8328,1.76674 -5.4355,3.94513 -8.498,5.30019 -15.5592,6.88397 -33.4429,7.45702 -49.6991,11.78878 -59.4271,8.87084 -119.3345,15.57887 -179.5699,15.11276 -38.6931,-1.30653 -78.9418,-2.78709 -114.672,-19.06139 0,0 6.8885,-17.45688 6.8885,-17.45688 z"
         id="path3277"
         style="fill:#000000;stroke:none" />
      <path
         inkscape:connector-curvature="0"
         d="m 2136.9989,352.41721 c -17.7752,-15.525 -28.3832,-36.354 -36.8636,-57.68388 -5.9456,-18.77952 -9.759,-39.36643 -2.2702,-58.34387 1.2604,-3.19415 3.1796,-6.10166 4.7696,-9.1527 10.9359,-15.01769 28.9223,-21.34844 46.638,-12.96856 3.5304,1.67001 6.5475,4.21965 9.821,6.32944 19.0019,17.70501 23.7257,42.21972 25.3046,66.72183 -0.5355,11.57344 1.3233,31.31361 -12.1465,36.91028 -1.0414,0.16777 -2.0829,0.33555 -3.1245,0.50272 0,0 -3.8874,-0.85617 -3.8874,-0.85617 l 0,0 c -0.8998,-0.44897 -1.7994,-0.89664 -2.699,-1.34491 -8.006,-9.47982 -3.6718,-22.60845 -3.7983,-33.86581 -0.8007,-17.09674 -3.2217,-34.7741 -14.0822,-48.86195 -6.9653,-6.16382 -14.6235,-10.08398 -21.8651,-1.97026 -9.3554,15.33072 -7.199,33.12308 -2.4441,49.72928 6.5057,18.67838 14.967,36.83165 28.4979,51.77209 0,0 -11.8502,13.08302 -11.8502,13.08302 z"
         id="path3285"
         style="fill:#000000;stroke:none" />
      <path
         inkscape:connector-curvature="0"
         d="m 2160.8348,255.74251 c -0.7243,-13.14511 3.4794,-29.06435 19.7652,-30.36144 3.3858,-0.27106 6.7306,0.92107 10.0958,1.3811 24.1777,10.22631 34.4824,32.73177 40.2182,56.30876 2.2582,17.99112 4.4085,38.29615 -7.4717,53.48878 -6.0091,3.25655 -2.7872,2.64642 -9.678,1.76852 0,0 -0.5839,-0.52599 -0.5839,-0.52599 l 0,0 c -3.6728,-4.01463 -2.2733,-1.85241 -4.3602,-6.38425 -0.8681,-14.63839 4.8799,-29.14721 1.2631,-43.85325 -3.4403,-16.40297 -8.4153,-34.08929 -23.3791,-44.08311 -0.036,-0.0179 -3.6575,-2.25111 -4.372,-2.27518 -5.6726,-0.18807 -5.9162,10.56658 -6.5458,13.90474 0,0 -14.9519,0.63054 -14.9519,0.63054 z"
         id="path3287"
         style="fill:#000000;stroke:none" />
      <path
         inkscape:connector-curvature="0"
         d="m 2096.9159,383.57451 c -7.5676,5.43941 -22.0393,12.76586 -25.1072,21.63873 0.4041,0.0824 0.906,0.50332 1.2136,0.23643 0.6352,-0.55227 0.7583,-2.96345 2.3108,-2.95396 3.1391,0.0119 6.1567,1.31292 9.2887,1.52332 2.5422,0.16956 5.0961,0.0537 7.6439,0.0842 20.0118,-1.51197 39.9281,-3.43315 59.8495,-5.74894 0,0 0.3176,0.71055 0.3176,0.71055 l 0,0 c -17.6239,14.28052 -37.1673,27.46838 -60.8865,28.23546 -16.493,-0.72911 -41.5792,-3.77352 -41.4383,-25.42932 0.018,-2.94495 1.7531,-5.63429 2.6297,-8.45153 9.9997,-12.81004 22.8371,-19.95517 38.7516,-24.09958 0,0 5.4274,14.25466 5.4274,14.25466 z"
         id="path3289"
         style="fill:#000000;stroke:none" />
      <path
         inkscape:connector-curvature="0"
         d="m 2227.9114,304.73193 c 13.8591,1.82572 26.389,9.63965 30.7676,23.19726 0.8868,2.74523 0.9781,5.67573 1.4674,8.5135 -0.4819,8.37385 -2.2032,24.16812 -13.968,24.73156 -1.8995,0.0925 -3.7654,-0.53376 -5.6481,-0.80052 0,0 -0.6386,-0.45972 -0.6386,-0.45972 l 0,0 c -5.9059,-9.71775 -3.7907,-11.10495 -0.8034,-21.04886 0.114,-9.00074 -6.2264,-14.84204 -14.1988,-18.61353 0,0 3.0229,-15.51904 3.0229,-15.51904 z"
         id="path3291"
         style="fill:#000000;stroke:none" />
      <path
         inkscape:connector-curvature="0"
         d="m 2254.5128,443.43716 c 25.113,11.99279 46.3641,29.91692 66.2013,48.8371 19.401,21.21732 33.2979,41.15005 36.5802,69.77084 0,0 -0.7669,0.20061 -0.7669,0.20061 l 0,0 c -10.6953,-23.39841 -21.9484,-46.77675 -40.3975,-65.50648 -18.9808,-18.95696 -39.6745,-36.36106 -63.9582,-48.62247 0,0 2.3413,-4.6796 2.3413,-4.6796 z"
         id="path3293"
         style="fill:#000000;stroke:none" />
      <path
         inkscape:connector-curvature="0"
         d="m 1583.0962,707.86857 c 23.4483,13.19569 43.2758,31.32693 60.5244,51.77515 14.8234,19.54415 24.9841,41.85038 25.4025,66.55453 -1.2983,5.35446 -2.6645,13.1632 -9.2895,14.67122 -1.881,0.42869 -3.8512,-0.23642 -5.7766,-0.35405 0,0 -0.5123,-0.48062 -0.5123,-0.48062 l 0,0 c -3.4117,-4.23231 -5.8297,-7.59947 -5.915,-13.25932 -0.821,-19.88824 -8.4691,-37.96055 -20.0605,-54.0804 -14.9019,-19.36814 -31.8465,-37.1257 -52.8649,-49.96506 0,0 8.4927,-14.86078 8.4927,-14.86078 z"
         id="path3303"
         style="fill:#000000;stroke:none" />
      <path
         inkscape:connector-curvature="0"
         d="m 1118.8613,902.00896 c 5.6122,34.67058 28.8241,62.38243 50.4514,88.64935 30.6733,33.29059 67.1671,61.39429 109.5262,78.19229 27.481,10.8979 33.996,10.3482 62.5961,14.8677 43.6941,2.522 86.3005,-7.968 122.7898,-32.3912 5.0355,-3.3702 9.639,-7.3447 14.4586,-11.0171 20.0996,-18.4735 26.8665,-29.1134 24.2741,-56.11384 -2.5715,-17.50255 -11.5655,-32.47953 -20.0406,-47.59257 -4.6519,-7.47332 -4.5338,-14.03119 -1.2578,-21.85993 0,0 0.5313,-0.45913 0.5313,-0.45913 l 0,0 c 10.104,-2.45273 15.3114,-0.16837 22.3134,7.71005 13.5926,17.44714 21.9877,38.29568 25.4891,60.10916 0.2991,4.61948 0.9912,9.23026 0.8946,13.8587 -0.5588,27.41856 -15.9051,48.65056 -36.3897,65.58776 -5.6743,4.1426 -11.1182,8.6203 -17.0228,12.4276 -41.9935,27.0768 -90.4763,38.6593 -140.2253,35.1486 -31.9197,-5.4442 -39.085,-4.8761 -69.5546,-17.4347 -45.4753,-18.7433 -84.3882,-49.7317 -117.0008,-86.0956 -21.613,-27.59326 -47.099,-58.87713 -48.3745,-95.84914 -0.1099,-3.1932 0.5325,-6.36801 0.7981,-9.55195 0,0 15.7413,1.81538 15.7413,1.81538 z"
         id="path3313"
         style="fill:#000000;stroke:none" />
      <path
         inkscape:connector-curvature="0"
         d="m 1573.9886,1001.5532 c 31.6927,14.1842 66.076,19.4242 100.3316,22.8123 37.1627,1.9656 75.0638,-2.6413 108.751,-19.3517 5.2834,-2.6208 10.1821,-5.95459 15.2732,-8.93177 16.468,-11.96583 29.2123,-28.68468 26.8996,-50.04382 -0.3415,-3.14991 -1.3415,-6.19312 -2.0121,-9.28965 -7.6039,-20.70113 -25.9407,-32.3742 -43.7822,-43.56536 -15.9558,-10.07036 -33.6702,-16.86274 -50.0135,-26.18626 -4.4225,-2.48653 -6.3143,-5.12017 -6.857,-10.00021 0,0 7.0586,-12.40107 7.0586,-12.40107 l 0,0 c 3.8951,-2.34831 6.8104,-2.4067 11.1063,-0.49197 18.2127,7.58701 35.6816,16.91697 52.7626,26.7549 24.2889,15.34625 47.2166,32.24422 55.5619,61.23608 0.7695,4.89956 2.0597,9.74528 2.3087,14.69858 1.5387,30.60849 -16.0789,54.87215 -40.3142,71.61465 -6.0985,3.3972 -11.9865,7.2033 -18.2956,10.1913 -37.6763,17.8445 -79.8306,22.4635 -121.0255,20.108 -37.2537,-4.1895 -75.4195,-10.1554 -108.2937,-29.3807 0,0 10.5403,-17.7735 10.5403,-17.7735 z"
         id="path3317"
         style="fill:#000000;stroke:none" />
      <path
         inkscape:connector-curvature="0"
         d="m 2176.7551,1051.0362 c -26.2699,-5.907 -47.4991,-25.5791 -62.8725,-46.4012 -4.7511,-6.43524 -8.6684,-13.41773 -13.0027,-20.12646 -20.5429,-39.96897 -27.0681,-85.18134 -13.5811,-128.44709 2.7476,-8.81507 7.0331,-17.10116 10.5498,-25.65192 5.0738,-7.83728 9.4525,-16.14592 15.2215,-23.51161 23.5389,-30.05448 57.7394,-50.26441 94.5518,-61.06497 9.2424,-2.71156 18.8088,-4.24119 28.2132,-6.36186 36.1386,-4.80743 72.7854,-1.25726 104.9601,16.64669 18.0205,10.02756 21.6387,15.30577 36.0143,29.21079 22.8127,27.94297 36.0089,53.16292 35.7843,89.13536 -2.1995,14.92735 -6.6337,18.80453 -18.711,26.60981 0,0 -0.6054,-0.50212 -0.6054,-0.50212 l 0,0 c 0.4089,-1.22449 1.5045,-2.4129 1.2285,-3.67327 -0.8342,-3.81193 -9.2961,-15.21485 -7.98,-20.30331 -5.392,-25.61209 -13.4835,-50.26926 -31.1609,-70.66374 -4.1222,-4.19474 -7.899,-8.74014 -12.3661,-12.58447 -28.1883,-24.25858 -64.9353,-30.49541 -101.4,-27.31147 -8.2411,1.49609 -16.6272,2.37166 -24.7232,4.48772 -40.1608,10.49749 -73.6306,34.75356 -94.4543,69.78541 -3.1102,7.12452 -6.8582,14.015 -9.3307,21.37387 -12.437,37.01256 -7.9705,76.23175 7.434,111.62834 3.3922,6.15253 6.3581,12.54687 10.1766,18.45753 11.7464,18.18197 28.015,34.83737 48.6942,43.03067 0,0 -2.6411,16.2377 -2.6411,16.2377 z"
         id="path3323"
         style="fill:#000000;stroke:none" />
      <path
         inkscape:connector-curvature="0"
         d="m 2017.1127,999.75417 c -30.8385,-8.29635 -45.0796,-26.19719 -61.4943,-51.65225 -18.7722,-34.71021 -24.9147,-73.68772 -23.8076,-112.58367 0.2448,-8.84004 1.2351,-17.6446 1.8531,-26.46676 5.5941,-40.95643 16.067,-82.22714 37.3156,-118.36138 3.5427,-6.02471 7.7941,-11.62562 11.6912,-17.43848 16.8487,-20.86955 38.8071,-36.40488 67.3662,-34.95531 17.7766,0.90196 25.7103,5.738 41.9141,12.28577 38.3177,20.24122 67.8047,51.42717 90.8681,86.95511 6.8734,13.07698 12.2451,26.76409 11.234,41.72261 -0.4859,7.19582 -2.5986,14.20159 -3.5662,21.35053 0,0 -0.7941,-8.8e-4 -0.7941,-8.8e-4 l 0,0 c -0.4282,-3.00925 -0.1941,-6.18096 -1.285,-9.02775 -1.2634,-3.29786 -3.6864,-6.05706 -5.6306,-9.02428 -6.8723,-10.4886 -14.1909,-20.72016 -21.5403,-30.89256 -22.0699,-29.97054 -46.1621,-58.81057 -79.9035,-76.94605 -5.234,-2.29793 -10.288,-5.03517 -15.7021,-6.89377 -26.2332,-9.00613 -43.8087,-0.13256 -60.8284,19.71186 -3.4038,4.94846 -7.1301,9.69984 -10.2117,14.84533 -19.8105,33.07884 -29.5119,71.05055 -35.2016,108.6127 -3.8291,44.05457 -3.5844,85.01273 15.2277,126.21687 11.5175,20.63956 24.1549,38.5807 46.571,48.98081 0,0 -4.075,13.5621 -4.075,13.5621 z"
         id="path3331"
         style="fill:#000000;stroke:none" />
      <path
         inkscape:connector-curvature="0"
         d="m 2189.3302,722.50225 c 16.6204,-23.62368 40.014,-40.88973 64.7872,-55.64973 21.6957,-10.75728 46.0896,-20.2159 70.9065,-15.30716 3.8064,0.75301 7.4133,2.26522 11.1199,3.39787 8.3499,3.87689 15.4665,9.58037 22.7153,15.06057 0,0 -0.3093,0.71299 -0.3093,0.71299 l 0,0 c -8.1448,-1.05755 -16.1786,-1.64649 -24.337,-0.0418 -23.1857,2.50492 -46.3936,5.84571 -67.1269,17.04916 -22.6549,13.19843 -43.2514,28.93234 -60.9641,48.11361 0,0 -16.7913,-13.33586 -16.7913,-13.33586 z"
         id="path3335"
         style="fill:#000000;stroke:none" />
      <path
         inkscape:connector-curvature="0"
         d="m 2344.8614,756.83429 c 11.2017,-19.3602 28.1469,-34.17364 46.3812,-47.05832 18.0672,-11.07932 28.6497,-12.26582 48.7042,-7.02864 0,0 0.1233,0.7647 0.1233,0.7647 l 0,0 c -11.7931,8.14703 -21.9562,18.52529 -35.0358,24.98185 -15.6913,10.84778 -29.8591,23.44671 -40.2976,39.37925 0,0 -19.876,-11.03937 -19.876,-11.03937 z"
         id="path3337"
         style="fill:#000000;stroke:none" />
      <path
         inkscape:connector-curvature="0"
         d="m 2437.7116,-172.86007 c 13.6418,5.78981 27.131,12.51545 39.3384,20.97934 7.0167,4.86494 13.5011,10.45594 20.2516,15.68388 0,0 -0.3833,0.58869 -0.3833,0.58869 l 0,0 c -20.2121,-10.93668 -39.9994,-22.83921 -61.065,-32.08727 0,0 1.859,-5.16488 1.859,-5.16488 z"
         id="path3339"
         style="fill:#000000;stroke:none" />
      <path
         inkscape:connector-curvature="0"
         d="m 2377.8485,-157.74029 c 47.1002,13.67088 89.6857,39.61718 131.437,64.677423 41.1058,28.61697 20.8224,13.88222 60.8453,44.21058 0,0 -0.3862,0.5875 -0.3862,0.5875 l 0,0 c -43.4894,-24.69258 -21.7782,-12.39874 -65.1336,-36.88247 -41.4407,-24.077433 -83.2478,-48.507603 -128.8696,-63.900363 0,0 2.1077,-8.69232 2.1077,-8.69232 z"
         id="path3341"
         style="fill:#000000;stroke:none" />
      <path
         inkscape:connector-curvature="0"
         d="m 2543.1589,-227.67102 c 33.5932,21.98066 65.8993,45.85831 97.8029,70.20202 24.7365,19.03931 47.7393,40.04002 70.3983,61.452773 0,0 -0.4638,0.52779 -0.4638,0.52779 l 0,0 c -24.0352,-19.664293 -48.091,-39.326903 -73.3444,-57.431283 -32.2547,-23.75091 -64.785,-47.1028 -97.7075,-69.91795 0,0 3.3151,-4.83347 3.3151,-4.83347 z"
         id="path3345"
         style="fill:#000000;stroke:none" />
      <path
         inkscape:connector-curvature="0"
         d="m 2719.5096,-248.92889 c 24.8745,19.16623 49.7757,38.89081 71.1632,62.01016 5.7165,6.17952 10.8986,12.83268 16.3478,19.24904 0,0 -0.4973,0.49734 -0.4973,0.49734 l 0,0 c -30.2777,-25.66129 -60.0646,-51.90046 -90.68,-77.16536 0,0 3.666,-4.59112 3.666,-4.59112 z"
         id="path3347"
         style="fill:#000000;stroke:none" />
      <path
         inkscape:connector-curvature="0"
         d="m 2550.6678,-10.269727 c -14.7807,0.7015296 -28.6035,4.3179696 -41.4068,11.6858596 -10.4412,7.10554 -14.3559,17.2460604 -13.2012,29.4490204 1.1928,5.08214 3.7752,8.79346 7.1617,12.59797 0,0 -0.3476,0.61138 -0.3476,0.61138 l 0,0 c -6.9733,-1.74738 -12.0715,-3.84512 -16.0291,-10.35396 -1.0944,-2.39674 -2.5721,-4.65322 -3.283,-7.19015 -4.4564,-15.90431 6.4559,-29.2204104 18.6466,-37.77964 15.3037,-8.30072 31.6263,-13.00211 49.1524,-10.01704 0,0 -0.6933,10.99674 -0.6933,10.99674 z"
         id="path3351"
         style="fill:#000000;stroke:none" />
      <path
         inkscape:connector-curvature="0"
         d="m 2495.0041,-31.806067 c -11.3542,8.64127 -20.1259,19.89325 -27.8274,31.77464963 -6.1664,10.70098037 -7.4073,13.87118037 -5.3256,25.87855037 0,0 -0.5636,0.42032 -0.5636,0.42032 l 0,0 c -2.4115,-1.58683 -5.2905,-2.62642 -7.2346,-4.76039 -7.8163,-8.57959 -3.8226,-20.76262037 1.2033,-29.3080504 8.8995,-13.5865796 19.0313,-26.7449896 33.5717,-34.6693896 0,0 6.1762,10.66462 6.1762,10.66462 z"
         id="path3353"
         style="fill:#000000;stroke:none" />
      <path
         inkscape:connector-curvature="0"
         d="m 2931.5682,-186.70618 c -11.5745,4.82201 -22.8051,10.86641 -31.8692,19.61532 -5.0079,5.17386 -6.4717,11.1385 -7.2019,17.96688 0.7993,0.46629 1.5986,0.9323 2.398,1.39841 0,0 -0.3433,0.61401 -0.3433,0.61401 l 0,0 c -0.9028,-0.48601 -1.8056,-0.9714 -2.7085,-1.4571 -1.5195,-0.55705 -3.2928,-0.66171 -4.5585,-1.67085 -8.5382,-6.80497 -1.2703,-19.82745 4.157,-25.63161 10.5676,-9.73745 23.097,-16.70172 36.8181,-21.05278 0,0 3.3082,10.21807 3.3082,10.21807 z"
         id="path3355"
         style="fill:#000000;stroke:none" />
      <path
         inkscape:connector-curvature="0"
         d="m 2890.3382,-205.27769 c -10.8569,8.86206 -20.483,18.86006 -28.6531,30.23039 -2.1206,6.3935 -8.5213,10.18721 -11.7605,15.74322 -0.8781,1.50618 -1.0831,3.31452 -1.6244,4.97169 0,0 -0.7023,0.0298 -0.7023,0.0298 l 0,0 c -3.9282,-11.33443 -4.8581,-18.71414 2.4493,-29.16249 9.1893,-12.62848 19.8333,-24.62511 33.7622,-32.14279 0,0 6.5292,10.33152 6.5292,10.33152 z"
         id="path3357"
         style="fill:#000000;stroke:none" />
      <path
         inkscape:connector-curvature="0"
         d="m 2878.919,535.09288 c 15.4551,5.10488 28.9223,4.67561 44.0442,-1.05075 11.7863,-5.51983 19.7652,-15.7661 28.7715,-24.69722 4.0851,-1.54236 2.324,-0.66303 5.3737,-2.44875 0,0 0.6206,0.33018 0.6206,0.33018 l 0,0 c 0.1206,3.75735 0.013,1.64601 0.3857,6.33051 -6.0052,14.21956 -17.2772,24.92225 -31.1139,31.62527 -18.241,6.37791 -33.8104,7.35833 -51.997,-0.0537 0,0 3.9139,-10.03937 3.9139,-10.03937 z"
         id="path3361"
         style="fill:#000000;stroke:none" />
      <path
         inkscape:connector-curvature="0"
         d="m 2915.705,568.90752 c 12.2131,4.01181 24.0208,0.53496 35.4149,-4.19928 6.0932,-3.30365 11.39,-7.73674 17.1212,-11.60646 0,0 0.5941,0.37555 0.5941,0.37555 l 0,0 c -2.0649,10.18554 -4.0727,14.33874 -12.2349,21.32194 -2.5356,1.64899 -4.9051,3.58689 -7.6067,4.94696 -12.2271,6.15606 -26.7062,6.03456 -39.1433,0.78076 0,0 5.8547,-11.62018 5.8547,-11.62018 z"
         id="path3363"
         style="fill:#000000;stroke:none" />
      <path
         inkscape:connector-curvature="0"
         d="m 1528.4741,137.20029 c 29.6979,-7.87269 60.7544,-8.69877 91.2961,-9.37928 47.0465,-1.07493 93.0288,7.90654 138.0183,20.75067 26.4605,7.30024 51.2335,18.96413 75.6358,31.29289 6.8598,4.51381 8.9496,5.29696 11.9333,12.84736 0,0 -0.3565,0.54272 -0.3565,0.54272 l 0,0 c -5.6229,0.80416 -10.6988,0.20717 -16.3002,-0.99743 -25.8573,-6.89431 -51.4222,-14.7018 -76.6809,-23.54791 -42.9918,-12.35796 -86.9428,-20.90352 -131.9059,-20.30409 -29.2084,0.32002 -58.5123,1.15273 -87.371,6.10572 0,0 -4.2691,-17.31089 -4.2691,-17.31089 z"
         id="path3369"
         style="fill:#000000;stroke:none" />
      <path
         inkscape:connector-curvature="0"
         d="m 1508.2034,249.39809 c 5.2256,18.49777 15.2961,35.10182 26.2088,50.73118 14.5465,19.15221 30.1835,31.34777 53.2625,38.07424 13.9381,2.87324 28.1488,0.84262 42.145,-0.46212 4.0128,-1.15176 7.5318,-0.8887 11.5316,-0.57794 0,0 0.5015,0.41375 0.5015,0.41375 l 0,0 c -0.7264,5.47853 -4.0454,7.53775 -8.716,10.13061 -15.7187,9.00512 -32.6783,11.15097 -50.4092,6.82201 -3.7478,-1.17094 -7.5857,-2.0849 -11.2434,-3.51269 -20.9997,-8.19729 -37.7177,-23.71155 -50.6375,-41.85258 -11.4646,-17.98856 -23.1078,-37.28924 -24.7366,-59.07001 0,0 12.0941,-0.69592 12.0941,-0.69592 z"
         id="path3381"
         style="fill:#000000;stroke:none" />
      <path
         inkscape:connector-curvature="0"
         d="m 1518.4211,288.53721 c -6.5986,12.87758 -8.686,26.57537 -6.7386,40.78621 2.6723,12.34978 8.8846,22.89724 19.4734,29.85579 8.3926,4.33243 14.1128,0.93934 20.1609,-5.17581 5.1702,-5.06071 10.4308,-13.89052 16.5422,-17.72753 2.151,-1.35046 4.8154,-1.6977 7.0251,-2.94983 0,0 0.4192,0.49674 0.4192,0.49674 l 0,0 c -2.7747,3.66081 -0.1499,-0.57675 -0.9748,6.35104 -1.1056,9.28687 -6.4791,18.17656 -12.1915,25.24049 -13.2258,12.06255 -23.4853,15.12582 -39.8708,6.31398 -13.735,-10.21408 -22.5143,-23.87927 -25.1152,-41.03333 -1.0725,-17.42194 1.9463,-33.25777 11.2899,-48.2532 0,0 9.9803,6.09587 9.9803,6.09587 z"
         id="path3385"
         style="fill:#000000;stroke:none" />
      <path
         inkscape:connector-curvature="0"
         d="m 1695.0372,732.88177 c 1.6136,12.65499 6.226,22.1901 15.1006,31.1899 4.2358,3.25977 8.4403,7.5581 13.8717,8.08762 0,0 0,0.64911 0,0.64911 l 0,0 c -7.6781,0.55406 -11.7069,1.35728 -18.8597,-3.16489 -12.2257,-9.93191 -16.0363,-20.50141 -18.1326,-35.82509 0,0 8.026,-0.93695 8.026,-0.93695 z"
         id="path3389"
         style="fill:#000000;stroke:none" />
      <path
         inkscape:connector-curvature="0"
         d="m 1684.2698,760.46435 c 4.0393,14.74741 12.9591,26.30771 23.5193,36.9633 8.1769,6.65902 4.0197,3.41346 12.4721,9.73639 0,0 -0.2328,0.60606 -0.2328,0.60606 l 0,0 c -11.7488,-1.41012 -6.0864,0.18746 -16.9662,-4.86757 -2.459,-1.84954 -5.127,-3.44956 -7.377,-5.54837 -9.8617,-9.19868 -15.5171,-22.13219 -19.5574,-34.70782 0,0 8.1419,-2.18235 8.1419,-2.18235 z"
         id="path3391"
         style="fill:#000000;stroke:none" />
      <text
         sodipodi:linespacing="80.000001%"
         id="text3511"
         y="-633.7511"
         x="1113.9678"
         style="font-style:normal;font-variant:normal;font-weight:normal;font-stretch:normal;font-size:143.29174805px;line-height:80.00000119%;font-family:'Domestic Manners';-inkscape-font-specification:'Domestic Manners';text-align:center;text-anchor:middle;fill:#000000;fill-opacity:1;stroke:none"
         xml:space="preserve"><tspan
           id="tspan3513"
           style="font-style:normal;font-variant:normal;font-weight:normal;font-stretch:normal;font-size:143.29174805px;line-height:80.00000119%;font-family:'Domestic Manners';-inkscape-font-specification:'Domestic Manners';text-align:center;writing-mode:lr-tb;text-anchor:middle"
           y="-633.7511"
           x="1113.9678"
           sodipodi:role="line">Oups ! Faute</tspan><tspan
           id="tspan3601"
           style="font-style:normal;font-variant:normal;font-weight:normal;font-stretch:normal;font-size:143.29174805px;line-height:80.00000119%;font-family:'Domestic Manners';-inkscape-font-specification:'Domestic Manners';text-align:center;writing-mode:lr-tb;text-anchor:middle"
           y="-519.11768"
           x="1113.9678"
           sodipodi:role="line">de frappe !</tspan></text>
      <text
         transform="matrix(0.78874106,0.61472558,-0.61472558,0.78874106,0,0)"
         sodipodi:linespacing="80.000001%"
         id="text3511-6"
         y="-1405.6765"
         x="1753.8584"
         style="font-style:normal;font-variant:normal;font-weight:normal;font-stretch:normal;font-size:107.46881104px;line-height:80.00000119%;font-family:'Domestic Manners';-inkscape-font-specification:'Domestic Manners';text-align:center;text-anchor:middle;fill:#000000;fill-opacity:1;stroke:none"
         xml:space="preserve"><tspan
           id="tspan3513-0"
           style="font-style:normal;font-variant:normal;font-weight:normal;font-stretch:normal;font-size:107.46881104px;line-height:80.00000119%;font-family:'Domestic Manners';-inkscape-font-specification:'Domestic Manners';text-align:center;writing-mode:lr-tb;text-anchor:middle"
           y="-1405.6765"
           x="1753.8584"
           sodipodi:role="line">SBAF !</tspan></text>
      <text
         sodipodi:linespacing="80.000001%"
         id="text3511-8"
         y="-621.08594"
         x="3396.3406"
         style="font-style:normal;font-variant:normal;font-weight:normal;font-stretch:normal;font-size:143.29174805px;line-height:80.00000119%;font-family:'Domestic Manners';-inkscape-font-specification:'Domestic Manners';text-align:center;text-anchor:middle;fill:#000000;fill-opacity:1;stroke:none"
         xml:space="preserve"><tspan
           id="tspan3513-8"
           style="font-style:normal;font-variant:normal;font-weight:normal;font-stretch:normal;font-size:143.29174805px;line-height:80.00000119%;font-family:'Domestic Manners';-inkscape-font-specification:'Domestic Manners';text-align:center;writing-mode:lr-tb;text-anchor:middle"
           y="-621.08594"
           x="3396.3406"
           sodipodi:role="line">Error: expected },</tspan><tspan
           id="tspan3621"
           style="font-style:normal;font-variant:normal;font-weight:normal;font-stretch:normal;font-size:143.29174805px;line-height:80.00000119%;font-family:'Domestic Manners';-inkscape-font-specification:'Domestic Manners';text-align:center;writing-mode:lr-tb;text-anchor:middle"
           y="-506.45255"
           x="3396.3406"
           sodipodi:role="line">received ].</tspan></text>
      <path
         inkscape:connector-curvature="0"
         d="m 701.62532,-766.65497 c -4.218,28.7406 -12.7199,56.875 -20.2228,85.0386 -10.8117,42.669 -22.1729,89.099 -3.3276,131.5418 3.776,8.5043 9.705,16.1156 14.5575,24.1733 7.3753,7.1231 13.7607,15.1776 22.1259,21.3692 34.0564,25.2072 79.1236,35.4695 121.6373,42.1462 45.8937,7.2077 75.9393,7.8876 122.8316,10.7779 111.18518,3.8075 222.81048,2.4255 333.68868,-6.3635 18.9358,-1.5011 37.8096,-3.5697 56.7144,-5.3545 53.4325,-7.4066 110.9068,-13.1538 157.365,-40.3305 20.9174,-12.236 22.784,-17.0123 37.6729,-33.8393 3.7682,-6.719 8.1537,-13.1896 11.3047,-20.1568 16.4586,-36.3904 17.6292,-79.6718 19.1212,-118.4075 0.1415,-17.3812 -0.1193,-34.8267 -1.9649,-52.1463 -0.7083,-6.6396 -1.7687,-12.9578 -4.1443,-19.2581 0.024,-1.9022 0.3331,-0.8503 -2.3535,-2.5014 0,0 -0.2096,-0.434 -0.2096,-0.434 l 0,0 c 5.934,-5.5345 2.237,-4.1869 11.3519,-3.4191 1.9023,1.5432 4.2022,2.7693 5.7069,4.6294 4.1891,5.1787 6.55,13.3447 7.8362,19.2744 3.8848,17.9116 3.4972,36.2863 3.5235,54.4274 -1.4077,40.9236 -3.1126,87.7692 -21.136,125.9469 -3.7909,8.0299 -9.0593,15.4383 -13.5891,23.1576 -17.6385,19.1664 -19.7787,24.458 -43.9465,38.2831 -48.8576,27.9483 -108.5303,34.4399 -164.5239,41.8916 -19.1117,1.7767 -38.193,3.8362 -57.335,5.33 -111.7962,8.7252 -224.3197,10.3222 -336.41678,6.3422 -59.9269,-3.7608 -120.775,-6.2539 -178.6597,-22.2307 -28.8775,-7.9705 -55.5312,-18.6657 -78.5373,-36.481 -9.3957,-7.2758 -16.4234,-16.6772 -24.635,-25.0157 -5.1975,-9.2993 -11.6145,-18.1314 -15.5925,-27.8978 -18.3426,-45.0328 -6.241,-94.0733 6.1368,-138.8084 8.44,-27.8414 16.9014,-55.6801 24.0885,-83.7974 0,0 10.9314,2.112 10.9314,2.112 z"
         id="path3631"
         style="fill:#000000;stroke:none" />
      <path
         inkscape:connector-curvature="0"
         d="m 2803.6298,-795.01619 c -18.1868,6.2361 -35.4158,15.1506 -50.6952,26.8679 -4.8046,3.6846 -9.2981,7.7583 -13.9472,11.6374 -24.1312,23.291 -44.8034,51.1041 -55.0923,83.3918 -1.6745,5.2548 -2.6141,10.7162 -3.9212,16.0743 -2.5898,18.1907 -0.6743,36.7084 13.68,49.6057 2.0851,1.8734 4.499,3.3447 6.7486,5.0171 12.6324,8.0285 26.4988,12.6618 41.2821,14.3254 6.1483,0.4657 12.2183,-0.03 18.3722,0.2287 0,0 0.1995,0.5498 0.1995,0.5498 l 0,0 c -5.2898,4.5928 -10.7891,7.8663 -17.5625,10.0072 -20.4781,5.3621 -36.8576,2.5186 -54.9035,-8.8861 -3.1794,-2.5477 -6.6189,-4.8011 -9.5382,-7.6432 -18.7282,-18.233 -22.0526,-43.3532 -18.0751,-68.1748 1.593,-6.1924 2.769,-12.5073 4.7789,-18.5773 11.7554,-35.5014 34.5609,-66.195 62.5962,-90.515 5.3304,-3.939 10.4662,-8.1561 15.9914,-11.817 17.5146,-11.6051 37.5398,-20.5635 58.5409,-22.9087 0,0 1.5453,10.8171 1.5453,10.8171 z"
         id="path3639"
         style="fill:#000000;stroke:none" />
      <path
         inkscape:connector-curvature="0"
         d="m 2765.235,-579.72209 c -7.1488,13.0189 -8.3145,25.3375 -6.9899,39.9347 3.5913,18.2254 15.1678,32.6511 31.2547,41.7519 3.6398,2.0591 7.5779,3.5393 11.3668,5.309 27.3008,10.05046 54.6579,2.9527 81.0988,-6.0579 14.4939,-4.7304 28.0903,-12.1321 42.9024,-15.893 2.9516,-0.087 6.1141,-1.3781 9.0959,-0.8235 0.9404,0.1749 1.7333,0.8671 2.6738,1.041 4.0332,0.746 0.1899,-1.6068 3.7723,1.1592 0,0 -0.1689,0.5601 -0.1689,0.5601 l 0,0 c -0.5392,0.1068 -1.0677,0.3146 -1.6173,0.3206 -0.5786,0.01 -1.1818,-0.5164 -1.7116,-0.2848 -1.5294,0.6688 -5.4672,5.7904 -6.7335,7.0533 -11.5451,11.6478 -27.336,17.8624 -42.0962,24.2984 -33.5083,12.07132 -60.7321,18.65683 -95.5318,5.89622 -4.6602,-2.29894 -9.5173,-4.23565 -13.9805,-6.89681 -20.9783,-12.50811 -35.2355,-32.16871 -38.9008,-56.39041 -0.5707,-19.2513 0.9081,-35.831 13.8696,-51.0493 0,0 11.6959,10.0715 11.6959,10.0715 z"
         id="path3641"
         style="fill:#000000;stroke:none" />
      <path
         inkscape:connector-curvature="0"
         d="m 2950.3852,-517.34079 c -3.4842,13.7272 -1.3121,28.3099 4.3891,41.17612 1.6773,3.78535 3.8906,7.30979 5.8359,10.96468 13.656,20.86931 33.843,35.30088 58.2598,40.87661 5.2597,1.20108 10.6674,1.62271 16.0013,2.4341 32.6072,2.2947 57.0589,-4.87562 85.4071,-19.97541 11.1451,-4.10888 21.4438,-16.45455 32.5679,-20.12174 2.9667,1.22163 1.2249,0.13017 3.6427,4.97485 0,0 -0.3994,-0.42748 -0.3994,-0.42748 l 0,0 c 4.8295,2.66779 4.0666,0.75848 4.5775,4.13432 -6.3929,11.8341 -22.3559,18.48409 -32.6595,26.00781 -10.6283,5.61859 -14.962,8.35122 -26.5203,12.55707 -22.1929,8.07556 -45.6895,10.94917 -69.2026,9.06351 -6.1205,-1.01601 -12.3324,-1.58356 -18.3612,-3.04799 -28.6153,-6.95068 -52.0893,-24.21876 -67.6197,-49.11809 -2.2158,-4.43572 -4.7739,-8.71632 -6.6473,-13.30716 -6.7324,-16.4984 -8.1841,-34.7692 -2.044,-51.6102 0,0 12.7727,5.4187 12.7727,5.4187 z"
         id="path3645"
         style="fill:#000000;stroke:none" />
      <path
         inkscape:connector-curvature="0"
         d="m 3168.3662,-458.39959 c 6.3215,16.7422 13.597,33.39007 25.5693,46.97998 3.1593,3.58618 6.8239,6.69352 10.2358,10.04022 21.3287,16.81612 47.5115,22.76201 74.3001,19.46027 5.8081,-0.71586 11.5006,-2.17314 17.2507,-3.25971 30.49,-7.93084 58.5426,-22.48439 85.3986,-38.61049 6.9552,-4.69204 14.3327,-8.4664 22.4246,-10.65399 5.6742,-0.0734 11.2908,-0.50391 16.9496,-1.18567 2.8188,-0.62458 6.1499,-0.62506 8.7741,-1.05201 -2.0624,-1.73323 -1.5758,1.93623 -3.0234,2.22753 -1.0372,0.62762 -1.9489,-0.44599 -2.6143,-1.16502 4.2301,-1.47514 8.2988,-3.54038 12.6905,-4.42538 0.6882,-0.13852 0.9211,1.05988 1.382,1.58952 0.7213,0.82876 1.4444,1.65597 2.1645,2.48564 4.5115,5.19682 8.8444,10.3816 13.6015,15.36994 13.5342,14.6818 30.5907,24.96233 50.3395,28.75304 4.8792,0.93659 9.8673,1.17213 14.8009,1.7582 31.5276,1.27255 61.0074,-9.11677 88.8807,-22.77838 15.0745,-7.78247 28.6975,-17.87899 41.8823,-28.46157 2.444,-2.61686 5.4347,-3.94959 8.5087,-5.5883 3.4598,-1.46087 7.2239,-2.15817 10.8972,-2.90251 2.5562,0.3242 4.3573,-0.42987 1.9609,1.67993 -1.9801,1.53226 1.1264,4.01408 0.4532,5.39863 -0.043,-0.42749 -0.1588,0.76285 -0.097,0.57734 1.3575,-4.10261 1.4471,-8.84432 3.9985,-12.33211 0.8125,-1.11062 8.9666,4.73658 9.8012,5.27435 16.1862,8.32661 34.9209,9.4062 52.7625,10.43419 35.1317,1.43501 69.2505,-6.7842 102.6039,-16.8508 22.3091,-7.77519 45.9174,-15.60167 62.6236,-33.08664 3.5542,-2.3002 3.0091,-7.529 5.7297,-10.2245 1.4611,-6.9086 4.8375,-9.401 11.4592,-6.6721 6.1484,3.6238 3.0267,1.6477 1.4928,2.0296 -0.7857,0.1959 -1.3311,0.9225 -1.9967,1.3838 -0.03,-1.2407 -0.4531,-2.2015 -1.2555,-3.1323 -8.6306,-8.2793 10.6262,-7.0881 12.4178,-6.7256 11.4681,3.1028 23.3733,3.6338 35.1815,4.0333 28.1114,-0.018 55.1254,-7.2906 81.1868,-17.2065 20.8775,-9.0583 41.9124,-20.0774 55.3041,-39.0445 3.9526,-6.9826 2.0751,-14.0648 1.3198,-21.5075 0.1815,-2.9758 1.644,-5.3717 1.4429,-8.3312 0,0 0.4126,-0.4143 0.4126,-0.4143 l 0,0 c 3.2136,0.8768 6.4816,1.3292 9.2277,3.4195 9.6533,11.2789 9.5938,24.7908 2.1541,37.5124 -2.0321,2.6954 -3.8571,5.5602 -6.0965,8.0861 -15.3032,17.2601 -36.7769,27.7672 -57.4498,36.9983 -28.3136,10.6224 -57.6537,18.4784 -88.1502,18.2816 -13.3658,-0.5176 -26.6709,-1.5854 -39.0202,-7.2017 -7.3268,-3.2311 5.2716,-11.1465 1.7445,-8.049 -1.0384,1.9329 -1.5693,3.9152 -1.8987,6.0985 -3.4525,3.5742 -4.3696,3.2917 -8.1415,1.051 -1.307,-0.03 -0.03,1.0041 1.42,0.03 0.7992,-0.5367 1.325,-1.4027 1.8992,-2.1752 0.237,-0.3194 0.1653,-0.8892 0.5165,-1.0754 0.2322,-0.1231 0.4262,0.3086 0.6394,0.4627 4.6325,8.8335 -0.6588,18.33057 -6.384,25.29615 -19.5454,19.50177 -44.7042,29.03229 -70.5549,37.56142 -35.4248,10.5867 -71.6764,19.18899 -108.9565,17.38685 -21.0966,-1.42879 -43.7912,-2.79432 -61.5444,-15.59534 -6.1702,-5.63262 -2.8865,-3.09785 -2.6563,-4.10978 0.9544,-4.19189 1.0362,-8.5387 1.7497,-12.77823 0.06,-0.35524 0.822,1.24801 0.7091,0.81468 2.5417,2.2391 5.8098,4.38544 3.8264,8.416 -2.0979,2.32335 -4.5674,3.9324 -7.349,5.29869 -2.256,0.56958 -5.1951,1.43071 -6.9927,2.16442 3.4349,-1.34007 -2.6575,6.2083 -3.8433,7.17337 -12.8449,13.63121 -28.4025,24.30699 -44.9404,33.0051 -31.1214,15.10427 -64.0301,26.26036 -99.1512,24.37637 -5.8111,-0.76989 -11.6932,-1.12137 -17.4335,-2.30974 -23.0761,-4.77734 -43.2025,-17.12724 -58.7082,-34.69392 -4.6799,-5.89741 -9.5361,-11.60704 -13.3853,-18.09715 -1.4991,-2.5276 -3.6973,-6.63828 -3.3327,-6.98792 3.2443,-3.10949 7.6607,-4.70026 11.4909,-7.05043 0.03,0.93278 -0.4418,1.42426 -0.7103,2.33034 -0.2854,3.45303 -0.1476,5.3498 -3.8124,5.93688 -2.9867,0.43107 -6.0057,0.77013 -8.8651,1.79711 -4.564,1.71515 -9.4806,3.24461 -12.6705,7.16788 -5.2426,6.35803 -10.1084,12.7304 -17.77,16.61695 -28.6007,17.73163 -59.2821,32.54406 -91.9531,41.0252 -6.5967,1.18627 -13.1281,2.81993 -19.7897,3.55883 -32.2824,3.58086 -63.5033,-4.52498 -88.6037,-25.36694 -3.9374,-4.08943 -8.1681,-7.91556 -11.8124,-12.26822 -12.9424,-15.45826 -22.0154,-34.66025 -26.1322,-54.33014 0,0 15.5159,-3.64224 15.5159,-3.64224 z"
         id="path3647"
         style="fill:#000000;stroke:none" />
      <path
         inkscape:connector-curvature="0"
         d="m 756.72442,-465.99977 c -16.8717,16.78 -33.8278,33.4703 -50.9327,50.0138 -23.9854,23.62274 -50.2027,45.24481 -70.7807,72.04473 -1.7866,3.28651 -5.7344,8.31999 -4.9245,12.86311 0.3108,1.74309 3.6619,1.07164 4.3244,1.18198 2.0607,0.34331 4.0665,0.95964 6.0997,1.43943 3.4788,0.49136 6.9577,0.98328 10.4365,1.47495 13.6898,1.19785 27.4155,0.23703 41.1037,-0.33674 4.0957,-0.17195 16.1203,-1.01725 20.8533,0.11519 2.7399,0.65562 5.1452,2.29673 7.7178,3.44503 1.0235,4.6783 3.9891,9.33486 3.0707,14.03495 -1.1148,5.70451 -16.3705,19.25739 -19.5001,22.12897 -17.8895,16.41497 -36.3637,32.21318 -54.3389,48.54037 -40.2961,38.30696 -78.72169,79.64419 -107.3625,127.62059 -5.12879,8.5913 -9.4274,17.651696 -14.14109,26.477576 -9.42094,23.3369 -21.71649,52.0927 -9.48772,77.0311303 4.86637,9.92415 9.37208,11.6344 17.91926,17.91433 4.39296,1.8153997 8.63875,4.0386297 13.17886,5.4461697 11.23085,3.48175 20.71485,4.20108 32.40661,5.10954 16.27907,1.26492 32.59228,1.38659 48.90798,1.59138 17.6233,1.12645 9.0759,0.41912 25.6467,2.06806 0,0 0.1125,0.57376 0.1125,0.57376 l 0,0 c -15.3932,7.91066 -7.2059,4.47345 -24.6581,10.0795 -37.34575,6.83866 -73.31209,9.47302 -107.98701,-9.23831 -12.63497,-10.54162 -17.97523,-12.47141 -24.70122,-28.1996497 -12.98441,-30.3631003 -0.62817,-63.4578303 11.38693,-91.6639103 5.03819,-9.312646 9.65425,-18.866436 15.1146,-27.938006 29.65773,-49.27225 69.20721,-91.83491 111.0258,-130.92412 18.0674,-16.09274 36.5476,-31.65411 54.7415,-47.59484 3.4763,-3.04572 6.8133,-6.24788 10.2839,-9.30004 1.4096,-1.23965 2.4939,-3.82954 4.3534,-3.57239 2.339,0.3236 3.4206,3.25618 5.1309,4.88428 -0.2287,-3.47638 0.2735,-1.66213 -7.2848,-1.76093 -18.6159,-0.24301 -37.1437,3.24752 -55.7848,2.25666 -9.274,-0.99988 -18.7484,-0.84924 -26.9901,-6.24084 -17.26199,-11.29251 -11.4242,-27.74301 -2.4374,-41.75611 21.4821,-27.42335 47.8657,-50.2243 73.4276,-73.7381 17.8371,-16.3697 35.3387,-33.1385 53.6361,-48.9885 0,0 10.4329,12.917 10.4329,12.917 z"
         id="path3663"
         style="fill:#000000;stroke:none" />
      <path
         inkscape:connector-curvature="0"
         d="m 3812.7276,-324.87709 c -18.9978,-11.66478 -41.2657,-3.8042 -60.4835,2.89844 -28.5156,13.52776 -62.7926,34.66867 -75.8882,65.01219 -1.7607,4.07964 -2.1412,8.62484 -3.2117,12.93727 0.6249,3.2821 0.4991,6.80153 1.8747,9.84635 2.6779,5.92792 9.8507,10.24811 15.3693,12.55362 18.4183,7.69464 35.4942,6.19748 54.8976,5.15844 7.6761,-1.45745 15.4644,-2.41417 23.0283,-4.37238 27.4328,-7.10213 56.0388,-20.59125 74.2707,-43.05563 3.4942,-4.30545 5.9047,-9.38723 8.8572,-14.08082 1.3577,-4.56372 3.4206,-8.97465 4.0733,-13.6911 2.4252,-17.52423 -8.904,-31.32543 -23.2462,-39.57097 -3.9966,-2.29769 -8.3819,-3.84129 -12.5728,-5.76195 -12.0672,-3.4187 -24.072,-7.87829 -36.6028,-9.41379 -3.5858,-0.43942 -7.2173,-0.33912 -10.8259,-0.50868 0,0 -0.1797,-0.55645 -0.1797,-0.55645 l 0,0 c 3.4498,-2.44706 6.5351,-5.51386 10.3496,-7.34125 14.9374,-7.15606 30.5549,-5.06352 45.6456,0.0992 12.935,6.2742 19.9625,8.30853 30.2731,18.88101 13.2089,13.54442 19.3493,31.45594 15.8797,50.24245 -1.1737,6.35529 -4.2063,12.22201 -6.3094,18.33304 -3.8632,5.79544 -7.1069,12.05561 -11.5897,17.3863 -21.135,25.13267 -53.0246,40.24267 -84.1459,48.59472 -8.4153,2.2584 -17.0685,3.51219 -25.6027,5.2683 -8.3651,0.60636 -16.7086,1.87874 -25.0955,1.81902 -26.6711,-0.18985 -60.2874,-8.13114 -68.8834,-37.60195 -1.7179,-5.88953 -0.749,-12.24709 -1.1234,-18.3706 1.8998,-6.16066 2.9815,-12.63613 5.7,-18.48195 12.8406,-27.61292 41.2729,-50.11767 67.4775,-64.17477 6.82,-3.65841 14.0973,-6.39122 21.1458,-9.58688 6.6495,-1.90757 13.1646,-4.36765 19.9483,-5.72277 20.1957,-4.03437 41.9015,-1.69699 56.7121,13.66705 0,0 -9.7421,9.59452 -9.7421,9.59452 z"
         id="path3669"
         style="fill:#000000;stroke:none" />
      <path
         inkscape:connector-curvature="0"
         d="m 3692.9645,-40.101431 c -16.5518,-4.75591 -31.2155,7.3384 -43.2053,17.03531 -13.2384,13.3106102 -31.8677,36.278133 -26.0495,56.851543 0.6942,2.45483 2.4962,4.44981 3.7445,6.67464 1.963,1.31632 3.7112,3.03075 5.8889,3.94889 14.6566,6.17891 33.6473,0.38748 47.1883,-5.75328 4.7305,-2.14527 9.1317,-4.95282 13.6976,-7.42926 14.8012,-10.59446 35.4753,-27.6095798 33.3069,-48.393633 -0.2477,-2.37523 -1.4236,-4.55918 -2.1354,-6.83872 -9.323,-13.55617 -25.9454,-16.02592 -41.1185,-18.3106 -9.6848,-1.47106 -5.1842,-2.15844 -13.5712,1.5392 0,0 -0.3285,-0.4842 -0.3285,-0.4842 l 0,0 c 7.6674,-7.28239 3.5389,-3.37722 12.3933,-11.7073 3.2839,-1.18025 6.4244,-2.88512 9.8519,-3.54074 15.7472,-3.01235 33.8862,4.78326 43.9908,16.95505 2.8079,3.38223 4.5062,7.54897 6.7593,11.32351 0.8389,4.31911 2.3943,8.55918 2.5168,12.95735 0.7696,27.653033 -22.4076,48.429383 -43.0777,62.636943 -5.3825,2.81789 -10.5743,6.03502 -16.1477,8.45362 -19.37,8.40549 -45.8369,14.59623 -65.2107,2.41619 -4.1557,-2.61262 -7.0651,-6.81669 -10.5978,-10.225 -1.7811,-4.43446 -4.395,-8.61954 -5.3432,-13.30333 -4.332,-21.40026 7.9768,-43.9820928 21.1908,-59.717073 3.6832,-4.38575 8.018,-8.18017 12.0269,-12.27031 4.3093,-3.22771 8.3584,-6.83586 12.928,-9.68313 14.9826,-9.33545 33.3854,-13.97106 49.0428,-3.88791 0,0 -7.7413,10.752 -7.7413,10.752 z"
         id="path3673"
         style="fill:#000000;stroke:none" />
      <path
         inkscape:connector-curvature="0"
         d="m 3473.0202,192.76402 c -8.9314,5.98763 -14.0714,14.82897 -16.2674,25.16478 0.017,14.91559 12.1382,13.52478 23.5813,12.36369 12.6263,-3.3323 28.7089,-9.68515 33.1282,-23.53758 0.5803,-1.81968 0.4179,-3.79723 0.627,-5.69584 -0.5858,-1.69228 -0.8726,-3.52015 -1.7579,-5.07695 -6.8141,-11.98276 -22.3354,-15.81749 -34.6624,-18.27196 -1.0394,-0.086 -12.8452,-1.02859 -14.6279,-1.28712 -1.8065,-0.2621 -3.5393,-1.03397 -5.3633,-1.10543 -1.6105,-0.0633 -3.1888,0.47167 -4.7833,0.70786 0,0 -0.4149,-0.41196 -0.4149,-0.41196 l 0,0 c 0.8455,-2.22043 1.1751,-4.71394 2.5363,-6.66134 6.317,-9.03711 16.2627,-9.21133 26.1801,-8.17217 19.1544,4.1289 40.4369,11.01215 46.7753,32.23723 1.0499,3.51585 0.8516,7.28902 1.2774,10.93352 -0.8119,3.45381 -1.1018,7.07378 -2.4357,10.36143 -7.4243,18.29835 -27.3947,27.19033 -45.2789,31.2056 -3.8256,0.24061 -7.6491,0.92585 -11.4769,0.7216 -13.9927,-0.74686 -26.3144,-8.41022 -28.3238,-23.10711 -0.3964,-2.89898 0.1338,-5.85037 0.2012,-8.77561 0.7382,-2.84004 1.1959,-5.76815 2.2145,-8.52013 4.173,-11.27437 12.8723,-20.31649 23.9643,-24.79477 0,0 4.9071,11.72245 4.9071,11.72245 z"
         id="path3677"
         style="fill:#000000;stroke:none" />
      <path
         inkscape:connector-curvature="0"
         d="m 3279.785,272.35945 c -10.6535,8.36866 -19.6204,18.16862 -25.7958,30.2428 -1.2147,-0.21851 -2.3101,8.27761 0.3331,7.0013 0.3834,-0.18509 0.4556,-0.77431 0.8363,-0.96602 2.016,-1.01618 4.3122,-1.34331 6.4374,-2.1052 8.2595,-4.06221 16.7899,-10.99012 17.0762,-20.90251 -1.063,-2.56701 -3.4227,-3.75221 -4.7978,-6.26149 -0.5438,-1.41381 -1.9485,-3.34305 -1.3874,0.0657 0,0 -0.5636,0.15703 -0.5636,0.15703 l 0,0 c -1.4388,-3.93193 -2.6197,-6.76081 1.7555,-9.30662 12.8591,-3.49095 18.7561,5.41756 19.7311,17.33239 -0.3875,2.15761 -0.4992,4.38353 -1.1625,6.47284 -3.9351,12.38949 -15.5583,20.70524 -26.7889,25.85156 -5.7181,1.43931 -10.0829,3.42509 -16.1029,1.37883 -11.6712,-3.96721 -11.4351,-15.70854 -7.5589,-25.12693 7.4852,-13.93912 17.7114,-26.13993 31.9657,-33.56674 0,0 6.0223,9.73297 6.0223,9.73297 z"
         id="path3681"
         style="fill:#000000;stroke:none" />
    </g>
    <g
       transform="translate(44.410406,261.23817)"
       id="g4265">
      <path
         inkscape:connector-curvature="0"
         d="m 24.74133,989.83272 0.555255,0 q 18.001952,0.32147 21.830289,10.90058 l 0,1.1105 q 0,9.4977 -13.092329,16.3654 l -6.546164,3.2731 q 0.526031,5.4648 0.526031,8.1827 l 0,1.6365 q 0,15.3134 -4.909623,18.0312 0,0.526 -1.081286,0.526 -3.652993,0 -5.990909,-4.3544 l 0,-2.1918 q 0.116896,-6.5461 0.526031,-7.1014 l 0.555255,-2.7178 0,-5.9909 q 0,-0.5553 0,-1.6366 l 0,-1.1105 q 0,-3.8283 -0.555255,-12.011 l 0,-1.0813 0,-2.747 -0.526031,0 -1.11051,0.5552 q -5.5817737,0 -6.546164,-7.6274 3.33153,-12.01108 16.36541,-12.01108 z m 2.191796,10.37448 0,8.7088 q 0.175344,1.1105 1.081286,1.1105 7.77357,-5.874 8.211929,-7.6567 l 0,-1.0813 q 0,-1.51964 -5.464878,-2.19179 l -2.747051,0 q -1.081286,0.17535 -1.081286,1.11049 z"
         id="path5772"
         style="font-style:normal;font-variant:normal;font-weight:normal;font-stretch:normal;font-size:59.85064316px;line-height:100%;font-family:GorriSans;-inkscape-font-specification:GorriSans;letter-spacing:0px;word-spacing:0px;fill:#000000;fill-opacity:1;stroke:none"
         transform="matrix(2.0777293,0,0,2.0777293,3317.5917,-1412.036)" />
      <path
         inkscape:connector-curvature="0"
         d="m 60.160755,959.87818 q 5.026519,0 7.62745,5.46487 l -0.526031,3.82834 0,13.09233 q 0.14612,1.08129 1.081286,1.08129 4.237473,0 7.62745,-0.52604 8.211929,0 8.211929,4.90963 0,4.17902 -15.284124,5.99091 0,0.55525 -0.555255,0.55525 0.555255,9.03024 0.555255,13.64754 l 0,2.1918 q 0,12.0111 -6.575388,12.0111 l -1.636541,0 q -3.273082,-2.1918 -3.273082,-4.3836 0,-7.5106 1.11051,-13.0923 -0.555255,-0.9644 -0.555255,-2.1918 l 0,-5.46491 q -0.935166,0 -7.101419,2.74705 -6.546164,-1.37353 -6.546164,-6.02013 0,-4.85118 12.566297,-7.62745 0,-1.63654 0.526031,-1.63654 -1.081286,-2.60094 -1.636541,-20.74901 0,-3.27308 4.383592,-3.82833 z"
         id="path5774"
         style="font-style:normal;font-variant:normal;font-weight:normal;font-stretch:normal;font-size:59.85064316px;line-height:100%;font-family:GorriSans;-inkscape-font-specification:GorriSans;letter-spacing:0px;word-spacing:0px;fill:#000000;fill-opacity:1;stroke:none"
         transform="matrix(2.0777293,0,0,2.0777293,3317.5917,-1412.036)" />
      <path
         inkscape:connector-curvature="0"
         d="m 93.066921,974.08101 q 6.341596,0 8.182709,5.46488 l 0,0.52603 q 0,4.79273 -7.101423,5.46488 l -0.555255,0 q -4.354368,-1.98723 -4.354368,-7.10142 0,-2.45481 3.828337,-4.35437 z m -4.383592,14.20284 q 7.656674,2.16257 7.656674,7.0722 -3.273082,10.22835 -3.273082,12.56625 0,2.338 4.909623,7.1015 l 0,3.273 q -2.571707,3.2731 -6.020133,3.2731 -9.819246,-4.0037 -9.819246,-13.6476 l 0.555255,0 -0.555255,-1.0812 q 2.191796,-18.03122 5.464878,-18.03122 l 1.081286,-0.52603 z"
         id="path5776"
         style="font-style:normal;font-variant:normal;font-weight:normal;font-stretch:normal;font-size:59.85064316px;line-height:100%;font-family:GorriSans;-inkscape-font-specification:GorriSans;letter-spacing:0px;word-spacing:0px;fill:#000000;fill-opacity:1;stroke:none"
         transform="matrix(2.0777293,0,0,2.0777293,3317.5917,-1412.036)" />
      <path
         inkscape:connector-curvature="0"
         d="m 114.42963,963.23893 q 5.40643,0.87672 3.82833,10.57907 -2.0749,12.59552 -2.8055,47.6643 0.55526,0.058 0.43836,0.6137 -2.36714,5.6986 -4.17902,5.4064 l -2.1918,-0.3507 q -7.51055,-1.2274 -4.44204,-20.0768 l 2.9224,-41.5565 0.0877,-0.55526 q 0.29224,-1.72421 6.3416,-1.72421 z"
         id="path5778"
         style="font-style:normal;font-variant:normal;font-weight:normal;font-stretch:normal;font-size:59.85064316px;line-height:100%;font-family:GorriSans;-inkscape-font-specification:GorriSans;letter-spacing:0px;word-spacing:0px;fill:#000000;fill-opacity:1;stroke:none"
         transform="matrix(2.0777293,0,0,2.0777293,3317.5917,-1412.036)" />
      <path
         style="font-style:normal;font-variant:normal;font-weight:normal;font-stretch:normal;font-size:59.85064316px;line-height:100%;font-family:GorriSans;-inkscape-font-specification:GorriSans;letter-spacing:0px;word-spacing:0px;fill:#ff0000;fill-opacity:1;stroke:none"
         inkscape:connector-curvature="0"
         d="m 136.63983,989.36514 2.19179,0 q 14.20284,2.95162 14.20284,13.09236 0.52603,0 0.52603,2.747 0,11.1343 -16.92066,16.9207 -0.93517,0.526 -2.16258,0.526 -9.6439,0 -12.56629,-10.3745 l 0,-4.9096 q 4.85117,-18.00196 14.72887,-18.00196 z m -2.83473,16.94986 0.55526,3.8284 q -0.55526,1.052 -0.55526,1.6365 3.76989,0 9.38089,-7.1306 l 0,-1.0813 q -0.81827,-4.93887 -5.02652,-4.35439 -3.62377,0 -4.35437,7.10139 z"
         id="path5780"
         transform="matrix(2.0777293,0,0,2.0777293,3317.5917,-1412.036)" />
      <path
         style="font-style:normal;font-variant:normal;font-weight:normal;font-stretch:normal;font-size:59.85064316px;line-height:100%;font-family:GorriSans;-inkscape-font-specification:GorriSans;letter-spacing:0px;word-spacing:0px;fill:#ff0000;fill-opacity:1;stroke:none"
         inkscape:connector-curvature="0"
         d="m 162.00621,988.16696 q 7.77357,0.58448 7.77357,7.15986 -3.59455,8.44568 -3.59455,11.92338 8.94253,-7.33522 8.94253,-13.70604 1.958,-1.19818 3.56532,-1.19818 l 1.81188,0 q 3.94524,3.36076 4.76351,6.54617 -1.08129,5.96165 -1.78266,5.96165 0,0.6137 0.58448,0.6137 l -0.58448,2.9809 0,4.7343 2.36714,0 q 5.96168,1.2274 5.96168,2.3963 -0.58448,7.1599 -8.32882,7.1599 l -1.78266,0 q -3.76989,0 -8.35805,-7.7736 -6.72151,6.137 -10.72519,7.1599 -7.15987,0 -7.15987,-8.3288 l 0,-1.7827 q 3.59455,-23.84674 5.99091,-23.84674 l 0.55526,0 z"
         id="path5782"
         transform="matrix(2.0777293,0,0,2.0777293,3317.5917,-1412.036)" />
      <path
         inkscape:connector-curvature="0"
         d="m 197.7471,962.06997 q 7.65667,0 7.65667,12.01104 0.52604,8.12426 0.52604,13.64759 l -0.52604,1.08128 q 0.52604,0 0.52604,6.02014 7.42288,-6.89685 13.12155,-11.48501 0,-0.93517 2.71782,-1.08129 l 0.55526,0 q 4.90962,0 4.90962,4.35437 l 0,1.66576 q 0,0.93517 -10.92975,10.90053 l 0,0.55526 q 10.3745,15.25486 10.3745,16.92066 l 0.55525,2.1918 -2.19179,1.6365 -2.1918,0 q -4.0329,-2.1918 -13.64758,-13.6475 0,1.7826 -4.35437,4.3543 0.55525,3.0101 0.55525,4.3544 -0.73059,7.1014 -3.82833,7.1014 -7.10142,-0.7306 -7.10142,-5.4356 0.55525,-10.2576 1.08128,-12.5663 0,-0.5553 -0.52603,-0.5553 l 0.52603,-2.7178 0,-6.54618 q 0,-2.27947 0.55526,-6.02014 l -0.55526,-1.08128 0.55526,-1.11051 q 0,-0.52603 -0.55526,-0.52603 l 0.55526,-2.1918 q 0,-4.52971 -1.63654,-18.00195 0.32146,-3.82834 3.27308,-3.82834 z"
         id="path5784"
         style="font-style:normal;font-variant:normal;font-weight:normal;font-stretch:normal;font-size:59.85064316px;line-height:100%;font-family:GorriSans;-inkscape-font-specification:GorriSans;letter-spacing:0px;word-spacing:0px;fill:#000000;fill-opacity:1;stroke:none"
         transform="matrix(2.0777293,0,0,2.0777293,3317.5917,-1412.036)" />
      <path
         inkscape:connector-curvature="0"
         d="m 235.12453,1008.4776 q 3.65299,0 5.99091,5.4357 l 0,0.5552 q -1.22741,2.0457 -4.35437,3.8283 l -3.82834,0 q -1.63654,-0.3506 -1.63654,-4.3835 l 0,-3.2731 q 0.87672,-2.1626 3.82834,-2.1626 z"
         id="path5786"
         style="font-style:normal;font-variant:normal;font-weight:normal;font-stretch:normal;font-size:59.85064316px;line-height:100%;font-family:GorriSans;-inkscape-font-specification:GorriSans;letter-spacing:0px;word-spacing:0px;fill:#000000;fill-opacity:1;stroke:none"
         transform="matrix(2.0777293,0,0,2.0777293,3317.5917,-1412.036)" />
      <path
         inkscape:connector-curvature="0"
         d="m 249.56116,983.34501 q 7.65667,0 7.65667,13.64758 l 0.55526,0 q 4.06213,-10.90053 9.81924,-10.90053 5.20187,0 10.90054,10.3745 3.09773,6.19544 4.93884,17.44674 l 0,3.3023 q -1.66576,2.7178 -3.82833,2.7178 -3.74067,0 -8.73796,-18.0312 -0.99362,-1.4027 -1.63654,-2.16256 l -0.55526,0 q -8.38727,12.62476 -10.3745,22.91156 0,6.5462 -6.54617,6.5462 -2.86394,0 -5.46487,-7.0722 l 0,-1.6366 q 0,-1.2274 0,-2.747 0.55525,-5.4357 0.55525,-8.1827 l 0,-6.5462 q 0,-5.93244 -1.63654,-13.09231 l 0,-3.82833 q 1.08129,-2.74705 4.35437,-2.74705 z"
         id="path5788"
         style="font-style:normal;font-variant:normal;font-weight:normal;font-stretch:normal;font-size:59.85064316px;line-height:100%;font-family:GorriSans;-inkscape-font-specification:GorriSans;letter-spacing:0px;word-spacing:0px;fill:#000000;fill-opacity:1;stroke:none"
         transform="matrix(2.0777293,0,0,2.0777293,3317.5917,-1412.036)" />
      <path
         inkscape:connector-curvature="0"
         d="m 302.80718,988.92678 q 12.44941,0 14.26129,9.23477 l 0,0.43836 q 0,4.55889 -7.83202,9.70239 -7.83202,2.2794 -10.57907,2.2794 l -1.87033,0 0,0.4676 q 0,2.5133 2.77628,4.1498 l 0.90594,0 q 3.76989,0 16.13162,-2.747 3.71144,1.1981 3.71144,2.2794 l 0,1.3736 q 0,3.5068 -15.69326,6.926 l -2.77628,0.4676 q -10.66674,0 -14.26128,-11.5435 -0.43836,-3.4776 -0.90594,-4.5881 2.30869,-18.44032 16.13161,-18.44032 z m -3.27308,10.57907 -0.43836,0.46758 0,0.46757 q 0.14612,0.9352 0.93517,0.9352 3.71144,-0.3507 6.89685,-3.68224 l -0.90594,-0.46758 q -0.93517,-0.17534 -1.84111,0 -2.04568,0 -4.64661,2.27947 z"
         id="path5790"
         style="font-style:normal;font-variant:normal;font-weight:normal;font-stretch:normal;font-size:59.85064316px;line-height:100%;font-family:GorriSans;-inkscape-font-specification:GorriSans;letter-spacing:0px;word-spacing:0px;fill:#000000;fill-opacity:1;stroke:none"
         transform="matrix(2.0777293,0,0,2.0777293,3317.5917,-1412.036)" />
      <path
         inkscape:connector-curvature="0"
         d="m 332.87863,959.87818 q 5.02652,0 7.62745,5.46487 l -0.52603,3.82834 0,13.09233 q 0.14612,1.08129 1.08129,1.08129 4.23747,0 7.62745,-0.52604 8.21193,0 8.21193,4.90963 0,4.17902 -15.28413,5.99091 0,0.55525 -0.55525,0.55525 0.55525,9.03024 0.55525,13.64754 l 0,2.1918 q 0,12.0111 -6.57539,12.0111 l -1.63654,0 q -3.27308,-2.1918 -3.27308,-4.3836 0,-7.5106 1.11051,-13.0923 -0.55525,-0.9644 -0.55525,-2.1918 l 0,-5.46491 q -0.93517,0 -7.10142,2.74705 -6.54617,-1.37353 -6.54617,-6.02013 0,-4.85118 12.5663,-7.62745 0,-1.63654 0.52603,-1.63654 -1.08129,-2.60094 -1.63654,-20.74901 0,-3.27308 4.38359,-3.82833 z"
         id="path5792"
         style="font-style:normal;font-variant:normal;font-weight:normal;font-stretch:normal;font-size:59.85064316px;line-height:100%;font-family:GorriSans;-inkscape-font-specification:GorriSans;letter-spacing:0px;word-spacing:0px;fill:#000000;fill-opacity:1;stroke:none"
         transform="matrix(2.0777293,0,0,2.0777293,3317.5917,-1412.036)" />
      <path
         d="m 3636.5031,718.41072 c 3.5521,4.06487 0.1662,7.47069 -2.9728,16.6343 l -0.8294,1.00562 c -3.2309,1.10411 -7.2542,0.99274 -12.07,-0.33472 l -5.5841,-6.38943 c -1.242,-2.24436 0.1455,-5.80144 4.1611,-10.67018 l 9.426,-13.62471 c 3.0061,-1.63538 4.1867,3.33808 7.0568,6.62235"
         style="font-style:normal;font-variant:normal;font-weight:normal;font-stretch:normal;font-size:59.85064316px;line-height:100%;font-family:GorriSans;-inkscape-font-specification:GorriSans;letter-spacing:0px;word-spacing:0px;fill:#ff0000;fill-opacity:1;stroke:none"
         id="path2992"
         inkscape:connector-curvature="0"
         inkscape:transform-center-x="17.637774"
         inkscape:transform-center-y="-15.013664"
         sodipodi:nodetypes="cccccccc" />
      <path
         inkscape:connector-curvature="0"
         id="path3767"
         style="font-style:normal;font-variant:normal;font-weight:normal;font-stretch:normal;font-size:59.85064316px;line-height:100%;font-family:GorriSans;-inkscape-font-specification:GorriSans;letter-spacing:0px;word-spacing:0px;fill:#ff0000;fill-opacity:1;stroke:none"
         d="m 3565.0681,732.01777 c 4.8168,-5.69007 10.7965,-7.91781 17.9393,-6.68301 l 2.5413,0.43964 c 2.9761,0.51466 7.3921,4.23857 13.248,11.17216 14.1892,8.3745 27.5794,13.65027 40.1708,15.82731 12.8204,2.21632 20.4943,0.28174 23.0217,-5.80434 7.6901,-14.02779 13.2295,-20.74862 16.6177,-20.16291 l 2.6098,0.45128 c 6.0628,7.38113 7.5727,14.73484 4.5301,22.06175 -7.1036,17.10553 -24.7576,23.22028 -52.9626,18.34385 -24.8168,-4.29051 -47.7323,-15.34507 -68.7469,-33.16409 l 1.0308,-2.48164" />
    </g>
  </g>
</svg>
